{
  "1253": {
    "name": "\u0422\u043e\u043b\u043e\u043a\u043e\u043d\u0441\u043a\u0438\u0439 \u0412\u0438\u043a\u0442\u043e\u0440 \u0410\u043b\u0435\u043a\u0441\u0430\u043d\u0434\u0440\u043e\u0432\u0438\u0447",
    "rating": 0.9938591869386584
  },
  "1409": {
    "name": "\u041a\u0443\u0437\u043d\u0435\u0446\u043e\u0432 \u041b\u0435\u0432 \u0412\u043b\u0430\u0434\u0438\u043c\u0438\u0440\u043e\u0432\u0438\u0447",
    "rating": 3.895867015689849
  },
  "13275": {
    "name": "\u0423\u0441\u0441 \u0410\u043b\u0435\u043a\u0441\u0430\u043d\u0434\u0440 \u0412\u0438\u043a\u0442\u043e\u0440\u043e\u0432\u0438\u0447",
    "rating": 3.3437854646156246
  }
}