{
  "16463": {
    "name": "\u0421\u0430\u0431\u0438\u0440\u0437\u044f\u043d\u043e\u0432\u0430 \u041b\u044e\u0431\u043e\u0432\u044c \u041c\u0438\u0445\u0430\u0439\u043b\u043e\u0432\u043d\u0430",
    "rating": 1.4810332947507483
  },
  "16464": {
    "name": "\u041e\u0432\u0447\u0438\u043d\u043d\u0438\u043a\u043e\u0432\u0430 \u0418\u0440\u0438\u043d\u0430 \u0410\u043b\u0435\u043a\u0441\u0430\u043d\u0434\u0440\u043e\u0432\u043d\u0430",
    "rating": 4.795991002449845
  },
  "16465": {
    "name": "\u0422\u0440\u0430\u0445\u0430\u043d\u043e\u0432 \u0410\u043d\u0434\u0440\u0435\u0439 \u0424\u0435\u0434\u043e\u0440\u043e\u0432\u0438\u0447",
    "rating": 1.046022650477005
  },
  "26182": {
    "name": "\u041a\u0443\u0442\u0443\u0437\u043e\u0432 \u0410\u043b\u0435\u043a\u0441\u0435\u0439 \u042e\u0440\u044c\u0435\u0432\u0438\u0447",
    "rating": 0.09209496387556004
  },
  "26334": {
    "name": "\u041d\u043e\u0432\u0438\u043a\u043e\u0432\u0430 \u0418\u0440\u0438\u043d\u0430 \u0412\u0430\u0441\u0438\u043b\u044c\u0435\u0432\u043d\u0430",
    "rating": 5.0
  },
  "26335": {
    "name": "\u0427\u0435\u0431\u0430\u043a\u043e\u0432\u0430 \u0422\u0430\u0442\u044c\u044f\u043d\u0430 \u0412\u0430\u043b\u0435\u0440\u044c\u0435\u0432\u043d\u0430",
    "rating": 0.0
  },
  "26336": {
    "name": "\u041f\u043e\u0434\u044a\u044f\u043f\u043e\u043b\u044c\u0441\u043a\u0438\u0439 \u0412\u0430\u0434\u0438\u043c \u041d\u0438\u043a\u043e\u043b\u0430\u0435\u0432\u0438\u0447",
    "rating": 1.0
  },
  "26337": {
    "name": "\u0418\u043b\u044c\u0447\u0435\u043d\u043a\u043e \u041a\u0430\u0440\u0438\u043d\u0430 \u041b\u0435\u0432\u043e\u043d\u043e\u0432\u043d\u0430",
    "rating": 1.0084501066211198
  },
  "26338": {
    "name": "\u0427\u0443\u0440\u0441\u0438\u043d\u0430 \u0421\u0432\u0435\u0442\u043b\u0430\u043d\u0430 \u0418\u0432\u0430\u043d\u043e\u0432\u043d\u0430",
    "rating": 0.0016960657138438595
  },
  "26339": {
    "name": "\u0413\u043e\u043d\u0447\u0430\u0440\u043e\u0432\u0430 \u0418\u0440\u0438\u043d\u0430 \u0418\u0433\u043e\u0440\u0435\u0432\u043d\u0430",
    "rating": 1.0067475071177323
  },
  "26340": {
    "name": "\u0411\u0438\u0440\u044e\u043a\u043e\u0432\u0430 \u0412\u0435\u0440\u0430 \u0412\u0430\u043b\u0435\u0440\u044c\u0435\u0432\u043d\u0430",
    "rating": 0.0
  },
  "26341": {
    "name": "\u041a\u0438\u0441\u0438\u043b\u0435\u0432 \u0412\u0438\u043a\u0442\u043e\u0440 \u0412\u0430\u0441\u0438\u043b\u044c\u0435\u0432\u0438\u0447",
    "rating": 3.84645125851529
  },
  "26342": {
    "name": "\u041f\u0435\u0442\u0443\u0445\u043e\u0432\u0430 \u041b\u044e\u0431\u043e\u0432\u044c \u0412\u0430\u043b\u0435\u0440\u044c\u0435\u0432\u043d\u0430",
    "rating": 0.0
  },
  "26343": {
    "name": "\u0421\u043a\u0440\u044b\u043f\u043d\u0438\u043a\u043e\u0432\u0430 \u0414\u0430\u0440\u044c\u044f \u0418\u0433\u043e\u0440\u0435\u0432\u043d\u0430",
    "rating": 0.0
  },
  "26344": {
    "name": "\u0420\u044f\u0431\u043e\u043a\u043e\u043d\u0435\u0432\u0430 \u0415\u043b\u0435\u043d\u0430 \u0410\u043b\u044c\u0431\u0435\u0440\u0442\u043e\u0432\u043d\u0430",
    "rating": 0.0013605762045548141
  },
  "26345": {
    "name": "\u041a\u043e\u0440\u043e\u043b\u0451\u0432\u0430 \u041d\u0430\u0434\u0435\u0436\u0434\u0430 \u0418\u0433\u043e\u0440\u0435\u0432\u043d\u0430",
    "rating": 2.0
  }
}