{
  "16481": {
    "name": "\u0422\u0440\u043e\u0444\u0438\u043c\u043e\u0432 \u0411\u043e\u0440\u0438\u0441 \u0410\u043d\u0430\u0442\u043e\u043b\u044c\u0435\u0432\u0438\u0447",
    "rating": 4.5562085989243135
  },
  "16482": {
    "name": "\u0413\u0430\u0440\u0430\u0435\u0432 \u0414\u0430\u043c\u0438\u0440 \u042f\u0434\u044b\u043a\u0435\u0440\u043e\u0432\u0438\u0447",
    "rating": 3.0046874467638633
  },
  "16483": {
    "name": "\u041c\u0438\u0442\u0440\u043e\u0444\u0430\u043d\u043e\u0432\u0430 \u0418\u0440\u0438\u043d\u0430 \u042d\u0434\u0443\u0430\u0440\u0434\u043e\u0432\u043d\u0430",
    "rating": 3.9004219196041294
  },
  "16484": {
    "name": "\u0415\u0440\u0435\u043c\u0438\u043d \u0410\u043b\u0435\u043a\u0441\u0435\u0439 \u0412\u043b\u0430\u0434\u0438\u043c\u0438\u0440\u043e\u0432\u0438\u0447",
    "rating": 0.010618946522246485
  },
  "26444": {
    "name": "\u0428\u0438\u044f\u043d\u043e\u0432\u0430 \u0410\u043d\u0436\u0435\u043b\u0430 \u0421\u043e\u0441\u043b\u0430\u043d\u043e\u0432\u043d\u0430",
    "rating": 0.04163570603960734
  },
  "26447": {
    "name": "\u041c\u0430\u0440\u043a\u0438\u043d\u0430 \u0415\u043b\u0435\u043d\u0430 \u0412\u044f\u0447\u0435\u0441\u043b\u0430\u0432\u043e\u0432\u043d\u0430",
    "rating": 0.0
  },
  "26449": {
    "name": "\u0421\u0438\u0434\u043d\u0435\u0432\u0430 \u0415\u043b\u0435\u043d\u0430 \u041d\u0438\u043a\u043e\u043b\u0430\u0435\u0432\u043d\u0430",
    "rating": 0.0028494816298983744
  },
  "26450": {
    "name": "\u0412\u0430\u043b\u0435\u0436\u043d\u0430\u044f \u0421\u0432\u0435\u0442\u043b\u0430\u043d\u0430 \u0412\u0438\u0442\u0430\u043b\u044c\u0435\u0432\u043d\u0430",
    "rating": 1.993680758123666
  },
  "26451": {
    "name": "\u041c\u043e\u0441\u043a\u0430\u043b\u0435\u043d\u043a\u043e \u0410\u043b\u0435\u0441\u044f \u0412\u0438\u043a\u0442\u043e\u0440\u043e\u0432\u043d\u0430",
    "rating": 1.2396476838196828
  },
  "26452": {
    "name": "\u041a\u043b\u044e\u0435\u0432\u0430 \u0415\u043b\u0435\u043d\u0430 \u0418\u0432\u0430\u043d\u043e\u0432\u043d\u0430",
    "rating": 1.7092438596754191
  },
  "26453": {
    "name": "\u041c\u043e\u0440\u043e\u0437\u043e\u0432\u0430 \u041e\u043b\u044c\u0433\u0430 \u0410\u043b\u0435\u043a\u0441\u0430\u043d\u0434\u0440\u043e\u0432\u043d\u0430",
    "rating": 1.00554830488427
  },
  "26454": {
    "name": "\u0417\u0435\u043d\u043a\u0438\u043d \u0410\u043b\u0435\u043a\u0441\u0430\u043d\u0434\u0440 \u0421\u0442\u0430\u043d\u0438\u0441\u043b\u0430\u0432\u043e\u0432\u0438\u0447",
    "rating": 1.2931388461571978
  },
  "26455": {
    "name": "\u0427\u0435\u0447\u0438\u043d\u0430 \u0415\u0432\u0433\u0435\u043d\u0438\u044f \u0412\u0430\u043b\u0435\u0440\u044c\u0435\u0432\u043d\u0430",
    "rating": 0.002139092582731095
  },
  "26456": {
    "name": "\u041c\u0433\u0430\u043b\u043e\u0431\u043b\u0438\u0448\u0432\u0438\u043b\u0438 \u041b\u0443\u0438\u0437\u0430 \u0420\u0435\u0432\u0430\u0437\u043e\u0432\u043d\u0430",
    "rating": 0.023420190488114955
  },
  "26457": {
    "name": "\u041a\u0430\u043f\u0430\u0435\u0432\u0430 \u0422\u0430\u0442\u044c\u044f\u043d\u0430 \u0412\u044f\u0447\u0435\u0441\u043b\u0430\u0432\u043e\u0432\u043d\u0430",
    "rating": 1.4010132104619282
  }
}