{
  "16730": {
    "name": "\u0422\u0430\u0440\u0430\u0441\u043e\u0432 \u0421\u0435\u0440\u0433\u0435\u0439 \u041c\u0438\u0445\u0430\u0439\u043b\u043e\u0432\u0438\u0447",
    "rating": 3.073728240009012
  },
  "16732": {
    "name": "\u041c\u0430\u0440\u043a\u043e\u0432 \u041c\u0438\u0445\u0430\u0438\u043b \u0418\u0432\u0430\u043d\u043e\u0432\u0438\u0447",
    "rating": 1.9618070985739309
  },
  "16733": {
    "name": "\u041c\u0430\u0442\u0432\u0435\u0435\u0432 \u041e\u043b\u0435\u0433 \u0410\u043d\u0430\u0442\u043e\u043b\u044c\u0435\u0432\u0438\u0447",
    "rating": 0.17280171292701926
  },
  "16734": {
    "name": "\u0421\u0430\u043c\u043e\u043d\u0438\u043d \u0412\u043b\u0430\u0434\u0438\u043c\u0438\u0440 \u041d\u0438\u043a\u043e\u043b\u0430\u0435\u0432\u0438\u0447",
    "rating": 0.009364058688295221
  },
  "28099": {
    "name": "\u0421\u0442\u0430\u0442\u0443\u0440\u0430 \u0421\u0435\u0440\u0433\u0435\u0439 \u0412\u043b\u0430\u0434\u0438\u043c\u0438\u0440\u043e\u0432\u0438\u0447",
    "rating": 0.005186167874858295
  },
  "28100": {
    "name": "\u0411\u0430\u0440\u0434\u0438\u043d\u0430 \u041d\u0430\u0434\u0435\u0436\u0434\u0430 \u0424\u0435\u0434\u043e\u0440\u043e\u0432\u043d\u0430",
    "rating": 2.3107683440721213e-13
  },
  "28101": {
    "name": "\u0412\u043e\u0435\u0432\u043e\u0434\u0438\u043d\u0430 \u0412\u0430\u043b\u0435\u043d\u0442\u0438\u043d\u0430 \u0412\u043b\u0430\u0434\u0438\u043c\u0438\u0440\u043e\u0432\u043d\u0430",
    "rating": 1.1130242624377682
  },
  "28102": {
    "name": "\u041a\u0430\u043f\u0438\u0447\u043d\u0438\u043a\u043e\u0432 \u0412\u043b\u0430\u0434\u0438\u043c\u0438\u0440 \u0412\u0430\u0441\u0438\u043b\u044c\u0435\u0432\u0438\u0447",
    "rating": 0.20457010075142326
  },
  "28103": {
    "name": "\u041a\u043e\u043b\u0435\u0441\u043d\u0438\u043a\u043e\u0432\u0430 \u0415\u043b\u0435\u043d\u0430 \u0412\u044f\u0447\u0435\u0441\u043b\u0430\u0432\u043e\u0432\u043d\u0430",
    "rating": 0.141377422355323
  },
  "28104": {
    "name": "\u041a\u0440\u0443\u0433\u043b\u043e\u0432\u0430 \u0422\u0430\u043c\u0430\u0440\u0430 \u0412\u0430\u0441\u0438\u043b\u044c\u0435\u0432\u043d\u0430",
    "rating": 2.3107683440721213e-13
  },
  "28105": {
    "name": "\u041e\u0440\u043b\u043e\u0432 \u0410\u043b\u0435\u043a\u0441\u0435\u0439 \u0410\u043d\u0430\u0442\u043e\u043b\u044c\u0435\u0432\u0438\u0447",
    "rating": 1.0
  },
  "28106": {
    "name": "\u0420\u0430\u0449\u0443\u043f\u043a\u0438\u043d \u041b\u0435\u043e\u043d\u0438\u0434 \u041a\u0443\u0437\u044c\u043c\u0438\u0447",
    "rating": 0.04334387251899722
  },
  "28107": {
    "name": "\u0421\u0430\u043f\u043e\u0436\u043d\u0438\u043a\u043e\u0432 \u0412\u044f\u0447\u0435\u0441\u043b\u0430\u0432 \u0410\u043d\u0430\u0442\u043e\u043b\u044c\u0435\u0432\u0438\u0447",
    "rating": 0.22138610957936453
  },
  "28108": {
    "name": "\u0421\u0438\u0442\u043d\u0438\u043a\u043e\u0432\u0430 \u041d\u0430\u0442\u0430\u043b\u044c\u044f \u0412\u0438\u043a\u0442\u043e\u0440\u043e\u0432\u043d\u0430",
    "rating": 1.2835740664586657
  },
  "28109": {
    "name": "\u0424\u0435\u0434\u043e\u0440\u043e\u0432 \u0412\u043b\u0430\u0434\u0438\u043c\u0438\u0440 \u0410\u043b\u0435\u043a\u0441\u0430\u043d\u0434\u0440\u043e\u0432\u0438\u0447",
    "rating": 1.0146758245730234
  },
  "28110": {
    "name": "\u041c\u0435\u0449\u0435\u0440\u044f\u043a\u043e\u0432 \u0410\u043b\u0435\u043a\u0441\u0430\u043d\u0434\u0440 \u042e\u0440\u044c\u0435\u0432\u0438\u0447",
    "rating": 2.3107683440721213e-13
  },
  "28111": {
    "name": "\u0421\u043e\u043b\u044f\u043d\u0438\u043d \u0412\u0430\u043b\u0435\u0440\u0438\u0439 \u0412\u043b\u0430\u0434\u0438\u043c\u0438\u0440\u043e\u0432\u0438\u0447",
    "rating": 2.3107683440721213e-13
  }
}