{
  "16735": {
    "name": "\u041f\u0430\u043d\u0444\u0438\u043b\u043e\u0432 \u0421\u0435\u0440\u0433\u0435\u0439 \u0410\u043b\u0435\u043a\u0441\u0430\u043d\u0434\u0440\u043e\u0432\u0438\u0447",
    "rating": 0.022851866129770918
  },
  "16736": {
    "name": "\u041a\u043e\u0440\u0447\u0430\u0433\u0438\u043d\u0430 \u041e\u043b\u044c\u0433\u0430 \u0421\u0435\u0440\u0433\u0435\u0435\u0432\u043d\u0430",
    "rating": 0.036909154633240016
  },
  "16737": {
    "name": "\u041f\u0440\u0438\u0445\u043e\u0434\u044c\u043a\u043e \u042e\u0440\u0438\u0439 \u0412\u043b\u0430\u0434\u0438\u043c\u0438\u0440\u043e\u0432\u0438\u0447",
    "rating": 1.4326379692638482
  },
  "16738": {
    "name": "\u041c\u043e\u0440\u043e\u0437\u043e\u0432\u0430 \u0412\u0438\u043a\u0442\u043e\u0440\u0438\u044f \u0410\u043d\u0434\u0440\u0435\u0435\u0432\u043d\u0430",
    "rating": 0.0033284621255040376
  },
  "16763": {
    "name": "\u041f\u0443\u043d\u0434\u0435\u043b\u044c \u041e\u043b\u0435\u0433 \u0412\u043b\u0430\u0434\u0438\u043c\u0438\u0440\u043e\u0432\u0438\u0447",
    "rating": 0.0784493969764619
  },
  "28112": {
    "name": "\u0410\u043a\u0443\u0431\u0435\u043a\u043e\u0432\u0430 \u041b\u044e\u0434\u043c\u0438\u043b\u0430 \u041e\u043b\u0435\u0433\u043e\u0432\u043d\u0430",
    "rating": 0.0980239127540518
  },
  "28113": {
    "name": "\u0411\u043e\u0434\u0438\u043d \u0410\u043b\u0435\u043a\u0441\u0430\u043d\u0434\u0440 \u041c\u0438\u0445\u0430\u0439\u043b\u043e\u0432\u0438\u0447",
    "rating": 2.0362127100825784
  },
  "28114": {
    "name": "\u041e\u0441\u0430\u0434\u0447\u0443\u043a \u0415\u043b\u0435\u043d\u0430 \u0410\u043d\u0430\u0442\u043e\u043b\u044c\u0435\u0432\u043d\u0430",
    "rating": 0.0
  },
  "28115": {
    "name": "\u041a\u0430\u043b\u0430\u0431\u0435\u043a\u043e\u0432 \u0410\u043b\u0430\u043d \u041b\u0430\u0437\u0430\u0440\u0435\u0432\u0438\u0447",
    "rating": 1.3427596073520804
  },
  "28116": {
    "name": "\u0414\u0437\u0443\u0434\u0437\u0430 \u0412\u0430\u0434\u0438\u043c \u0410\u043d\u0430\u0442\u043e\u043b\u044c\u0435\u0432\u0438\u0447",
    "rating": 0.0
  },
  "28117": {
    "name": "\u0418\u0432\u0430\u043d\u043e\u0432 \u0421\u0435\u0440\u0433\u0435\u0439 \u0413\u0435\u043d\u043d\u0430\u0434\u044c\u0435\u0432\u0438\u0447",
    "rating": 2.0
  },
  "28118": {
    "name": "\u041a\u043e\u0432\u0430\u043b\u0435\u0432\u0430 \u0418\u0440\u0438\u043d\u0430 \u042e\u0440\u044c\u0435\u0432\u043d\u0430",
    "rating": 1.0000000000002311
  },
  "28119": {
    "name": "\u041a\u0440\u0435\u043c\u043f\u043e\u043b\u044c\u0441\u043a\u0430\u044f \u0422\u0430\u0442\u044c\u044f\u043d\u0430 \u0418\u0432\u0430\u043d\u043e\u0432\u043d\u0430",
    "rating": 1.7858419709516755
  },
  "28120": {
    "name": "\u041c\u0435\u0449\u0435\u0440\u044f\u043a\u043e\u0432\u0430 \u0413\u0430\u043b\u0438\u043d\u0430 \u042e\u0440\u044c\u0435\u0432\u043d\u0430",
    "rating": 1.0
  },
  "28121": {
    "name": "\u0420\u0430\u0431\u0435\u0448\u043a\u043e \u0422\u0430\u0442\u044c\u044f\u043d\u0430 \u042e\u0440\u044c\u0435\u0432\u043d\u0430",
    "rating": 1.7349766621202318
  },
  "28122": {
    "name": "\u0420\u043e\u0434\u0438\u043e\u043d\u043e\u0432 \u0412\u0438\u0442\u0430\u043b\u0438\u0439 \u0414\u043c\u0438\u0442\u0440\u0438\u0435\u0432\u0438\u0447",
    "rating": 0.008611915566830048
  },
  "28123": {
    "name": "\u0414\u0430\u043d\u0438\u043b\u0438\u043d\u0430 \u0422\u0430\u0442\u044c\u044f\u043d\u0430 \u0410\u043b\u0435\u043a\u0441\u0430\u043d\u0434\u0440\u043e\u0432\u043d\u0430",
    "rating": 2.532605569500252
  },
  "28124": {
    "name": "\u0418\u043d\u0433\u043b\u0435\u0437\u0438 \u0410\u043b\u043b\u0430 \u0410\u043b\u0435\u043a\u0441\u0430\u043d\u0434\u0440\u043e\u0432\u043d\u0430",
    "rating": 1.050999423177768
  },
  "28125": {
    "name": "\u041a\u043e\u0441\u0442\u044e\u0448\u0438\u043d\u0430 \u0414\u0438\u043d\u0430 \u041d\u0438\u043a\u043e\u043b\u0430\u0435\u0432\u043d\u0430",
    "rating": 0.06212472531486156
  },
  "28126": {
    "name": "\u0415\u0444\u0438\u043c\u0447\u0443\u043a \u0410\u043b\u0435\u043a\u0441\u0435\u0439 \u0424\u0435\u0434\u043e\u0440\u043e\u0432\u0438\u0447",
    "rating": 0.0
  },
  "28127": {
    "name": "\u0421\u0438\u043c\u043e\u043d\u043e\u0432 \u0410\u043b\u0435\u043a\u0441\u0430\u043d\u0434\u0440 \u041d\u0438\u043a\u043e\u043b\u0430\u0435\u0432\u0438\u0447",
    "rating": 4.362499355846677
  },
  "28128": {
    "name": "\u0414\u0440\u0443\u0436\u0438\u043d\u0438\u043d \u0410\u043b\u0435\u043a\u0441\u0430\u043d\u0434\u0440 \u0410\u043b\u0435\u043a\u0441\u0430\u043d\u0434\u0440\u043e\u0432\u0438\u0447",
    "rating": 1.4017042701950528
  },
  "28129": {
    "name": "\u0417\u0430\u0446\u0435\u043f\u0438\u043d \u0410\u043d\u0434\u0440\u0435\u0439 \u0415\u0432\u0433\u0435\u043d\u044c\u0435\u0432\u0438\u0447",
    "rating": 2.3107683440721213e-13
  }
}