{
  "16725": {
    "name": "\u0426\u0435\u043b\u0438\u0449\u0435\u0432 \u0412\u043b\u0430\u0434\u0438\u043c\u0438\u0440 \u0412\u043b\u0430\u0434\u0438\u043c\u0438\u0440\u043e\u0432\u0438\u0447",
    "rating": 3.975872259967389
  },
  "16726": {
    "name": "\u0418\u0432\u0430\u043d\u0447\u0435\u043d\u043a\u043e \u0412\u0430\u043b\u0435\u043d\u0442\u0438\u043d\u0430 \u0410\u043b\u0435\u043a\u0441\u0435\u0435\u0432\u043d\u0430",
    "rating": 2.1546039689855725
  },
  "16727": {
    "name": "\u041c\u0438\u0445\u0430\u0439\u043b\u043e\u0432 \u0421\u0435\u0440\u0433\u0435\u0439 \u041d\u0438\u043a\u043e\u043b\u0430\u0435\u0432\u0438\u0447",
    "rating": 2.140738896001632
  },
  "16728": {
    "name": "\u0418\u0432\u0430\u043d\u043e\u0432\u0430-\u0414\u0430\u043b\u044c \u041c\u0430\u0440\u0438\u044f \u041c\u0438\u0445\u0430\u0439\u043b\u043e\u0432\u043d\u0430",
    "rating": 0.17038125024023024
  },
  "16758": {
    "name": "\u041a\u043e\u0440\u0435\u0448\u043a\u043e\u0432 \u0412\u043b\u0430\u0434\u0438\u043c\u0438\u0440 \u0410\u043b\u0435\u043a\u0441\u0430\u043d\u0434\u0440\u043e\u0432\u0438\u0447",
    "rating": 0.010013395985012477
  },
  "28068": {
    "name": "\u0410\u043f\u0435\u0440\u044f\u043d \u041c\u0430\u043d\u0432\u0435\u043b \u0421\u0435\u0434\u0440\u0430\u043a\u043e\u0432\u0438\u0447",
    "rating": 1.3990765587112568
  },
  "28069": {
    "name": "\u0410\u043b\u0431\u043e\u0440\u043e\u0432\u0430 \u041b\u0430\u0440\u0438\u0441\u0430 \u0421\u0430\u0440\u0434\u0438\u043e\u043d\u043e\u0432\u043d\u0430",
    "rating": 3.0
  },
  "28070": {
    "name": "\u0412\u043e\u0440\u043e\u0431\u044c\u0435\u0432 \u0410\u043d\u0430\u0442\u043e\u043b\u0438\u0439 \u0418\u0432\u0430\u043d\u043e\u0432\u0438\u0447",
    "rating": 3.0
  },
  "28071": {
    "name": "\u0412\u043e\u0440\u043e\u0431\u044c\u0435\u0432\u0430 \u0422\u0430\u0442\u044c\u044f\u043d\u0430 \u041e\u043b\u0435\u0433\u043e\u0432\u043d\u0430",
    "rating": 0.0
  },
  "28072": {
    "name": "\u0413\u0443\u043b\u0438\u0430\u0448\u0432\u0438\u043b\u0438 \u041d\u0430\u0440\u0433\u0438\u0437\u0430 \u0410\u0432\u0442\u0430\u043d\u0434\u0438\u043b\u043e\u0432\u043d\u0430",
    "rating": 1.0
  },
  "28073": {
    "name": "\u041a\u0430\u043a\u043e\u0442\u043a\u0438\u043d\u0430 \u041e\u043a\u0441\u0430\u043d\u0430 \u0410\u043d\u0430\u0442\u043e\u043b\u044c\u0435\u0432\u043d\u0430",
    "rating": 0.004837875573336817
  },
  "28074": {
    "name": "\u041a\u0440\u0443\u0442\u044f\u043a\u043e\u0432 \u0412\u0430\u0441\u0438\u043b\u0438\u0439 \u0411\u043e\u0440\u0438\u0441\u043e\u0432\u0438\u0447",
    "rating": 1.0093389375133963
  },
  "28075": {
    "name": "\u041a\u0443\u0434\u0430\u043a\u0438\u043d \u041d\u0438\u043a\u043e\u043b\u0430\u0439 \u041d\u0438\u043a\u043e\u043b\u0430\u0435\u0432\u0438\u0447",
    "rating": 2.0
  },
  "28076": {
    "name": "\u041d\u0430\u0437\u0430\u0440\u043e\u0432 \u0420\u043e\u043c\u0430\u043d \u0418\u0432\u0430\u043d\u043e\u0432\u0438\u0447",
    "rating": 0.036747031558953466
  },
  "28077": {
    "name": "\u0420\u044f\u0431\u043e\u0432\u0430 \u0422\u0430\u0442\u044c\u044f\u043d\u0430 \u041f\u0435\u0442\u0440\u043e\u0432\u043d\u0430",
    "rating": 1.1136707336018643
  },
  "28078": {
    "name": "\u0421\u0438\u0442\u043d\u0438\u043a\u043e\u0432 \u0410\u043d\u0434\u0440\u0435\u0439 \u0412\u043b\u0430\u0434\u0438\u043c\u0438\u0440\u043e\u0432\u0438\u0447",
    "rating": 1.0
  },
  "28079": {
    "name": "\u0418\u0441\u0430\u043d\u0438\u043d \u0412\u043b\u0430\u0434\u0438\u043c\u0438\u0440 \u041f\u0430\u0432\u043b\u043e\u0432\u0438\u0447",
    "rating": 0.21727014718469026
  }
}