{
  "16726": {
    "name": "\u0418\u0432\u0430\u043d\u0447\u0435\u043d\u043a\u043e \u0412\u0430\u043b\u0435\u043d\u0442\u0438\u043d\u0430 \u0410\u043b\u0435\u043a\u0441\u0435\u0435\u0432\u043d\u0430",
    "rating": 2.1546039689855725
  },
  "16753": {
    "name": "\u0414\u0440\u0430\u043d\u043d\u0438\u043a\u043e\u0432\u0430 \u041c\u0430\u0440\u0438\u043d\u0430 \u0412\u0430\u0441\u0438\u043b\u044c\u0435\u0432\u043d\u0430",
    "rating": 0.06933922616051395
  },
  "16757": {
    "name": "\u0413\u0440\u0438\u0433\u043e\u0440\u044c\u0435\u0432 \u0421\u0435\u0440\u0433\u0435\u0439 \u041d\u0438\u043a\u043e\u043b\u0430\u0435\u0432\u0438\u0447",
    "rating": 3.983366690319096
  },
  "16758": {
    "name": "\u041a\u043e\u0440\u0435\u0448\u043a\u043e\u0432 \u0412\u043b\u0430\u0434\u0438\u043c\u0438\u0440 \u0410\u043b\u0435\u043a\u0441\u0430\u043d\u0434\u0440\u043e\u0432\u0438\u0447",
    "rating": 0.010013395985012477
  },
  "16759": {
    "name": "\u041d\u043e\u0441\u043e\u0432 \u0412\u0438\u0442\u0430\u043b\u0438\u0439 \u0421\u0435\u0440\u0433\u0435\u0435\u0432\u0438\u0447",
    "rating": 0.1565783620661043
  },
  "16760": {
    "name": "\u0411\u043e\u043b\u0441\u0438\u043d\u043e\u0432 \u0421\u0435\u0440\u0433\u0435\u0439 \u0412\u0438\u043a\u0442\u043e\u0440\u043e\u0432\u0438\u0447",
    "rating": 1.3169315289162784
  },
  "28196": {
    "name": "\u0412\u043e\u0440\u043e\u0442\u0438\u043b\u043e\u0432 \u0412\u0438\u043a\u0442\u043e\u0440 \u041d\u0438\u043a\u043e\u043b\u0430\u0435\u0432\u0438\u0447",
    "rating": 2.0
  },
  "28197": {
    "name": "\u0412\u044b\u0441\u043e\u0446\u043a\u0438\u0439 \u0418\u0432\u0430\u043d \u0412\u043b\u0430\u0434\u0438\u043c\u0438\u0440\u043e\u0432\u0438\u0447",
    "rating": 1.1675810275258078
  },
  "28198": {
    "name": "\u0416\u0434\u0430\u043d\u043e\u0432\u0430 \u0422\u0430\u043c\u0430\u0440\u0430 \u0421\u0435\u043c\u0435\u043d\u043e\u0432\u043d\u0430",
    "rating": 1.0076587001212485
  },
  "28199": {
    "name": "\u041c\u0430\u043b\u044b\u0448\u0435\u0432\u0430 \u041c\u0430\u0440\u0438\u044f \u041a\u043e\u043d\u0441\u0442\u0430\u043d\u0442\u0438\u043d\u043e\u0432\u043d\u0430",
    "rating": 1.0
  },
  "28200": {
    "name": "\u041c\u0430\u0442\u0432\u0435\u0435\u0432\u0430 \u0410\u043b\u0435\u043a\u0441\u0430\u043d\u0434\u0440\u0430 \u0412\u0438\u043a\u0442\u043e\u0440\u043e\u0432\u043d\u0430",
    "rating": 0.1713411794716988
  },
  "28201": {
    "name": "\u041c\u043e\u0442\u0438\u043d \u041c\u0430\u043a\u0441\u0438\u043c \u0412\u043b\u0430\u0434\u0438\u043c\u0438\u0440\u043e\u0432\u0438\u0447",
    "rating": 0.010240106444202396
  },
  "28202": {
    "name": "\u041c\u0443\u0440\u0437\u0438\u043d \u0418\u0433\u043e\u0440\u044c \u0410\u043b\u0435\u043a\u0441\u0435\u0435\u0432\u0438\u0447",
    "rating": 1.0
  },
  "28203": {
    "name": "\u041f\u043e\u0440\u0445\u0443\u043d\u043e\u0432 \u0410\u043b\u0435\u043a\u0441\u0435\u0439 \u0412\u0438\u043a\u0442\u043e\u0440\u043e\u0432\u0438\u0447",
    "rating": 1.8183100499387004
  },
  "28204": {
    "name": "\u0421\u0435\u043c\u0435\u043d\u043e\u0432\u0430 \u041e\u043b\u044c\u0433\u0430 \u0410\u043b\u0435\u043a\u0441\u0430\u043d\u0434\u0440\u043e\u0432\u043d\u0430",
    "rating": 1.0031980465582315
  },
  "28205": {
    "name": "\u0421\u043c\u0438\u0440\u043d\u043e\u0432 \u0410\u043b\u0435\u043a\u0441\u0430\u043d\u0434\u0440 \u0412\u0430\u0441\u0438\u043b\u044c\u0435\u0432\u0438\u0447",
    "rating": 5.0
  },
  "28206": {
    "name": "\u0422\u0440\u0435\u0442\u044c\u044e\u0445\u0438\u043d \u0412\u0438\u0442\u0430\u043b\u0438\u0439 \u0412\u044f\u0447\u0435\u0441\u043b\u0430\u0432\u043e\u0432\u0438\u0447",
    "rating": 1.0
  },
  "28207": {
    "name": "\u0423\u0440\u044e\u043f\u0438\u043d \u0410\u043b\u0435\u043a\u0441\u0435\u0439 \u0410\u043b\u0435\u043a\u0441\u0435\u0435\u0432\u0438\u0447",
    "rating": 0.035929795673367716
  },
  "28208": {
    "name": "\u0424\u0435\u0434\u043e\u0441\u043e\u0432 \u041c\u0438\u0445\u0430\u0438\u043b \u041b\u0435\u043e\u043d\u0438\u0434\u043e\u0432\u0438\u0447",
    "rating": 1.0
  },
  "28209": {
    "name": "\u0428\u0430\u043b\u0438\u043c\u043e\u0432 \u041d\u0438\u043a\u043e\u043b\u0430\u0439 \u0418\u0432\u0430\u043d\u043e\u0432\u0438\u0447",
    "rating": 0.015183194112467513
  }
}