{
  "16682": {
    "name": "\u0412\u043e\u0440\u043e\u0431\u044c\u0435\u0432 \u0410\u043b\u0435\u043a\u0441\u0430\u043d\u0434\u0440 \u0410\u043b\u0435\u043a\u0441\u0435\u0435\u0432\u0438\u0447",
    "rating": 3.904606916972376
  },
  "16683": {
    "name": "\u0428\u043c\u0435\u043b\u0435\u0432\u0430 \u041e\u043b\u044c\u0433\u0430 \u0410\u043b\u0435\u043a\u0441\u0430\u043d\u0434\u0440\u043e\u0432\u043d\u0430",
    "rating": 3.0087600600963027
  },
  "16684": {
    "name": "\u0410\u0442\u0430\u043c\u0430\u043d\u043e\u0432\u0430 \u041d\u0430\u0434\u0435\u0436\u0434\u0430 \u041c\u0438\u0445\u0430\u0439\u043b\u043e\u0432\u043d\u0430",
    "rating": 0.02570363010367808
  },
  "16685": {
    "name": "\u041a\u0430\u0440\u043f\u0438\u043d\u0441\u043a\u0430\u044f \u0410\u043d\u043d\u0430 \u041f\u0430\u0432\u043b\u043e\u0432\u043d\u0430",
    "rating": 0.025320828355226928
  },
  "27595": {
    "name": "\u0410\u0432\u0438\u043b\u043e\u0432\u0430 \u0410\u043d\u0430\u0441\u0442\u0430\u0441\u0438\u044f \u0410\u043b\u0435\u043a\u0441\u0430\u043d\u0434\u0440\u043e\u0432\u043d\u0430",
    "rating": 1.0
  },
  "27596": {
    "name": "\u0410\u0437\u0438\u043c\u043e\u0432\u0430 \u0421\u0432\u0435\u0442\u043b\u0430\u043d\u0430 \u0412\u0430\u043b\u0435\u0440\u0438\u0435\u0432\u043d\u0430",
    "rating": 0.005428285580038562
  },
  "27597": {
    "name": "\u0410\u0440\u0442\u0430\u043c\u043e\u043d\u043e\u0432 \u041c\u0430\u043a\u0441\u0438\u043c \u0410\u043b\u0435\u043a\u0441\u0430\u043d\u0434\u0440\u043e\u0432\u0438\u0447",
    "rating": 0.0
  },
  "27598": {
    "name": "\u0411\u0430\u0440\u0434\u0438\u043d\u0430 \u0415\u043b\u0435\u043d\u0430 \u041c\u0438\u0445\u0430\u0439\u043b\u043e\u0432\u043d\u0430",
    "rating": 1.0856842272219691
  },
  "27599": {
    "name": "\u0411\u0430\u0443\u0447\u043a\u0438\u043d\u0430 \u041c\u0430\u0440\u0438\u044f \u042e\u0440\u044c\u0435\u0432\u043d\u0430",
    "rating": 0.0
  },
  "27600": {
    "name": "\u0411\u0435\u043a\u0448\u0430\u0435\u0432\u0430 \u0421\u0432\u0435\u0442\u043b\u0430\u043d\u0430 \u0413\u0430\u0439\u0435\u0440\u043e\u0432\u043d\u0430",
    "rating": 0.02742433731245699
  },
  "27601": {
    "name": "\u0412\u0430\u043b\u0438\u0435\u0432\u0430 \u0421\u0432\u0435\u0442\u043b\u0430\u043d\u0430 \u0411\u0430\u044f\u0437\u044b\u0442\u043e\u0432\u043d\u0430",
    "rating": 2.0
  },
  "27602": {
    "name": "\u0412\u0430\u0441\u0438\u043b\u0435\u0432\u0441\u043a\u0438\u0439 \u0412\u0430\u043b\u0435\u0440\u0438\u0439 \u0410\u043d\u0430\u0442\u043e\u043b\u044c\u0435\u0432\u0438\u0447",
    "rating": 0.04559848953906784
  },
  "27603": {
    "name": "\u0412\u043e\u043b\u043a\u043e\u0432 \u0421\u0435\u0440\u0433\u0435\u0439 \u0415\u0432\u0433\u0435\u043d\u044c\u0435\u0432\u0438\u0447",
    "rating": 0.0
  },
  "27604": {
    "name": "\u0413\u0430\u043b\u043e\u044f\u043d \u0422\u0430\u0440\u043e\u043d \u041c\u0433\u0435\u0440\u043e\u0432\u0438\u0447",
    "rating": 0.0
  },
  "27605": {
    "name": "\u0413\u043b\u0443\u0445\u043e\u0432\u0430 \u041c\u0430\u0440\u0438\u044f \u0410\u043d\u0430\u0442\u043e\u043b\u044c\u0435\u0432\u043d\u0430",
    "rating": 1.0994722554456868
  },
  "27606": {
    "name": "\u0414\u0435\u043c\u0435\u043d\u0442\u044c\u0435\u0432\u0430 \u0418\u0440\u0438\u043d\u0430 \u041d\u0438\u043a\u043e\u043b\u0430\u0435\u0432\u043d\u0430",
    "rating": 2.1687612589070344
  },
  "27607": {
    "name": "\u0415\u0432\u0441\u0442\u0440\u0430\u0442\u043e\u0432 \u0410\u043b\u0435\u043a\u0441\u0430\u043d\u0434\u0440 \u042e\u0440\u044c\u0435\u0432\u0438\u0447",
    "rating": 0.0
  },
  "27608": {
    "name": "\u0416\u0435\u043b\u0435\u0437\u043d\u043e\u0432\u0430 \u0415\u043b\u0435\u043d\u0430 \u041f\u0435\u0442\u0440\u043e\u0432\u043d\u0430",
    "rating": 0.0034750204276980693
  },
  "27609": {
    "name": "\u0417\u043e\u0442\u0438\u043a\u043e\u0432\u0430 \u041c\u0430\u0440\u0438\u044f \u0410\u043d\u0434\u0440\u0435\u0435\u0432\u043d\u0430",
    "rating": 1.0
  },
  "27610": {
    "name": "\u041a\u043e\u0440\u043e\u0442\u0435\u0435\u0432\u0430 \u0417\u043e\u044f \u0412\u0430\u0441\u0438\u043b\u044c\u0435\u0432\u043d\u0430",
    "rating": 0.003170248952815797
  },
  "27611": {
    "name": "\u041a\u043e\u0440\u044b\u0442\u0438\u043d\u0430 \u041e\u043b\u044c\u0433\u0430 \u041b\u0435\u043e\u043d\u0438\u0434\u043e\u0432\u043d\u0430",
    "rating": 1.0
  },
  "27612": {
    "name": "\u041a\u0438\u0440\u0438\u043b\u043b\u043e\u0432\u0430 \u0415\u043a\u0430\u0442\u0435\u0440\u0438\u043d\u0430 \u0412\u043b\u0430\u0434\u0438\u043c\u0438\u0440\u043e\u0432\u043d\u0430",
    "rating": 0.010780422545273331
  },
  "27613": {
    "name": "\u041a\u0443\u0437\u043d\u0435\u0446\u043e\u0432\u0430 \u041e\u043b\u044c\u0433\u0430 \u041d\u0438\u043a\u043e\u043b\u0430\u0435\u0432\u043d\u0430",
    "rating": 4.057178789149319
  },
  "27614": {
    "name": "\u041a\u0443\u043b\u044f\u0448\u043e\u0432 \u0410\u043d\u0442\u043e\u043d \u042e\u0440\u044c\u0435\u0432\u0438\u0447",
    "rating": 0.0
  },
  "27615": {
    "name": "\u041a\u0443\u0434\u0440\u044f\u0448\u043e\u0432\u0430 \u0415\u043b\u0435\u043d\u0430 \u0412\u043b\u0430\u0434\u0438\u043c\u0438\u0440\u043e\u0432\u043d\u0430",
    "rating": 1.0
  },
  "27616": {
    "name": "\u041c\u0430\u043b\u044c\u043d\u0435\u0432\u0430 \u041d\u0438\u043d\u0430 \u041d\u0438\u043a\u043e\u043b\u0430\u0435\u0432\u043d\u0430",
    "rating": 1.1115739782637486
  },
  "27617": {
    "name": "\u041c\u043e\u0440\u043e\u0437\u043a\u0438\u043d \u0410\u043b\u0435\u043a\u0441\u0430\u043d\u0434\u0440 \u041d\u0438\u043a\u043e\u043b\u0430\u0435\u0432\u0438\u0447",
    "rating": 3.26090311112161
  },
  "27618": {
    "name": "\u041c\u0438\u043b\u044e\u0442\u0438\u043d\u0430 \u0415\u043b\u0435\u043d\u0430 \u0418\u0432\u0430\u043d\u043e\u0432\u043d\u0430",
    "rating": 0.0252991997504528
  },
  "27619": {
    "name": "\u041c\u0435\u043b\u044c\u043d\u0438\u043a\u043e\u0432\u0430 \u0415\u043b\u0435\u043d\u0430 \u0421\u0435\u0440\u0433\u0435\u0435\u0432\u043d\u0430",
    "rating": 1.0313922138844045
  },
  "27620": {
    "name": "\u041c\u0435\u0440\u0435\u043d\u043a\u043e\u0432 \u0412\u044f\u0447\u0435\u0441\u043b\u0430\u0432 \u041e\u043b\u0435\u0433\u043e\u0432\u0438\u0447",
    "rating": 0.06350053538198246
  },
  "27621": {
    "name": "\u041d\u043e\u0432\u0433\u043e\u0440\u043e\u0434\u043e\u0432\u0430 \u0422\u0430\u0442\u044c\u044f\u043d\u0430 \u0418\u0432\u0430\u043d\u043e\u0432\u043d\u0430",
    "rating": 0.07583452678105776
  },
  "27622": {
    "name": "\u041e\u043b\u0435\u0439\u043d\u0438\u043a \u0420\u043e\u0434\u0438\u043a\u0430 \u0411\u043e\u0440\u0438\u0441\u043e\u0432\u043d\u0430",
    "rating": 0.041063827502390224
  },
  "27623": {
    "name": "\u041f\u043e\u0442\u0430\u043f\u043e\u0432\u0430 \u041d\u0438\u043d\u0430 \u041c\u0438\u0445\u0430\u0439\u043b\u043e\u0432\u043d\u0430",
    "rating": 0.038510840333168914
  },
  "27624": {
    "name": "\u0420\u043e\u0449\u0438\u043d\u0430 \u0410\u043d\u0430\u0441\u0442\u0430\u0441\u0438\u044f \u0424\u0435\u0434\u043e\u0440\u043e\u0432\u043d\u0430",
    "rating": 1.0
  },
  "27625": {
    "name": "\u0421\u043c\u0438\u0440\u043d\u043e\u0432\u0430 \u0415\u043b\u0435\u043d\u0430 \u0412\u043b\u0430\u0434\u0438\u043c\u0438\u0440\u043e\u0432\u043d\u0430",
    "rating": 2.0
  },
  "27626": {
    "name": "\u0422\u0440\u0435\u0442\u044c\u044f\u043a\u043e\u0432\u0430 \u0415\u043b\u0435\u043d\u0430 \u0411\u043e\u0440\u0438\u0441\u043e\u0432\u043d\u0430",
    "rating": 1.1043681795991822
  },
  "27627": {
    "name": "\u0427\u0435\u0440\u043d\u043e\u0432\u0430 \u0412\u0435\u0440\u0430 \u0413\u0435\u043d\u043d\u0430\u0434\u044c\u0435\u0432\u043d\u0430",
    "rating": 0.0
  },
  "27628": {
    "name": "\u0428\u0443\u0440\u044b\u0433\u0438\u043d\u0430 \u0412\u0438\u043a\u0442\u043e\u0440\u0438\u044f \u0414\u043c\u0438\u0442\u0440\u0438\u0435\u0432\u043d\u0430",
    "rating": 0.0
  },
  "27629": {
    "name": "\u042e\u0434\u0430\u043a\u043e\u0432\u0430 \u0415\u043b\u0435\u043d\u0430 \u0412\u043b\u0430\u0434\u0438\u043c\u0438\u0440\u043e\u0432\u043d\u0430",
    "rating": 0.0
  },
  "27630": {
    "name": "\u0429\u0435\u0440\u0431\u0430\u043a\u043e\u0432\u0430 \u041d\u0430\u0434\u0435\u0436\u0434\u0430 \u0410\u043b\u0435\u043a\u0441\u0430\u043d\u0434\u0440\u043e\u0432\u043d\u0430",
    "rating": 2.0
  }
}