{
  "16686": {
    "name": "\u041a\u0430\u0431\u0430\u043d\u043e\u0432 \u0410\u043d\u0434\u0440\u0435\u0439 \u0412\u044f\u0447\u0435\u0441\u043b\u0430\u0432\u043e\u0432\u0438\u0447",
    "rating": 2.3987270608580573
  },
  "16695": {
    "name": "\u0411\u043e\u0433\u043e\u0434\u0443\u0445\u043e\u0432 \u042e\u0440\u0438\u0439 \u041d\u0438\u043a\u043e\u043b\u0430\u0435\u0432\u0438\u0447",
    "rating": 3.0
  },
  "16696": {
    "name": "\u0413\u043b\u0430\u0437\u0443\u043d\u043e\u0432 \u0412\u043b\u0430\u0434\u0438\u043c\u0438\u0440 \u0410\u043b\u0435\u043a\u0441\u0430\u043d\u0434\u0440\u043e\u0432\u0438\u0447",
    "rating": 3.258546040926679
  },
  "16697": {
    "name": "\u0421\u0435\u043b\u0435\u0437\u043d\u0435\u0432\u0430 \u0413\u0430\u043b\u0438\u043d\u0430 \u0413\u0435\u043e\u0440\u0433\u0438\u0435\u0432\u043d\u0430",
    "rating": 1.3402478216577365
  },
  "16698": {
    "name": "\u0429\u0435\u0433\u043e\u043b\u0435\u0432\u0430 \u0418\u0440\u0438\u043d\u0430 \u042e\u0440\u044c\u0435\u0432\u043d\u0430",
    "rating": 2.893299060330357
  },
  "16719": {
    "name": "\u0424\u0435\u0434\u043e\u0440\u043e\u0432 \u0421\u0435\u0440\u0433\u0435\u0439 \u041a\u043e\u043d\u0441\u0442\u0430\u043d\u0442\u0438\u043d\u043e\u0432\u0438\u0447",
    "rating": 0.019478387526081654
  },
  "27725": {
    "name": "\u0411\u0430\u0443\u043b\u0438\u043d\u0430 \u0421\u043e\u0444\u0438\u044f \u041d\u0438\u043a\u043e\u043b\u0430\u0435\u0432\u043d\u0430",
    "rating": 0.007271323458808072
  },
  "27726": {
    "name": "\u0411\u0443\u0440\u043b\u0430\u043a\u043e\u0432\u0430 \u041a\u0441\u0435\u043d\u0438\u044f \u0421\u0435\u0440\u0433\u0435\u0435\u0432\u043d\u0430",
    "rating": 0.05875203401306675
  },
  "27727": {
    "name": "\u0412\u0435\u0440\u0435\u043c\u0447\u0443\u043a \u0415.\u0410. ",
    "rating": 0.08897188501079713
  },
  "27728": {
    "name": "\u0412\u043e\u0439\u0442\u043e\u0432 \u041e\u043b\u0435\u0433 \u0412\u043b\u0430\u0434\u0438\u043c\u0438\u0440\u043e\u0432\u0438\u0447",
    "rating": 0.4455059488454806
  },
  "27729": {
    "name": "\u0414\u043e\u043b\u0436\u0435\u043d\u043a\u043e \u0410\u043d\u0436\u0435\u043b\u0430 \u0410\u043d\u0430\u0442\u043e\u043b\u044c\u0435\u0432\u043d\u0430",
    "rating": 1.0
  },
  "27730": {
    "name": "\u0413\u0443\u0441\u0435\u0432\u0430 \u041d\u0430\u0434\u0435\u0436\u0434\u0430 \u0412\u043b\u0430\u0434\u0438\u043c\u0438\u0440\u043e\u0432\u043d\u0430",
    "rating": 2.0
  },
  "27731": {
    "name": "\u0415\u0432\u0441\u0435\u0435\u0432\u0430 \u0420\u0430\u0434\u043c\u0438\u043b\u0430 \u0428\u0430\u0445\u0438\u043d\u043e\u0432\u043d\u0430",
    "rating": 0.0
  },
  "27732": {
    "name": "\u041a\u0430\u043b\u0435\u043d\u0438\u0447\u0435\u043d\u043a\u043e \u0412\u0430\u0434\u0438\u043c \u0410\u043b\u0435\u043a\u0441\u0430\u043d\u0434\u0440\u043e\u0432\u0438\u0447",
    "rating": 0.012283768216501713
  },
  "27733": {
    "name": "\u0417\u0432\u0435\u0440\u0435\u0432\u0430 \u0415\u043a\u0430\u0442\u0435\u0440\u0438\u043d\u0430 \u0412\u0438\u043a\u0442\u043e\u0440\u043e\u0432\u043d\u0430",
    "rating": 0.0
  },
  "27734": {
    "name": "\u041a\u043e\u0431\u0435\u043b\u0435\u0432\u0430 \u041e\u043b\u044c\u0433\u0430 \u041d\u0438\u043a\u043e\u043b\u0430\u0435\u0432\u043d\u0430",
    "rating": 1.0
  },
  "27735": {
    "name": "\u041a\u043e\u0442\u043e\u0432\u0430 \u041a\u0438\u0440\u0430 \u0410\u043d\u0430\u0442\u043e\u043b\u044c\u0435\u0432\u043d\u0430",
    "rating": 0.0
  },
  "27736": {
    "name": "\u041a\u0443\u0440\u0437\u0435\u043d\u043a\u043e\u0432\u0430 \u0421\u0432\u0435\u0442\u043b\u0430\u043d\u0430 \u0410\u043b\u0435\u043a\u0441\u0435\u0435\u0432\u043d\u0430",
    "rating": 0.0
  },
  "27737": {
    "name": "\u041a\u0443\u0434\u0440\u044f\u0448\u043e\u0432\u0430 \u0415\u043b\u0435\u043d\u0430 \u0410\u043b\u0435\u043a\u0441\u0430\u043d\u0434\u0440\u043e\u0432\u043d\u0430",
    "rating": 1.064377389921879
  },
  "27738": {
    "name": "\u041a\u0443\u0440\u043a\u0438\u043d\u0430 \u041d.\u0412. ",
    "rating": 0.1542675096991734
  },
  "27739": {
    "name": "\u041a\u0443\u0441\u0438\u043d\u0430 \u042e\u043b\u0438\u044f \u0412\u0430\u043b\u0435\u0440\u044c\u0435\u0432\u043d\u0430",
    "rating": 0.053761753708310565
  },
  "27740": {
    "name": "\u041c\u0430\u043a\u0441\u0438\u043c\u043e\u0432 \u0412\u043b\u0430\u0434\u0438\u0441\u043b\u0430\u0432 \u0412\u043b\u0430\u0434\u0438\u043c\u0438\u0440\u043e\u0432\u0438\u0447",
    "rating": 1.1685190633259943
  },
  "27741": {
    "name": "\u041c\u0438\u0445\u0430\u0439\u043b\u0438\u043d\u0430 \u0418\u0440\u0438\u043d\u0430 \u0412\u043b\u0430\u0434\u0438\u043c\u0438\u0440\u043e\u0432\u043d\u0430",
    "rating": 0.02785107230110694
  },
  "27742": {
    "name": "\u041f\u0438\u043b\u0438\u043f\u043e\u0441\u044f\u043d \u0410\u043b\u0435\u043a\u0441\u0430\u043d\u0434\u0440 \u0421\u0430\u043c\u0432\u044d\u043b\u043e\u0432\u0438\u0447",
    "rating": 0.05183178306555843
  },
  "27743": {
    "name": "\u041f\u0438\u0441\u0430\u0440\u0435\u0432\u0430 \u042e\u043b\u0438\u044f \u041d\u0438\u043a\u043e\u043b\u0430\u0435\u0432\u043d\u0430",
    "rating": 2.7188157323352553
  },
  "27744": {
    "name": "\u041f\u043b\u0443\u0436\u043d\u0438\u043a \u0415\u043a\u0430\u0442\u0435\u0440\u0438\u043d\u0430 \u0414\u043c\u0438\u0442\u0440\u0438\u0435\u0432\u043d\u0430",
    "rating": 2.0
  },
  "27745": {
    "name": "\u041f\u043e\u0442\u043a\u0438\u043d \u0411\u043e\u0440\u0438\u0441 \u0421\u0435\u0440\u0433\u0435\u0435\u0432\u0438\u0447",
    "rating": 0.0
  },
  "27746": {
    "name": "\u041f\u043e\u043b\u0438\u0449\u0443\u043a \u0412.\u0418. ",
    "rating": 0.0
  },
  "27747": {
    "name": "\u0421\u0430\u043c\u043e\u0439\u043b\u043e\u0432\u0430 \u0415\u043b\u0435\u043d\u0430 \u0410\u043b\u0435\u043a\u0441\u0435\u0435\u0432\u043d\u0430",
    "rating": 0.031313251408986734
  },
  "27748": {
    "name": "\u0421\u043e\u043b\u043e\u043c\u0438\u043d\u0430 \u041d\u0430\u0442\u0430\u043b\u044c\u044f \u0412\u0438\u043a\u0442\u043e\u0440\u043e\u0432\u043d\u0430",
    "rating": 1.0573965961887262
  },
  "27749": {
    "name": "\u0421\u043e\u0431\u043e\u043b\u0435\u0432\u0430 \u041e\u043b\u044c\u0433\u0430 \u042e\u0440\u044c\u0435\u0432\u043d\u0430",
    "rating": 0.023832814482135846
  },
  "27750": {
    "name": "\u0421\u0442\u0435\u043f\u0430\u043d\u043e\u0432\u0430 \u0418\u0440\u0438\u043d\u0430 \u041c\u0438\u0445\u0430\u0439\u043b\u043e\u0432\u043d\u0430",
    "rating": 2.0010975218013023
  },
  "27751": {
    "name": "\u0421\u0442\u0435\u043f\u0430\u043d\u043e\u0432\u0430 \u0418\u0440\u0438\u043d\u0430 \u0418\u0432\u0430\u043d\u043e\u0432\u043d\u0430",
    "rating": 0.0
  },
  "27752": {
    "name": "\u0422\u0440\u0443\u043d\u043e\u0432\u0430 \u0415\u043b\u0435\u043d\u0430 \u041d\u0438\u043a\u043e\u043b\u0430\u0435\u0432\u043d\u0430",
    "rating": 5.0
  },
  "27753": {
    "name": "\u0424\u043b\u044f\u0433\u0438\u043d \u0418\u0433\u043e\u0440\u044c \u042e\u0440\u044c\u0435\u0432\u0438\u0447",
    "rating": 2.0
  }
}