{
  "16774": {
    "name": "\u0428\u0438\u0433\u0430\u0431\u0435\u0442\u0434\u0438\u043d\u043e\u0432\u0430 \u042d\u043b\u044c\u0432\u0438\u0440\u0430 \u0410\u043b\u044c\u0431\u0435\u0440\u0442\u043e\u0432\u043d\u0430",
    "rating": 0.5263896695119373
  },
  "16775": {
    "name": "\u0411\u0435\u043b\u044f\u0433\u0438\u043d\u0430 \u041e\u043b\u044c\u0433\u0430 \u0421\u0435\u0440\u0433\u0435\u0435\u0432\u043d\u0430",
    "rating": 1.9930057546781552
  },
  "16776": {
    "name": "\u0422\u043e\u043a\u0430\u043d\u043e\u0432 \u0413\u0435\u043d\u043d\u0430\u0434\u0438\u0439 \u0412\u043b\u0430\u0434\u0438\u043c\u0438\u0440\u043e\u0432\u0438\u0447",
    "rating": 2.9663464733251743
  },
  "16777": {
    "name": "\u0413\u0430\u0435\u0432\u0430 \u0413\u0430\u043b\u0438\u043d\u0430 \u0415\u0432\u0433\u0435\u043d\u044c\u0435\u0432\u043d\u0430",
    "rating": 0.6061174646931405
  },
  "16778": {
    "name": "\u041f\u043e\u0441\u0442\u043d\u043e\u0432 \u0421\u0435\u0440\u0433\u0435\u0439 \u0421\u0435\u0440\u0433\u0435\u0435\u0432\u0438\u0447",
    "rating": 0.006944919433011887
  },
  "28484": {
    "name": "\u0410\u0433\u0430\u0434\u0436\u0430\u043d\u043e\u0432\u0430 \u0410\u0434\u0438\u043b\u044f \u0424\u0430\u0438\u043a\u043e\u0432\u043d\u0430",
    "rating": 1.8494506813752485
  },
  "28485": {
    "name": "\u041c\u0430\u0440\u0442\u043e\u0432\u0430 \u0412\u0435\u0440\u043e\u043d\u0438\u043a\u0430 \u0421\u0435\u0440\u0433\u0435\u0435\u0432\u043d\u0430",
    "rating": 3.1417415556855888
  },
  "28486": {
    "name": "\u0413\u0440\u0438\u0434\u043d\u0435\u0432\u0430 \u041b\u044e\u0434\u043c\u0438\u043b\u0430 \u0412\u0430\u0441\u0438\u043b\u044c\u0435\u0432\u043d\u0430",
    "rating": 4.0
  },
  "28487": {
    "name": "\u0414\u0430\u0440\u0430\u0441\u0435\u043b\u0438\u044f \u0421\u0443\u0440\u0438\u044f \u0413\u0430\u043c\u0438\u0434\u043e\u0432\u043d\u0430",
    "rating": 0.009266220641989854
  },
  "28488": {
    "name": "\u041a\u0438\u043b\u044c\u043f\u0438\u043a\u043e\u0432 \u0412\u043b\u0430\u0434\u0438\u043c\u0438\u0440 \u0412\u043b\u0430\u0434\u0438\u043c\u0438\u0440\u043e\u0432\u0438\u0447",
    "rating": 0.036518339616030314
  },
  "28489": {
    "name": "\u0425\u0430\u0434\u0436\u0430\u0432\u0435\u043b\u0438\u0434\u0437\u0435 \u041d\u0438\u043d\u043e \u0412\u043b\u0430\u0434\u0438\u043c\u0438\u0440\u043e\u0432\u043d\u0430",
    "rating": 0.0
  },
  "28490": {
    "name": "\u0410\u043d\u0430\u0435\u0432 \u0410\u043b\u0435\u043a\u0441\u0430\u043d\u0434\u0440 \u041f\u0435\u0442\u0440\u043e\u0432\u0438\u0447",
    "rating": 0.01963143194488841
  },
  "28491": {
    "name": "\u041a\u043e\u0432\u0430\u043b\u0435\u043d\u043a\u043e \u0421\u0435\u0440\u0433\u0435\u0439 \u0418\u0432\u0430\u043d\u043e\u0432\u0438\u0447",
    "rating": 2.0105993243680342
  },
  "28492": {
    "name": "\u041c\u0438\u043a\u0443\u043b\u0435\u043d\u043e\u043a \u0418\u0440\u0438\u043d\u0430 \u0410\u0434\u043e\u043b\u044c\u0444\u043e\u0432\u043d\u0430",
    "rating": 1.4138139366507936
  },
  "28493": {
    "name": "\u041a\u043e\u043f\u044c\u0435\u0432\u0430 \u041d\u0430\u0434\u0435\u0436\u0434\u0430 \u0410\u043d\u0430\u0442\u043e\u043b\u044c\u0435\u0432\u043d\u0430",
    "rating": 0.0
  },
  "28494": {
    "name": "\u0410\u043d\u0430\u043d\u044c\u0438\u043d \u0418\u043b\u044c\u044f \u0410\u043b\u0435\u043a\u0441\u0435\u0435\u0432\u0438\u0447",
    "rating": 0.056840528183126765
  },
  "28495": {
    "name": "\u0413\u043b\u0443\u0431\u043e\u043a\u043e\u0432\u0430 \u041a\u043b\u0430\u0432\u0434\u0438\u044f \u041d\u0438\u043a\u043e\u043b\u0430\u0435\u0432\u043d\u0430",
    "rating": 0.0
  },
  "28496": {
    "name": "\u0413\u043e\u043d\u0447\u0430\u0440\u0435\u0432\u0441\u043a\u0430\u044f \u0417\u043e\u044f \u041b\u0435\u043e\u043d\u0438\u0434\u043e\u0432\u043d\u0430",
    "rating": 0.4134052294791615
  },
  "28497": {
    "name": "\u0413\u043e\u0440\u0438\u043d\u0430 \u041e\u043b\u044c\u0433\u0430 \u041d\u0438\u043a\u043e\u043b\u0430\u0435\u0432\u043d\u0430",
    "rating": 1.0
  },
  "28498": {
    "name": "\u0418\u0432\u0430\u043d\u043e\u0432\u0430 \u041d\u0438\u043d\u0430 \u0418\u0441\u0445\u0430\u043a\u043e\u0432\u043d\u0430",
    "rating": 0.11987108905640036
  },
  "28499": {
    "name": "\u041a\u0438\u043f\u0440\u0438\u044f\u043d\u043e\u0432 \u041f\u0435\u0442\u0440 \u042d\u0434\u0443\u0430\u0440\u0434\u043e\u0432\u0438\u0447",
    "rating": 0.35495754291508136
  },
  "28500": {
    "name": "\u041c\u0443\u0441\u0442\u0430\u0444\u0438\u043d \u0422\u0430\u043b\u0433\u0430\u0442 \u0413\u0438\u043d\u044f\u0442\u0443\u043b\u043b\u0430\u0435\u0432\u0438\u0447",
    "rating": 2.6397657151622345
  },
  "28501": {
    "name": "\u0420\u043e\u043c\u0430\u043d\u043e\u0432\u0430 \u0415\u043b\u0435\u043d\u0430 \u0412\u0430\u043b\u0435\u043d\u0442\u0438\u043d\u043e\u0432\u043d\u0430",
    "rating": 3.0
  },
  "28502": {
    "name": "\u0421\u0438\u043b\u044c\u043d\u043e\u0432 \u0410\u043b\u0435\u043a\u0441\u0435\u0439 \u0421\u0435\u0440\u0433\u0435\u0435\u0432\u0438\u0447",
    "rating": 5.0
  },
  "28503": {
    "name": "\u0421\u0438\u043b\u044c\u043d\u043e\u0432 \u0414\u043c\u0438\u0442\u0440\u0438\u0439 \u0421\u0435\u0440\u0433\u0435\u0435\u0432\u0438\u0447",
    "rating": 4.0
  },
  "28504": {
    "name": "\u0421\u0442\u0430\u0432\u0438\u043d\u0441\u043a\u0430\u044f \u0410\u043d\u043d\u0430 \u0421\u0435\u0440\u0433\u0435\u0435\u0432\u043d\u0430",
    "rating": 2.0
  },
  "28505": {
    "name": "\u0421\u043e\u043a\u043e\u043b\u043e\u0432\u0430 \u041e\u043b\u044c\u0433\u0430 \u0418\u0433\u043e\u0440\u0435\u0432\u043d\u0430",
    "rating": 0.037601792653843835
  }
}