{
  "9884": {
    "name": "\u0411\u0435\u043a\u043d\u0438\u044f\u0437\u043e\u0432 \u041c\u0443\u0440\u0430\u0434 \u0410\u0437\u0430\u0434\u043e\u0432\u0438\u0447",
    "rating": 0.4072358768859585
  },
  "16812": {
    "name": "\u0411\u043e\u043b\u043e\u0432\u043b\u0435\u043d\u043a\u043e\u0432\u0430 \u0421\u0432\u0435\u0442\u043b\u0430\u043d\u0430 \u0420\u0438\u0444\u043e\u0432\u043d\u0430",
    "rating": 0.3505037306984248
  },
  "16813": {
    "name": "\u0417\u0430\u0435\u0446 \u041b\u0438\u0434\u0438\u044f \u0418\u0432\u0430\u043d\u043e\u0432\u043d\u0430",
    "rating": 1.2947758120217907
  },
  "16814": {
    "name": "\u041a\u0430\u0447\u0430\u043d\u043e\u0432\u0430 \u041d\u0430\u0442\u0430\u043b\u0438\u044f \u0413\u0435\u043d\u043d\u0430\u0434\u044c\u0435\u0432\u043d\u0430",
    "rating": 1.4505533024607753
  },
  "29283": {
    "name": "\u041f\u0430\u0441\u0442\u0435\u0440\u043d\u0430\u043a \u041e\u043b\u044c\u0433\u0430 \u041c\u0438\u0445\u0430\u0439\u043b\u043e\u0432\u043d\u0430",
    "rating": 0.05286650233350645
  },
  "29284": {
    "name": "\u0411\u043e\u043b\u0438\u0445\u043e\u0432\u0430 \u042e\u043b\u0438\u044f \u0412\u043b\u0430\u0434\u0438\u043c\u0438\u0440\u043e\u0432\u043d\u0430",
    "rating": 0.03499471931141211
  },
  "29285": {
    "name": "\u0413\u0430\u0442\u0438\u043a\u0430\u0435\u0432 \u0422\u0443\u0433\u0430\u043d \u041d\u0438\u043a\u043e\u043b\u0430\u0435\u0432\u0438\u0447",
    "rating": 0.0014494998953896927
  },
  "29286": {
    "name": "\u0428\u043b\u0435\u0439\u043d \u041e\u043b\u044c\u0433\u0430 \u041d\u0438\u043a\u043e\u043b\u0430\u0435\u0432\u043d\u0430",
    "rating": 1.774435905182716
  },
  "29287": {
    "name": "\u041a\u043e\u0432\u0435\u0448\u043d\u0438\u043a\u043e\u0432\u0430 \u041d\u0430\u0442\u0430\u043b\u044c\u044f \u0411\u043e\u0440\u0438\u0441\u043e\u0432\u043d\u0430",
    "rating": 0.007934423947844195
  },
  "29288": {
    "name": "\u0422\u0430\u0440\u0430\u0441\u043e\u0432\u0430 \u041d\u0430\u0442\u0430\u043b\u044c\u044f \u0410\u043d\u0434\u0440\u0435\u0435\u0432\u043d\u0430",
    "rating": 0.0102099204706874
  },
  "29289": {
    "name": "\u041c\u0430\u0445\u043e\u0432 \u0421\u0435\u0440\u0433\u0435\u0439 \u0410\u043b\u0435\u043a\u0441\u0435\u0435\u0432\u0438\u0447",
    "rating": 0.003413379396998341
  },
  "29290": {
    "name": "\u0420\u044f\u0431\u043e\u0432\u0430 \u042e\u043b\u0438\u044f \u041c\u0438\u0445\u0430\u0439\u043b\u043e\u0432\u043d\u0430",
    "rating": 1.0
  },
  "29291": {
    "name": "\u041a\u0443\u043b\u0438\u043d\u0438\u0447 \u0410\u043d\u0434\u0440\u0435\u0439 \u041d\u0438\u043a\u043e\u043b\u0430\u0435\u0432\u0438\u0447",
    "rating": 0.0
  },
  "29292": {
    "name": "\u042f\u043d\u043a\u043e \u0420\u043e\u043c\u0430\u043d \u042e\u0440\u044c\u0435\u0432\u0438\u0447",
    "rating": 0.2791280452128061
  },
  "29293": {
    "name": "\u041a\u043e\u0447\u0435\u0442\u043a\u043e\u0432\u0430 \u041c\u0430\u0440\u0438\u043d\u0430 \u0413\u0435\u043d\u043d\u0430\u0434\u044c\u0435\u0432\u043d\u0430",
    "rating": 1.0295291090890142
  },
  "29294": {
    "name": "\u0427\u0443\u043c\u0430\u043a\u043e\u0432\u0430 \u041d\u0430\u0434\u0435\u0436\u0434\u0430 \u042e\u0440\u044c\u0435\u0432\u043d\u0430",
    "rating": 0.0005849005212819519
  },
  "29295": {
    "name": "\u0411\u043e\u0440\u0438\u0441\u043e\u0432\u0430 \u041d\u0430\u0442\u0430\u043b\u044c\u044f \u0412\u043b\u0430\u0434\u0438\u043c\u0438\u0440\u043e\u0432\u043d\u0430",
    "rating": 1.000000000000338
  },
  "29296": {
    "name": "\u041b\u043e\u043c\u043e\u0432\u0430 \u0422\u0430\u0442\u044c\u044f\u043d\u0430 \u0410\u043b\u0435\u043a\u0441\u0430\u043d\u0434\u0440\u043e\u0432\u043d\u0430",
    "rating": 0.0320549682820254
  },
  "29297": {
    "name": "\u041f\u043e\u043f\u043e\u0432\u0430 \u042e\u043b\u0438\u044f \u041c\u0438\u0445\u0430\u0439\u043b\u043e\u0432\u043d\u0430",
    "rating": 1.0
  },
  "29298": {
    "name": "\u0411\u0430\u043b\u0438\u0446\u043a\u0430\u044f \u041d\u0430\u0442\u0430\u043b\u044c\u044f \u0410\u043b\u0435\u043a\u0441\u0435\u0435\u0432\u043d\u0430",
    "rating": 1.0059071735665914
  },
  "29299": {
    "name": "\u0410\u0437\u0430\u0440\u0435\u043d\u043a\u043e\u0432\u0430 \u0415\u043a\u0430\u0442\u0435\u0440\u0438\u043d\u0430 \u041d\u0438\u043a\u043e\u043b\u0430\u0435\u0432\u043d\u0430",
    "rating": 0.2589549371933175
  },
  "29300": {
    "name": "\u0411\u0430\u0439\u0434\u0430\u043a\u043e\u0432\u0430 \u0422\u0430\u0442\u044c\u044f\u043d\u0430 \u0412\u0430\u043b\u0435\u043d\u0442\u0438\u043d\u043e\u0432\u043d\u0430",
    "rating": 0.03626357636920825
  },
  "29301": {
    "name": "\u0412\u0430\u043d\u0435\u0435\u0432 \u0412\u044f\u0447\u0435\u0441\u043b\u0430\u0432 \u0412\u043b\u0430\u0434\u0438\u043c\u0438\u0440\u043e\u0432\u0438\u0447",
    "rating": 1.0
  },
  "29302": {
    "name": "\u0412\u0430\u0441\u0438\u043b\u044c\u0435\u0432\u0430 \u0418\u043d\u043d\u0430 \u041d\u0438\u043a\u043e\u043b\u0430\u0435\u0432\u043d\u0430",
    "rating": 2.347784169447571
  },
  "29303": {
    "name": "\u0413\u043e\u043b\u0443\u0431\u0435\u0432\u0430 \u0415\u043b\u0435\u043d\u0430 \u0410\u043b\u0435\u043a\u0441\u0430\u043d\u0434\u0440\u043e\u0432\u043d\u0430",
    "rating": 1.1378368885031804
  },
  "29304": {
    "name": "\u0413\u0443\u0441\u0435\u0432 \u0410\u043b\u0435\u043a\u0441\u0435\u0439 \u0410\u043b\u0435\u043a\u0441\u0435\u0435\u0432\u0438\u0447",
    "rating": 2.3107683440721213e-13
  },
  "29305": {
    "name": "\u041a\u0430\u043b\u0435\u043d\u043e\u0432 \u0421\u0435\u0440\u0433\u0435\u0439 \u0415\u0432\u0433\u0435\u043d\u044c\u0435\u0432\u0438\u0447",
    "rating": 1.209227358351139
  },
  "29306": {
    "name": "\u041a\u043e\u0440\u043e\u043b\u0435\u0432 \u0418\u0432\u0430\u043d \u0418\u0432\u0430\u043d\u043e\u0432\u0438\u0447",
    "rating": 0.0
  },
  "29307": {
    "name": "\u041a\u0443\u0437\u044c\u043c\u0438\u043d \u0421\u0442\u0430\u043d\u0438\u0441\u043b\u0430\u0432 \u0415\u0432\u0433\u0435\u043d\u044c\u0435\u0432\u0438\u0447",
    "rating": 0.010195147620042885
  },
  "29308": {
    "name": "\u041a\u0440\u0430\u0441\u0438\u043a\u043e\u0432\u0430 \u041c\u0430\u0440\u0438\u043d\u0430 \u0412\u0430\u043b\u0435\u0440\u044c\u0435\u0432\u043d\u0430",
    "rating": 1.0948938418250873
  },
  "29309": {
    "name": "\u0421\u0435\u043c\u0435\u043d\u043e\u0432 \u0413\u0440\u0438\u0433\u043e\u0440\u0438\u0439 \u0412\u0438\u043a\u0442\u043e\u0440\u043e\u0432\u0438\u0447",
    "rating": 1.0
  },
  "29310": {
    "name": "\u041c\u0438\u043d\u0430\u0435\u0432\u0430 \u0415\u043a\u0430\u0442\u0435\u0440\u0438\u043d\u0430 \u0412\u0430\u0441\u0438\u043b\u044c\u0435\u0432\u043d\u0430",
    "rating": 2.3107683440721213e-13
  }
}