{
  "16322": {
    "name": "\u0418\u0437\u0443\u0442\u0434\u0438\u043d\u043e\u0432 \u0413\u0430\u0434\u0436\u0438\u043c\u0443\u0440\u0430\u0434 \u0418\u0437\u0430\u043c\u0443\u0442\u0434\u0438\u043d\u043e\u0432\u0438\u0447",
    "rating": 0.4947529106174415
  },
  "16323": {
    "name": "\u0423\u0440\u0432\u0430\u043d\u043e\u0432 \u0412\u043b\u0430\u0434\u0438\u0441\u043b\u0430\u0432 \u0412\u0430\u0441\u0438\u043b\u044c\u0435\u0432\u0438\u0447",
    "rating": 0.4236851403153681
  },
  "16324": {
    "name": "\u041a\u0440\u0438\u0449\u0438\u043a \u041b\u0435\u043e\u043d\u0438\u0434 \u0412\u0438\u043a\u0442\u043e\u0440\u043e\u0432\u0438\u0447",
    "rating": 1.475781221256789
  },
  "16325": {
    "name": "\u041f\u0440\u043e\u0437\u043e\u0440\u043e\u0432\u0430 \u041c\u0430\u0440\u0438\u043d\u0430 \u0410\u043b\u0435\u043a\u0441\u0430\u043d\u0434\u0440\u043e\u0432\u043d\u0430",
    "rating": 1.0386600134988024
  },
  "25800": {
    "name": "\u0413\u043e\u043b\u0443\u0431\u0435\u043d\u043a\u043e\u0432\u0430 \u0415\u043b\u0435\u043d\u0430 \u041d\u0438\u043a\u043e\u043b\u0430\u0435\u0432\u043d\u0430",
    "rating": 0.009264671020455613
  },
  "25801": {
    "name": "\u0418\u0433\u043d\u0430\u0442\u044c\u0435\u0432 \u0412\u0430\u0434\u0438\u043c \u0410\u043d\u0434\u0440\u0435\u0435\u0432\u0438\u0447",
    "rating": 0.008606016926377372
  },
  "25802": {
    "name": "\u041f\u043e\u0442\u0430\u043f\u043e\u0432\u0430 \u0410\u043d\u0430\u0441\u0442\u0430\u0441\u0438\u044f \u041e\u043b\u0435\u0433\u043e\u0432\u043d\u0430",
    "rating": 0.0046920402672700244
  },
  "25803": {
    "name": "\u041a\u0440\u044b\u043b\u043e\u0432\u0430 \u0422\u0430\u0442\u044c\u044f\u043d\u0430 \u0415\u0432\u0433\u0435\u043d\u044c\u0435\u0432\u043d\u0430",
    "rating": 0.3499553225538081
  },
  "25804": {
    "name": "\u0421\u043c\u0438\u0440\u043d\u043e\u0432\u0430 \u0410\u043b\u0435\u043a\u0441\u0430\u043d\u0434\u0440\u0430 \u0421\u0435\u0440\u0433\u0435\u0435\u0432\u043d\u0430",
    "rating": 0.05786469550012008
  },
  "25805": {
    "name": "\u0420\u043e\u043c\u0430\u043d\u043e\u0432\u0430 \u041e\u043b\u044c\u0433\u0430 \u041f\u0430\u0432\u043b\u043e\u0432\u043d\u0430",
    "rating": 1.000138354737713
  },
  "25806": {
    "name": "\u0427\u0435\u0440\u043d\u043e\u0432\u0430 \u0412\u0435\u0440\u0430 \u0412\u0430\u0441\u0438\u043b\u044c\u0435\u0432\u043d\u0430",
    "rating": 0.1015329556677153
  },
  "25807": {
    "name": "\u0413\u043e\u043b\u0443\u0431\u0435\u0432\u0430 \u041e\u043b\u044c\u0433\u0430 \u0410\u043b\u0435\u043a\u0441\u0435\u0435\u0432\u043d\u0430",
    "rating": 2.8106970089663803
  }
}