{
  "16500": {
    "name": "\u0412\u043e\u0440\u043e\u0431\u044c\u0435\u0432\u0430 \u0412\u0430\u043b\u0435\u043d\u0442\u0438\u043d\u0430 \u0414\u043c\u0438\u0442\u0440\u0438\u0435\u0432\u043d\u0430",
    "rating": 3.4163743933185637
  },
  "16501": {
    "name": "\u0416\u0435\u043b\u0435\u0437\u043d\u044f\u043a \u041e\u043b\u0435\u0433 \u0421\u0435\u0440\u0433\u0435\u0435\u0432\u0438\u0447",
    "rating": 0.0918262697055864
  },
  "16502": {
    "name": "\u0416\u0443\u043a\u043e\u0432 \u0420\u043e\u043c\u0430\u043d \u0412\u043b\u0430\u0434\u0438\u043c\u0438\u0440\u043e\u0432\u0438\u0447",
    "rating": 1.1914322921687004
  },
  "16503": {
    "name": "\u041a\u0443\u043b\u0430\u043a\u043e\u0432 \u0412\u0430\u043b\u0435\u0440\u0438\u0439 \u0412\u0430\u043b\u0435\u043d\u0442\u0438\u043d\u043e\u0432\u0438\u0447",
    "rating": 1.632087041474071
  },
  "26545": {
    "name": "\u041b\u0430\u043d\u0442\u0440\u0430\u0442\u043e\u0432 \u0414\u043c\u0438\u0442\u0440\u0438\u0439 \u0410\u043b\u0435\u043a\u0441\u0430\u043d\u0434\u0440\u043e\u0432\u0438\u0447",
    "rating": 0.07261665697463418
  },
  "26546": {
    "name": "\u0422\u0438\u0442\u044f\u0435\u0432\u0430 \u0415\u043b\u0435\u043d\u0430 \u0418\u0432\u0430\u043d\u043e\u0432\u043d\u0430",
    "rating": 1.8024614234188567
  },
  "26547": {
    "name": "\u041c\u0430\u0433\u043e\u043c\u0435\u0434\u0430\u0433\u0430\u0435\u0432\u0430 \u0410\u043b\u0435\u043a\u0441\u0430\u043d\u0434\u0440\u0430 \u041d\u0438\u043a\u043e\u043b\u0430\u0435\u0432\u043d\u0430",
    "rating": 0.013142174491668657
  },
  "26548": {
    "name": "\u041b\u0438\u0442\u0432\u0438\u043d\u0435\u043d\u043a\u043e \u0412\u0430\u0434\u0438\u043c \u0412\u0438\u0442\u0430\u043b\u044c\u0435\u0432\u0438\u0447",
    "rating": 0.06885372700158321
  },
  "26549": {
    "name": "\u041a\u0443\u043b\u0430\u043a\u043e\u0432\u0430 \u041b\u044e\u0431\u043e\u0432\u044c \u0418\u0432\u0430\u043d\u043e\u0432\u043d\u0430",
    "rating": 1.4388678365172265
  },
  "26550": {
    "name": "\u041a\u043e\u043d\u0434\u0440\u0430\u0442\u044c\u0435\u0432\u0430 \u041d\u0430\u0434\u0435\u0436\u0434\u0430 \u0410\u043b\u0435\u043a\u0441\u0430\u043d\u0434\u0440\u043e\u0432\u043d\u0430",
    "rating": 1.041565729446998
  },
  "26551": {
    "name": "\u0421\u043e\u043a\u043e\u043b\u043e\u0432\u0430 \u041e\u043a\u0441\u0430\u043d\u0430 \u0412\u043b\u0430\u0434\u0438\u043c\u0438\u0440\u043e\u0432\u043d\u0430",
    "rating": 2.129927624054403
  },
  "26552": {
    "name": "\u041a\u0438\u0447\u043a\u0438\u043d\u0430 \u042e\u043b\u0438\u044f \u0421\u0435\u0440\u0433\u0435\u0435\u0432\u043d\u0430",
    "rating": 0.0
  }
}