{
  "16587": {
    "name": "\u0427\u0435\u0432\u044b\u0447\u0430\u043b\u043e\u0432 \u0412\u0438\u043a\u0442\u043e\u0440 \u041d\u0438\u043a\u043e\u043b\u0430\u0435\u0432\u0438\u0447",
    "rating": 1.4829951867186304
  },
  "16588": {
    "name": "\u0421\u0443\u0434\u044c\u0431\u0438\u043d \u0411\u043e\u0440\u0438\u0441 \u042e\u0440\u044c\u0435\u0432\u0438\u0447",
    "rating": 2.9061125802802743
  },
  "27168": {
    "name": "\u041a\u0430\u043c\u043d\u0435\u0432 \u041d\u0438\u043a\u043e\u043b\u0430\u0439 \u0412\u044f\u0447\u0435\u0441\u043b\u0430\u0432\u043e\u0432\u0438\u0447",
    "rating": 3.0
  },
  "27169": {
    "name": "\u0421\u0435\u0440\u0433\u0435\u0435\u0432 \u0421\u0435\u0440\u0433\u0435\u0439 \u0413\u0435\u043d\u043d\u0430\u0434\u044c\u0435\u0432\u0438\u0447",
    "rating": 1.0101527414434297
  },
  "27170": {
    "name": "\u0421\u043b\u043e\u0431\u043e\u0434\u044f\u043d\u0438\u043a \u0421\u0432\u0435\u0442\u043b\u0430\u043d\u0430 \u041d\u0438\u043a\u043e\u043b\u0430\u0435\u0432\u043d\u0430",
    "rating": 1.6953994033657342
  },
  "27171": {
    "name": "\u041b\u043e\u043c\u0442\u0435\u0432\u0430 \u0422\u0430\u0442\u044c\u044f\u043d\u0430 \u0410\u043b\u0435\u043a\u0441\u0430\u043d\u0434\u0440\u043e\u0432\u043d\u0430",
    "rating": 0.006993787038088747
  },
  "27172": {
    "name": "\u041a\u0438\u0441\u0435\u043b\u0435\u0432\u0430 \u0418\u0440\u0438\u043d\u0430 \u041d\u0438\u043a\u043e\u043b\u0430\u0435\u0432\u043d\u0430",
    "rating": 4.4216424794140945
  },
  "27173": {
    "name": "\u041a\u043e\u043d\u0434\u0440\u0430\u0445\u0438\u043d\u0430 \u041d\u0430\u0434\u0435\u0436\u0434\u0430 \u0412\u043b\u0430\u0434\u0438\u043c\u0438\u0440\u043e\u0432\u043d\u0430",
    "rating": 0.007111000386180202
  },
  "27174": {
    "name": "\u041d\u0438\u043a\u0438\u0444\u043e\u0440\u043e\u0432 \u0418\u0432\u0430\u043d \u0410\u043b\u0435\u043a\u0441\u0430\u043d\u0434\u0440\u043e\u0432\u0438\u0447",
    "rating": 0.006417363570335275
  },
  "27175": {
    "name": "\u0421\u043c\u0438\u0440\u043d\u043e\u0432\u0430 \u0410\u043d\u0430\u0441\u0442\u0430\u0441\u0438\u044f \u0418\u0433\u043e\u0440\u0435\u0432\u043d\u0430",
    "rating": 0.0
  },
  "27176": {
    "name": "\u0411\u0430\u043d\u043a\u0440\u0430\u0442\u043e\u0432\u0430 \u042e\u043b\u0438\u044f \u041c\u0438\u0445\u0430\u0439\u043b\u043e\u0432\u043d\u0430",
    "rating": 0.04421583595566732
  },
  "27177": {
    "name": "\u0416\u0443\u043a\u043e\u0432 \u041c\u0438\u0445\u0430\u0438\u043b \u0410\u043b\u0435\u043a\u0441\u0430\u043d\u0434\u0440\u043e\u0432\u0438\u0447",
    "rating": 2.3107683440721213e-13
  },
  "27178": {
    "name": "\u0410\u0440\u0446\u044b\u0431\u0430\u0441\u043e\u0432\u0430 \u0415\u043a\u0430\u0442\u0435\u0440\u0438\u043d\u0430 \u042e\u0440\u044c\u0435\u0432\u043d\u0430",
    "rating": 1.8696785193957552
  },
  "27179": {
    "name": "\u0422\u0440\u043e\u0444\u0438\u043c\u043e\u0432\u0430 \u041c\u0430\u0440\u0438\u043d\u0430 \u042e\u0440\u044c\u0435\u0432\u043d\u0430",
    "rating": 3.1828209282856674
  },
  "27180": {
    "name": "\u0421\u043c\u0438\u0440\u043d\u043e\u0432 \u0410\u043d\u0434\u0440\u0435\u0439 \u0410\u043d\u0430\u0442\u043e\u043b\u044c\u0435\u0432\u0438\u0447",
    "rating": 1.0076091630759787
  },
  "27181": {
    "name": "\u0411\u0443\u0434\u0430\u0433\u043e\u0432 \u0410\u0440\u0442\u0443\u0440 \u0420\u043e\u0431\u0435\u0440\u0442\u043e\u0432\u0438\u0447",
    "rating": 2.3107683440721213e-13
  },
  "27182": {
    "name": "\u0421\u044b\u0440\u0430\u0435\u0432 \u041a\u043e\u043d\u0441\u0442\u0430\u043d\u0442\u0438\u043d \u0410\u043d\u0430\u0442\u043e\u043b\u044c\u0435\u0432\u0438\u0447",
    "rating": 0.007617210549481044
  },
  "27183": {
    "name": "\u0414\u0430\u043d\u0438\u043b\u043e\u0432\u0441\u043a\u0430\u044f \u0415\u043b\u0435\u043d\u0430 \u0421\u0435\u0440\u0433\u0435\u0435\u0432\u043d\u0430",
    "rating": 0.0412573033986305
  },
  "27184": {
    "name": "\u0426\u0430\u0440\u0435\u0432\u0430 \u041c\u0430\u0440\u0438\u043d\u0430 \u0413\u0435\u043d\u043d\u0430\u0434\u044c\u0435\u0432\u043d\u0430",
    "rating": 1.3061155768042476
  },
  "27185": {
    "name": "\u0421\u0438\u0440\u043a\u0438\u043d\u0430 \u0415\u043b\u0435\u043d\u0430 \u0412\u043b\u0430\u0434\u0438\u043c\u0438\u0440\u043e\u0432\u043d\u0430",
    "rating": 0.007604598423123004
  },
  "27186": {
    "name": "\u042f\u0448\u0438\u043d\u0430 \u0410\u043d\u0430\u0441\u0442\u0430\u0441\u0438\u044f \u0412\u0430\u043b\u0435\u0440\u044c\u0435\u0432\u043d\u0430",
    "rating": 0.013447298822673112
  },
  "27187": {
    "name": "\u0428\u043b\u044f\u0445\u043e\u0432 \u0410\u0440\u0442\u0443\u0440 \u041e\u043b\u0435\u0433\u043e\u0432\u0438\u0447",
    "rating": 0.0035265614607317064
  },
  "27188": {
    "name": "\u0428\u043b\u044f\u0445\u043e\u0432 \u041e\u043b\u0435\u0433 \u0415\u0432\u0433\u0435\u043d\u044c\u0435\u0432\u0438\u0447",
    "rating": 0.011275825126460649
  },
  "27189": {
    "name": "\u0417\u043d\u0430\u043c\u0435\u043d\u0441\u043a\u0438\u0439 \u0421\u0435\u0440\u0433\u0435\u0439 \u041a\u043e\u043d\u0441\u0442\u0430\u043d\u0442\u0438\u043d\u043e\u0432\u0438\u0447",
    "rating": 0.009597423661089682
  },
  "27190": {
    "name": "\u041a\u0443\u0440\u0435\u043d\u0451\u0432\u0430 \u0415\u043b\u0435\u043d\u0430 \u041f\u0435\u0442\u0440\u043e\u0432\u043d\u0430",
    "rating": 0.1372781186058931
  },
  "27191": {
    "name": "\u0422\u043e\u043b\u043e\u0447\u0438\u043d\u0430 \u042e\u043b\u0438\u044f \u0412\u0438\u043a\u0442\u043e\u0440\u043e\u0432\u043d\u0430",
    "rating": 0.1199569911765109
  },
  "27192": {
    "name": "\u0422\u0430\u0442\u0430\u0440\u0435\u043d\u043a\u043e\u0432\u0430 \u0415\u043a\u0430\u0442\u0435\u0440\u0438\u043d\u0430 \u0421\u0435\u0440\u0433\u0435\u0435\u0432\u043d\u0430",
    "rating": 1.4475047867005253
  },
  "27193": {
    "name": "\u0414\u0430\u043d\u0438\u043b\u0435\u0432\u0441\u043a\u0438\u0439 \u0410\u043b\u0435\u043a\u0441\u0430\u043d\u0434\u0440 \u0412\u043b\u0430\u0434\u0438\u043c\u0438\u0440\u043e\u0432\u0438\u0447",
    "rating": 0.008283725636088972
  },
  "27194": {
    "name": "\u041a\u0443\u0440\u0433\u0430\u043d\u043a\u0438\u043d\u0430 \u041e\u043b\u044c\u0433\u0430 \u0412\u043b\u0430\u0434\u0438\u043c\u0438\u0440\u043e\u0432\u043d\u0430",
    "rating": 0.0010168257982721939
  },
  "27195": {
    "name": "\u0422\u0443\u0436\u0438\u043b\u043a\u0438\u043d \u0412\u043b\u0430\u0434\u0438\u0441\u043b\u0430\u0432 \u041d\u0438\u043a\u043e\u043b\u0430\u0435\u0432\u0438\u0447",
    "rating": 0.038731383614481404
  },
  "27196": {
    "name": "\u0421\u043d\u0438\u0446\u0430\u0440 \u0412\u0430\u043b\u0435\u0440\u0438\u0439 \u041d\u0438\u043a\u043e\u043b\u0430\u0435\u0432\u0438\u0447",
    "rating": 0.00834725664336903
  },
  "27197": {
    "name": "\u041a\u0430\u0440\u043f\u0443\u0448\u0438\u043d \u041b\u0435\u043e\u043d\u0438\u0434 \u0412\u043b\u0430\u0434\u0438\u043c\u0438\u0440\u043e\u0432\u0438\u0447",
    "rating": 0.0077661113497428935
  },
  "27198": {
    "name": "\u0410\u043b\u0435\u043a\u0441\u0430\u043d\u0434\u0440\u043e\u0432\u0430 \u0421\u0432\u0435\u0442\u043b\u0430\u043d\u0430 \u042e\u0440\u044c\u0435\u0432\u043d\u0430",
    "rating": 1.0016508931992836
  },
  "27199": {
    "name": "\u0421\u0430\u0437\u043e\u043d\u043e\u0432\u0430 \u041b\u0438\u043b\u0438\u044f \u041c\u0438\u0445\u0430\u0439\u043b\u043e\u0432\u043d\u0430",
    "rating": 0.011190029735168042
  },
  "27200": {
    "name": "\u0421\u0435\u043c\u0438\u0436\u0435\u043d\u043a\u043e \u0415\u043a\u0430\u0442\u0435\u0440\u0438\u043d\u0430 \u0418\u0433\u043e\u0440\u044c\u0435\u0432\u043d\u0430",
    "rating": 0.0027204923256449504
  }
}