{
  "16589": {
    "name": "\u041f\u043e\u0434\u043a\u0430\u043c\u0438\u043d\u0441\u043a\u0438\u0439 \u0418\u043b\u044c\u044f \u041c\u0438\u0445\u0430\u0439\u043b\u043e\u0432\u0438\u0447",
    "rating": 2.055074591243967
  },
  "16590": {
    "name": "\u041d\u0438\u043a\u043e\u043b\u0430\u0435\u043d\u043a\u043e \u041c\u0430\u0440\u0438\u043d\u0430 \u0424\u0451\u0434\u043e\u0440\u043e\u0432\u043d\u0430",
    "rating": 1.815449279882508
  },
  "16591": {
    "name": "\u0425\u043e\u0442\u043e\u0432\u0438\u0446\u043a\u0430\u044f \u0415\u043b\u0435\u043d\u0430 \u041c\u0438\u0445\u0430\u0439\u043b\u043e\u0432\u043d\u0430",
    "rating": 2.322250833103665
  },
  "16592": {
    "name": "\u0411\u0435\u0441\u0441\u043c\u0435\u0440\u0442\u043d\u044b\u0439 \u0413\u0440\u0438\u0433\u043e\u0440\u0438\u0439 \u0424\u0435\u0434\u043e\u0440\u043e\u0432\u0438\u0447",
    "rating": 1.1486232761901554
  },
  "27208": {
    "name": "\u0412\u0434\u043e\u0432\u0438\u043d\u0430 \u041e\u043b\u044c\u0433\u0430 \u0410\u043b\u0435\u043a\u0441\u0430\u043d\u0434\u0440\u043e\u0432\u043d\u0430",
    "rating": 5.0
  },
  "27209": {
    "name": "\u041e\u0432\u0447\u0430\u0440\u043e\u0432\u0430 \u0422\u0430\u0442\u044c\u044f\u043d\u0430 \u0410\u043b\u0435\u043a\u0441\u0430\u043d\u0434\u0440\u043e\u0432\u043d\u0430",
    "rating": 0.034653956468165235
  },
  "27210": {
    "name": "\u0410\u043d\u0434\u0440\u044e\u0445\u0438\u043d\u0430 \u0422\u0430\u0442\u044c\u044f\u043d\u0430 \u0410.",
    "rating": 0.04525875955613968
  },
  "27211": {
    "name": "\u041e\u0440\u043b\u043e\u0432\u0430 \u041b\u044e\u0434\u043c\u0438\u043b\u0430 \u041d\u0438\u043a\u043e\u043b\u0430\u0435\u0432\u043d\u0430",
    "rating": 3.2511879958155094
  },
  "27212": {
    "name": "\u041a\u0443\u043b\u0438\u043a\u043e\u0432\u0430 \u0415\u043b\u0435\u043d\u0430 \u0412\u043b\u0430\u0434\u0438\u043c\u0438\u0440\u043e\u0432\u043d\u0430",
    "rating": 2.0
  }
}