{
  "1430": {
    "name": "\u0411\u0435\u0442\u0438\u043d \u041e\u043b\u0435\u0433 \u0418\u0432\u0430\u043d\u043e\u0432\u0438\u0447",
    "rating": 3.0
  },
  "1886": {
    "name": "\u0410\u043d\u0442\u0438\u043f\u0438\u043d\u0430 \u041d\u0430\u0442\u0430\u043b\u044c\u044f \u041d\u0438\u043a\u043e\u043b\u0430\u0435\u0432\u043d\u0430",
    "rating": 0.4784784334525106
  },
  "2713": {
    "name": "\u041f\u043b\u0443\u0442\u043d\u0438\u043a \u0410\u043b\u0435\u043a\u0441\u0430\u043d\u0434\u0440 \u0410\u043b\u044c\u0431\u0435\u0440\u0442\u043e\u0432\u0438\u0447",
    "rating": 1.1877244883300169
  },
  "11655": {
    "name": "\u0420\u0435\u0439\u043b\u044c\u044f\u043d \u042e\u0440\u0438\u0439 \u0423\u0433\u043e\u0432\u0438\u0447",
    "rating": 1.2039465467726456
  },
  "11656": {
    "name": "\u0421\u0442\u0430\u0432\u0438\u0446\u043a\u0438\u0439 \u041b\u0435\u043e\u043d\u0438\u0434 \u041e\u0441\u043a\u0430\u0440\u043e\u0432\u0438\u0447",
    "rating": 1.0400254621104326
  },
  "11660": {
    "name": "\u0427\u0438\u0431\u0438\u0441 \u0410\u043d\u0434\u0440\u0435\u0439 \u0412\u043b\u0430\u0434\u0438\u043c\u0438\u0440\u043e\u0432\u0438\u0447",
    "rating": 0.9136631720934812
  },
  "11662": {
    "name": "\u0421\u0438\u044d\u0440\u0440\u0430 \u0415\u043b\u0435\u043d\u0430 \u041e\u0434\u0443\u043b\u0438\u043e\u0432\u043d\u0430",
    "rating": 0.393422778654978
  },
  "16975": {
    "name": "\u041a\u0430\u043b\u0438\u043d\u043a\u0438\u043d \u0412\u043b\u0430\u0434\u0438\u043c\u0438\u0440 \u041d\u0438\u043a\u043e\u043b\u0430\u0435\u0432\u0438\u0447",
    "rating": 0.5872340675749682
  },
  "17553": {
    "name": "\u0413\u0440\u0438\u0448\u0438\u043d \u0410\u043b\u0435\u043a\u0441\u0435\u0439 \u0412\u0438\u043a\u0442\u043e\u0440\u043e\u0432\u0438\u0447",
    "rating": 3.6775360858774535
  },
  "22074": {
    "name": "\u041c\u0430\u0432\u043b\u0438\u044f\u0440\u043e\u0432 \u0425\u0430\u043c\u0438\u0442 \u0414\u0430\u0432\u043b\u0435\u0442\u044f\u0440\u043e\u0432\u0438\u0447",
    "rating": 1.6820232932822767
  },
  "39188": {
    "name": "\u0410\u043b\u044f\u0448\u0435\u0442\u0434\u0438\u043d\u043e\u0432 \u041c\u0430\u043a\u0441\u0438\u043c \u0422\u0430\u0445\u0438\u0440\u043e\u0432\u0438\u0447",
    "rating": 0.030469302404709638
  },
  "39189": {
    "name": "\u0413\u043e\u0440\u0434\u0435\u0435\u0432 \u042e\u0440\u0438\u0439 \u0421\u0435\u0440\u0433\u0435\u0435\u0432\u0438\u0447",
    "rating": 0.06930605331872207
  },
  "39190": {
    "name": "\u0414\u0435\u043c\u0447\u0435\u043d\u043a\u043e \u041e\u043a\u0441\u0430\u043d\u0430 \u041d\u0438\u043a\u043e\u043b\u0430\u0435\u0432\u043d\u0430",
    "rating": 0.6863364517208236
  },
  "39191": {
    "name": "\u041a\u043e\u0440\u043d\u0438\u0435\u043d\u043a\u043e \u041e\u043b\u044c\u0433\u0430 \u0412\u0430\u043b\u0435\u0440\u044c\u0435\u0432\u043d\u0430",
    "rating": 0.08768386701683327
  },
  "39192": {
    "name": "\u041c\u0430\u0440\u0442\u044b\u043d\u043e\u0432 \u0410\u043a\u0438\u043c \u0410\u043b\u0435\u043a\u0441\u0430\u043d\u0434\u0440\u043e\u0432\u0438\u0447",
    "rating": 0.09275894897991736
  },
  "39193": {
    "name": "\u0421\u043f\u0435\u0440\u0430\u043d\u0441\u043a\u0438\u0439 \u041e\u043b\u0435\u0433 \u0412\u0430\u0434\u0438\u043c\u043e\u0432\u0438\u0447",
    "rating": 0.6335612822742122
  },
  "39194": {
    "name": "\u0421\u0442\u0430\u0441\u0438\u0448\u0438\u043d \u041d\u0438\u043a\u0438\u0442\u0430 \u0415\u0432\u0433\u0435\u043d\u044c\u0435\u0432\u0438\u0447",
    "rating": 0.495306430506012
  },
  "44864": {
    "name": "\u0429\u0435\u043a\u0430\u0447\u0438\u0445\u0438\u043d \u0412\u043b\u0430\u0434\u0438\u043c\u0438\u0440 \u0418.",
    "rating": 0.05081116105627667
  }
}