{
  "6957": {
    "name": "\u0411\u044b\u043a\u043e\u0432 \u0412\u0438\u043a\u0442\u043e\u0440 \u0418\u0432\u0430\u043d\u043e\u0432\u0438\u0447",
    "rating": 2.008522497033025
  },
  "28250": {
    "name": "\u041a\u0440\u044b\u043b\u043e\u0432 \u041d\u0438\u043a\u043e\u043b\u0430\u0439 \u0412\u044f\u0447\u0435\u0441\u043b\u0430\u0432\u043e\u0432\u0438\u0447",
    "rating": 1.1418960223178471
  },
  "28259": {
    "name": "\u0411\u0435\u0440\u0433\u0435\u0440 \u0415\u0432\u0433\u0435\u043d\u0438\u044f \u041f\u0435\u0442\u0440\u043e\u0432\u043d\u0430",
    "rating": 1.1453130024088172
  },
  "28262": {
    "name": "\u041b\u043e\u0436\u043a\u0438\u043d\u0430 \u0422\u0430\u0442\u044c\u044f\u043d\u0430 \u0412\u0438\u043a\u0442\u043e\u0440\u043e\u0432\u043d\u0430",
    "rating": 4.469169501624962
  },
  "28268": {
    "name": "\u0411\u0430\u0440\u043a\u0430\u043d\u043e\u0432 \u0415\u0432\u0433\u0435\u043d\u0438\u0439 \u041f\u0430\u0432\u043b\u043e\u0432\u0438\u0447",
    "rating": 2.7963729839776867
  },
  "52279": {
    "name": "\u0411\u0435\u0440\u0433\u0435\u0440 \u0415\u043b\u0435\u043d\u0430 \u041f\u0435\u0442\u0440\u043e\u0432\u043d\u0430",
    "rating": 0.0
  },
  "52290": {
    "name": "\u0422\u0435\u043b\u044c\u043f\u0438\u0441 \u041d\u0430\u0442\u0430\u043b\u044c\u044f \u0413\u0435\u043d\u043d\u0430\u0434\u044c\u0435\u0432\u043d\u0430",
    "rating": 0.004947572377230404
  }
}