{
  "52278": {
    "name": "\u041a\u043e\u0440\u0430\u0431\u043b\u0435\u0432 \u0410\u043d\u0430\u0442\u043e\u043b\u0438\u0439 \u0412\u044f\u0447\u0435\u0441\u043b\u0430\u0432\u043e\u0432\u0438\u0447",
    "rating": 0.2922546915572983
  }
}