{
  "28256": {
    "name": "\u041b\u0430\u0449\u0443\u043a \u0415\u0432\u0433\u0435\u043d\u0438\u0439 \u0410\u043b\u0435\u043a\u0441\u0430\u043d\u0434\u0440\u043e\u0432\u0438\u0447",
    "rating": 3.5480352976723
  },
  "28280": {
    "name": "\u041a\u043e\u043a\u043e\u0432\u0438\u043d \u0412\u043b\u0430\u0434\u0438\u043c\u0438\u0440 \u0412\u0438\u0442\u0430\u043b\u044c\u0435\u0432\u0438\u0447",
    "rating": 2.9360908892763407
  },
  "28293": {
    "name": "\u0414\u0435\u0432\u044f\u0442\u043a\u043e \u0410.\u0412. ",
    "rating": 0.00806706855047711
  },
  "28309": {
    "name": "\u0418\u0432\u0430\u043d\u043e\u0432\u0430 \u0412\u0430\u0434\u0438\u043c\u0430 \u041f\u0435\u0442\u0440\u043e\u0432\u0438\u0447\u0430",
    "rating": 1.597717780583809
  },
  "28386": {
    "name": "\u0418\u0432\u0430\u043d\u043e\u0432 \u0412\u0430\u0434\u0438\u043c \u041f\u0435\u0442\u0440\u043e\u0432\u0438\u0447",
    "rating": 0.05227175914769106
  },
  "28396": {
    "name": "\u041c\u0438\u043b\u044e\u0442\u0430 \u041e\u043b\u0435\u0433 \u042d\u0434\u0432\u0430\u0440\u0434\u043e\u0432\u0438\u0447",
    "rating": 1.3703616362177065
  }
}