{
  "52292": {
    "name": "\u041a\u0438\u044f\u0441\u043e\u0432 \u0412\u043b\u0430\u0434\u0438\u043c\u0438\u0440 \u041d\u0438\u043a\u043e\u043b\u0430\u0435\u0432\u0438\u0447",
    "rating": 1.0050945378321108
  },
  "52297": {
    "name": "\u041a\u0443\u043b\u0438\u043a \u0418\u043b\u044c\u044f \u0421\u0435\u0440\u0433\u0435\u0435\u0432\u0438\u0447",
    "rating": 1.0081594230350222
  }
}