{
  "558": {
    "name": "\u0415\u0432\u043a\u0443\u0440\u043e\u0432 \u042e\u043d\u0443\u0441-\u0411\u0435\u043a \u0411\u0430\u043c\u0430\u0442\u0433\u0438\u0440\u0435\u0435\u0432\u0438\u0447",
    "rating": 2.328477567030516
  }
}