{
  "28266": {
    "name": "\u0411\u0430\u0440\u044b\u0448\u043d\u0438\u043a\u043e\u0432 \u041c\u0438\u0445\u0430\u0438\u043b \u0418\u0432\u0430\u043d\u043e\u0432\u0438\u0447",
    "rating": 0.312051367269219
  },
  "28292": {
    "name": "\u0428\u0438\u0444\u043c\u0430\u043d \u0410\u043b\u0435\u043a\u0441\u0430\u043d\u0434\u0440 \u0412\u0438\u043a\u0442\u043e\u0440\u043e\u0432\u0438\u0447",
    "rating": 2.070108166996147
  },
  "28328": {
    "name": "\u0421\u043e\u0440\u043e\u043a\u0438\u043d\u0430 \u0415\u043b\u0435\u043d\u0430 \u0412\u0430\u043b\u0435\u043d\u0442\u0438\u043d\u043e\u0432\u043d\u0430",
    "rating": 0.3472271909279174
  }
}