{
  "28409": {
    "name": "\u0411\u0435\u043b\u0435\u043d\u043a\u043e\u0432 \u0412\u0430\u043b\u0435\u0440\u0438\u0439 \u041d\u0438\u043a\u043e\u043b\u0430\u0435\u0432\u0438\u0447",
    "rating": 2.435913811230044
  }
}