{
  "28261": {
    "name": "\u0417\u0438\u0431\u0430\u0440\u0435\u0432 \u0412\u0430\u043b\u0435\u0440\u0438\u0439 \u0412\u0438\u043a\u0442\u043e\u0440\u043e\u0432\u0438\u0447",
    "rating": 0.2674204565092441
  },
  "28286": {
    "name": "\u0421\u044b\u0437\u0440\u0430\u043d\u0446\u0435\u0432 \u041c\u0438\u0445\u0430\u0438\u043b \u042e\u0440\u044c\u0435\u0432\u0438\u0447",
    "rating": 1.1082016941913408
  },
  "28300": {
    "name": "\u041d\u0435\u0444\u0435\u0434\u043e\u0432 \u042e\u0440\u0438\u0439 \u042e\u0440\u044c\u0435\u0432\u0438\u0447",
    "rating": 0.5726682807536572
  },
  "28314": {
    "name": "\u041a\u0443\u0437\u044c\u043c\u0438\u043d\u0430 \u0418\u0440\u0438\u043d\u0430 \u0412\u0430\u043b\u0435\u0440\u044c\u0435\u0432\u043d\u0430",
    "rating": 3.379533397698472e-13
  },
  "28322": {
    "name": "\u0412\u043e\u0440\u043e\u043d\u0446\u043e\u0432 \u0410\u043d\u0434\u0440\u0435\u0439 \u041d\u0438\u043a\u043e\u043b\u0430\u0435\u0432\u0438\u0447",
    "rating": 0.0
  },
  "28325": {
    "name": "\u0412\u043e\u0440\u043e\u0431\u0446\u043e\u0432 \u0410\u043d\u0434\u0440\u0435\u0439 \u041d\u0438\u043a\u043e\u043b\u0430\u0435\u0432\u0438\u0447",
    "rating": 0.007568031111668288
  }
}