{
  "407": {
    "name": "\u0411\u043e\u0440\u0438\u0441\u043e\u0432 \u0415\u0433\u043e\u0440 \u0410\u0444\u0430\u043d\u0430\u0441\u044c\u0435\u0432\u0438\u0447",
    "rating": 1.3974598601673576
  }
}