{
  "23026": {
    "name": "\u041a\u0440\u043e\u0442\u043e\u0432 \u0410\u043b\u0435\u043a\u0441\u0430\u043d\u0434\u0440 \u041d\u0438\u043a\u043e\u043b\u0430\u0435\u0432\u0438\u0447",
    "rating": 1.2800156042994346
  }
}