{
  "22031": {
    "name": "\u0412\u043b\u0430\u0434\u0438\u043c\u0438\u0440\u043e\u0432 \u0412\u0430\u0434\u0438\u043c \u0412\u0430\u043b\u0435\u0440\u044c\u0435\u0432\u0438\u0447",
    "rating": 1.3944256493453129
  },
  "23171": {
    "name": "\u0422\u0443\u043a\u0430\u0435\u0432 \u0412\u044f\u0447\u0435\u0441\u043b\u0430\u0432 \u0410\u043b\u0435\u043a\u0441\u0430\u043d\u0434\u0440\u043e\u0432\u0438\u0447",
    "rating": 1.7593463619963772
  },
  "23172": {
    "name": "\u042f\u043a\u043e\u0432\u043b\u0435\u0432 \u041f\u0435\u0442\u0440 \u0412\u043b\u0430\u0434\u0438\u043c\u0438\u0440\u043e\u0432\u0438\u0447",
    "rating": 0.6535068623492658
  },
  "23173": {
    "name": "\u0417\u0430\u0438\u043a\u0430 \u041e\u043b\u0435\u0433 \u0412\u0438\u043a\u0442\u043e\u0440\u043e\u0432\u0438\u0447",
    "rating": 0.02549430735582401
  },
  "23174": {
    "name": "\u041a\u043e\u0437\u043b\u043e\u0432\u0430 \u041e\u043b\u044c\u0433\u0430 \u0410\u043b\u0435\u043a\u0441\u0430\u043d\u0434\u0440\u043e\u0432\u043d\u0430",
    "rating": 2.029980050993448
  },
  "23175": {
    "name": "\u041b\u0443\u0447\u043d\u0438\u043a\u043e\u0432 \u0420\u043e\u043c\u0430\u043d \u0412\u0430\u043b\u0435\u0440\u044c\u0435\u0432\u0438\u0447",
    "rating": 0.013830807476742805
  },
  "23176": {
    "name": "\u0421\u043e\u043a\u043e\u043b\u043e\u0432\u0430 \u0418\u0440\u0438\u043d\u0430 \u041f\u0435\u0442\u0440\u043e\u0432\u043d\u0430",
    "rating": 1.7444044864168151
  },
  "23177": {
    "name": "\u0412\u0430\u0441\u0438\u043b\u044c\u0435\u0432 \u0414\u043c\u0438\u0442\u0440\u0438\u0439 \u0412",
    "rating": 1.4775180851706695
  },
  "23178": {
    "name": "\u0411\u0435\u043b\u044f\u0435\u0432 \u0410\u043b\u0435\u043a\u0441\u0430\u043d\u0434\u0440 \u041d\u0438\u043a\u043e\u043b\u0430\u0435\u0432\u0438\u0447",
    "rating": 3.3198966757270143
  },
  "23179": {
    "name": "\u041b\u044e\u0431\u0438\u043c\u043e\u0432 \u041a\u043e\u043d\u0441\u0442\u0430\u043d\u0442\u0438\u043d \u0415\u0432\u0433\u0435\u043d\u044c\u0435\u0432\u0438\u0447",
    "rating": 0.5866534949128249
  },
  "23180": {
    "name": "\u0427\u0430\u0449\u0438\u0445\u0438\u043d\u0430 \u0421\u0432\u0435\u0442\u043b\u0430\u043d\u0430 \u0413\u0435\u043e\u0440\u0433\u0438\u0435\u0432\u043d\u0430",
    "rating": 0.7464879728094264
  },
  "23181": {
    "name": "\u0412\u043e\u043b\u043a\u043e\u0432 \u0414\u043c\u0438\u0442\u0440\u0438\u0439 \u0412\u0438\u043a\u0442\u043e\u0440\u043e\u0432\u0438\u0447",
    "rating": 3.379533397698472e-13
  },
  "23182": {
    "name": "\u041a\u0440\u0443\u0433\u043b\u043e\u0432\u0430 \u041d\u0430\u0442\u0430\u043b\u044c\u044f \u0412\u043b\u0430\u0434\u0438\u043c\u0438\u0440\u043e\u0432\u043d\u0430",
    "rating": 3.0
  },
  "23185": {
    "name": "\u041a\u043e\u043b\u043e\u043c\u0438\u0439\u0447\u0435\u043d\u043a\u043e \u041e\u043b\u0435\u0433 \u0412\u0430\u0441\u0438\u043b\u044c\u0435\u0432\u0438\u0447",
    "rating": 1.445875036554182
  },
  "23186": {
    "name": "\u041c\u0430\u0442\u044b\u0446\u0438\u043d \u042e\u0440\u0438\u0439 \u0410\u043b\u0435\u043a\u0441\u0430\u043d\u0434\u0440\u043e\u0432\u0438\u0447",
    "rating": 1.1309708602177215
  },
  "51081": {
    "name": "\u0413\u043e\u0440\u043e\u0448\u043a\u043e\u0432 \u0410\u043b\u0435\u043a\u0441\u0435\u0439 \u0412\u043b\u0430\u0434\u0438\u043c\u0438\u0440\u043e\u0432\u0438\u0447",
    "rating": 4.0
  },
  "51082": {
    "name": "\u0420\u043e\u0441\u043b\u043e\u0432\u0430 \u041e\u043b\u044c\u0433\u0430 \u0410\u043d\u0430\u0442\u043e\u043b\u044c\u0435\u0432\u043d\u0430",
    "rating": 0.3955821837791629
  },
  "51083": {
    "name": "\u0410\u043b\u0435\u043a\u0441\u0435\u0435\u0432 \u0412\u0430\u043b\u0435\u0440\u0438\u0439 \u0414\u043c\u0438\u0442\u0440\u0438\u0435\u0432\u0438\u0447",
    "rating": 0.02521743174785708
  }
}