{
  "22033": {
    "name": "\u041a\u043e\u0440\u0435\u043b\u0438\u043d \u0412\u043b\u0430\u0434\u0438\u043c\u0438\u0440 \u0412\u043b\u0430\u0434\u0438\u043c\u0438\u0440\u043e\u0432\u0438\u0447",
    "rating": 2.0
  },
  "22641": {
    "name": "\u0415\u0433\u043e\u0440\u043e\u0432 \u041c\u0438\u0445\u0430\u0438\u043b \u0414\u043c\u0438\u0442\u0440\u0438\u0435\u0432\u0438\u0447",
    "rating": 1.4749466908962772
  },
  "22642": {
    "name": "\u0412\u043e\u043b\u0447\u0435\u0446\u043a\u0430\u044f \u0413\u0430\u043b\u0438\u043d\u0430 \u0410\u043b\u0435\u043a\u0441\u0430\u043d\u0434\u0440\u043e\u0432\u043d\u0430",
    "rating": 1.2908617956919597
  }
}