{
  "3141": {
    "name": "\u0414\u0430\u0448\u043a\u0438\u043d \u041d\u0438\u043a\u043e\u043b\u0430\u0439 \u0424\u0435\u0434\u043e\u0440\u043e\u0432\u0438\u0447",
    "rating": 0.5760050189325693
  },
  "3142": {
    "name": "\u0410\u043b\u0435\u043a\u0441\u0435\u0435\u0432\u0430 \u0418\u0440\u0438\u043d\u0430 \u041e\u043b\u0435\u0433\u043e\u0432\u043d\u0430",
    "rating": 1.0140371042088694
  },
  "3143": {
    "name": "\u0411\u043e\u043b\u043e\u0442\u043e\u0432 \u042e\u0440\u0438\u0439 \u0410\u043d\u0430\u0442\u043e\u043b\u044c\u0435\u0432\u0438\u0447",
    "rating": 1.6419120126415792
  },
  "3144": {
    "name": "\u0413\u0438\u043a\u0441 \u0422\u0430\u043c\u0430\u0440\u0430 \u0410\u043b\u0435\u043a\u0441\u0430\u043d\u0434\u0440\u043e\u0432\u043d\u0430",
    "rating": 0.15130952441713605
  },
  "3145": {
    "name": "\u041b\u0435\u0431\u0435\u0434\u0435\u0432 \u0415\u0432\u0433\u0435\u043d\u0438\u0439 \u0410\u043b\u0435\u043a\u0441\u0430\u043d\u0434\u0440\u043e\u0432\u0438\u0447",
    "rating": 2.660869317219003
  },
  "3146": {
    "name": "\u0421\u0447\u0430\u0441\u0442\u043b\u0438\u0432\u0435\u043d\u043a\u043e \u0413\u0430\u043b\u0438\u043d\u0430 \u041c\u0438\u0445\u0430\u0439\u043b\u043e\u0432\u043d\u0430",
    "rating": 1.7267070447100439
  },
  "3147": {
    "name": "\u0414\u0440\u0435\u043d\u043a\u0445\u0430\u043d \u042d\u0434\u0443\u0430\u0440\u0434 \u0424\u0440\u0438\u0434\u0440\u0438\u0445\u043e\u0432\u0438\u0447",
    "rating": 0.5781859385144439
  },
  "3148": {
    "name": "\u0411\u043e\u0431\u043a\u043e\u0432 \u0412\u043b\u0430\u0434\u0438\u043c\u0438\u0440 \u041c\u0430\u043a\u0430\u0440\u043e\u0432\u0438\u0447",
    "rating": 1.4263426456346717
  },
  "3149": {
    "name": "\u0413\u0435\u043e\u0440\u0433\u0438\u0435\u0432\u0430 \u0421\u0432\u0435\u0442\u043b\u0430\u043d\u0430 \u0412\u0430\u0441\u0438\u043b\u044c\u0435\u0432\u043d\u0430",
    "rating": 0.6561721915306171
  },
  "3150": {
    "name": "\u0425\u043c\u0430\u0440\u0430 \u0410\u043b\u0438\u043d\u0430 \u0421\u0435\u0440\u0433\u0435\u0435\u0432\u043d\u0430",
    "rating": 5.55077852037795e-13
  },
  "3151": {
    "name": "\u0428\u0432\u0435\u0446\u043e\u0432\u0430 \u0421\u0432\u0435\u0442\u043b\u0430\u043d\u0430 \u041d\u0438\u043a\u043e\u043b\u0430\u0435\u0432\u043d\u0430",
    "rating": 0.7452564577417182
  },
  "3152": {
    "name": "\u0415\u043c\u043a\u043e\u0432\u0430 \u0421\u0432\u0435\u0442\u043b\u0430\u043d\u0430 \u0412\u0435\u043d\u0438\u0430\u043c\u0438\u043d\u043e\u0432\u043d\u0430",
    "rating": 0.7946332013810509
  },
  "3153": {
    "name": "\u0414\u043c\u0438\u0442\u0440\u0438\u0435\u0432\u0430 \u042e\u043b\u0438\u044f \u0411\u043e\u0440\u0438\u0441\u043e\u0432\u043d\u0430",
    "rating": 1.7242740111522332
  },
  "3154": {
    "name": "\u0411\u044b\u0440\u0435\u043d\u043a\u043e\u0432\u0430 \u0415\u043b\u0435\u043d\u0430 \u0415\u0432\u0433\u0435\u043d\u044c\u0435\u0432\u043d\u0430",
    "rating": 1.5618193175298742
  },
  "3155": {
    "name": "\u0422\u0435\u0440\u043b\u0435\u0446\u043a\u0430\u044f \u0415\u043b\u0435\u043d\u0430 \u041d\u0438\u043a\u043e\u043b\u0430\u0435\u0432\u043d\u0430",
    "rating": 0.35303471659704994
  },
  "3156": {
    "name": "\u0422\u0430\u0440\u0430\u0448\u043a\u0435\u0432\u0438\u0447 \u041d\u0430\u0442\u0430\u043b\u044c\u044f \u0421\u0435\u0440\u0433\u0435\u0435\u0432\u043d\u0430",
    "rating": 0.7953401344447111
  },
  "3157": {
    "name": "\u0428\u0435\u0440\u0441\u0442\u043d\u0435\u0432 \u0412\u0438\u043a\u0442\u043e\u0440 \u0412\u043b\u0430\u0434\u0438\u043c\u0438\u0440\u043e\u0432\u0438\u0447",
    "rating": 0.5124255535427816
  },
  "3158": {
    "name": "\u041a\u043e\u0442\u043e\u0432\u0430 \u041a\u0430\u043b\u0435\u0440\u0438\u044f \u0413\u0435\u043e\u0440\u0433\u0438\u0435\u0432\u043d\u0430",
    "rating": 0.4199249350177234
  },
  "3159": {
    "name": "\u0412\u0430\u043b\u0438\u0442\u043e\u0432 \u0412\u044f\u0447\u0435\u0441\u043b\u0430\u0432 \u0424\u0430\u043d\u0438\u043b\u044c\u0435\u0432\u0438\u0447",
    "rating": 1.5738036806755495
  },
  "3165": {
    "name": "\u041d\u0430\u0437\u0430\u0440\u0435\u043d\u043a\u043e \u041e\u043b\u0435\u0441\u044f \u0410\u043d\u0430\u0442\u043e\u043b\u044c\u0435\u0432\u043d\u0430",
    "rating": 1.3583426874282178
  },
  "3166": {
    "name": "\u0413\u0440\u0443\u0431\u0438\u0437\u043d\u0430\u044f \u0418\u0440\u0438\u043d\u0430 \u0410\u043b\u0435\u043a\u0441\u0430\u043d\u0434\u0440\u043e\u0432\u043d\u0430",
    "rating": 0.3518881902738833
  },
  "3167": {
    "name": "\u041a\u043e\u0432\u0430\u043b\u0435\u043d\u043a\u043e \u0415\u043b\u0435\u043d\u0430 \u0421\u0435\u0440\u0433\u0435\u0435\u0432\u043d\u0430",
    "rating": 5.55077852037795e-13
  },
  "3168": {
    "name": "\u041a\u0443\u0437\u043d\u0435\u0446\u043e\u0432\u0430 \u0422\u0430\u0442\u044c\u044f\u043d\u0430 \u0418\u0432\u0430\u043d\u043e\u0432\u043d\u0430",
    "rating": 2.3343443306242104
  },
  "3169": {
    "name": "\u041a\u043e\u0432\u0430\u043b\u0435\u0432\u0430 \u0418\u0440\u0438\u043d\u0430 \u0410\u043d\u0430\u0442\u043e\u043b\u044c\u0435\u0432\u043d\u0430",
    "rating": 0.4833564228821413
  },
  "3170": {
    "name": "\u0429\u0443\u043a\u0438\u043d\u0430 \u0412\u0438\u0442\u0430 \u0412\u0438\u043a\u0442\u043e\u0440\u043e\u0432\u043d\u0430",
    "rating": 0.012503367086257905
  },
  "3171": {
    "name": "\u0411\u043e\u0440\u0438\u0441\u043e\u0432\u0430 \u0421\u0432\u0435\u0442\u043b\u0430\u043d\u0430 \u0418\u0432\u0430\u043d\u043e\u0432\u043d\u0430",
    "rating": 1.4082861106752829
  },
  "3172": {
    "name": "\u041a\u0430\u0440\u043f\u043e\u0432\u0430 \u041e\u043a\u0441\u0430\u043d\u0430 \u0421\u0435\u0440\u0433\u0435\u0435\u0432\u043d\u0430",
    "rating": 0.41388405949578494
  },
  "3173": {
    "name": "\u041a\u0430\u043b\u044c\u043d\u0438\u0446\u043a\u0430\u044f \u0412\u0430\u043b\u0435\u043d\u0442\u0438\u043d\u0430 \u042f\u043a\u043e\u0432\u043b\u0435\u0432\u043d\u0430",
    "rating": 0.42251518369454105
  },
  "3174": {
    "name": "\u041b\u0443\u0433\u0432\u0438\u0449\u0438\u043a \u041c\u0430\u0440\u0438\u043d\u0430 \u0421\u0435\u0440\u0433\u0435\u0435\u0432\u043d\u0430",
    "rating": 1.4830023450457326
  },
  "3175": {
    "name": "\u041f\u0440\u0430\u0447\u043a\u0438\u043d\u0430 \u0415\u043b\u0435\u043d\u0430 \u0410\u043b\u0435\u043a\u0441\u0430\u043d\u0434\u0440\u043e\u0432\u043d\u0430",
    "rating": 0.3758683923517222
  },
  "3176": {
    "name": "\u0421\u0435\u0440\u0433\u0443\u0448\u043a\u0438\u043d\u0430 \u0415\u043b\u0435\u043d\u0430 \u0421\u0435\u043c\u0435\u043d\u043e\u0432\u043d\u0430",
    "rating": 1.381376770373204
  },
  "3177": {
    "name": "\u042f\u043a\u043e\u0432\u0435\u043d\u043a\u043e \u041e\u043b\u044c\u0433\u0430 \u0412\u043b\u0430\u0434\u0438\u043c\u0438\u0440\u043e\u0432\u043d\u0430",
    "rating": 1.4908653714203275
  },
  "3178": {
    "name": "\u0421\u043e\u043b\u0434\u0430\u0442\u043e\u0432\u0430 \u0418\u0440\u0438\u043d\u0430 \u041d\u0438\u043a\u043e\u043b\u0430\u0435\u0432\u043d\u0430",
    "rating": 0.4491987251206993
  },
  "3179": {
    "name": "\u0421\u0430\u0432\u0438\u043d\u0446\u0435\u0432\u0430 \u0418\u0440\u0438\u043d\u0430 \u041d\u0438\u043a\u043e\u043b\u0430\u0435\u0432\u043d\u0430",
    "rating": 5.55077852037795e-13
  },
  "3180": {
    "name": "\u041b\u0443\u043d\u0434\u043e\u0432\u0441\u043a\u0430\u044f \u0422\u0430\u043c\u0430\u0440\u0430 \u0410\u043b\u0435\u043a\u0441\u0430\u043d\u0434\u0440\u043e\u0432\u043d\u0430",
    "rating": 0.11331732373059605
  },
  "3181": {
    "name": "\u041e\u0441\u0438\u043f\u0447\u0443\u043a \u0413\u0430\u043b\u0438\u043d\u0430 \u041b\u0435\u043e\u043d\u0438\u0434\u043e\u0432\u043d\u0430",
    "rating": 0.4638849137868467
  },
  "3182": {
    "name": "\u0420\u0430\u0444\u0435\u0435\u0432\u0430 \u042e\u043b\u0438\u044f \u0412\u0438\u043a\u0442\u043e\u0440\u043e\u0432\u043d\u0430",
    "rating": 0.3518881902733331
  },
  "3183": {
    "name": "\u0421\u0442\u0430\u0440\u0430\u043d\u043d\u0438\u043a \u0415\u043b\u0435\u043d\u0430 \u0418\u0432\u0430\u043d\u043e\u0432\u043d\u0430",
    "rating": 0.007613370300817262
  },
  "3184": {
    "name": "\u0421\u0435\u0432\u0435\u0440\u0435\u043d\u0447\u0438\u043a \u0412\u0430\u043b\u0435\u043d\u0442\u0438\u043d\u0430 \u041f\u0435\u0442\u0440\u043e\u0432\u043d\u0430",
    "rating": 0.3604360333945145
  },
  "3185": {
    "name": "\u041c\u0435\u043b\u0435\u0449\u0435\u043d\u043a\u043e \u0415\u043b\u0435\u043d\u0430 \u0412\u0438\u043a\u0442\u043e\u0440\u043e\u0432\u043d\u0430",
    "rating": 1.3399279922340923
  },
  "3186": {
    "name": "\u0413\u043d\u0430\u0442\u044e\u043a \u0418\u0440\u0438\u043d\u0430 \u0424\u0440\u0430\u043d\u0446\u0435\u0432\u043d\u0430",
    "rating": 1.5689464204315668
  },
  "3187": {
    "name": "\u041e\u0431\u0440\u0430\u0437\u0446\u043e\u0432\u0430 \u042e\u043b\u0438\u044f \u0413\u0435\u043e\u0440\u0433\u0438\u0435\u0432\u043d\u0430",
    "rating": 0.13392198776808614
  },
  "3188": {
    "name": "\u041f\u043e\u0437\u0434\u043d\u044f\u043a\u043e\u0432 \u042e\u0440\u0438\u0439 \u0410\u043b\u0435\u043a\u0441\u0430\u043d\u0434\u0440\u043e\u0432\u0438\u0447",
    "rating": 0.46715956366082506
  },
  "3189": {
    "name": "\u041a\u0440\u044e\u0447\u043a\u043e\u0432\u0430 \u0422\u0430\u0442\u044c\u044f\u043d\u0430 \u0424\u0435\u0434\u043e\u0440\u043e\u0432\u043d\u0430",
    "rating": 0.7426526286227502
  },
  "3190": {
    "name": "\u041a\u0443\u0433\u0443\u0448\u0435\u0432\u0430 \u0421\u0432\u0435\u0442\u043b\u0430\u043d\u0430 \u042e\u0440\u044c\u0435\u0432\u043d\u0430",
    "rating": 0.5080344444859041
  },
  "3191": {
    "name": "\u0429\u0435\u0440\u0431\u0430\u043a\u043e\u0432\u0430 \u0413\u0430\u043b\u0438\u043d\u0430 \u0418\u0432\u0430\u043d\u043e\u0432\u043d\u0430",
    "rating": 1.457683740796479
  },
  "3192": {
    "name": "\u0421\u0442\u0435\u043f\u0430\u043d\u043e\u0432\u0430 \u041e\u043b\u044c\u0433\u0430 \u041d\u0438\u043a\u043e\u043b\u0430\u0435\u0432\u043d\u0430",
    "rating": 3.4035729888599144
  },
  "3193": {
    "name": "\u041f\u0430\u0440\u0430\u043c\u043e\u043d\u043e\u0432\u0430 \u0421\u0432\u0435\u0442\u043b\u0430\u043d\u0430 \u0418\u0432\u0430\u043d\u043e\u0432\u043d\u0430",
    "rating": 2.581600979562665
  },
  "3194": {
    "name": "\u0413\u0440\u0438\u0433\u043e\u0440\u044f\u043d \u0410\u043d\u0434\u0440\u0435\u0439 \u0410\u0441\u0430\u0442\u0443\u0440\u043e\u0432\u0438\u0447",
    "rating": 0.3894576454036552
  },
  "3195": {
    "name": "\u042f\u0448\u0438\u043d\u0441\u043a\u0435\u043d\u0435 \u0422\u0430\u0442\u044c\u044f\u043d\u0430 \u0410\u043d\u0430\u0442\u043e\u043b\u044c\u0435\u0432\u043d\u0430",
    "rating": 1.6291870044840944
  },
  "3196": {
    "name": "\u0411\u0443\u0442\u043e\u0440\u043e\u0432\u0430 \u0415\u043b\u0435\u043d\u0430 \u0412\u0438\u043a\u0442\u043e\u0440\u043e\u0432\u043d\u0430",
    "rating": 1.4588862266362634
  },
  "3197": {
    "name": "\u0421\u0435\u0434\u0443\u043d\u043e\u0432\u0430 \u0422\u0430\u0442\u044c\u044f\u043d\u0430 \u0410\u043b\u0435\u043a\u0441\u0430\u043d\u0434\u0440\u043e\u0432\u043d\u0430",
    "rating": 4.3578963844134915
  },
  "3198": {
    "name": "\u042f\u0441\u044e\u043a \u0418\u0433\u043e\u0440\u044c \u041d\u0438\u043a\u043e\u043b\u0430\u0435\u0432\u0438\u0447",
    "rating": 0.4495187095383487
  },
  "3199": {
    "name": "\u041c\u0430\u043b\u0438\u043a\u043e\u0432\u0430 \u0422\u0430\u0442\u044c\u044f\u043d\u0430 \u0412\u043b\u0430\u0434\u0438\u043c\u0438\u0440\u043e\u0432\u043d\u0430",
    "rating": 1.457879537460827
  },
  "3200": {
    "name": "\u041d\u0430\u0437\u0430\u0440\u043e\u0432\u0430 \u041e\u043a\u0441\u0430\u043d\u0430 \u041f\u0430\u0432\u043b\u043e\u0432\u043d\u0430",
    "rating": 0.36023231044371834
  },
  "3201": {
    "name": "\u0424\u0438\u043b\u0438\u043f\u043f\u043e\u0432 \u0414\u043c\u0438\u0442\u0440\u0438\u0439 \u0412\u0438\u0442\u0430\u043b\u044c\u0435\u0432\u0438\u0447",
    "rating": 2.647864798964477
  },
  "3203": {
    "name": "\u0411\u0440\u044b\u043a\u043e\u0432\u0430 \u041d\u0430\u0434\u0435\u0436\u0434\u0430 \u0410\u043b\u044c\u0432\u0438\u0434\u0430\u0441\u043e\u0432\u043d\u0430",
    "rating": 0.190685672253212
  },
  "3204": {
    "name": "\u0412\u0430\u0433\u0438\u043d\u0430 \u041d\u0430\u0442\u0430\u043b\u044c\u044f \u0410\u043b\u0435\u043a\u0441\u0430\u043d\u0434\u0440\u043e\u0432\u043d\u0430",
    "rating": 0.3613074216222021
  },
  "3205": {
    "name": "\u0421\u0447\u0430\u0441\u0442\u043b\u0438\u0432\u0435\u043d\u043a\u043e \u0422\u0430\u0442\u044c\u044f\u043d\u0430 \u0413\u0435\u043e\u0440\u0433\u0438\u0435\u0432\u043d\u0430",
    "rating": 1.0
  },
  "3207": {
    "name": "\u041b\u044b\u0441\u0435\u043d\u043a\u043e \u0421\u0432\u0435\u0442\u043b\u0430\u043d\u0430 \u0418\u0432\u0430\u043d\u043e\u0432\u043d\u0430",
    "rating": 1.2994532792088644
  },
  "3209": {
    "name": "\u0421\u0442\u0435\u043f\u0430\u043d\u0435\u043d\u043a\u043e \u0415\u043b\u0435\u043d\u0430 \u0418\u0432\u0430\u043d\u043e\u0432\u043d\u0430",
    "rating": 1.8069043275806156
  },
  "3210": {
    "name": "\u0413\u043e\u0433\u043e\u043b\u0443\u0448\u043a\u043e \u041b\u044e\u0434\u043c\u0438\u043b\u0430 \u0410\u043b\u0435\u043a\u0441\u0435\u0435\u0432\u043d\u0430",
    "rating": 1.0102366666342304
  },
  "3212": {
    "name": "\u0416\u0443\u043a\u043e\u0432\u0430 \u041c\u0430\u0440\u0438\u043d\u0430 \u0413\u0435\u043e\u0440\u0433\u0438\u0435\u0432\u043d\u0430",
    "rating": 0.5884987082626003
  },
  "3214": {
    "name": "\u0421\u043e\u043f\u043e\u0432\u0430 \u041b\u044e\u0431\u043e\u0432\u044c \u041d\u0438\u043a\u043e\u043b\u0430\u0435\u0432\u043d\u0430",
    "rating": 0.11881481390002185
  },
  "3215": {
    "name": "\u041c\u0430\u043a\u0435\u0435\u043d\u043a\u043e\u0432\u0430 \u041d\u0430\u0442\u0430\u043b\u0438\u044f \u041c\u0438\u0445\u0430\u0439\u043b\u043e\u0432\u043d\u0430",
    "rating": 0.15322152347646856
  },
  "3216": {
    "name": "\u0420\u0435\u0434\u044c\u043a\u0438\u043d\u0430 \u0414\u0438\u043d\u0430 \u0412\u0430\u043b\u0435\u0440\u044c\u0435\u0432\u043d\u0430",
    "rating": 0.0
  },
  "3217": {
    "name": "\u0417\u0430\u0433\u043e\u0440\u0443\u043b\u044c\u043a\u043e \u041b\u0438\u0434\u0438\u044f \u0418\u0432\u0430\u043d\u043e\u0432\u043d\u0430",
    "rating": 0.2753238805168953
  },
  "3218": {
    "name": "\u041c\u0438\u0440\u043d\u0430\u044f \u0422\u0430\u0442\u044c\u044f\u043d\u0430 \u041d\u0438\u043a\u043e\u043b\u0430\u0435\u0432\u043d\u0430",
    "rating": 0.19402241293340086
  },
  "4110": {
    "name": "\u0422\u043b\u0443\u043c\u0430\u0447 \u0412\u0438\u0442\u0430\u043b\u0438\u0439 \u0410\u043b\u0435\u043a\u0441\u0430\u043d\u0434\u0440\u043e\u0432\u0438\u0447",
    "rating": 2.6818602934182625
  },
  "4145": {
    "name": "\u0428\u0443\u043c\u0435\u0439\u043a\u043e \u041d\u0430\u0442\u0430\u043b\u044c\u044f \u0412\u043b\u0430\u0434\u0438\u043c\u0438\u0440\u043e\u0432\u043d\u0430",
    "rating": 1.5058426645286964
  },
  "4147": {
    "name": "\u041b\u044f\u0448\u0435\u043d\u043a\u043e \u0421\u0432\u0435\u0442\u043b\u0430\u043d\u0430 \u0412\u0438\u043a\u0442\u043e\u0440\u043e\u0432\u043d\u0430",
    "rating": 2.5136504913875104
  },
  "4148": {
    "name": "\u0421\u0438\u043c\u043e\u043d \u041b\u0430\u0440\u0438\u0441\u0430 \u0413\u0435\u043d\u043d\u0430\u0434\u044c\u0435\u0432\u043d\u0430",
    "rating": 1.5070159365849094
  },
  "4149": {
    "name": "\u041c\u0430\u043b\u044b\u0448\u0435\u0432\u0430 \u0418\u0440\u0438\u043d\u0430 \u0412\u0430\u0441\u0438\u043b\u044c\u0435\u0432\u043d\u0430",
    "rating": 1.777611752545326
  },
  "4150": {
    "name": "\u042f\u0440\u043e\u0446 \u0422\u0430\u0442\u044c\u044f\u043d\u0430 \u041d\u0438\u043a\u043e\u043b\u0430\u0435\u0432\u043d\u0430",
    "rating": 3.7161826106733282
  },
  "4151": {
    "name": "\u0428\u043f\u0438\u043b\u0451\u0432\u0430 \u0410\u043d\u0436\u0435\u043b\u0438\u043a\u0430 \u0418\u0432\u0430\u043d\u043e\u0432\u043d\u0430",
    "rating": 1.5144072420453891
  },
  "4153": {
    "name": "\u041f\u0435\u0442\u0440\u043e\u0432\u0430 \u042e\u043b\u0438\u044f \u0418\u0433\u043e\u0440\u0435\u0432\u043d\u0430",
    "rating": 2.5319935716498767
  },
  "4154": {
    "name": "\u0421\u043e\u043a\u043e\u043b\u043e\u0432\u0441\u043a\u0438\u0439 \u0413\u0440\u0438\u0433\u043e\u0440\u0438\u0439 \u0424\u0435\u043b\u0438\u043a\u0441\u043e\u0432\u0438\u0447",
    "rating": 0.7037771395185308
  },
  "10325": {
    "name": "\u041a\u043e\u0442\u043e\u0447\u0438\u0433\u043e\u0432\u0430 \u041b\u044e\u0434\u043c\u0438\u043b\u0430  \u0421\u0435\u0440\u0433\u0435\u0435\u0432\u043d\u0430",
    "rating": 3.3040596231483232
  },
  "10326": {
    "name": "\u041c\u0430\u043a\u0435\u0435\u043d\u043a\u043e\u0432\u0430 \u041d\u0430\u0442\u0430\u043b\u044c\u044f \u0412.",
    "rating": 0.24938537466355234
  },
  "10327": {
    "name": "\u0412\u0430\u043b\u0438\u0442\u043e\u0432\u0430 \u041c.\u0410. ",
    "rating": 0.25190761274442475
  },
  "10328": {
    "name": "\u0428\u0435\u044f\u043d\u0435\u043d\u043a\u043e \u0418. \u0418.",
    "rating": 0.0
  },
  "10329": {
    "name": "\u0417\u0430\u0445\u0430\u0440\u0435\u043d\u043a\u043e \u041e.\u0421. ",
    "rating": 1.0
  },
  "10332": {
    "name": "\u041a\u043e\u043c\u0430\u0440 \u0418. \u0410.",
    "rating": 0.4323807364177186
  },
  "10333": {
    "name": "\u0414\u043e\u043c\u0430\u043d\u0438\u0446\u043a\u0430\u044f \u041d\u0430\u0442\u0430\u043b\u044c\u044f  \u0412\u043b\u0430\u0434\u0438\u043c\u0438\u0440\u043e\u0432\u043d\u0430",
    "rating": 0.33918015217206177
  },
  "10335": {
    "name": "\u0412\u0435\u0440\u0445\u043e\u0432\u044b\u0445 \u0418\u0440\u0438\u043d\u0430 \u0421\u0435\u0440\u0433\u0435\u0435\u0432\u043d\u0430",
    "rating": 0.4946540542609206
  },
  "10342": {
    "name": "\u0411\u0438\u043b\u0430\u043d\u0447\u0443\u043a \u0412\u0430\u0441\u0438\u043b\u0438\u0439  \u0412\u043b\u0430\u0434\u0438\u043c\u0438\u0440\u043e\u0432\u0438\u0447",
    "rating": 0.3662167877535552
  },
  "10352": {
    "name": "\u0422\u044b\u043c\u043a\u043e\u0432\u0430\u043d \u041d. \u041f.",
    "rating": 0.4701578068550505
  },
  "10354": {
    "name": "\u0421\u0442\u0435\u0433\u043d\u0438\u0435\u043d\u043a\u043e \u0421. \u0410.",
    "rating": 0.5851524277664151
  },
  "10355": {
    "name": "\u042f\u043a\u043e\u0432\u043b\u0435\u0432\u0430 \u0422. \u0421.",
    "rating": 0.2954649448763265
  },
  "10356": {
    "name": "\u0428\u0438\u043d\u043a\u0430\u0440\u0435\u0432\u0438\u0447 \u041b\u0435\u043e\u043d\u0438\u0434  \u041b\u0435\u043e\u043d\u0438\u0434\u043e\u0432\u0438\u0447",
    "rating": 1.2522160234312505
  },
  "10357": {
    "name": "\u0421\u0430\u0432\u0435\u043d\u043a\u043e\u0432\u0430 \u0415\u043b\u0435\u043d\u0430  \u041b\u044c\u0432\u043e\u0432\u043d\u0430",
    "rating": 1.4648361552299902
  },
  "10358": {
    "name": "\u041b\u0430\u0441\u044c\u043a\u043e\u0432\u0430 \u0415.\u042e. ",
    "rating": 0.4735333567992692
  },
  "10359": {
    "name": "\u0413\u0440\u0438\u0433\u044f\u043d \u0410.\u0410. ",
    "rating": 0.04962881970887558
  },
  "10360": {
    "name": "\u041f\u043e\u0440\u0443\u0431\u0430\u0439 \u042e.\u0412. ",
    "rating": 0.15156845351358098
  },
  "10361": {
    "name": "\u0414\u044c\u044f\u043a\u043e\u043d\u043e\u0432\u0430 \u042e.\u0410. ",
    "rating": 0.2528975532946673
  },
  "10362": {
    "name": "\u041a\u043e\u0440\u043e\u0442\u043a\u043e\u0432\u0430 \u0415.\u0410. ",
    "rating": 0.33666831880104625
  },
  "10363": {
    "name": "\u0421\u0442\u0430\u0440\u0430\u043d\u043d\u0438\u043a \u0415.\u0418. ",
    "rating": 0.01848288653207066
  },
  "10364": {
    "name": "\u0421\u043c\u0438\u0440\u043d\u043e\u0432\u0430 \u0415\u043b\u0435\u043d\u0430  \u0412\u043b\u0430\u0434\u0438\u043c\u0438\u0440\u043e\u0432\u043d\u0430",
    "rating": 0.5449887588096725
  },
  "10365": {
    "name": "\u0411\u0430\u0440\u0430\u043d\u043e\u0432\u0430 \u0415.\u041b. ",
    "rating": 5.55077852037795e-13
  },
  "10370": {
    "name": "\u041a\u0435\u043b\u044c\u043c\u0430\u043d\u0441\u043a\u0438\u0439 \u0414\u0430\u043d\u0438\u043b \u0421\u0435\u0440\u0433\u0435\u0435\u0432\u0438\u0447",
    "rating": 2.690931346592271
  },
  "10371": {
    "name": "\u041a\u0438\u0431\u0435\u0446 \u0412\u043b\u0430\u0434\u0438\u043c\u0438\u0440 \u041f\u0430\u043d\u0442\u0435\u043b\u0435\u0435\u0432\u0438\u0447",
    "rating": 0.8739565475309784
  },
  "10372": {
    "name": "\u0420\u043e\u043c\u0430\u043d\u043e\u0432\u0430 \u0421\u0432\u0435\u0442\u043b\u0430\u043d\u0430 \u0424\u0435\u0434\u043e\u0440\u043e\u0432\u043d\u0430",
    "rating": 2.804611256809435
  },
  "10373": {
    "name": "\u0421\u0438\u0434\u0430\u0440\u0447\u0443\u043a \u041e\u043b\u044c\u0433\u0430 \u0412\u043b\u0430\u0434\u0438\u043c\u0438\u0440\u043e\u0432\u043d\u0430",
    "rating": 1.7329518126938304
  },
  "10374": {
    "name": "\u0422\u043a\u0430\u0447\u0435\u0432\u0430 \u0415\u043b\u0435\u043d\u0430 \u041d\u0438\u043a\u043e\u043b\u0430\u0435\u0432\u043d\u0430",
    "rating": 1.7144408246403793
  },
  "10375": {
    "name": "\u0423\u0442\u043a\u0438\u043d\u0430 \u0413\u0430\u043b\u0438\u043d\u0430 \u0410\u043b\u0435\u043a\u0441\u0430\u043d\u0434\u0440\u043e\u0432\u043d\u0430",
    "rating": 1.7478246518393832
  },
  "10376": {
    "name": "\u0428\u0432\u0430\u0439\u0447\u0435\u043d\u043a\u043e \u0410\u043b\u0435\u043a\u0441\u0430\u043d\u0434\u0440 \u0411\u043e\u0440\u0438\u0441\u043e\u0432\u0438\u0447",
    "rating": 1.7347269925161597
  },
  "10377": {
    "name": "\u0429\u0435\u043c\u0435\u043b\u0435\u0432 \u041c\u0438\u0445\u0430\u0438\u043b \u0411\u043e\u0440\u0438\u0441\u043e\u0432\u0438\u0447",
    "rating": 1.4233119341208411
  },
  "20404": {
    "name": "\u041b\u0430\u043d\u0438\u043d \u0412\u0430\u043b\u0435\u0440\u0438\u0439 \u0418\u0432\u0430\u043d\u043e\u0432\u0438\u0447",
    "rating": 1.023028663353737
  },
  "20405": {
    "name": "\u0412\u0438\u043a\u0442\u043e\u0440\u0447\u0438\u043a \u041f\u0430\u0432\u0435\u043b \u0418\u0432\u0430\u043d\u043e\u0432\u0438\u0447",
    "rating": 1.643255336431625
  },
  "20406": {
    "name": "\u041f\u043e\u0440\u0443\u0431\u0430\u0439 \u042e\u043b\u0438\u044f \u0412\u043b\u0430\u0434\u0438\u043c\u0438\u0440\u043e\u0432\u043d\u0430",
    "rating": 0.13907394280406785
  },
  "20407": {
    "name": "\u041a\u0430\u0440\u0430\u0432\u0430\u0448\u043a\u0438\u043d\u0430 \u0410\u043d\u0430\u0441\u0442\u0430\u0441\u0438\u044f \u0413\u0435\u043d\u043d\u0430\u0434\u044c\u0435\u0432\u043d\u0430",
    "rating": 0.0010742689360184131
  },
  "20408": {
    "name": "\u0421\u0442\u0430\u0440\u0430\u043d\u043d\u0438\u043a \u0415. \u0418.",
    "rating": 0.018959012664557757
  },
  "20409": {
    "name": "\u0411\u0430\u043b\u0430\u043d\u0434\u0438\u043d\u0430 \u0424\u0430\u0442\u0438\u043c\u0430 \u0421\u043b\u0430\u0444\u0438\u0440\u043e\u0432\u043d\u0430",
    "rating": 0.2678866630694769
  },
  "20410": {
    "name": "\u0417\u0430\u043c\u044f\u0442\u0438\u043d\u0430 \u0410. \u0410.",
    "rating": 5.55077852037795e-13
  },
  "20411": {
    "name": "\u041a\u0430\u043f\u0435\u0442\u0438 \u0416\u0430\u043d\u043d\u0430 \u0411\u043e\u0440\u0438\u0441\u043e\u0432\u043d\u0430",
    "rating": 0.16102126366014946
  },
  "20412": {
    "name": "\u0413\u043e\u043d\u0447\u0430\u0440\u043e\u0432\u0430 \u0410. \u0410.",
    "rating": 5.55077852037795e-13
  },
  "20413": {
    "name": "\u041a\u043e\u0432\u0430\u043b\u044c\u0447\u0443\u043a \u041e. \u0412.",
    "rating": 0.03243644655953045
  },
  "20414": {
    "name": "\u041a\u0440\u0438\u0432\u043e\u0448\u0435\u0439 \u041b\u0435\u043d\u0430 \u0410\u043d\u0430\u0442\u043e\u043b\u044c\u0435\u0432\u043d\u0430",
    "rating": 1.0097148619166882
  },
  "20415": {
    "name": "\u0412\u0430\u043a\u0443\u043b\u0438\u043d\u0430 \u0410. \u0421.",
    "rating": 5.55077852037795e-13
  },
  "20416": {
    "name": "\u0413\u0443\u0437\u0438\u0435\u0432\u0430 \u042d. \u0412.",
    "rating": 0.0
  },
  "20449": {
    "name": "\u041f\u043b\u044e\u0433\u0438\u043d \u041d\u0438\u043a\u043e\u043b\u0430\u0439 \u0412\u0438\u043a\u0442\u043e\u0440\u043e\u0432\u0438\u0447",
    "rating": 2.0
  },
  "20450": {
    "name": "\u041a\u043e\u0436\u0435\u0432\u043d\u0438\u043a\u043e\u0432\u0430 \u0412\u0438\u043a\u0442\u043e\u0440\u0438\u044f \u0412\u043b\u0430\u0434\u0438\u043c\u0438\u0440\u043e\u0432\u043d\u0430",
    "rating": 0.0066711806647482405
  },
  "20451": {
    "name": "\u0410\u043d\u0442\u043e\u043d\u044e\u043a \u041b. \u041c.",
    "rating": 0.02705484679761084
  },
  "20452": {
    "name": "\u041c\u0435\u043b\u0438\u043d\u0430 \u0415. \u0421.",
    "rating": 0.018663803167680203
  },
  "20453": {
    "name": "\u0412\u043e\u043b\u044c\u043d\u044b\u0445 \u0410. \u041e.",
    "rating": 0.0
  },
  "20454": {
    "name": "\u0414\u0435\u043d\u0438\u0441\u0435\u043d\u043a\u043e \u0421\u0432\u0435\u0442\u043b\u0430\u043d\u0430 \u0415\u0432\u0433\u0435\u043d\u044c\u0435\u0432\u043d\u0430",
    "rating": 0.03603793407770258
  },
  "20455": {
    "name": "\u0412\u0435\u0434\u043c\u0443\u043a \u0410\u043d\u0434\u0440\u0435\u0439 \u042e\u0440\u044c\u0435\u0432\u0438\u0447",
    "rating": 1.0262223117794609
  },
  "20456": {
    "name": "\u041a\u043e\u0432\u0430\u043b\u044c \u0418\u0433\u043e\u0440\u044c \u0418\u0432\u0430\u043d\u043e\u0432\u0438\u0447",
    "rating": 1.0142601359660994
  },
  "20457": {
    "name": "\u041c\u0435\u0449\u0435\u0440\u044f\u043a\u043e\u0432\u0430 \u041d\u0430\u0442\u0430\u043b\u044c\u044f \u0412\u043b\u0430\u0434\u0438\u043c\u0438\u0440\u043e\u0432\u043d\u0430",
    "rating": 0.0
  },
  "20458": {
    "name": "\u041e\u0441\u043c\u0430\u043d\u043e\u0432\u0430 \u0422\u0430\u0442\u044c\u044f\u043d\u0430 \u042e\u0440\u044c\u0435\u0432\u043d\u0430",
    "rating": 0.0
  },
  "20459": {
    "name": "\u041f\u043b\u0435\u0442\u0435\u043d\u044c \u0410\u043b\u0435\u043a\u0441\u0430\u043d\u0434\u0440 \u0412\u0430\u0441\u0438\u043b\u044c\u0435\u0432\u0438\u0447",
    "rating": 1.0716194559988266
  },
  "20460": {
    "name": "\u0421\u0430\u043c\u043e\u0439\u043b\u043e\u0432 \u0412\u0430\u043b\u0435\u0440\u0438\u0439 \u041f\u0440\u043e\u0445\u043e\u0440\u043e\u0432\u0438\u0447",
    "rating": 1.3574654944016038
  },
  "20461": {
    "name": "\u0421\u0430\u043c\u0443\u0441\u0435\u0432\u0430 \u0410\u043b\u043b\u0430 \u041d\u0438\u043a\u043e\u043b\u0430\u0435\u0432\u043d\u0430",
    "rating": 0.204580189521356
  },
  "20462": {
    "name": "\u0421\u043e\u043b\u043e\u0448\u0435\u043d\u043a\u043e \u0421\u0435\u0440\u0433\u0435\u0439 \u041d\u0438\u043a\u043e\u043b\u0430\u0435\u0432\u0438\u0447",
    "rating": 0.2609152326679506
  },
  "20463": {
    "name": "\u041e\u043b\u0435\u0448\u043a\u0435\u0432\u0438\u0447 \u0415\u0432\u0433\u0435\u043d\u0438\u0439 \u041d\u0438\u043a\u043e\u043b\u0430\u0435\u0432\u0438\u0447",
    "rating": 0.04454482485465458
  },
  "20464": {
    "name": "\u0413\u0440\u0438\u0448\u0430\u043d\u043e\u0432\u0430 \u0415\u043b\u0435\u043d\u0430 \u042e\u0440\u044c\u0435\u0432\u043d\u0430",
    "rating": 0.0
  },
  "20465": {
    "name": "\u0413\u0430\u043b\u044c\u043a\u0435\u0432\u0438\u0447 \u0412\u043b\u0430\u0434\u0438\u0441\u043b\u0430\u0432 \u0413\u0435\u043d\u043d\u0430\u0434\u044c\u0435\u0432\u0438\u0447",
    "rating": 2.0
  },
  "20466": {
    "name": "\u0412\u0430\u0433\u0438\u043d \u0410\u043b\u0435\u043a\u0441\u0435\u0439 \u0418\u0432\u0430\u043d\u043e\u0432\u0438\u0447",
    "rating": 1.4225414360471902
  },
  "20467": {
    "name": "\u0413\u0430\u0440\u044c\u043a\u0438\u043d \u041d\u0438\u043a\u043e\u043b\u0430\u0439 \u041d\u0438\u043a\u043e\u043b\u0430\u0435\u0432\u0438\u0447",
    "rating": 0.1367583331978576
  },
  "20939": {
    "name": "\u0413\u043b\u0443\u0448\u043a\u043e\u0432 \u042e. \u0412.",
    "rating": 0.02893712114965175
  },
  "20940": {
    "name": "\u041a\u043e\u0440\u043e\u0433\u043e\u0434\u0441\u043a\u0430\u044f \u0415.\u041e. ",
    "rating": 0.017227954365895838
  },
  "20941": {
    "name": "\u0427\u0430\u043f\u043b\u044f \u041b. \u041d.",
    "rating": 0.029809642924064524
  },
  "20942": {
    "name": "\u0416\u0438\u0442\u043a\u043e\u0432\u0441\u043a\u0430\u044f \u0413. \u0418.",
    "rating": 0.08746356081421934
  },
  "20943": {
    "name": "\u0417\u0430\u0445\u0430\u0440\u0435\u043d\u043a\u043e \u041b. \u0410.",
    "rating": 0.033843356452491716
  },
  "20944": {
    "name": "\u0424\u0435\u0434\u043e\u0440\u043e\u0432\u0430 \u041d. \u0418.",
    "rating": 0.01647388061361498
  },
  "20945": {
    "name": "\u041c\u0430\u043c\u0430\u0442\u043e\u0432\u0430 \u0417. \u041e.",
    "rating": 1.0
  },
  "20946": {
    "name": "\u041c\u0438\u0445\u0438\u043d\u0430 \u041c. \u0414.",
    "rating": 0.031336157890169164
  },
  "20947": {
    "name": "\u0411\u0435\u043b\u044b\u0445 \u0415. \u0410.",
    "rating": 0.022305033262681524
  },
  "20948": {
    "name": "\u041b\u0435\u0448\u043a\u043e\u0432\u0438\u0447 \u0413. \u0410.",
    "rating": 0.14771085371025533
  },
  "20949": {
    "name": "\u0413\u043e\u0440\u0431\u0443\u043d\u043e\u0432\u0430 \u0412. \u0410.",
    "rating": 1.199905940613487
  },
  "20950": {
    "name": "\u0422\u044b\u0440\u0447\u0438\u043a \u0410. \u0412.",
    "rating": 0.18085335063102476
  },
  "20951": {
    "name": "\u0420\u0430\u0434\u043a\u0435\u0432\u0438\u0447 \u0410\u043b\u043b\u0430  \u041d\u0438\u043a\u043e\u043b\u0430\u0435\u0432\u043d\u0430",
    "rating": 0.02817526504385545
  },
  "20952": {
    "name": "\u041c\u043e\u0441\u0438\u043d\u0430 \u0412. \u0421.",
    "rating": 1.2157088819385748
  },
  "20953": {
    "name": "\u0428\u0438\u043b\u0435\u043d\u0438\u043d\u0430 \u0421. \u0410.",
    "rating": 0.02498155642177835
  },
  "20954": {
    "name": "\u041c\u0430\u0440\u044c\u044f\u0441\u043e\u0432\u0430 \u0422. \u0412.",
    "rating": 0.01153590730120125
  },
  "21494": {
    "name": "\u0426\u0430\u0440\u044c\u043a\u043e\u0432 \u041e\u043b\u0435\u0433 \u042f\u043a\u043e\u0432\u043b\u0435\u0432\u0438\u0447",
    "rating": 0.384594272757529
  },
  "21495": {
    "name": "\u0421\u044b\u0432\u0443\u043a \u041e\u043b\u0435\u0433 \u0413\u0440\u0438\u0433\u043e\u0440\u044c\u0435\u0432\u0438\u0447",
    "rating": 0.4202700507644737
  },
  "21496": {
    "name": "\u0417\u0433\u0435\u0440\u0441\u043a\u0438\u0439 \u0421\u0435\u0440\u0433\u0435\u0439 \u0410\u043d\u0430\u0442\u043e\u043b\u044c\u0435\u0432\u0438\u0447",
    "rating": 0.5772252973558475
  },
  "21497": {
    "name": "\u0417\u0430\u0445\u0430\u0440\u0435\u043d\u043a\u043e \u041b\u0430\u0440\u0438\u0441\u0430 \u0410\u043b\u0435\u043a\u0441\u0430\u043d\u0434\u0440\u043e\u0432\u043d\u0430",
    "rating": 1.3803599940342872
  },
  "21498": {
    "name": "\u041a\u0438\u0440\u0431\u0430\u0439 \u0418\u0432\u0430\u043d \u0418\u0432\u0430\u043d\u043e\u0432\u0438\u0447",
    "rating": 0.4242620108777421
  },
  "21499": {
    "name": "\u0418\u0437\u043e\u0442\u043e\u0432 \u0418\u0433\u043e\u0440\u044c \u0412\u0438\u043a\u0442\u043e\u0440\u043e\u0432\u0438\u0447",
    "rating": 0.5905430085699714
  },
  "21500": {
    "name": "\u0421\u0442\u0435\u0433\u043d\u0438\u0435\u043d\u043a\u043e \u0421\u0432\u0435\u0442\u043b\u0430\u043d\u0430 \u0410\u043d\u0430\u0442\u043e\u043b\u044c\u0435\u0432\u043d\u0430",
    "rating": 0.6136155783090491
  },
  "21501": {
    "name": "\u0412\u043e\u043b\u043a\u043e\u0432 \u0410\u043d\u0434\u0440\u0435\u0439 \u0415\u0432\u0433\u0435\u043d\u044c\u0435\u0432\u0438\u0447",
    "rating": 0.3735708120183283
  },
  "21502": {
    "name": "\u041a\u0430\u0440\u0442\u0430\u0448\u043e\u0432 \u0410\u043d\u0434\u0440\u0435\u0439 \u041a\u043e\u043d\u0441\u0442\u0430\u043d\u0442\u0438\u043d\u043e\u0432\u0438\u0447",
    "rating": 1.3457930342400108
  },
  "21503": {
    "name": "\u0410\u0444\u043e\u043d\u0438\u043d\u0430 \u0412\u0430\u043b\u0435\u043d\u0442\u0438\u043d\u0430 \u041c\u0438\u0445\u0430\u0439\u043b\u043e\u0432\u043d\u0430",
    "rating": 0.4500052911573769
  },
  "21504": {
    "name": "\u0421\u0435\u043c\u0438\u043a\u0440\u0430\u0441 \u042e\u0440\u0438\u0439 \u0413\u0435\u043e\u0440\u0433\u0438\u0435\u0432\u0438\u0447",
    "rating": 1.3457930342400108
  },
  "21505": {
    "name": "\u0425\u0440\u043e\u043c\u043e\u0432 \u0412\u043b\u0430\u0434\u0438\u0441\u043b\u0430\u0432 \u041d\u0438\u043a\u043e\u043b\u0430\u0435\u0432\u0438\u0447",
    "rating": 2.3180152564622327
  },
  "21506": {
    "name": "\u0411\u0443\u0440\u043a\u043e\u0432 \u041f\u0430\u0432\u0435\u043b \u0412\u043b\u0430\u0434\u0438\u043c\u0438\u0440\u043e\u0432\u0438\u0447",
    "rating": 0.5611314194754212
  },
  "21507": {
    "name": "\u0413\u0430\u0432\u0440\u0438\u043b\u043e\u0432 \u0410\u043b\u0435\u043a\u0441\u0435\u0439 \u0412\u044f\u0447\u0435\u0441\u043b\u0430\u0432\u043e\u0432\u0438\u0447",
    "rating": 0.39974337882889066
  },
  "21508": {
    "name": "\u0424\u043e\u043a\u0438\u043d\u0430 \u042e\u043b\u0438\u044f \u041c\u0438\u0445\u0430\u0439\u043b\u043e\u0432\u043d\u0430",
    "rating": 1.359650658007768
  },
  "21509": {
    "name": "\u041a\u043e\u0441\u0442\u044f\u0435\u0432 \u0412\u043b\u0430\u0434\u0438\u043c\u0438\u0440 \u0413\u0435\u043d\u043d\u0430\u0434\u044c\u0435\u0432\u0438\u0447",
    "rating": 1.3604406758844476
  },
  "21510": {
    "name": "\u0412\u0430\u0448\u043a\u0435\u043b\u044c \u041d\u043e\u043d\u043d\u0430 \u0415\u0432\u0433\u0435\u043d\u044c\u0435\u0432\u043d\u0430",
    "rating": 0.3938532570191536
  },
  "21511": {
    "name": "\u0428\u043f\u0430\u043a\u043e\u0432 \u0410\u0440\u0442\u0435\u043c \u0410\u043b\u0435\u043a\u0441\u0430\u043d\u0434\u0440\u043e\u0432\u0438\u0447",
    "rating": 4.0
  }
}