{
  "543": {
    "name": "\u041a\u0443\u043c\u043f\u0438\u043b\u043e\u0432 \u041c\u0443\u0440\u0430\u0442 \u041a\u0430\u0440\u0430\u043b\u044c\u0431\u0438\u0435\u0432\u0438\u0447",
    "rating": 3.641161219785266
  },
  "2825": {
    "name": "\u041f\u0435\u0442\u0440\u043e\u0432 \u0412\u043b\u0430\u0434\u0438\u043c\u0438\u0440 \u041d\u0438\u043a\u043e\u043b\u0430\u0435\u0432\u0438\u0447",
    "rating": 7.0
  },
  "2826": {
    "name": "\u041f\u0435\u0442\u0440\u0443\u0441\u0435\u043d\u043a\u043e \u0410\u043b\u0435\u043a\u0441\u0435\u0439 \u0413\u0435\u043e\u0440\u0433\u0438\u0435\u0432\u0438\u0447",
    "rating": 1.1396222891751815
  },
  "2827": {
    "name": "\u0424\u0435\u0434\u043e\u0440\u043e\u0432 \u0412\u043b\u0430\u0434\u0438\u0441\u043b\u0430\u0432 \u042e\u0440\u044c\u0435\u0432\u0438\u0447",
    "rating": 0.7753414840614345
  },
  "2828": {
    "name": "\u0414\u043e\u043b\u0435\u0432 \u0414\u043e\u0432\u043b\u0435\u0442\u0431\u0438\u0439 \u0417\u0430\u043a\u0435\u0440\u0435\u0435\u0432\u0438\u0447",
    "rating": 1.002724212520871
  },
  "2829": {
    "name": "\u0418\u0432\u0430\u0448\u0438\u043d \u0410\u043b\u0435\u043a\u0441\u0430\u043d\u0434\u0440 \u0411\u043e\u0440\u0438\u0441\u043e\u0432\u0438\u0447",
    "rating": 3.3765572067598786
  },
  "2830": {
    "name": "\u041a\u0430\u0440\u0442\u0430\u043c\u044b\u0448\u0435\u0432 \u0412\u0430\u043b\u0435\u0440\u0438\u0439 \u041d\u0438\u043a\u043e\u043b\u0430\u0435\u0432\u0438\u0447",
    "rating": 4.6078278864519335
  },
  "2831": {
    "name": "\u041a\u0443\u043b\u043e\u0432 \u041c\u0443\u0445\u0430\u043c\u0435\u0434 \u0425\u0430\u0434\u0436\u0438\u0431\u0435\u0447\u0438\u0440\u043e\u0432\u0438\u0447",
    "rating": 0.9828788389732764
  },
  "2832": {
    "name": "\u041c\u0435\u0440\u0435\u0442\u0443\u043a\u043e\u0432 \u0420\u0443\u0441\u0442\u0435\u043c \u0411\u0430\u0442\u044b\u0440\u0431\u0438\u0435\u0432\u0438\u0447",
    "rating": 0.7881026867476961
  },
  "2833": {
    "name": "\u041e\u0441\u043e\u043a\u0438\u043d \u0410\u043d\u0430\u0442\u043e\u043b\u0438\u0439 \u042f\u043a\u043e\u0432\u043b\u0435\u0432\u0438\u0447",
    "rating": 1.0932129135940305
  },
  "2834": {
    "name": "\u041f\u0435\u0442\u0440\u043e\u0432 \u042e\u0440\u0438\u0439 \u041d\u0438\u043a\u043e\u043b\u0430\u0435\u0432\u0438\u0447",
    "rating": 6.541161219785267
  },
  "2835": {
    "name": "\u0422\u043b\u0435\u0445\u0430\u0441 \u041c\u0430\u0445\u043c\u0443\u0434 \u0410\u0437\u043c\u0435\u0442\u043e\u0432\u0438\u0447",
    "rating": 2.4918477407482698
  },
  "2836": {
    "name": "\u0422\u0440\u0430\u0445\u043e\u0432 \u0422\u0438\u043c\u0443\u0440 \u042d\u043d\u0432\u0435\u0440\u043e\u0432\u0438\u0447",
    "rating": 0.8058319575465075
  },
  "2837": {
    "name": "\u0425\u0443\u0430\u0436\u0435\u0432\u0430 \u0410\u043c\u0438\u043d\u0435\u0442 \u0428\u0443\u043c\u0430\u0444\u043e\u0432\u043d\u0430",
    "rating": 1.0712432706195745
  },
  "2838": {
    "name": "\u0428\u0438\u0440\u043e\u043a\u043e\u0432\u0430 \u041d\u0430\u0442\u0430\u043b\u044c\u044f \u0421\u0435\u0440\u0433\u0435\u0435\u0432\u043d\u0430",
    "rating": 0.9500588120839916
  },
  "2851": {
    "name": "\u0427\u0435\u043c\u0441\u043e \u0413\u0430\u0437\u0438\u0439 \u041a\u0443\u0448\u0443\u043a\u043e\u0432\u0438\u0447",
    "rating": 5.0
  },
  "16824": {
    "name": "\u041f\u043e\u043b\u0435\u0432\u043e\u0439 \u0412\u0430\u043b\u0435\u0440\u0438\u0439 \u0412\u0430\u043b\u0435\u0440\u044c\u0435\u0432\u0438\u0447",
    "rating": 0.8780030057424627
  },
  "16825": {
    "name": "\u041e\u0441\u043c\u0430\u043d\u043e\u0432 \u0410\u043b\u044c\u0431\u0435\u0440\u0442 \u0422\u0435\u0443\u0447\u0435\u0436\u043e\u0432\u0438\u0447",
    "rating": 2.990062737933199
  },
  "22202": {
    "name": "\u0417\u0430\u0444\u0435\u0441\u043e\u0432 \u0412\u043b\u0430\u0434\u0438\u0441\u043b\u0430\u0432 \u0413\u0443\u0447\u0435\u0432\u0438\u0447",
    "rating": 2.4531963205006297
  }
}