{
  "12904": {
    "name": "\u042d\u043b\u044c\u0431\u0438\u043a\u043e\u0432 \u0425\u043e\u043d\u0433\u043e\u0440 \u0411\u0430\u0434\u043c\u0430\u0435\u0432\u0438\u0447",
    "rating": 0.15452346595801986
  },
  "17038": {
    "name": "\u0428\u0430\u043b\u0445\u0430\u043a\u043e\u0432 \u0418\u0433\u043e\u0440\u044c \u0411\u0430\u0442\u044b\u0440\u043e\u0432\u0438\u0447",
    "rating": 0.9943145900598336
  },
  "17039": {
    "name": "\u0411\u0430\u0441\u0430\u043d\u0433\u043e\u0432 \u0421\u0430\u043d\u0430\u043b \u0421\u0435\u0440\u0433\u0435\u0435\u0432\u0438\u0447",
    "rating": 0.7891935207460039
  },
  "17040": {
    "name": "\u0413\u043e\u0440\u043e\u0434\u043e\u0432\u0438\u043a\u043e\u0432\u0430 \u0411\u043e\u0432\u0430 \u0411\u0430\u0441\u0430\u043d\u043e\u0432\u043d\u0430",
    "rating": 0.9810338351865336
  },
  "17041": {
    "name": "\u0414\u0430\u0433\u0438\u043d\u043e\u0432 \u0412\u0438\u0442\u0430\u043b\u0438\u0439 \u041d\u0438\u043a\u043e\u043b\u0430\u0435\u0432\u0438\u0447",
    "rating": 5.456709975915929
  },
  "17042": {
    "name": "\u0417\u043e\u0442\u043e\u0432 \u0418\u0433\u043e\u0440\u044c \u0410\u043b\u0435\u043a\u0441\u0430\u043d\u0434\u0440\u043e\u0432\u0438\u0447",
    "rating": 4.4879599759159285
  },
  "17043": {
    "name": "\u041b\u0430\u043d\u0446\u0430\u043d\u043e\u0432 \u041f\u0435\u0442\u0440 \u041f\u0435\u0442\u0440\u043e\u0432\u0438\u0447",
    "rating": 0.8534112438427349
  },
  "17044": {
    "name": "\u0411\u0430\u0434\u0438\u043d\u043e\u0432 \u0413\u0435\u043d\u043d\u0430\u0434\u0438\u0439 \u041a\u043e\u043d\u0441\u0442\u0430\u043d\u0442\u0438\u043d\u043e\u0432\u0438\u0447",
    "rating": 0.622321023064323
  },
  "17045": {
    "name": "\u0411\u0430\u0434\u043c\u0430\u0435\u0432 \u0411\u043e\u043e\u0432\u0430 \u0412\u0430\u0441\u0438\u043b\u044c\u0435\u0432\u0438\u0447",
    "rating": 0.6446229729312124
  },
  "17046": {
    "name": "\u041d\u0430\u0433\u0430\u0435\u0432 \u0420\u0443\u0441\u043b\u0430\u043d \u0422\u0430\u043f\u0430\u0435\u0432\u0438\u0447",
    "rating": 3.2267280079149527
  },
  "17047": {
    "name": "\u0411\u043e\u0442\u043e\u0432 \u041a\u0438\u0440\u0438\u043b\u043b \u0418\u0432\u0430\u043d\u043e\u0432\u0438\u0447",
    "rating": 0.6943647502861631
  },
  "17048": {
    "name": "\u0410\u043d\u0434\u0440\u0435\u0435\u0432 \u041d\u0438\u043a\u043e\u043b\u0430\u0439 \u0411\u043e\u0432\u0438\u0447",
    "rating": 0.9704836850463991
  },
  "17049": {
    "name": "\u041e\u0447\u0438\u0440\u043e\u0432 \u041d\u0438\u043a\u043e\u043b\u0430\u0439 \u041b\u0438\u0434\u0436\u0438\u0435\u0432\u0438\u0447",
    "rating": 0.9310277157799682
  },
  "17050": {
    "name": "\u0410\u0434\u044c\u044f\u0435\u0432 \u0421\u0430\u043d\u0430\u043b \u0411\u043e\u0440\u0438\u0441\u043e\u0432\u0438\u0447",
    "rating": 2.652234979434704
  },
  "17051": {
    "name": "\u0411\u043e\u043b\u0434\u044b\u0440\u0435\u0432 \u042d\u0440\u0434\u0435\u043d\u0438 \u0413\u0435\u043d\u043d\u0430\u0434\u044c\u0435\u0432\u0438\u0447",
    "rating": 2.034252830515141
  },
  "17052": {
    "name": "\u0411\u0430\u043b\u0434\u0430\u0448\u0438\u043d\u043e\u0432 \u041b\u0435\u0432 \u0412\u043b\u0430\u0434\u0438\u043b\u0435\u043d\u043e\u0432\u0438\u0447",
    "rating": 0.6984504270369426
  },
  "17053": {
    "name": "\u0413\u043b\u0443\u0448\u043a\u0438\u043d\u0430 \u041d\u0430\u0434\u0435\u0436\u0434\u0430 \u0413\u0440\u0438\u0433\u043e\u0440\u044c\u0435\u0432\u043d\u0430",
    "rating": 4.0
  },
  "17054": {
    "name": "\u0422\u043a\u0430\u0447\u0435\u0432\u0430 \u041d\u0435\u043b\u043b\u0438 \u0410\u043d\u0430\u0442\u043e\u043b\u044c\u0435\u0432\u043d\u0430",
    "rating": 1.8748975250112119
  },
  "17055": {
    "name": "\u041e\u043b\u044c\u0437\u044f\u0442\u0438\u0435\u0432\u0430 \u041c\u0430\u0440\u0438\u043d\u0430 \u041f\u0435\u0442\u0440\u043e\u0432\u043d\u0430",
    "rating": 0.6430967887954129
  },
  "17056": {
    "name": "\u041c\u0430\u043d\u0446\u0430\u0435\u0432 \u041d\u0438\u043a\u043e\u043b\u0430\u0439 \u0413\u0430\u0440\u044f\u0435\u0432\u0438\u0447",
    "rating": 3.0
  },
  "22252": {
    "name": "\u0411\u0430\u0434\u043c\u0430-\u0413\u0430\u0440\u044f\u0435\u0432 \u041c\u0435\u0440\u0433\u0435\u043d \u0421\u0435\u0440\u0433\u0435\u0435\u0432\u0438\u0447",
    "rating": 2.3456458897923578
  },
  "22253": {
    "name": "\u0411\u043e\u043b\u0430\u0435\u0432 \u0411\u0430\u0430\u0442\u0440 \u041a\u0430\u043d\u0443\u0440\u043e\u0432\u0438\u0447",
    "rating": 5.0
  }
}