{
  "17346": {
    "name": "\u041a\u043e\u043d\u0434\u0440\u0430\u0442\u044c\u0435\u0432 \u0410\u043b\u0435\u043a\u0441\u0435\u0439 \u0414\u043c\u0438\u0442\u0440\u0438\u0435\u0432\u0438\u0447",
    "rating": 3.0
  }
}