{
  "17293": {
    "name": "\u0421\u0443\u0448\u043a\u043e\u0432 \u0412\u043b\u0430\u0434\u0438\u043c\u0438\u0440 \u0424\u0435\u0434\u043e\u0440\u043e\u0432\u0438\u0447",
    "rating": 1.918995478001929
  },
  "17294": {
    "name": "\u0414\u0435\u0440\u0433\u0443\u043d\u043e\u0432 \u0415\u0432\u0433\u0435\u043d\u0438\u0439 \u0418\u0432\u0430\u043d\u043e\u0432\u0438\u0447",
    "rating": 1.1298248502044586
  },
  "17295": {
    "name": "\u041a\u0438\u0440\u0435\u0435\u0432 \u0412\u043b\u0430\u0434\u0438\u043c\u0438\u0440 \u0413\u0430\u0432\u0440\u0438\u043b\u043e\u0432\u0438\u0447",
    "rating": 0.8235815578679698
  },
  "17296": {
    "name": "\u041a\u043d\u044f\u0437\u044c\u043a\u043e\u0432 \u0418\u0433\u043e\u0440\u044c \u0412\u0430\u0441\u0438\u043b\u044c\u0435\u0432\u0438\u0447",
    "rating": 1.1287928043689317
  },
  "17298": {
    "name": "\u041b\u0430\u0440\u044c\u043a\u043e\u0432 \u041d\u0438\u043a\u043e\u043b\u0430\u0439 \u0421\u0435\u0440\u0433\u0435\u0435\u0432\u0438\u0447",
    "rating": 0.7499350660603609
  },
  "17299": {
    "name": "\u041c\u0430\u0437\u043e\u0432 \u0412\u043b\u0430\u0434\u0438\u043c\u0438\u0440 \u041d\u0438\u043a\u043e\u043b\u0430\u0435\u0432\u0438\u0447",
    "rating": 1.775656161708434
  },
  "17300": {
    "name": "\u041c\u0430\u0440\u0435\u0441\u044c\u0435\u0432 \u0412\u0430\u043b\u0435\u0440\u0438\u0439 \u0412\u0430\u043b\u0435\u0440\u044c\u0435\u0432\u0438\u0447",
    "rating": 1.861064011176364
  },
  "17301": {
    "name": "\u041c\u0435\u0440\u043a\u0443\u0448\u043a\u0438\u043d \u0410\u043b\u0435\u043a\u0441\u0435\u0439 \u041d\u0438\u043a\u043e\u043b\u0430\u0435\u0432\u0438\u0447",
    "rating": 2.6320816870653068
  },
  "17302": {
    "name": "\u041c\u043e\u0440\u043e\u0437\u043e\u0432 \u041c\u0438\u0445\u0430\u0438\u043b \u042e\u0440\u044c\u0435\u0432\u0438\u0447",
    "rating": 0.7524161080674454
  },
  "17303": {
    "name": "\u0420\u0430\u0442\u043d\u0438\u043a\u043e\u0432 \u0410\u043b\u0435\u043a\u0441\u0430\u043d\u0434\u0440 \u0412\u044f\u0447\u0435\u0441\u043b\u0430\u0432\u043e\u0432\u0438\u0447",
    "rating": 1.259515117954359
  },
  "17304": {
    "name": "\u0420\u0443\u0436\u0435\u043d\u043a\u043e\u0432 \u0412\u043b\u0430\u0434\u0438\u043c\u0438\u0440 \u0412\u0438\u043a\u0442\u043e\u0440\u043e\u0432\u0438\u0447",
    "rating": 6.0
  },
  "17305": {
    "name": "\u0420\u044f\u0437\u0430\u043d\u043e\u0432 \u0410\u043b\u0435\u043a\u0441\u0435\u0439 \u0412\u043b\u0430\u0434\u0438\u043c\u0438\u0440\u043e\u0432\u0438\u0447",
    "rating": 2.159824486592309
  },
  "17306": {
    "name": "\u0421\u0435\u0434\u043e\u0432 \u0410\u043b\u0435\u043a\u0441\u0430\u043d\u0434\u0440 \u0418\u0432\u0430\u043d\u043e\u0432\u0438\u0447",
    "rating": 1.1925250343909228
  },
  "17307": {
    "name": "\u0421\u0438\u043c\u043e\u043d\u043e\u0432 \u0410\u043b\u0435\u043a\u0441\u0435\u0439 \u042e\u0440\u044c\u0435\u0432\u0438\u0447",
    "rating": 0.809237584075284
  },
  "17308": {
    "name": "\u0421\u0438\u0434\u043e\u0440\u043e\u0432 \u0412\u043b\u0430\u0434\u0438\u043c\u0438\u0440 \u041d\u0438\u043a\u043e\u043b\u0430\u0435\u0432\u0438\u0447",
    "rating": 6.5320816870653085
  },
  "17309": {
    "name": "\u0421\u043e\u043a\u043e\u043b\u043e\u0432 \u041e\u043b\u0435\u0433 \u0410\u043b\u0435\u043a\u0441\u0430\u043d\u0434\u0440\u043e\u0432\u0438\u0447",
    "rating": 3.8452050822054122
  },
  "17310": {
    "name": "\u0422\u0435\u0440\u0435\u043b\u043e\u0432 \u0415\u0432\u0433\u0435\u043d\u0438\u0439 \u0410\u043b\u0435\u043a\u0441\u0430\u043d\u0434\u0440\u043e\u0432\u0438\u0447",
    "rating": 2.2186270145881246
  },
  "17311": {
    "name": "\u0422\u044e\u0440\u043a\u0438\u043d \u0410\u043b\u0435\u043a\u0441\u0435\u0439 \u041c\u0438\u0445\u0430\u0439\u043b\u043e\u0432\u0438\u0447",
    "rating": 3.7111921288935887
  },
  "17312": {
    "name": "\u0427\u0438\u043d\u0434\u044f\u0441\u043a\u0438\u043d \u0412\u0438\u043a\u0442\u043e\u0440 \u0418\u0432\u0430\u043d\u043e\u0432\u0438\u0447",
    "rating": 0.9051039354879032
  },
  "17313": {
    "name": "\u0427\u0443\u0448\u043a\u0438\u043d \u0410\u043d\u0430\u0442\u043e\u043b\u0438\u0439 \u041c\u0438\u0445\u0430\u0439\u043b\u043e\u0432\u0438\u0447",
    "rating": 1.698239563691748
  },
  "17314": {
    "name": "\u0428\u0430\u0440\u0430\u043f\u043e\u0432 \u0412\u043b\u0430\u0434\u0438\u043c\u0438\u0440 \u0418\u0432\u0430\u043d\u043e\u0432\u0438\u0447",
    "rating": 2.0949192346917647
  },
  "17315": {
    "name": "\u0428\u0443\u043c\u043a\u0438\u043d \u0412\u0430\u0441\u0438\u043b\u0438\u0439 \u0422\u0438\u043c\u043e\u0444\u0435\u0435\u0432\u0438\u0447",
    "rating": 2.2820977309394257
  },
  "17316": {
    "name": "\u042f\u0441\u0442\u0440\u0435\u0431\u0446\u0435\u0432 \u042e\u0440\u0438\u0439 \u0410\u043b\u0435\u043a\u0441\u0435\u0435\u0432\u0438\u0447",
    "rating": 0.6389407414688574
  },
  "17317": {
    "name": "\u0421\u043e\u043b\u0434\u0430\u0442\u043e\u0432\u0430 \u0415\u043b\u0435\u043d\u0430 \u041f\u0435\u0442\u0440\u043e\u0432\u043d\u0430",
    "rating": 0.02209616839302796
  },
  "22326": {
    "name": "\u0411\u043e\u0440\u0438\u0441\u043e\u0432 \u0414\u043c\u0438\u0442\u0440\u0438\u0439 \u041c\u0438\u0445\u0430\u0439\u043b\u043e\u0432\u0438\u0447",
    "rating": 1.8034831725079137
  },
  "22327": {
    "name": "\u041a\u0430\u043b\u0443\u0433\u0438\u043d \u0412\u0438\u0442\u0430\u043b\u0438\u0439 \u0410\u043d\u0430\u0442\u043e\u043b\u044c\u0435\u0432\u0438\u0447",
    "rating": 1.087015582818775
  },
  "22328": {
    "name": "\u041a\u043e\u043c\u0443\u0441\u043e\u0432 \u0413\u0435\u043d\u043d\u0430\u0434\u0438\u0439 \u041f\u0435\u0442\u0440\u043e\u0432\u0438\u0447",
    "rating": 0.2442307944095893
  },
  "22329": {
    "name": "\u041b\u043e\u0442\u0432\u0430\u043d\u043e\u0432\u0430 \u0413\u0430\u043b\u0438\u043d\u0430 \u0410\u043b\u0435\u043a\u0441\u0435\u0435\u0432\u043d\u0430",
    "rating": 2.123423746823695
  },
  "22330": {
    "name": "\u041c\u0430\u0440\u043a\u0430\u0447\u0435\u0432 \u0415\u0432\u0433\u0435\u043d\u0438\u0439 \u0415\u0432\u0433\u0435\u043d\u044c\u0435\u0432\u0438\u0447",
    "rating": 3.0
  }
}