{
  "17712": {
    "name": "\u041f\u0435\u0441\u043e\u0448\u0438\u043d \u0410\u043b\u0435\u043a\u0441\u0435\u0439 \u0412\u0430\u043b\u0435\u0440\u044c\u0435\u0432\u0438\u0447",
    "rating": 2.0656877169949657
  },
  "17714": {
    "name": "\u0428\u0430\u0439\u0445\u0440\u0430\u0437\u0438\u0435\u0432 \u0412\u0430\u0441\u0438\u043b\u044c \u0413\u0430\u0431\u0442\u0435\u043b\u0433\u0430\u044f\u0437\u043e\u0432\u0438\u0447",
    "rating": 2.0949751781943293
  },
  "17715": {
    "name": "\u0413\u0430\u0444\u0430\u0440\u043e\u0432 \u0428\u0430\u043c\u0438\u043b\u044c \u0425\u0430\u043c\u0438\u0442\u043e\u0432\u0438\u0447",
    "rating": 3.8822709550037104
  },
  "17716": {
    "name": "\u0428\u0430\u0439\u0445\u0443\u0442\u0434\u0438\u043d\u043e\u0432 \u0420\u043e\u043c\u0430\u043d \u0410\u043b\u0435\u043a\u0441\u0430\u043d\u0434\u0440\u043e\u0432\u0438\u0447",
    "rating": 2.5132185075199316
  },
  "17717": {
    "name": "\u0424\u0430\u0442\u0442\u0430\u0445\u043e\u0432 \u042d\u043d\u0433\u0435\u043b\u044c \u041d\u0430\u0432\u0430\u043f\u043e\u0432\u0438\u0447",
    "rating": 3.413443339362761
  },
  "17718": {
    "name": "\u0410\u0445\u043c\u0435\u0442\u043e\u0432 \u041c\u0430\u0440\u0430\u0442 \u0413\u043e\u0442\u043e\u0432\u0438\u0447",
    "rating": 4.854493177225932
  },
  "17719": {
    "name": "\u0410\u0445\u043c\u0435\u0442\u0448\u0438\u043d \u0420\u0430\u0432\u0438\u043b\u044c \u041a\u0430\u043b\u0438\u043c\u0443\u043b\u043b\u043e\u0432\u0438\u0447",
    "rating": 1.637148744550725
  },
  "17720": {
    "name": "\u0417\u0434\u0443\u043d\u043e\u0432 \u0410\u0440\u0442\u0435\u043c \u0410\u043b\u0435\u043a\u0441\u0435\u0435\u0432\u0438\u0447",
    "rating": 2.5321359814804376
  },
  "17721": {
    "name": "\u0413\u0430\u0439\u0437\u0430\u0442\u0443\u043b\u043b\u0438\u043d \u0420\u0430\u0434\u0438\u043a \u0420\u0430\u0443\u0444\u043e\u0432\u0438\u0447",
    "rating": 3.8822709550037104
  },
  "17722": {
    "name": "\u0413\u043b\u0443\u0445\u043e\u0432\u0430 \u041b\u0430\u0440\u0438\u0441\u0430 \u042e\u0440\u044c\u0435\u0432\u043d\u0430",
    "rating": 1.0163849599405137
  },
  "17723": {
    "name": "\u0421\u0438\u0431\u0430\u0433\u0430\u0442\u0443\u043b\u043b\u0438\u043d \u0410\u0439\u0440\u0430\u0442 \u041c\u0438\u043d\u043d\u0435\u043c\u0443\u043b\u043b\u043e\u0432\u0438\u0447",
    "rating": 1.6502638863337076
  },
  "17724": {
    "name": "\u0412\u0430\u0444\u0438\u043d \u0410\u0434\u0435\u043b\u044c \u042e\u043d\u0443\u0441\u043e\u0432\u0438\u0447",
    "rating": 2.6079956780544964
  },
  "17725": {
    "name": "\u0424\u0430\u0439\u0437\u0443\u043b\u043b\u0438\u043d \u0418\u0440\u0435\u043a \u042d\u043d\u0432\u0430\u0440\u043e\u0432\u0438\u0447",
    "rating": 3.712619523680588
  },
  "17726": {
    "name": "\u0425\u0430\u0431\u0438\u0431\u0443\u043b\u043b\u0438\u043d \u0420\u0430\u0444\u0438\u0441 \u0417\u0430\u0432\u0434\u0430\u0442\u043e\u0432\u0438\u0447",
    "rating": 2.910048732781488
  },
  "17727": {
    "name": "\u0421\u0430\u0444\u0438\u043d \u041b\u0435\u043d\u0430\u0440 \u0420\u0438\u043d\u0430\u0442\u043e\u0432\u0438\u0447",
    "rating": 3.8822709550037104
  },
  "17728": {
    "name": "\u041b\u0435\u043e\u043d\u043e\u0432 \u0412\u043b\u0430\u0434\u0438\u043c\u0438\u0440 \u0410\u043b\u0435\u043a\u0441\u0430\u043d\u0434\u0440\u043e\u0432\u0438\u0447",
    "rating": 3.5647046317601143
  },
  "17729": {
    "name": "\u0425\u0430\u043c\u0430\u0435\u0432 \u0410\u0437\u0430\u0442 \u041a\u0438\u044f\u043c\u043e\u0432\u0438\u0447",
    "rating": 1.5129068587383383
  },
  "17730": {
    "name": "\u041d\u0430\u0437\u0438\u0440\u043e\u0432 \u0410\u043b\u043c\u0430\u0441 \u0410\u043c\u0438\u043d\u043e\u0432\u0438\u0447",
    "rating": 2.910048732781488
  },
  "17731": {
    "name": "\u0417\u0430\u0440\u0438\u043f\u043e\u0432\u0430 \u042d\u043b\u044c\u043c\u0438\u0440\u0430 \u0410\u043c\u0438\u0440\u043e\u0432\u043d\u0430",
    "rating": 0.5493998750938609
  },
  "22484": {
    "name": "\u041a\u0430\u0440\u0438\u043c\u043e\u0432 \u0410\u043b\u044c\u0431\u0435\u0440\u0442 \u0410\u043d\u0432\u0430\u0440\u043e\u0432\u0438\u0447",
    "rating": 1.1409017562761707
  },
  "22485": {
    "name": "\u0410\u0431\u0434\u0443\u043b\u0433\u0430\u043d\u0438\u0435\u0432 \u0424\u0430\u0440\u0438\u0434 \u0421\u0443\u043b\u0442\u0430\u043d\u043e\u0432\u0438\u0447",
    "rating": 2.0
  }
}