{
  "828": {
    "name": "\u041a\u0430\u0440\u043b\u043e\u0432\u0430 \u041e\u043b\u044c\u0433\u0430 \u0410\u043d\u0430\u0442\u043e\u043b\u044c\u0435\u0432\u043d\u0430",
    "rating": 0.5438596215854198
  },
  "15622": {
    "name": "\u0410\u043a\u0431\u0443\u043b\u0430\u0442\u043e\u0432 \u042d\u0434\u0445\u0430\u043c \u0428\u0443\u043a\u0440\u0438\u0435\u0432\u0438\u0447",
    "rating": 2.4950793943858685
  },
  "15623": {
    "name": "\u0418\u0433\u043d\u0430\u0442\u0435\u043d\u043a\u043e \u0410\u043d\u0434\u0440\u0435\u0439 \u041b\u0435\u043e\u043d\u0438\u0434\u043e\u0432\u0438\u0447",
    "rating": 1.6452804197059565
  },
  "15624": {
    "name": "\u0422\u0438\u0442\u0435\u043d\u043a\u043e\u0432 \u0418\u0433\u043e\u0440\u044c \u041f\u0435\u0442\u0440\u043e\u0432\u0438\u0447",
    "rating": 0.4657606025876992
  },
  "15626": {
    "name": "\u0417\u0443\u0435\u0432\u0441\u043a\u0438\u0439 \u041c\u0438\u0445\u0430\u0438\u043b \u0424\u0435\u0434\u043e\u0440\u043e\u0432\u0438\u0447",
    "rating": 0.8542293273790604
  },
  "15627": {
    "name": "\u041e\u0432\u0447\u0438\u043d\u043d\u0438\u043a\u043e\u0432\u0430 \u042e\u043b\u0438\u044f \u0412\u044f\u0447\u0435\u0441\u043b\u0430\u0432\u043e\u0432\u043d\u0430",
    "rating": 0.6609304032870074
  },
  "15628": {
    "name": "\u0429\u0435\u0440\u0431\u0435\u043d\u0438\u043d \u0412\u043b\u0430\u0434\u0438\u043c\u0438\u0440 \u0424\u0435\u0434\u043e\u0440\u043e\u0432\u0438\u0447",
    "rating": 1.871597030406413
  },
  "15629": {
    "name": "\u0428\u043b\u043e\u043c\u0430 \u0410\u043d\u0434\u0440\u0435\u0439 \u0413\u0435\u043d\u043d\u0430\u0434\u044c\u0435\u0432\u0438\u0447",
    "rating": 0.7886344178277733
  },
  "15630": {
    "name": "\u0421\u0442\u0440\u0438\u0433\u0438\u043d \u042e\u0440\u0438\u0439 \u041c\u0438\u0445\u0430\u0439\u043b\u043e\u0432\u0438\u0447",
    "rating": 0.5137167101502476
  },
  "15631": {
    "name": "\u0421\u0435\u0442\u043e\u0432 \u0421\u0435\u0440\u0433\u0435\u0439 \u0410\u043b\u0435\u043a\u0441\u0430\u043d\u0434\u0440\u043e\u0432\u0438\u0447",
    "rating": 2.1368958102851705
  },
  "15632": {
    "name": "\u041a\u0438\u043c \u0418\u0433\u043e\u0440\u044c \u0412\u0430\u0434\u0438\u043c\u043e\u0432\u0438\u0447",
    "rating": 0.4536811673743208
  },
  "15633": {
    "name": "\u0425\u0430\u0441\u043d\u0443\u0442\u0434\u0438\u043d\u043e\u0432\u0430 \u0418\u0440\u0438\u043d\u0430 \u041d\u0430\u0442\u0444\u043e\u043b\u043e\u0432\u043d\u0430",
    "rating": 0.2415636379103586
  },
  "24120": {
    "name": "\u0413\u043b\u0438\u0441\u043a\u043e\u0432 \u0410\u043b\u0435\u043a\u0441\u0430\u043d\u0434\u0440 \u0410\u043b\u0435\u043a\u0441\u0430\u043d\u0434\u0440\u043e\u0432\u0438\u0447",
    "rating": 1.1078799205893115
  },
  "24121": {
    "name": "\u041a\u0430\u0437\u0430\u043d\u043e\u0432\u0430 \u0422\u0430\u0442\u044c\u044f\u043d\u0430 \u0418\u0432\u0430\u043d\u043e\u0432\u043d\u0430",
    "rating": 1.0073644364660104
  }
}