{
  "17126": {
    "name": "\u041c\u0430\u043a\u0438\u043d \u041c\u0430\u043a\u0441\u0438\u043c \u0410\u043b\u0435\u043a\u0441\u0430\u043d\u0434\u0440\u043e\u0432\u0438\u0447",
    "rating": 0.7328379298354737
  },
  "17127": {
    "name": "\u0412\u0430\u0448\u043b\u0430\u0435\u0432\u0430 \u041d\u0438\u043d\u0430 \u042e\u0440\u044c\u0435\u0432\u043d\u0430",
    "rating": 0.8203435778506291
  },
  "17128": {
    "name": "\u0413\u0430\u043c\u043c\u0435\u0440\u0448\u043c\u0438\u0434\u0442 \u0410\u043d\u0434\u0440\u0435\u0439 \u0410\u043b\u044c\u0431\u0435\u0440\u0442\u043e\u0432\u0438\u0447",
    "rating": 0.30215837280826097
  },
  "17129": {
    "name": "\u0412\u0430\u0449\u0435\u043d\u043a\u043e \u0421\u0435\u0440\u0433\u0435\u0439 \u041d\u0438\u043a\u043e\u043b\u0430\u0435\u0432\u0438\u0447",
    "rating": 0.3651803729787581
  },
  "17130": {
    "name": "\u0418\u0441\u043b\u0430\u043c\u043e\u0432 \u0414\u043c\u0438\u0442\u0440\u0438\u0439 \u0412\u0438\u043a\u0442\u043e\u0440\u043e\u0432\u0438\u0447",
    "rating": 0.4653013780251297
  },
  "17131": {
    "name": "\u041a\u0443\u0442\u044b\u043b\u043a\u0438\u043d\u0430 \u0415\u043a\u0430\u0442\u0435\u0440\u0438\u043d\u0430 \u0411\u043e\u0440\u0438\u0441\u043e\u0432\u043d\u0430",
    "rating": 3.3175838140415226
  },
  "17132": {
    "name": "\u041b\u0430\u0437\u0430\u0440\u0435\u0432 \u0410\u043d\u0430\u0442\u043e\u043b\u0438\u0439 \u0410\u043d\u0430\u0442\u043e\u043b\u044c\u0435\u0432\u0438\u0447",
    "rating": 0.5437243007586319
  },
  "17133": {
    "name": "\u0411\u0443\u0445\u043c\u0430\u043d \u0415\u0432\u0433\u0435\u043d\u0438\u0439 \u0421\u0435\u0440\u0433\u0435\u0435\u0432\u0438\u0447",
    "rating": 0.6982490116080611
  },
  "17134": {
    "name": "\u0421\u0435\u0440\u0435\u0434\u044e\u043a \u0418\u043b\u044c\u044f \u0412\u043b\u0430\u0434\u0438\u043c\u0438\u0440\u043e\u0432\u0438\u0447",
    "rating": 0.8020202240952412
  },
  "17135": {
    "name": "\u041f\u0430\u0445\u043e\u043c\u043e\u0432\u0430 \u0415\u043b\u0435\u043d\u0430 \u0410\u043b\u0435\u043a\u0441\u0435\u0435\u0432\u043d\u0430",
    "rating": 0.4075408931145964
  },
  "17136": {
    "name": "\u0421\u0435\u0440\u0433\u0435\u0435\u0432 \u0410\u043b\u0435\u043a\u0441\u0435\u0439 \u0421\u0442\u0430\u043d\u0438\u0441\u043b\u0430\u0432\u043e\u0432\u0438\u0447",
    "rating": 1.5065573053188202
  },
  "17137": {
    "name": "\u0418\u0432\u0430\u043d\u043e\u0432 \u0410\u043b\u0435\u043a\u0441\u0435\u0439 \u0412\u043b\u0430\u0434\u0438\u043c\u0438\u0440\u043e\u0432\u0438\u0447",
    "rating": 3.9185422526099183
  },
  "17138": {
    "name": "\u0426\u043e\u0439 \u0412\u0430\u043b\u0435\u0440\u0438\u0439 \u041a\u043e\u043d\u0441\u0442\u0430\u043d\u0442\u0438\u043d\u043e\u0432\u0438\u0447",
    "rating": 0.6434131211734784
  },
  "17139": {
    "name": "\u0417\u0435\u043b\u0435\u043d\u0438\u043d \u0410\u043b\u0435\u043a\u0441\u0435\u0439 \u0410\u043d\u0430\u0442\u043e\u043b\u044c\u0435\u0432\u0438\u0447",
    "rating": 0.5066967141452416
  },
  "17140": {
    "name": "\u041c\u0430\u0440\u0442\u0443\u0441\u043e\u0432 \u0410\u043b\u0435\u043a\u0441\u0430\u043d\u0434\u0440 \u041d\u0438\u043a\u043e\u043b\u0430\u0435\u0432\u0438\u0447",
    "rating": 0.8060636282465317
  },
  "17141": {
    "name": "\u0421\u043c\u043e\u043b\u0435\u0433\u043e \u0412\u0430\u043b\u0435\u0440\u0438\u0439 \u0413\u0435\u043e\u0440\u0433\u0438\u0435\u0432\u0438\u0447",
    "rating": 0.3789293153881271
  },
  "20106": {
    "name": "\u0414\u0430\u043d\u0438\u043b\u044c\u0447\u0435\u043d\u043a\u043e \u0410\u043b\u0435\u043a\u0441\u0430\u043d\u0434\u0440 \u0412\u043b\u0430\u0434\u0438\u043c\u0438\u0440\u043e\u0432\u0438\u0447",
    "rating": 3.0
  },
  "32667": {
    "name": "\u0427\u0435\u0440\u0434\u0430\u043d\u0446\u0435\u0432 \u0421\u0442\u0430\u043d\u0438\u0441\u043b\u0430\u0432 \u0410\u043b\u0435\u043a\u0441\u0430\u043d\u0434\u0440\u043e\u0432\u0438\u0447",
    "rating": 0.0
  },
  "32668": {
    "name": "\u0427\u0435\u0440\u043d\u043e\u0432 \u0412\u043b\u0430\u0434\u0438\u043c\u0438\u0440 \u041d\u0438\u043a\u043e\u043b\u0430\u0435\u0432\u0438\u0447",
    "rating": 3.3188669693841844
  },
  "32669": {
    "name": "\u041a\u043e\u0436\u0435\u0432\u0438\u043d \u0410\u043b\u0435\u043a\u0441\u0435\u0439 \u0412\u043b\u0430\u0434\u0438\u043c\u0438\u0440\u043e\u0432\u0438\u0447",
    "rating": 0.1930071388822389
  },
  "32670": {
    "name": "\u041c\u0430\u043b\u0430\u0445\u043e\u0432 \u0418\u0433\u043e\u0440\u044c \u042e\u0440\u044c\u0435\u0432\u0438\u0447",
    "rating": 0.2554538262486944
  },
  "32671": {
    "name": "\u0428\u0430\u043c\u0433\u0443\u043d\u043e\u0432 \u0414\u0435\u043d\u0438\u0441 \u0410\u043c\u0438\u0440\u043e\u0432\u0438\u0447",
    "rating": 0.0606403065583801
  },
  "32672": {
    "name": "\u0416\u0438\u0434\u043a\u043e\u0432\u0430 \u0415\u043b\u0435\u043d\u0430 \u0410\u043d\u0430\u0442\u043e\u043b\u044c\u0435\u0432\u043d\u0430",
    "rating": 0.02089392043768362
  },
  "33947": {
    "name": "\u041c\u0438\u0440\u043e\u0448\u043d\u0438\u043a \u0410\u043b\u0435\u043a\u0441\u0430\u043d\u0434\u0440 \u0418\u0432\u0430\u043d\u043e\u0432\u0438\u0447",
    "rating": 0.19761031927252265
  },
  "33948": {
    "name": "\u041e\u0441\u0442\u0435\u0440\u0434\u0430\u0433 \u0413\u0430\u043b\u0438\u043d\u0430 \u0412\u0430\u0441\u0438\u043b\u044c\u0435\u0432\u043d\u0430",
    "rating": 0.15864502511469172
  },
  "33949": {
    "name": "\u0428\u0430\u0431\u0430\u043d\u043e\u0432 \u0412\u0430\u043b\u0435\u0440\u0438\u0439 \u0410\u043b\u0435\u043a\u0441\u0435\u0435\u0432\u0438\u0447",
    "rating": 0.03802200743430685
  }
}