{
  "786": {
    "name": "\u0411\u043e\u0439\u0446\u043e\u0432 \u0412\u043b\u0430\u0434\u0438\u043c\u0438\u0440 \u0410\u043d\u0430\u0442\u043e\u043b\u044c\u0435\u0432\u0438\u0447",
    "rating": 0.2828357376001601
  },
  "787": {
    "name": "\u0413\u0440\u0435\u0431\u0435\u043d\u044c\u043a\u043e\u0432\u0430 \u041b\u044e\u0434\u043c\u0438\u043b\u0430 \u0410\u043b\u0435\u043a\u0441\u0430\u043d\u0434\u0440\u043e\u0432\u043d\u0430",
    "rating": 0.8517524889300837
  },
  "788": {
    "name": "\u0414\u0451\u043c\u0438\u043d \u0410\u043b\u0435\u043a\u0441\u0430\u043d\u0434\u0440 \u041f\u0435\u0442\u0440\u043e\u0432\u0438\u0447",
    "rating": 0.9441372152386108
  },
  "789": {
    "name": "\u0414\u044e\u043c\u0438\u043d \u0421\u0435\u0440\u0433\u0435\u0439 \u0410\u043b\u0435\u043a\u0441\u0430\u043d\u0434\u0440\u043e\u0432\u0438\u0447",
    "rating": 0.8258639266245895
  },
  "790": {
    "name": "\u0417\u043e\u043b\u043e\u0442\u0430\u0440\u0435\u0432 \u0410\u043b\u0435\u043a\u0441\u0435\u0439 \u041c\u0438\u0445\u0430\u0439\u043b\u043e\u0432\u0438\u0447",
    "rating": 4.382119732924677
  },
  "791": {
    "name": "\u0417\u0443\u0431\u0430\u0440\u0435\u0432 \u0410\u043b\u0435\u043a\u0441\u0430\u043d\u0434\u0440 \u0421\u0435\u0440\u0433\u0435\u0435\u0432\u0438\u0447",
    "rating": 2.22893848971908
  },
  "792": {
    "name": "\u0417\u0443\u0431\u043a\u043e\u0432 \u0412\u0430\u0441\u0438\u043b\u0438\u0439 \u041d\u0438\u043a\u043e\u043b\u0430\u0435\u0432\u0438\u0447",
    "rating": 2.4043443995976035
  },
  "793": {
    "name": "\u041a\u0440\u0438\u0432\u043e\u043b\u0430\u043f\u043e\u0432 \u0410\u043b\u0435\u043a\u0441\u0430\u043d\u0434\u0440 \u041d\u0438\u043a\u043e\u043b\u0430\u0435\u0432\u0438\u0447",
    "rating": 0.8916819879086026
  },
  "794": {
    "name": "\u041d\u043e\u0440\u0434\u0441\u0442\u0440\u0435\u043c \u0412\u0430\u043b\u0435\u043d\u0442\u0438\u043d\u0430 \u0418\u0432\u0430\u043d\u043e\u0432\u043d\u0430",
    "rating": 0.6427054774190006
  },
  "795": {
    "name": "\u041f\u0440\u043e\u0441\u043a\u0443\u0440\u0438\u043d \u0412\u043b\u0430\u0434\u0438\u043c\u0438\u0440 \u0412\u0438\u043a\u0442\u043e\u0440\u043e\u0432\u0438\u0447",
    "rating": 2.043890027981968
  },
  "796": {
    "name": "\u0421\u0442\u0440\u0435\u043b\u043a\u043e\u0432 \u0410\u043d\u0430\u0442\u043e\u043b\u0438\u0439 \u0422\u0438\u043c\u043e\u0444\u0435\u0435\u0432\u0438\u0447",
    "rating": 0.8029460083498816
  },
  "797": {
    "name": "\u0422\u043a\u0430\u0447\u0451\u0432 \u041d\u0438\u043a\u043e\u043b\u0430\u0439 \u0410\u043b\u0435\u043a\u0441\u0430\u043d\u0434\u0440\u043e\u0432\u0438\u0447",
    "rating": 0.6282902291996818
  },
  "798": {
    "name": "\u0427\u0435\u0440\u043d\u044b\u0445 \u0412\u0438\u043a\u0442\u043e\u0440 \u0414\u043c\u0438\u0442\u0440\u0438\u0435\u0432\u0438\u0447",
    "rating": 1.993200074057191
  },
  "17241": {
    "name": "\u041a\u0430\u0437\u0430\u0440\u0438\u043d \u0412\u043b\u0430\u0434\u0438\u043c\u0438\u0440 \u041f\u0430\u0432\u043b\u043e\u0432\u0438\u0447",
    "rating": 0.0360731307830546
  }
}