{
  "24345": {
    "name": "\u0428\u0430\u043d\u044c\u0433\u0438\u043d \u0421\u0442\u0430\u043d\u0438\u0441\u043b\u0430\u0432 \u0412\u043b\u0430\u0434\u0438\u043c\u0438\u0440\u043e\u0432\u0438\u0447",
    "rating": 2.7184809107310945
  }
}