{
  "24308": {
    "name": "\u041a\u043e\u043d\u0441\u0442\u0430\u043d\u0442\u0438\u043d\u043e\u0432 \u0410\u043b\u0435\u043a\u0441\u0435\u0439 \u0410\u043d\u0434\u0440\u0435\u0435\u0432\u0438\u0447",
    "rating": 2.172368608142963
  }
}