{
  "2987": {
    "name": "\u0412\u0430\u0441\u0438\u043b\u044c\u0435\u0432 \u041c\u0438\u0445\u0430\u0438\u043b \u0412\u0438\u043a\u0442\u043e\u0440\u043e\u0432\u0438\u0447",
    "rating": 1.8911625168408561
  },
  "17336": {
    "name": "\u0420\u0443\u0436\u043d\u0438\u043a\u043e\u0432 \u0421\u0435\u0440\u0433\u0435\u0439 \u0410\u043b\u0435\u043a\u0441\u0430\u043d\u0434\u0440\u043e\u0432\u0438\u0447",
    "rating": 0.5529461315253893
  },
  "17337": {
    "name": "\u0411\u043b\u0430\u043d\u043a \u0412\u043b\u0430\u0434\u0438\u043c\u0438\u0440 \u0412\u0438\u043a\u0442\u043e\u0440\u043e\u0432\u0438\u0447",
    "rating": 1.0653455738674178
  },
  "17338": {
    "name": "\u041c\u0435\u0434\u0432\u0435\u0434\u0435\u0432\u0430 \u0413\u0430\u043b\u0438\u043d\u0430 \u0411\u0440\u043e\u043d\u0438\u0441\u043b\u0430\u0432\u043e\u0432\u043d\u0430",
    "rating": 0.483992323623532
  },
  "17339": {
    "name": "\u0421\u0435\u043c\u044f\u0448\u043a\u0438\u043d\u0430 \u041d\u0438\u043d\u0435\u043b\u044c \u0410\u043b\u0435\u043a\u0441\u0435\u0435\u0432\u043d\u0430",
    "rating": 0.6015082916691251
  },
  "17340": {
    "name": "\u0411\u0435\u043b\u0430\u043a \u041e\u043b\u0435\u0433 \u041e\u043d\u0443\u0444\u0440\u0438\u0435\u0432\u0438\u0447",
    "rating": 0.6771391445864567
  },
  "17341": {
    "name": "\u0418\u043b\u044c\u0438\u043d \u0412\u0438\u043a\u0442\u043e\u0440 \u041d\u0438\u043a\u043e\u043b\u0430\u0435\u0432\u0438\u0447",
    "rating": 2.3549417951827363
  },
  "17342": {
    "name": "\u041a\u0430\u0439\u0434\u0430\u043b\u043e\u0432 \u0410\u043b\u0435\u043a\u0441\u0435\u0439 \u0410\u043d\u0430\u0442\u043e\u043b\u044c\u0435\u0432\u0438\u0447",
    "rating": 1.2295302456859396
  },
  "17343": {
    "name": "\u0421\u0443\u0440\u043a\u043e\u0432 \u0421\u0435\u0440\u0433\u0435\u0439 \u042e\u0440\u044c\u0435\u0432\u0438\u0447",
    "rating": 1.5669113104014736
  },
  "17344": {
    "name": "\u0427\u0443\u043f\u0440\u043e\u0432 \u0412\u0430\u043b\u0435\u0440\u0438\u0439 \u042e\u0440\u044c\u0435\u0432\u0438\u0447",
    "rating": 1.0945448579729475
  },
  "22331": {
    "name": "\u041b\u043e\u0433\u0432\u0438\u043d\u0435\u043d\u043a\u043e \u0422\u0430\u0442\u044c\u044f\u043d\u0430 \u041f\u0430\u0432\u043b\u043e\u0432\u043d\u0430",
    "rating": 0.5285436025892339
  },
  "22332": {
    "name": "\u0411\u0435\u043b\u0443\u0433\u0438\u043d \u0410\u043b\u0435\u043a\u0441\u0430\u043d\u0434\u0440 \u0415\u0433\u043e\u0440\u043e\u0432\u0438\u0447",
    "rating": 0.028705815613413375
  },
  "22333": {
    "name": "\u0413\u0430\u043b\u0443\u0448\u0438\u043d\u0430 \u0420\u0438\u043c\u043c\u0430 \u0424\u0435\u0434\u043e\u0440\u043e\u0432\u043d\u0430",
    "rating": 0.2438674528607989
  }
}