{
  "24292": {
    "name": "\u0411\u0435\u043b\u043e\u0443\u0441\u043e\u0432 \u0421\u0435\u0440\u0433\u0435\u0439 \u0410\u043b\u0435\u043a\u0441\u0430\u043d\u0434\u0440\u043e\u0432\u0438\u0447",
    "rating": 3.785706049956541
  }
}