{
  "24304": {
    "name": "\u041a\u043b\u043e\u043f\u043e\u0432 \u0410\u043d\u0434\u0440\u0435\u0439 \u0410\u043b\u0435\u043a\u0441\u0435\u0435\u0432\u0438\u0447",
    "rating": 0.20542790361254268
  }
}