{
  "24343": {
    "name": "\u0425\u043e\u043c\u0443\u0442\u043e\u0432 \u0412\u0430\u043b\u0435\u0440\u0438\u0439 \u041f\u0435\u0442\u0440\u043e\u0432\u0438\u0447",
    "rating": 3.549741866981332
  },
  "44632": {
    "name": "\u0420\u0443\u0431\u0446\u043e\u0432\u0430 \u041c\u0430\u0440\u0438\u044f \u042e\u0440\u044c\u0435\u0432\u043d\u0430",
    "rating": 0.03935015938313259
  }
}