{
  "17444": {
    "name": "\u0410\u0431\u0434\u0443\u043b\u043b\u0438\u043d\u0430 \u0422\u0430\u0442\u044c\u044f\u043d\u0430 \u042e\u0440\u044c\u0435\u0432\u043d\u0430",
    "rating": 1.0215486400139304
  },
  "17445": {
    "name": "\u0410\u0431\u0443\u0437\u044f\u0440\u043e\u0432\u0430 \u0415\u043b\u0435\u043d\u0430 \u0412\u043b\u0430\u0434\u0438\u0441\u043b\u0430\u0432\u043e\u0432\u043d\u0430",
    "rating": 0.6162640327020776
  },
  "17446": {
    "name": "\u0410\u043d\u0442\u0438\u043f\u0438\u043d\u0430 \u041e\u043b\u044c\u0433\u0430 \u0412\u043b\u0430\u0434\u0438\u043c\u0438\u0440\u043e\u0432\u043d\u0430",
    "rating": 2.3810221220319168
  },
  "17447": {
    "name": "\u0411\u0430\u043b\u0443\u0435\u0432 \u0415\u0432\u0433\u0435\u043d\u0438\u0439 \u0415\u0432\u0433\u0435\u043d\u044c\u0435\u0432\u0438\u0447",
    "rating": 0.6484409124073292
  },
  "17448": {
    "name": "\u0413\u043b\u0430\u0434\u043d\u0435\u0432 \u0418\u0433\u043e\u0440\u044c \u0410\u043b\u0435\u043a\u0441\u0435\u0435\u0432\u0438\u0447",
    "rating": 2.230199085841348
  },
  "17449": {
    "name": "\u0414\u0435\u043c\u0447\u0435\u043d\u043a\u043e \u041e\u043b\u0435\u0433 \u0412\u0430\u0441\u0438\u043b\u044c\u0435\u0432\u0438\u0447",
    "rating": 1.3318377537323691
  },
  "17450": {
    "name": "\u0417\u0430\u043a\u0438\u0435\u0432 \u0410\u043b\u043c\u0430\u0437 \u0420\u0430\u0448\u0438\u0442\u043e\u0432\u0438\u0447",
    "rating": 0.8876416946010309
  },
  "17451": {
    "name": "\u0418\u0432\u0435\u043d\u0441\u043a\u0438\u0445 \u0418\u0440\u0438\u043d\u0430 \u0412\u0430\u043b\u0435\u043d\u0442\u0438\u043d\u043e\u0432\u043d\u0430",
    "rating": 0.6000897709472698
  },
  "17452": {
    "name": "\u041a\u0430\u0441\u0441\u0438\u043d\u0430 \u0420\u0430\u0438\u0441\u0430 \u0410\u043b\u0435\u043a\u0441\u0435\u0435\u0432\u043d\u0430",
    "rating": 1.3360696639183158
  },
  "17453": {
    "name": "\u041a\u043e\u0432\u0442\u0443\u043d \u041e\u043b\u044c\u0433\u0430 \u041f\u0435\u0442\u0440\u043e\u0432\u043d\u0430",
    "rating": 4.4609545460779625
  },
  "17454": {
    "name": "\u041b\u044f\u0445 \u041f\u0430\u0432\u0435\u043b \u0410\u043b\u0435\u043a\u0441\u0430\u043d\u0434\u0440\u043e\u0432\u0438\u0447",
    "rating": 0.8749172850620757
  },
  "17455": {
    "name": "\u041c\u0430\u0445\u043e\u0432\u0438\u043a\u043e\u0432 \u0410\u043d\u0430\u0442\u043e\u043b\u0438\u0439 \u042e\u0440\u044c\u0435\u0432\u0438\u0447",
    "rating": 1.6623276904065878
  },
  "17456": {
    "name": "\u041c\u043e\u0440\u043e\u0437\u043e\u0432 \u041b\u0435\u043e\u043d\u0438\u0434 \u042e\u0440\u044c\u0435\u0432\u0438\u0447",
    "rating": 0.6147378728510821
  },
  "17457": {
    "name": "\u041e\u0433\u043e\u0440\u043e\u0434\u043e\u0432 \u0418\u0432\u0430\u043d \u041f\u0435\u0442\u0440\u043e\u0432\u0438\u0447",
    "rating": 2.136901883150333
  },
  "17458": {
    "name": "\u041f\u043e\u043d\u043e\u043c\u0430\u0440\u0435\u0432 \u0421\u0435\u0440\u0433\u0435\u0439 \u0410\u043b\u0435\u043a\u0441\u0430\u043d\u0434\u0440\u043e\u0432\u0438\u0447",
    "rating": 5.43154278137208
  },
  "17459": {
    "name": "\u0420\u044b\u0447\u043a\u043e\u0432 \u0412\u0438\u043a\u0442\u043e\u0440 \u0412\u0430\u0441\u0438\u043b\u044c\u0435\u0432\u0438\u0447",
    "rating": 0.9290966330064796
  },
  "17460": {
    "name": "\u0422\u0443\u0448\u043d\u043e\u043b\u043e\u0431\u043e\u0432 \u0413\u0435\u043d\u043d\u0430\u0434\u0438\u0439 \u041f\u0435\u0442\u0440\u043e\u0432\u0438\u0447",
    "rating": 1.9050645451855384
  },
  "17461": {
    "name": "\u0424\u0435\u0434\u043e\u0440\u043e\u0432\u0441\u043a\u0438\u0439 \u0412\u0438\u043a\u0442\u043e\u0440 \u0413\u0435\u043d\u0440\u0438\u0445\u043e\u0432\u0438\u0447",
    "rating": 3.0
  },
  "17462": {
    "name": "\u0427\u0435\u0440\u0435\u043c\u0443\u0448\u043a\u0438\u043d \u041a\u043e\u043d\u0441\u0442\u0430\u043d\u0442\u0438\u043d \u041c\u0438\u0445\u0430\u0439\u043b\u043e\u0432\u0438\u0447",
    "rating": 0.7158484214559566
  },
  "17463": {
    "name": "\u0427\u0438\u0431\u0438\u0441\u043e\u0432 \u0410\u043b\u0435\u043a\u0441\u0435\u0439 \u0412\u0430\u043b\u0435\u0440\u044c\u0435\u0432\u0438\u0447",
    "rating": 0.8323844977089546
  },
  "22363": {
    "name": "\u0410\u043d\u0434\u0440\u0438\u0430\u043d\u043e\u0432\u0430 \u042e\u043b\u0438\u044f \u0410\u043b\u0435\u043a\u0441\u0430\u043d\u0434\u0440\u043e\u0432\u043d\u0430",
    "rating": 0.08711993173748017
  },
  "22364": {
    "name": "\u0410\u0444\u0430\u043d\u0430\u0441\u044c\u0435\u0432\u0430 \u041d\u0430\u0442\u0430\u043b\u044c\u044f \u041d\u0438\u043a\u043e\u043b\u0430\u0435\u0432\u043d\u0430",
    "rating": 1.2634413350335487
  },
  "22365": {
    "name": "\u0413\u043e\u043d\u0447\u0430\u0440\u043e\u0432 \u041d\u0438\u043a\u043e\u043b\u0430\u0439 \u041d\u0438\u043a\u043e\u043b\u0430\u0435\u0432\u0438\u0447",
    "rating": 1.2931385742374484
  },
  "22366": {
    "name": "\u0414\u043e\u0440\u043e\u0444\u0435\u0435\u0432\u0430 \u042f\u043d\u0430 \u0412\u043b\u0430\u0434\u0438\u043c\u0438\u0440\u043e\u0432\u043d\u0430",
    "rating": 0.04953986133242638
  },
  "22367": {
    "name": "\u041a\u043e\u043a\u0448\u0430\u0440\u043e\u0432 \u0420\u043e\u043c\u0430\u043d \u0410\u043b\u0435\u043a\u0441\u0430\u043d\u0434\u0440\u043e\u0432\u0438\u0447",
    "rating": 3.0
  },
  "22368": {
    "name": "\u041b\u0430\u0437\u0435\u043f\u043d\u044b\u0439 \u0412\u0430\u0434\u0438\u043c \u0413\u0440\u0438\u0433\u043e\u0440\u044c\u0435\u0432\u0438\u0447",
    "rating": 0.03599657428688632
  }
}