{
  "4847": {
    "name": "\u0412\u0430\u0433\u0438\u043d \u0412\u043b\u0430\u0434\u0438\u043c\u0438\u0440 \u0421\u0442\u0435\u0444\u0430\u043d\u043e\u0432\u0438\u0447",
    "rating": 1.2691345675386263
  },
  "17505": {
    "name": "\u0410\u0440\u0442\u0435\u043c\u043e\u0432 \u0412\u0430\u0434\u0438\u043c \u0412\u0430\u043b\u0435\u043d\u0442\u0438\u043d\u043e\u0432\u0438\u0447",
    "rating": 1.132793869543828
  },
  "17506": {
    "name": "\u0411\u0430\u043b\u0430\u0445\u043d\u0438\u043d \u042e\u0440\u0438\u0439 \u0412\u0438\u043a\u0442\u043e\u0440\u043e\u0432\u0438\u0447",
    "rating": 1.8660735126874333
  },
  "17507": {
    "name": "\u0411\u0430\u043b\u0438\u043d\u0430 \u041b\u0430\u0440\u0438\u0441\u0430 \u0412\u0430\u043b\u0435\u043d\u0442\u0438\u043d\u043e\u0432\u043d\u0430",
    "rating": 1.3618648984573176
  },
  "17508": {
    "name": "\u0411\u0435\u0437\u0443\u0433\u043b\u043e\u0432 \u041d\u0438\u043a\u043e\u043b\u0430\u0439 \u0412\u0438\u043a\u0442\u043e\u0440\u043e\u0432\u0438\u0447",
    "rating": 3.602317863268329
  },
  "17509": {
    "name": "\u0411\u044b\u043a\u043e\u0432\u0441\u043a\u0430\u044f \u0422\u0430\u0442\u044c\u044f\u043d\u0430 \u042e\u0440\u044c\u0435\u0432\u043d\u0430",
    "rating": 1.5624191074942204
  },
  "17510": {
    "name": "\u0411\u043e\u043d\u0434\u0430\u0440\u0435\u0432 \u0421\u0435\u0440\u0433\u0435\u0439 \u0411\u043e\u0440\u0438\u0441\u043e\u0432\u0438\u0447",
    "rating": 1.3791557987661682
  },
  "17511": {
    "name": "\u0427\u0435\u0440\u043d\u044b\u0448\u0435\u0432 \u041c\u0438\u0445\u0430\u0438\u043b \u0410\u043d\u0430\u0442\u043e\u043b\u044c\u0435\u0432\u0438\u0447",
    "rating": 2.6317296279742117
  },
  "17512": {
    "name": "\u0415\u043b\u0438\u0441\u0435\u0435\u0432\u0430 \u0415\u043b\u0435\u043d\u0430 \u0412\u043b\u0430\u0434\u0438\u043c\u0438\u0440\u043e\u0432\u043d\u0430",
    "rating": 2.6868010106190665
  },
  "17513": {
    "name": "\u0424\u0435\u0434\u043e\u0442\u043e\u0432\u0430 \u041b\u0438\u043b\u0438\u044f \u0412\u0430\u0434\u0438\u043c\u043e\u0432\u043d\u0430",
    "rating": 1.0855328609897292
  },
  "17514": {
    "name": "\u0413\u0440\u0435\u0431\u0435\u043d\u0449\u0438\u043a\u043e\u0432 \u0410\u043b\u0435\u043a\u0441\u0430\u043d\u0434\u0440 \u0410\u043b\u0435\u043a\u0441\u0430\u043d\u0434\u0440\u043e\u0432\u0438\u0447",
    "rating": 1.2687494528378482
  },
  "17515": {
    "name": "\u0413\u0443\u0441\u044c\u043a\u043e\u0432 \u0418\u0433\u043e\u0440\u044c \u0410\u043b\u0435\u043a\u0441\u0430\u043d\u0434\u0440\u043e\u0432\u0438\u0447",
    "rating": 0.9433627251940412
  },
  "17516": {
    "name": "\u0418\u0449\u0435\u043d\u043a\u043e \u0410\u043b\u0435\u043a\u0441\u0430\u043d\u0434\u0440 \u0412\u0430\u043b\u0435\u043d\u0442\u0438\u043d\u043e\u0432\u0438\u0447",
    "rating": 2.330508392945504
  },
  "17517": {
    "name": "\u041a\u0443\u0448\u043d\u0430\u0440\u0435\u0432 \u0412\u0438\u0442\u0430\u043b\u0438\u0439 \u0412\u0430\u0441\u0438\u043b\u044c\u0435\u0432\u0438\u0447",
    "rating": 3.602317863268329
  },
  "17518": {
    "name": "\u041b\u0435\u0432\u0447\u0435\u043d\u043a\u043e \u0410\u043b\u0435\u043a\u0441\u0430\u043d\u0434\u0440 \u0410\u043b\u0435\u043a\u0441\u0435\u0435\u0432\u0438\u0447",
    "rating": 2.9252029653843703
  },
  "17519": {
    "name": "\u041b\u043e\u043f\u0430\u0442\u043a\u0438\u043d \u0413\u0435\u0440\u043c\u0430\u043d \u0410\u043d\u0430\u0442\u043e\u043b\u0438\u0435\u0432\u0438\u0447",
    "rating": 2.692818874570523
  },
  "17520": {
    "name": "\u041c\u043e\u043b\u043e\u0434\u0447\u0435\u043d\u043a\u043e \u042e\u0440\u0438\u0439 \u0421\u0435\u0440\u0433\u0435\u0435\u0432\u0438\u0447",
    "rating": 2.0512797751011393
  },
  "17521": {
    "name": "\u0420\u0430\u0447\u0430\u043b\u043e\u0432\u0441\u043a\u0438\u0439 \u041a\u043e\u043d\u0441\u0442\u0430\u043d\u0442\u0438\u043d \u041d\u0438\u043a\u043e\u043b\u0430\u0435\u0432\u0438\u0447",
    "rating": 2.6317296279742117
  },
  "17522": {
    "name": "\u0420\u0435\u0437\u0432\u0430\u043d\u043e\u0432 \u0410\u043b\u0435\u043a\u0441\u0430\u043d\u0434\u0440 \u0410\u043d\u0430\u0442\u043e\u043b\u044c\u0435\u0432\u0438\u0447",
    "rating": 1.3125714233106591
  },
  "17523": {
    "name": "\u0421\u0430\u0444\u0440\u043e\u043d\u043e\u0432 \u0410\u043d\u0430\u0442\u043e\u043b\u0438\u0439 \u0410\u043b\u0435\u043a\u0441\u0430\u043d\u0434\u0440\u043e\u0432\u0438\u0447",
    "rating": 0.6231734852099136
  },
  "17524": {
    "name": "\u0421\u0438\u0434\u0430\u0448 \u0421\u0435\u0440\u0433\u0435\u0439 \u0411\u043e\u0440\u0438\u0441\u043e\u0432\u0438\u0447",
    "rating": 0.8174262972920447
  },
  "17525": {
    "name": "\u0422\u0438\u0445\u043e\u043d\u043e\u0432 \u041c\u0438\u0445\u0430\u0438\u043b \u041c\u0438\u0445\u0430\u0439\u043b\u043e\u0432\u0438\u0447",
    "rating": 2.4189120644027917
  },
  "17526": {
    "name": "\u0422\u0440\u0438\u0444\u043e\u043d\u043e\u0432 \u0421\u0435\u0440\u0433\u0435\u0439 \u0424\u0435\u0434\u043e\u0440\u043e\u0432\u0438\u0447",
    "rating": 4.0
  },
  "17527": {
    "name": "\u0423\u0440\u0431\u0430\u043d \u0413\u0435\u043d\u043d\u0430\u0434\u0438\u0439 \u0410\u043b\u0435\u043a\u0441\u0430\u043d\u0434\u0440\u043e\u0432\u0438\u0447",
    "rating": 1.2299235865533746
  },
  "17528": {
    "name": "\u0412\u0430\u0441\u0438\u043b\u0435\u043d\u043a\u043e \u0412\u044f\u0447\u0435\u0441\u043b\u0430\u0432 \u041d\u0438\u043a\u043e\u043b\u0430\u0435\u0432\u0438\u0447",
    "rating": 0.9616616037904068
  },
  "22370": {
    "name": "\u0410\u0440\u0430\u043a\u0435\u043b\u044f\u043d \u0421\u0430\u043c\u0432\u0435\u043b \u0420\u0443\u0431\u0435\u043d\u043e\u0432\u0438\u0447",
    "rating": 0.2560751498556548
  },
  "22371": {
    "name": "\u0411\u0438\u0433\u0432\u0430\u0432\u044b\u0439 \u0418\u0433\u043e\u0440\u044c \u0410\u043b\u0435\u043a\u0441\u0435\u0435\u0432\u0438\u0447",
    "rating": 0.026946249376280824
  },
  "22372": {
    "name": "\u0414\u0435\u0440\u0435\u0437\u0430 \u041e\u043b\u0435\u0433 \u0412\u043b\u0430\u0434\u0438\u043c\u0438\u0440\u043e\u0432\u0438\u0447",
    "rating": 0.0992553992296514
  },
  "22373": {
    "name": "\u041f\u0430\u043f\u0443\u0448\u0435\u043d\u043a\u043e \u041c\u0430\u043a\u0441\u0438\u043c \u0412\u0430\u043b\u0435\u0440\u044c\u0435\u0432\u0438\u0447",
    "rating": 0.6013486047454073
  },
  "22374": {
    "name": "\u041a\u043e\u0440\u043d\u0435\u0435\u0432 \u041c\u0438\u0445\u0430\u0438\u043b \u0412\u0438\u043a\u0442\u043e\u0440\u043e\u0432\u0438\u0447",
    "rating": 3.0
  },
  "22375": {
    "name": "\u0420\u0443\u0434\u043e\u0439 \u0412\u0430\u0441\u0438\u043b\u0438\u0439 \u0412\u043b\u0430\u0434\u0438\u043c\u0438\u0440\u043e\u0432\u0438\u0447",
    "rating": 3.0
  },
  "22376": {
    "name": "\u0422\u043e\u043b\u043c\u0430\u0447\u0435\u0432 \u041d\u0438\u043a\u043e\u043b\u0430\u0439 \u0418\u0432\u0430\u043d\u043e\u0432\u0438\u0447",
    "rating": 3.3413679070876023
  }
}