{
  "749": {
    "name": "\u0411\u0430\u0433\u0430\u0440\u044f\u043a\u043e\u0432 \u0410\u043b\u0435\u043a\u0441\u0435\u0439 \u0412\u043b\u0430\u0434\u0438\u043c\u0438\u0440\u043e\u0432\u0438\u0447",
    "rating": 1.0267218698049485
  },
  "750": {
    "name": "\u0411\u0430\u0434\u0430\u0435\u0432 \u0410\u043b\u0435\u043a\u0441\u0435\u0439 \u0424\u0435\u043b\u0438\u043a\u0441\u043e\u0432\u0438\u0447",
    "rating": 0.031943320139690014
  },
  "751": {
    "name": "\u0411\u0435\u043b\u044f\u0432\u0441\u043a\u0438\u0439 \u0410\u0440\u043a\u0430\u0434\u0438\u0439 \u0420\u043e\u043c\u0430\u043d\u043e\u0432\u0438\u0447",
    "rating": 0.7180458429741443
  },
  "753": {
    "name": "\u0411\u0438\u043a\u0442\u0443\u0433\u0430\u043d\u043e\u0432 \u042e\u0440\u0438\u0439 \u0418\u0432\u0430\u043d\u043e\u0432\u0438\u0447",
    "rating": 1.4379133249114324
  },
  "754": {
    "name": "\u0411\u043e\u0433\u0434\u0430\u043d\u043e\u0432\u0438\u0447 \u0418\u0440\u0438\u043d\u0430 \u0410\u043b\u0435\u043a\u0441\u0430\u043d\u0434\u0440\u043e\u0432\u043d\u0430",
    "rating": 0.29759643618101866
  },
  "755": {
    "name": "\u0411\u043e\u043d\u0434\u0430\u0440\u0435\u0432 \u0418\u043b\u044c\u044f \u042d\u0434\u0443\u0430\u0440\u0434\u043e\u0432\u0438\u0447",
    "rating": 0.0362773319534942
  },
  "760": {
    "name": "\u0412\u043b\u0430\u0441\u043e\u0432 \u0412\u043b\u0430\u0434\u0438\u043c\u0438\u0440 \u0410\u043b\u0435\u043a\u0441\u0430\u043d\u0434\u0440\u043e\u0432\u0438\u0447",
    "rating": 5.567546185121246
  },
  "761": {
    "name": "\u0412\u043e\u043b\u044c\u0444 \u0412\u0438\u0442\u0430\u043b\u0438\u0439 \u0410\u043b\u0435\u043a\u0441\u0430\u043d\u0434\u0440\u043e\u0432\u0438\u0447",
    "rating": 1.76525536681407
  },
  "762": {
    "name": "\u0413\u0440\u0430\u043c\u0430\u0442\u0438\u043a \u0418\u0432\u0430\u043d \u0418\u0432\u0430\u043d\u043e\u0432\u0438\u0447",
    "rating": 0.025049475057146345
  },
  "763": {
    "name": "\u0413\u0440\u0435\u0434\u0438\u043d \u0410\u043d\u0430\u0442\u043e\u043b\u0438\u0439 \u041b\u0435\u043e\u043d\u0438\u0434\u043e\u0432\u0438\u0447",
    "rating": 3.0
  },
  "764": {
    "name": "\u0415\u0440\u0448\u043e\u0432 \u041c\u0438\u0445\u0430\u0438\u043b \u041f\u0430\u0432\u043b\u043e\u0432\u0438\u0447",
    "rating": 4.0
  },
  "765": {
    "name": "\u0417\u0443\u0435\u0432 \u0418\u0433\u043e\u0440\u044c \u041d\u0438\u043a\u043e\u043b\u0430\u0435\u0432\u0438\u0447",
    "rating": 0.8845612790317231
  },
  "766": {
    "name": "\u0417\u044b\u0440\u044f\u043d\u043e\u0432 \u0421\u0435\u0440\u0433\u0435\u0439 \u041c\u0438\u0445\u0430\u0439\u043b\u043e\u0432\u0438\u0447",
    "rating": 3.6130007305757927
  },
  "767": {
    "name": "\u041a\u043b\u0435\u0432\u0435\u0446 \u041d\u0438\u043a\u043e\u043b\u0430\u0439 \u0410\u0440\u0441\u0435\u043d\u0442\u044c\u0435\u0432\u0438\u0447",
    "rating": 3.0
  },
  "768": {
    "name": "\u041a\u043e\u043b\u0442\u043e\u043d\u044e\u043a \u041a\u043e\u043d\u0441\u0442\u0430\u043d\u0442\u0438\u043d \u0410\u043b\u0435\u043a\u0441\u0430\u043d\u0434\u0440\u043e\u0432\u0438\u0447",
    "rating": 0.55864186350402
  },
  "772": {
    "name": "\u041a\u043e\u0440\u043e\u043b\u0435\u0432 \u041f\u0430\u0432\u0435\u043b \u042d\u0434\u0443\u0430\u0440\u0434\u043e\u0432\u0438\u0447",
    "rating": 0.5902705461719485
  },
  "773": {
    "name": "\u041a\u0440\u0443\u043f\u0438\u043d \u041d\u0438\u043a\u043e\u043b\u0430\u0439 \u041c\u0438\u0445\u0430\u0439\u043b\u043e\u0432\u0438\u0447",
    "rating": 0.3596898101573177
  },
  "774": {
    "name": "\u041a\u0440\u044e\u0447\u043a\u043e\u0432 \u041a\u043e\u043d\u0441\u0442\u0430\u043d\u0442\u0438\u043d \u0412\u043b\u0430\u0434\u0438\u043c\u0438\u0440\u043e\u0432\u0438\u0447",
    "rating": 0.026638118984504917
  },
  "775": {
    "name": "\u041c\u0430\u043a\u0441\u0438\u043c\u043e\u0432 \u041c\u0438\u0445\u0430\u0438\u043b \u0418\u0433\u043e\u0440\u0435\u0432\u0438\u0447",
    "rating": 0.6758578882180719
  },
  "776": {
    "name": "\u041c\u0430\u0440\u0435\u043d\u043a\u043e\u0432 \u0413\u0435\u043d\u043d\u0430\u0434\u0438\u0439 \u0412\u0430\u0441\u0438\u043b\u044c\u0435\u0432\u0438\u0447",
    "rating": 0.049395792406010434
  },
  "777": {
    "name": "\u041d\u0435\u0434\u0435\u043b\u044c\u0441\u043a\u0438\u0439 \u0412\u0438\u0442\u0430\u043b\u0438\u0439 \u041e\u043b\u0435\u0433\u043e\u0432\u0438\u0447",
    "rating": 0.4492037825890148
  },
  "778": {
    "name": "\u041d\u043e\u0436\u0435\u043d\u043a\u043e \u0414\u043c\u0438\u0442\u0440\u0438\u0439 \u042e\u0440\u044c\u0435\u0432\u0438\u0447",
    "rating": 0.7894787524017879
  },
  "779": {
    "name": "\u041f\u0430\u0440\u0438\u043d\u043a\u043e\u0432\u0430 \u0422\u0430\u0442\u044c\u044f\u043d\u0430 \u041d\u0438\u043a\u043e\u043b\u0430\u0435\u0432\u043d\u0430",
    "rating": 0.1346932588952456
  },
  "780": {
    "name": "\u041f\u0435\u0442\u0440\u043e\u0432 \u0410\u043b\u0435\u043a\u0441\u0430\u043d\u0434\u0440 \u042e\u0440\u044c\u0435\u0432\u0438\u0447",
    "rating": 0.08967073370696634
  },
  "781": {
    "name": "\u0420\u0430\u043f\u043e\u043f\u043e\u0440\u0442 \u041b\u0435\u043e\u043d\u0438\u0434 \u0410\u0440\u043e\u043d\u043e\u0432\u0438\u0447",
    "rating": 3.6130007305757927
  },
  "782": {
    "name": "\u0420\u043e\u043c\u0430\u043d\u043e\u0432 \u0412\u043b\u0430\u0434\u0438\u043c\u0438\u0440 \u0418\u0432\u0430\u043d\u043e\u0432\u0438\u0447",
    "rating": 3.4076180610091398
  },
  "783": {
    "name": "\u0421\u043c\u0438\u0440\u043d\u043e\u0432 \u041d\u0438\u043a\u043e\u043b\u0430\u0439 \u0411\u043e\u0440\u0438\u0441\u043e\u0432\u0438\u0447",
    "rating": 1.1762677058277795
  },
  "784": {
    "name": "\u0421\u043e\u0444\u0440\u044b\u0433\u0438\u043d \u0415\u0432\u0433\u0435\u043d\u0438\u0439 \u0410\u043d\u0434\u0440\u0435\u0435\u0432\u0438\u0447",
    "rating": 2.03552260301535
  },
  "785": {
    "name": "\u0425\u0430\u0440\u043b\u043e\u0432 \u0410\u043b\u0435\u043a\u0441\u0430\u043d\u0434\u0440 \u0412\u043b\u0430\u0434\u0438\u043c\u0438\u0440\u043e\u0432\u0438\u0447",
    "rating": 0.4976545093093657
  },
  "946": {
    "name": "\u0413\u0440\u0438\u043f\u0430\u0441 \u0412\u0430\u043b\u0435\u043d\u0442\u0438\u043d \u0410\u043d\u0430\u0442\u043e\u043b\u044c\u0435\u0432\u0438\u0447",
    "rating": 0.8009238394942696
  },
  "15903": {
    "name": "\u0412\u044b\u0441\u043e\u043a\u0438\u043d\u0441\u043a\u0438\u0439 \u0410\u043b\u0435\u043a\u0441\u0430\u043d\u0434\u0440 \u0413\u0435\u043d\u043d\u0430\u0434\u0438\u0435\u0432\u0438\u0447",
    "rating": 3.0
  },
  "17630": {
    "name": "\u0411\u0438\u0434\u043e\u043d\u044c\u043a\u043e \u0421\u0435\u0440\u0433\u0435\u0439 \u042e\u0440\u044c\u0435\u0432\u0438\u0447",
    "rating": 0.8249948085004812
  },
  "17631": {
    "name": "\u0417\u043b\u043e\u043a\u0430\u0437\u043e\u0432 \u0410\u043d\u0434\u0440\u0435\u0439 \u0412\u043b\u0430\u0434\u0438\u043c\u0438\u0440\u043e\u0432\u0438\u0447",
    "rating": 1.5163682720845415
  },
  "17632": {
    "name": "\u041a\u043e\u043f\u044b\u0442\u043e\u0432 \u041c\u0438\u0445\u0430\u0438\u043b \u041d\u0438\u043a\u043e\u043b\u0430\u0435\u0432\u0438\u0447",
    "rating": 1.7143408286950936
  },
  "17633": {
    "name": "\u041a\u0440\u0435\u043a\u043e\u0432 \u041f\u0430\u0432\u0435\u043b \u0412\u043b\u0430\u0434\u0438\u043c\u0438\u0440\u043e\u0432\u0438\u0447",
    "rating": 0.7169863109814426
  },
  "17634": {
    "name": "\u041a\u0443\u0437\u043d\u0435\u0446\u043e\u0432 \u0410\u043b\u0435\u043a\u0441\u0435\u0439 \u0412\u043b\u0430\u0434\u0438\u043c\u0438\u0440\u043e\u0432\u0438\u0447",
    "rating": 5.078129717378566
  },
  "17635": {
    "name": "\u041a\u0443\u043b\u0430\u0447\u0435\u043d\u043a\u043e \u0413\u0430\u043b\u0438\u043d\u0430 \u041c\u0430\u043a\u0441\u0438\u043c\u043e\u0432\u043d\u0430",
    "rating": 1.7269467191076158
  },
  "17636": {
    "name": "\u041c\u0438\u0441\u044e\u0440\u0430 \u0410\u043d\u0434\u0440\u0435\u0439 \u0412\u0430\u0441\u0438\u043b\u044c\u0435\u0432\u0438\u0447",
    "rating": 0.7732924881499863
  },
  "17637": {
    "name": "\u041e\u0440\u043b\u043e\u0432 \u0410\u043b\u0435\u043a\u0441\u0435\u0439 \u0412\u0430\u043b\u0435\u0440\u044c\u0435\u0432\u0438\u0447",
    "rating": 2.2440148864607923
  },
  "17638": {
    "name": "\u041f\u0430\u0441\u043b\u0435\u0440 \u0414\u0435\u043d\u0438\u0441 \u0412\u043b\u0430\u0434\u0438\u043c\u0438\u0440\u043e\u0432\u0438\u0447",
    "rating": 1.1469747694979384
  },
  "17639": {
    "name": "\u041f\u0435\u0440\u0435\u0441\u0442\u043e\u0440\u043e\u043d\u0438\u043d \u0421\u0435\u0440\u0433\u0435\u0439 \u0412\u0430\u043b\u0435\u043d\u0442\u0438\u043d\u043e\u0432\u0438\u0447",
    "rating": 3.6130007305757927
  },
  "17640": {
    "name": "\u041f\u044c\u044f\u043d\u043a\u043e\u0432 \u0410\u043b\u0435\u043a\u0441\u0435\u0439 \u0412\u0430\u043b\u0435\u0440\u044c\u0435\u0432\u0438\u0447",
    "rating": 1.7208755838232863
  },
  "17641": {
    "name": "\u0421\u0430\u043b\u0438\u0445\u043e\u0432 \u0410\u0437\u0430\u0442 \u0420\u0430\u0432\u043a\u0430\u0442\u043e\u0432\u0438\u0447",
    "rating": 0.7719879881122994
  },
  "17642": {
    "name": "\u0421\u0438\u0434\u043e\u0440\u0435\u043d\u043a\u043e \u0410\u043b\u0435\u043a\u0441\u0430\u043d\u0434\u0440 \u041c\u0438\u0445\u0430\u0439\u043b\u043e\u0432\u0438\u0447",
    "rating": 1.1488737237948257
  },
  "17643": {
    "name": "\u0421\u0438\u043b\u0438\u043d \u042f\u043a\u043e\u0432 \u041f\u0435\u0442\u0440\u043e\u0432\u0438\u0447",
    "rating": 2.3985699302898977
  },
  "17644": {
    "name": "\u0421\u043e\u0431\u043e\u043b\u0435\u0432 \u0410\u043d\u0434\u0440\u0435\u0439 \u041e\u043b\u0435\u0433\u043e\u0432\u0438\u0447",
    "rating": 0.15991817312532838
  }
}