{
  "574": {
    "name": "\u041c\u0435\u043d\u044c \u041c\u0438\u0445\u0430\u0438\u043b \u0410\u043b\u0435\u043a\u0441\u0430\u043d\u0434\u0440\u043e\u0432\u0438\u0447",
    "rating": 2.9386863817850157
  },
  "863": {
    "name": "\u041a\u043e\u043d\u044c\u043a\u043e\u0432 \u041f\u0430\u0432\u0435\u043b \u0410\u043b\u0435\u043a\u0441\u0435\u0435\u0432\u0438\u0447",
    "rating": 3.0
  }
}