{
  "1356": {
    "name": "\u0410\u0431\u0440\u0430\u043c\u0435\u043d\u043a\u043e\u0432 \u0412\u043b\u0430\u0434\u0438\u043c\u0438\u0440 \u0410\u043b\u0435\u043a\u0441\u0430\u043d\u0434\u0440\u043e\u0432\u0438\u0447",
    "rating": 0.3960536429921535
  },
  "1357": {
    "name": "\u0410\u043a\u0438\u043c\u043e\u0432 \u041c\u0430\u043a\u0441\u0438\u043c \u0410\u043b\u0435\u043a\u0441\u0435\u0435\u0432\u0438\u0447",
    "rating": 1.512119172029926
  },
  "1358": {
    "name": "\u041f\u043e\u0442\u0435\u043c\u043a\u0438\u043d \u0412\u043b\u0430\u0434\u0438\u043c\u0438\u0440 \u0412\u0430\u0441\u0438\u043b\u044c\u0435\u0432\u0438\u0447",
    "rating": 1.3296459146866957
  },
  "1359": {
    "name": "\u0421\u0430\u0444\u0440\u043e\u043d\u043e\u0432 \u0410\u043b\u0435\u043a\u0441\u0430\u043d\u0434\u0440 \u041f\u0435\u0442\u0440\u043e\u0432\u0438\u0447",
    "rating": 2.1758206567861134
  },
  "1360": {
    "name": "\u0428\u0435\u0440\u0435\u0439\u043a\u0438\u043d \u041c\u0430\u043a\u0441\u0438\u043c \u041b\u0435\u043e\u043d\u0438\u0434\u043e\u0432\u0438\u0447",
    "rating": 1.008649598945434
  },
  "12910": {
    "name": "\u0410\u043d\u0442\u043e\u0445\u0438\u043d\u0430 \u0412\u0430\u0440\u0432\u0430\u0440\u0430 \u0410\u043d\u0430\u0442\u043e\u043b\u044c\u0435\u0432\u043d\u0430",
    "rating": 0.4114062462495986
  },
  "15534": {
    "name": "\u0410\u0432\u0434\u0435\u0435\u0432 \u0410\u043b\u0435\u043a\u0441\u0430\u043d\u0434\u0440 \u0410\u043b\u0435\u043a\u0441\u0430\u043d\u0434\u0440\u043e\u0432\u0438\u0447",
    "rating": 1.0573954037815976
  },
  "17057": {
    "name": "\u041b\u0430\u043f\u0442\u0435\u0432 \u0410\u043b\u0435\u043a\u0441\u0435\u0439 \u041f\u0435\u0442\u0440\u043e\u0432\u0438\u0447",
    "rating": 3.891873319803629
  },
  "17058": {
    "name": "\u041b\u044e\u0431\u0438\u043c\u043e\u0432 \u041d\u0438\u043a\u043e\u043b\u0430\u0439 \u0412\u0438\u043a\u0442\u043e\u0440\u043e\u0432\u0438\u0447",
    "rating": 1.4360801602678248
  },
  "17059": {
    "name": "\u0421\u043c\u043e\u043b\u0435\u043d\u0441\u043a\u0438\u0439 \u0420\u0443\u0441\u043b\u0430\u043d \u0412\u043b\u0430\u0434\u0438\u043c\u0438\u0440\u043e\u0432\u0438\u0447",
    "rating": 3.891873319803629
  },
  "17060": {
    "name": "\u041f\u043e\u043b\u0435\u0436\u0430\u0435\u0432 \u041d\u0438\u043a\u043e\u043b\u0430\u0439 \u0412\u0430\u0441\u0438\u043b\u044c\u0435\u0432\u0438\u0447",
    "rating": 0.0360733884962331
  },
  "17061": {
    "name": "\u041a\u043e\u0436\u0435\u0432\u043d\u0438\u043a\u043e\u0432 \u042e\u0440\u0438\u0439 \u0421\u0435\u0440\u0433\u0435\u0435\u0432\u0438\u0447",
    "rating": 2.6920532384582816
  },
  "17062": {
    "name": "\u041e\u0433\u0430\u043d\u0435\u0441\u044f\u043d \u0410\u0440\u0441\u0435\u043d\u0438\u0439 \u0410\u0440\u043c\u0435\u043d\u043e\u0432\u0438\u0447",
    "rating": 0.4886089315518473
  },
  "17063": {
    "name": "\u0410\u0432\u0434\u0435\u0435\u0432\u0430 \u0412\u0430\u043b\u0435\u043d\u0442\u0438\u043d\u0430 \u0418\u0432\u0430\u043d\u043e\u0432\u043d\u0430",
    "rating": 1.4125142957353891
  },
  "17064": {
    "name": "\u0410\u043d\u0438\u043a\u0435\u0435\u0432 \u0410\u043b\u0435\u043a\u0441\u0430\u043d\u0434\u0440 \u0421\u0435\u0440\u0433\u0435\u0435\u0432\u0438\u0447",
    "rating": 1.025021965202478
  },
  "17065": {
    "name": "\u0412\u043b\u0430\u0434\u0438\u043c\u0438\u0440\u043e\u0432 \u041d\u0438\u043a\u043e\u043b\u0430\u0439 \u0412\u0438\u043a\u0442\u043e\u0440\u043e\u0432\u0438\u0447",
    "rating": 0.14628717893920248
  },
  "17066": {
    "name": "\u0413\u0440\u043e\u043c\u043e\u0432 \u041b\u0435\u043e\u043d\u0438\u0434 \u0421\u0435\u0440\u0433\u0435\u0435\u0432\u0438\u0447",
    "rating": 0.5239989943959722
  },
  "17067": {
    "name": "\u0418\u0432\u0430\u043d\u043e\u0432\u0430 \u041e\u043b\u044c\u0433\u0430 \u0412\u043b\u0430\u0434\u0438\u043c\u0438\u0440\u043e\u0432\u043d\u0430",
    "rating": 5.021804044725169
  },
  "17068": {
    "name": "\u041a\u0430\u043b\u0443\u0433\u0438\u043d \u041e\u043b\u0435\u0433 \u0410\u043d\u0430\u0442\u043e\u043b\u044c\u0435\u0432\u0438\u0447",
    "rating": 2.368408209743092
  },
  "17069": {
    "name": "\u041b\u0438\u0441\u0430\u0432\u0438\u043d \u0410\u043d\u0434\u0440\u0435\u0439 \u0412\u043b\u0430\u0434\u0438\u043c\u0438\u0440\u043e\u0432\u0438\u0447",
    "rating": 0.33890563563566795
  },
  "17070": {
    "name": "\u041b\u043e\u0433\u0438\u043d\u043e\u0432 \u0410\u043b\u0435\u043a\u0441\u0435\u0439 \u042e\u0440\u044c\u0435\u0432\u0438\u0447",
    "rating": 0.38731285787173375
  },
  "17071": {
    "name": "\u041c\u0430\u043a\u0430\u0440\u043a\u0438\u043d \u0412\u043b\u0430\u0434\u0438\u043c\u0438\u0440 \u0412\u0430\u0441\u0438\u043b\u044c\u0435\u0432\u0438\u0447",
    "rating": 0.7346560451893759
  },
  "17072": {
    "name": "\u041f\u043e\u043f\u043e\u0432 \u0412\u043b\u0430\u0434\u0438\u043c\u0438\u0440 \u0418\u0433\u043e\u0440\u0435\u0432\u0438\u0447",
    "rating": 2.424192097089683
  },
  "17073": {
    "name": "\u0420\u0430\u0437\u0443\u043c\u0435\u0435\u0432\u0430 \u0415\u043b\u0435\u043d\u0430 \u0412\u0430\u043b\u0435\u043d\u0442\u0438\u043d\u043e\u0432\u043d\u0430",
    "rating": 0.5748776703560607
  },
  "17074": {
    "name": "\u0420\u0430\u0437\u0443\u043c\u043e\u0432\u0441\u043a\u0438\u0439 \u0414\u043c\u0438\u0442\u0440\u0438\u0439 \u041e\u043b\u0435\u0433\u043e\u0432\u0438\u0447",
    "rating": 0.4836802544084108
  },
  "17075": {
    "name": "\u0421\u0443\u0441\u043b\u043e\u0432 \u041f\u0430\u0432\u0435\u043b \u0410\u043b\u0435\u043a\u0441\u0430\u043d\u0434\u0440\u043e\u0432\u0438\u0447",
    "rating": 1.060590718557081
  },
  "17076": {
    "name": "\u0428\u0438\u0433\u0430\u043f\u043e\u0432 \u0410\u043b\u0435\u043a\u0441\u0435\u0439 \u0411\u043e\u0440\u0438\u0441\u043e\u0432\u0438\u0447",
    "rating": 1.3423330849492643
  },
  "17077": {
    "name": "\u041a\u043e\u043b\u043f\u0430\u043a\u043e\u0432 \u0410\u043d\u0434\u0440\u0435\u0439 \u041d\u0438\u043a\u043e\u043b\u0430\u0435\u0432\u0438\u0447",
    "rating": 3.1476080920989262
  },
  "17078": {
    "name": "\u0417\u0435\u043b\u044c\u043d\u0438\u043a\u043e\u0432 \u042e\u0440\u0438\u0439 \u0418\u0432\u0430\u043d\u043e\u0432\u0438\u0447",
    "rating": 1.9257473248884815
  },
  "22254": {
    "name": "\u041d\u0438\u043a\u0438\u0442\u0435\u043d\u043a\u043e \u0410\u043b\u0435\u043a\u0441\u0435\u0439 \u0412\u0438\u043a\u0442\u043e\u0440\u043e\u0432\u0438\u0447",
    "rating": 0.1050176128346192
  },
  "22255": {
    "name": "\u041a\u043e\u043d\u043e\u0432\u0430\u043b\u043e\u0432 \u041f\u0430\u0432\u0435\u043b \u0412\u044f\u0447\u0435\u0441\u043b\u0430\u0432\u043e\u0432\u0438\u0447",
    "rating": 0.22970820388139646
  }
}