{
  "956": {
    "name": "\u0421\u0442\u0440\u0443\u043a\u043e\u0432 \u0410\u043b\u0435\u043a\u0441\u0435\u0439 \u041d\u0438\u043a\u043e\u043b\u0430\u0435\u0432\u0438\u0447",
    "rating": 3.2990431820484494
  },
  "957": {
    "name": "\u041e\u043c\u0435\u043b\u0451\u0445\u0438\u043d\u0430 \u041d\u0430\u0442\u0430\u043b\u044c\u044f \u0412\u043b\u0430\u0434\u0438\u043c\u0438\u0440\u043e\u0432\u043d\u0430",
    "rating": 0.7154276780901113
  },
  "959": {
    "name": "\u041a\u043e\u0437\u043e\u0434\u043e\u0439 \u0412\u0438\u043a\u0442\u043e\u0440 \u0418\u0432\u0430\u043d\u043e\u0432\u0438\u0447",
    "rating": 1.1507968728143447
  },
  "2029": {
    "name": "\u0417\u043d\u0430\u0442\u043a\u043e\u0432 \u0412\u043b\u0430\u0434\u0438\u043c\u0438\u0440 \u041c\u0438\u0445\u0430\u0439\u043b\u043e\u0432\u0438\u0447",
    "rating": 0.7852566518898213
  },
  "17361": {
    "name": "\u042f\u0440\u043c\u0430\u043d\u043e\u0432 \u0412\u044f\u0447\u0435\u0441\u043b\u0430\u0432 \u0412\u043b\u0430\u0434\u0438\u043c\u0438\u0440\u043e\u0432\u0438\u0447",
    "rating": 2.223618480517856
  },
  "17362": {
    "name": "\u0428\u0438\u043b\u043e\u0445\u0432\u043e\u0441\u0442\u043e\u0432 \u0420\u043e\u043c\u0430\u043d \u0413\u0435\u043d\u043d\u0430\u0434\u044c\u0435\u0432\u0438\u0447",
    "rating": 4.573173006164368
  },
  "17363": {
    "name": "\u0414\u044e\u0431\u0430\u043d\u043e\u0432 \u0410\u043d\u0430\u0442\u043e\u043b\u0438\u0439 \u0412\u0430\u0441\u0438\u043b\u044c\u0435\u0432\u0438\u0447",
    "rating": 3.59103014902151
  },
  "17364": {
    "name": "\u0422\u0438\u0442\u043e\u0432 \u0421\u0435\u0440\u0433\u0435\u0439 \u041c\u0438\u0445\u0430\u0439\u043b\u043e\u0432\u0438\u0447",
    "rating": 2.663556388743396
  },
  "17365": {
    "name": "\u041a\u0443\u0437\u0438\u043d \u0412\u0430\u0441\u0438\u043b\u0438\u0439 \u0418\u0432\u0430\u043d\u043e\u0432\u0438\u0447",
    "rating": 0.7597453605137174
  },
  "17366": {
    "name": "\u041d\u0435\u043b\u044e\u0431\u043e\u0432 \u0421\u0435\u0440\u0433\u0435\u0439 \u0410\u043b\u0435\u043a\u0441\u0430\u043d\u0434\u0440\u043e\u0432\u0438\u0447",
    "rating": 0.9552556344153824
  },
  "17367": {
    "name": "\u0421\u0438\u043c\u043e\u043d\u043e\u0432 \u041d\u0438\u043a\u043e\u043b\u0430\u0439 \u041d\u0438\u043a\u043e\u043b\u0430\u0435\u0432\u0438\u0447",
    "rating": 1.0865620309018391
  },
  "17368": {
    "name": "\u0416\u0438\u0433\u0430\u043d\u043e\u0432 \u041c\u0438\u0445\u0430\u0438\u043b \u0424\u0435\u0434\u043e\u0440\u043e\u0432\u0438\u0447",
    "rating": 1.294335839492029
  },
  "17369": {
    "name": "\u041f\u044b\u0445\u0442\u0438\u043d \u0421\u0435\u0440\u0433\u0435\u0439 \u0418\u043e\u0441\u0438\u0444\u043e\u0432\u0438\u0447",
    "rating": 4.573173006164368
  },
  "17370": {
    "name": "\u0428\u043c\u0438\u0434\u0442 \u0418\u0433\u043e\u0440\u044c \u0412\u0438\u043a\u0442\u043e\u0440\u043e\u0432\u0438\u0447",
    "rating": 0.8667948851875555
  },
  "17371": {
    "name": "\u0418\u0432\u0430\u043d\u0438\u043d\u0441\u043a\u0438\u0439 \u041e\u043b\u0435\u0433 \u0418\u0432\u0430\u043d\u043e\u0432\u0438\u0447",
    "rating": 0.7912350099462249
  },
  "17372": {
    "name": "\u041a\u0438\u043c \u0422\u0435 \u0421\u0443",
    "rating": 0.8010940221868842
  },
  "17373": {
    "name": "\u0421\u043e\u0431\u043e\u043b\u0435\u0432 \u0410\u043d\u0430\u0442\u043e\u043b\u0438\u0439 \u041a\u043e\u043d\u0441\u0442\u0430\u043d\u0442\u0438\u043d\u043e\u0432\u0438\u0447",
    "rating": 0.8472399722783749
  },
  "17374": {
    "name": "\u0422\u0438\u0442\u043a\u043e\u0432 \u0410\u043b\u0435\u043a\u0441\u0430\u043d\u0434\u0440 \u041f\u0435\u0442\u0440\u043e\u0432\u0438\u0447",
    "rating": 3.3008254164070387
  },
  "17375": {
    "name": "\u041f\u0440\u043e\u0449\u0430\u043b\u044b\u043a\u0438\u043d \u042e\u0440\u0438\u0439 \u041c\u0438\u0445\u0430\u0439\u043b\u043e\u0432\u0438\u0447",
    "rating": 4.643306770682079
  },
  "17376": {
    "name": "\u0428\u0435\u0432\u0447\u0435\u043d\u043a\u043e \u0412\u0438\u043a\u0442\u043e\u0440 \u0412\u0430\u0441\u0438\u043b\u044c\u0435\u0432\u0438\u0447",
    "rating": 1.7559379450063892
  },
  "17377": {
    "name": "\u0421\u0451\u043c\u043a\u0430 \u0421\u0435\u0440\u0433\u0435\u0439 \u041d\u0438\u043a\u043e\u043b\u0430\u0435\u0432\u0438\u0447",
    "rating": 0.6796416065270225
  },
  "17378": {
    "name": "\u0413\u043e\u043b\u0443\u0431\u0435\u043d\u043a\u043e \u0412\u0438\u0442\u0430\u043b\u0438\u0439 \u042e\u0440\u044c\u0435\u0432\u0438\u0447",
    "rating": 0.7018973121051092
  },
  "17379": {
    "name": "\u041c\u043e\u043b\u0447\u0430\u043d\u043e\u0432\u0430 \u041e\u043b\u044c\u0433\u0430 \u0412\u0438\u0442\u0430\u043b\u044c\u0435\u0432\u043d\u0430",
    "rating": 1.2119721002817443
  },
  "17380": {
    "name": "\u041f\u0440\u043e\u043d\u044c\u043a\u0438\u043d \u0412\u0430\u0441\u0438\u043b\u0438\u0439 \u0410\u043d\u0434\u0440\u0435\u0435\u0432\u0438\u0447",
    "rating": 3.643911224426781
  },
  "18150": {
    "name": "\u041f\u0435\u0442\u0443\u0445\u043e\u0432 \u042e\u0440\u0438\u0439 \u0424\u0435\u0434\u043e\u0440\u043e\u0432\u0438\u0447",
    "rating": 1.7431364681781614
  },
  "19570": {
    "name": "\u041a\u0441\u0435\u043d\u0437\u043e\u0432 \u0410\u043d\u0434\u0440\u0435\u0439 \u0415\u0432\u0433\u0435\u043d\u044c\u0435\u0432\u0438\u0447",
    "rating": 0.14377277065512978
  },
  "22337": {
    "name": "\u0411\u043e\u044f\u0440\u0441\u043a\u0438\u0439 \u0421\u0435\u0440\u0433\u0435\u0439 \u0412\u043b\u0430\u0434\u0438\u043c\u0438\u0440\u043e\u0432\u0438\u0447",
    "rating": 3.6490616816848815
  },
  "22338": {
    "name": "\u0420\u0435\u0448\u0435\u0442\u043d\u0438\u043a\u043e\u0432 \u0418\u0433\u043e\u0440\u044c \u041d\u0438\u043a\u043e\u043b\u0430\u0435\u0432\u0438\u0447",
    "rating": 3.414805153253147
  },
  "22339": {
    "name": "\u042f\u043a\u043e\u0432\u043b\u0435\u0432 \u0418\u0433\u043e\u0440\u044c \u041d\u0438\u043a\u043e\u043b\u0430\u0435\u0432\u0438\u0447",
    "rating": 0.3092484099793797
  },
  "33875": {
    "name": "\u041a\u043e\u0441\u0442\u044b\u043b\u0435\u0432\u0441\u043a\u0438\u0439 \u0410\u043d\u0430\u0442\u043e\u043b\u0438\u0439 \u0412\u0438\u043a\u0442\u043e\u0440\u043e\u0432\u0438\u0447",
    "rating": 0.08719162304983387
  },
  "33877": {
    "name": "\u0411\u0430\u0431\u043a\u0438\u043d\u0430 \u0413\u0430\u043b\u0438\u043d\u0430 \u0418\u0432\u0430\u043d\u043e\u0432\u043d\u0430",
    "rating": 0.2991028258340666
  },
  "33878": {
    "name": "\u041d\u0438\u043a\u043e\u043d\u043e\u0432 \u0412\u043b\u0430\u0434\u0438\u043c\u0438\u0440 \u0410\u043b\u0435\u043a\u0441\u0435\u0435\u0432\u0438\u0447",
    "rating": 0.8389940869580768
  },
  "33879": {
    "name": "\u0418\u0432\u0430\u0449\u0435\u043d\u043a\u043e \u0413\u0435\u043e\u0440\u0433\u0438\u0439 \u0412\u0430\u0441\u0438\u043b\u044c\u0435\u0432\u0438\u0447",
    "rating": 1.210409002616573
  },
  "33880": {
    "name": "\u0412\u0435\u0440\u0448\u0438\u043d\u0438\u043d \u0414\u0435\u043d\u0438\u0441 \u0412\u043b\u0430\u0434\u0438\u043c\u0438\u0440\u043e\u0432\u0438\u0447",
    "rating": 1.5962479827314398
  },
  "33881": {
    "name": "\u041a\u043e\u043b\u043e\u043d\u0447\u0438\u043d \u041a\u0438\u0440\u0438\u043b\u043b \u0412\u043b\u0430\u0434\u0438\u043c\u0438\u0440\u043e\u0432\u0438\u0447",
    "rating": 0.22595817822081915
  },
  "33882": {
    "name": "\u0413\u0443\u0434\u043e\u0432\u0441\u043a\u0438\u0439 \u0410\u043d\u0434\u0440\u0435\u0439 \u042d\u0434\u0443\u0430\u0440\u0434\u043e\u0432\u0438\u0447",
    "rating": 3.0
  },
  "33883": {
    "name": "\u041a\u0440\u0430\u0432\u0447\u0435\u043d\u043a\u043e \u041e\u043b\u044c\u0433\u0430 \u0412\u0430\u0441\u0438\u043b\u044c\u0435\u0432\u043d\u0430",
    "rating": 1.2951144735781617
  },
  "33884": {
    "name": "\u042f\u0440\u043e\u0441\u043b\u0430\u0432\u0446\u0435\u0432\u0430 \u041d\u0430\u0442\u0430\u043b\u044c\u044f \u0412\u0430\u0441\u0438\u043b\u044c\u0435\u0432\u043d\u0430",
    "rating": 0.05082433169051048
  }
}