{
  "17398": {
    "name": "\u041f\u0438\u0432\u0443\u043d\u043e\u0432 \u041e\u043b\u0435\u0433 \u0418\u0433\u043e\u0440\u044c\u0435\u0432\u0438\u0447",
    "rating": 2.521921517195608
  },
  "17399": {
    "name": "\u041b\u0430\u0431\u0443\u0437\u043e\u0432 \u0412\u044f\u0447\u0435\u0441\u043b\u0430\u0432 \u0410\u043b\u0435\u043a\u0441\u0430\u043d\u0434\u0440\u043e\u0432\u0438\u0447",
    "rating": 0.917024027381598
  },
  "17400": {
    "name": "\u0428\u0435\u0432\u0447\u0435\u043d\u043a\u043e \u0415\u0432\u0433\u0435\u043d\u0438\u044f \u0412\u0430\u043b\u0435\u0440\u044c\u0435\u0432\u043d\u0430",
    "rating": 0.8125244653880972
  },
  "17401": {
    "name": "\u041c\u0430\u0441\u043b\u043e\u0432 \u041c\u0438\u0445\u0430\u0438\u043b \u0413\u0440\u0438\u0433\u043e\u0440\u044c\u0435\u0432\u0438\u0447",
    "rating": 4.6165516856367494
  },
  "17402": {
    "name": "\u0411\u0430\u0433\u0430\u043d\u0438\u043d \u041d\u0438\u043a\u043e\u043b\u0430\u0439 \u0418\u0432\u0430\u043d\u043e\u0432\u0438\u0447",
    "rating": 0.7890557624118879
  },
  "17403": {
    "name": "\u041a\u0443\u043b\u0430\u0433\u0438\u043d \u0414\u043c\u0438\u0442\u0440\u0438\u0439 \u0412\u043b\u0430\u0434\u0438\u043c\u0438\u0440\u043e\u0432\u0438\u0447",
    "rating": 3.648041342953028
  },
  "17404": {
    "name": "\u041b\u0435\u0432\u0438\u043d\u0441\u043e\u043d \u041d\u0430\u0442\u0430\u043b\u044c\u044f \u041b\u0430\u0437\u0430\u0440\u0435\u0432\u043d\u0430",
    "rating": 2.683218352303417
  },
  "17405": {
    "name": "\u0421\u0430\u043c\u0441\u043e\u043d\u043e\u0432 \u041f\u0430\u0432\u0435\u043b \u0412\u0430\u0441\u0438\u043b\u044c\u0435\u0432\u0438\u0447",
    "rating": 4.6165516856367494
  },
  "17406": {
    "name": "\u0411\u0430\u043b\u044b\u043a\u0438\u043d \u0421\u0435\u0440\u0433\u0435\u0439 \u0412\u0438\u043a\u0442\u043e\u0440\u043e\u0432\u0438\u0447",
    "rating": 4.6165516856367494
  },
  "17407": {
    "name": "\u0421\u0435\u043c\u0438\u0432\u0435\u043b\u0438\u0447\u0435\u043d\u043a\u043e \u0422\u0430\u043c\u0430\u0440\u0430 \u041d\u0438\u043a\u043e\u043b\u0430\u0435\u0432\u043d\u0430",
    "rating": 0.879956345802667
  },
  "17408": {
    "name": "\u041a\u0443\u0437\u044c\u043c\u0438\u043d \u0412\u044f\u0447\u0435\u0441\u043b\u0430\u0432 \u041f\u0435\u0442\u0440\u043e\u0432\u0438\u0447",
    "rating": 0.8169853115707264
  },
  "17409": {
    "name": "\u0422\u043e\u043d\u043a\u0438\u0445 \u0412\u0438\u043a\u0442\u043e\u0440 \u041f\u0435\u0442\u0440\u043e\u0432\u0438\u0447",
    "rating": 1.8680989634788696
  },
  "17410": {
    "name": "\u041a\u043e\u0441\u0442\u044e\u0447\u0435\u043d\u043a\u043e \u041a\u043e\u043d\u0441\u0442\u0430\u043d\u0442\u0438\u043d \u041f\u0430\u0432\u043b\u043e\u0432\u0438\u0447",
    "rating": 0.8702848058100817
  },
  "17411": {
    "name": "\u041c\u043e\u0448\u043a\u043e\u0432\u0430 \u0422\u0430\u0442\u044c\u044f\u043d\u0430 \u0413\u0435\u043d\u043d\u0430\u0434\u044c\u0435\u0432\u043d\u0430",
    "rating": 0.7815737127056172
  },
  "17412": {
    "name": "\u0421\u0430\u043c\u043e\u0445\u0438\u043d\u0430 \u0422\u0430\u0442\u044c\u044f\u043d\u0430 \u0421\u0435\u0440\u0433\u0435\u0435\u0432\u043d\u0430",
    "rating": 2.099277252897315
  },
  "17413": {
    "name": "\u0411\u0435\u0437\u0431\u043e\u0440\u043e\u0434\u043e\u0432\u0430 \u041d\u0430\u0442\u0430\u043b\u044c\u044f \u0412\u0438\u043a\u0442\u043e\u0440\u043e\u0432\u043d\u0430",
    "rating": 0.4730937081460538
  },
  "17414": {
    "name": "\u0414\u043e\u043c\u043d\u0438\u043a\u043e\u0432 \u0421\u0435\u0440\u0433\u0435\u0439 \u042e\u0440\u044c\u0435\u0432\u0438\u0447",
    "rating": 0.28285335885934243
  },
  "22348": {
    "name": "\u0411\u0430\u0448\u0438\u0440\u043e\u0432\u0430 \u0412\u0435\u0440\u0430 \u0418\u0440\u0438\u043a\u043e\u0432\u043d\u0430",
    "rating": 1.4430458456424529
  }
}