{
  "16011": {
    "name": "\u0421\u043e\u043a\u043e\u043b\u043e\u0432 \u0410\u043b\u0435\u043a\u0441\u0430\u043d\u0434\u0440 \u041d\u0438\u043a\u043e\u043b\u0430\u0435\u0432\u0438\u0447",
    "rating": 3.918135250490367
  },
  "16012": {
    "name": "\u0421\u0430\u0432\u043a\u043e\u0432 \u0421\u0435\u0440\u0433\u0435\u0439 \u041d\u0438\u043a\u043e\u043b\u0430\u0435\u0432\u0438\u0447",
    "rating": 1.1556792790718124
  },
  "16013": {
    "name": "\u0410\u043b\u0435\u043a\u0441\u0430\u043d\u0434\u0440\u043e\u0432 \u0410\u043b\u0435\u043a\u0441\u0430\u043d\u0434\u0440 \u041d\u0438\u043a\u043e\u043b\u0430\u0435\u0432\u0438\u0447",
    "rating": 1.7114113674045417
  },
  "16014": {
    "name": "\u0410\u0444\u0430\u043d\u0430\u0441\u044c\u0435\u0432 \u0421\u0435\u0440\u0433\u0435\u0439 \u0412\u0430\u0441\u0438\u043b\u044c\u0435\u0432\u0438\u0447",
    "rating": 0.7232591162757259
  },
  "16015": {
    "name": "\u0411\u0435\u0437\u043b\u0435\u043f\u043a\u0438\u043d \u0412\u044f\u0447\u0435\u0441\u043b\u0430\u0432 \u0414\u043c\u0438\u0442\u0440\u0438\u0435\u0432\u0438\u0447",
    "rating": 1.178023872527985
  },
  "16016": {
    "name": "\u0413\u0430\u043d\u0438\u0447\u0435\u0432 \u0414\u043c\u0438\u0442\u0440\u0438\u0439 \u0421\u0435\u0440\u0433\u0435\u0435\u0432\u0438\u0447",
    "rating": 0.710143739709481
  },
  "16017": {
    "name": "\u0418\u0432\u0430\u043d\u043e\u0432 \u0421\u0435\u0440\u0433\u0435\u0439 \u041d\u0438\u043a\u043e\u043b\u0430\u0435\u0432\u0438\u0447",
    "rating": 4.212076855069343
  },
  "16018": {
    "name": "\u041a\u0430\u0437\u0430\u0447\u0435\u043d\u043a\u043e \u0421\u0435\u0440\u0433\u0435\u0439 \u041d\u0438\u043a\u043e\u043b\u0430\u0435\u0432\u0438\u0447",
    "rating": 0.7602222329739986
  },
  "16019": {
    "name": "\u041a\u043e\u043b\u043e\u0441\u043e\u0432 \u0415\u0432\u0433\u0435\u043d\u0438\u0439 \u0412\u043b\u0430\u0434\u0438\u043c\u0438\u0440\u043e\u0432\u0438\u0447",
    "rating": 0.01804009182223472
  },
  "16020": {
    "name": "\u041a\u0440\u0430\u0432\u0447\u0443\u043a \u0421\u0435\u0440\u0433\u0435\u0439 \u0410\u043d\u0430\u0442\u043e\u043b\u044c\u0435\u0432\u0438\u0447",
    "rating": 3.8216314344342655
  },
  "16021": {
    "name": "\u041a\u0443\u0440\u043e\u0447\u043a\u0438\u043d \u0413\u0435\u043d\u043d\u0430\u0434\u0438\u0439 \u041d\u0438\u043a\u043e\u043b\u0430\u0435\u0432\u0438\u0447",
    "rating": 1.7753051192397808
  },
  "16022": {
    "name": "\u041b\u0435\u0431\u0435\u0434\u0430 \u0412\u0430\u043b\u0435\u0440\u0438\u0439 \u0424\u0435\u0434\u043e\u0440\u043e\u0432\u0438\u0447",
    "rating": 2.8510934376346815
  },
  "16023": {
    "name": "\u0421\u0435\u0440\u0433\u0435\u0439\u0447\u0443\u043a \u0421\u0435\u0440\u0433\u0435\u0439 \u0412\u0430\u0441\u0438\u043b\u044c\u0435\u0432\u0438\u0447",
    "rating": 1.676865627635383
  },
  "16024": {
    "name": "\u0421\u0435\u0440\u043e\u0448\u0442\u0430\u043d\u043e\u0432 \u0418\u0433\u043e\u0440\u044c \u041c\u0438\u0445\u0430\u0439\u043b\u043e\u0432\u0438\u0447",
    "rating": 0.7066047388205758
  },
  "16025": {
    "name": "\u0427\u0435\u0440\u043d\u044b\u0448\u043e\u0432 \u0421\u0435\u0440\u0433\u0435\u0439 \u0410\u043b\u0435\u043a\u0441\u0430\u043d\u0434\u0440\u043e\u0432\u0438\u0447",
    "rating": 2.2809102689112453
  },
  "16026": {
    "name": "\u0428\u0435\u0432\u0447\u0435\u043d\u043a\u043e \u0421\u0432\u0435\u0442\u043b\u0430\u043d\u0430 \u0418\u0432\u0430\u043d\u043e\u0432\u043d\u0430",
    "rating": 0.8406328034611973
  },
  "24528": {
    "name": "\u0413\u0430\u0432\u0440\u0438\u043b\u043e\u0432\u0430 \u0410\u043b\u0435\u043a\u0441\u0430\u043d\u0434\u0440\u0430 \u0410\u043b\u0435\u043a\u0441\u0430\u043d\u0434\u0440\u043e\u0432\u043d\u0430",
    "rating": 0.02328010284892636
  },
  "24529": {
    "name": "\u041a\u0430\u0437\u0430\u0447\u0435\u043d\u043a\u043e \u0412\u0430\u043b\u0435\u0440\u0438\u0439 \u041f\u0430\u0432\u043b\u043e\u0432\u0438\u0447",
    "rating": 1.925468416618758
  },
  "24532": {
    "name": "\u0428\u0430\u043f\u0438\u0440\u043e \u0418\u0440\u0438\u043d\u0430 \u0410\u043d\u0430\u0442\u043e\u043b\u044c\u0435\u0432\u043d\u0430",
    "rating": 1.0745541948889603
  },
  "42419": {
    "name": "\u041a\u043e\u0434\u0438\u043d\u0430 \u041e\u043b\u044c\u0433\u0430 \u0411\u043e\u0440\u0438\u0441\u043e\u0432\u043d\u0430",
    "rating": 1.2432026728999332
  }
}