{
  "100": {
    "name": "\u041e\u0441\u0442\u0440\u043e\u0432\u0441\u043a\u0438\u0439 \u0410\u043b\u0435\u043a\u0441\u0435\u0439 \u0412\u043b\u0430\u0434\u0438\u043c\u0438\u0440\u043e\u0432\u0438\u0447",
    "rating": 1.519409355230045
  },
  "1428": {
    "name": "\u0410\u043d\u0442\u0443\u0444\u044c\u0435\u0432 \u0421\u0435\u0440\u0433\u0435\u0439 \u0412\u043b\u0430\u0434\u0438\u043c\u0438\u0440\u043e\u0432\u0438\u0447",
    "rating": 0.1373949036958296
  }
}