{
  "15565": {
    "name": "\u0415\u0440\u043c\u0430\u043a\u043e\u0432 \u0412\u0430\u043b\u0435\u0440\u0438\u0439 \u041a\u043e\u043d\u0441\u0442\u0430\u043d\u0442\u0438\u043d\u043e\u0432\u0438\u0447",
    "rating": 1.6827952620361215
  },
  "15566": {
    "name": "\u0422\u0443\u0440\u0431\u0430\u0431\u0430 \u041e\u043b\u044c\u0433\u0430 \u0412\u043b\u0430\u0434\u0438\u0441\u043b\u0430\u0432\u043e\u0432\u043d\u0430",
    "rating": 0.5848997401323904
  },
  "15567": {
    "name": "\u041a\u0430\u043b\u0438\u043d\u0438\u043d \u0410\u043d\u0434\u0440\u0435\u0439 \u0412\u043b\u0430\u0434\u0438\u043c\u0438\u0440\u043e\u0432\u0438\u0447",
    "rating": 2.5807285513441203
  },
  "15568": {
    "name": "\u041f\u043e\u043f\u043e\u0432 \u0418\u0432\u0430\u043d \u041f\u0430\u0432\u043b\u043e\u0432\u0438\u0447",
    "rating": 1.2056663899306108
  },
  "15569": {
    "name": "\u041f\u0435\u0440\u0435\u043a\u0440\u0451\u0441\u0442\u043e\u0432 \u0413\u0435\u043d\u043d\u0430\u0434\u0438\u0439 \u0413\u0440\u0438\u0433\u043e\u0440\u044c\u0435\u0432\u0438\u0447",
    "rating": 0.2764798165891247
  },
  "15570": {
    "name": "\u0418\u0432\u043b\u0435\u0432 \u041e\u043b\u0435\u0433 \u0412\u0430\u043b\u0435\u0440\u0438\u0435\u0432\u0438\u0447",
    "rating": 1.4208653161848228
  },
  "21484": {
    "name": "\u041d\u0435\u0441\u0442\u0435\u0440\u043e\u0432 \u041c\u0430\u043a\u0441\u0438\u043c \u0412\u0430\u043b\u0435\u0440\u044c\u0435\u0432\u0438\u0447",
    "rating": 0.6086737369893331
  },
  "21512": {
    "name": "\u0421\u0435\u043d\u0447\u0443\u0440\u043e\u0432 \u041d\u0438\u043a\u043e\u043b\u0430\u0439 \u041d\u0438\u043a\u043e\u043b\u0430\u0435\u0432\u0438\u0447",
    "rating": 0.06201890800687342
  }
}