{
  "15371": {
    "name": "\u041a\u0440\u0443\u043f\u0438\u043d \u041c\u0438\u0445\u0430\u0438\u043b \u041b\u044c\u0432\u043e\u0432\u0438\u0447",
    "rating": 2.4687726849056806
  },
  "16082": {
    "name": "\u041d\u0435\u0447\u0430\u0435\u0432 \u0410\u043b\u0435\u043a\u0441\u0430\u043d\u0434\u0440 \u0412\u0438\u0442\u0430\u043b\u044c\u0435\u0432\u0438\u0447",
    "rating": 1.592937365317173
  },
  "17980": {
    "name": "\u041a\u043d\u044f\u0437\u044c\u043a\u043e\u0432 \u0410\u043b\u0435\u043a\u0441\u0430\u043d\u0434\u0440 \u041b\u044c\u0432\u043e\u0432\u0438\u0447",
    "rating": 3.413217129350125
  },
  "17981": {
    "name": "\u0411\u043e\u0439\u043a\u043e \u042e\u0440\u0438\u0439 \u0410\u043b\u0435\u043a\u0441\u0430\u043d\u0434\u0440\u043e\u0432\u0438\u0447",
    "rating": 0.9053708336355476
  },
  "17982": {
    "name": "\u041a\u0440\u0430\u0441\u043d\u043e\u0432 \u0410\u043b\u0435\u043a\u0441\u0430\u043d\u0434\u0440 \u0421\u0435\u0440\u0433\u0435\u0435\u0432\u0438\u0447",
    "rating": 1.8484700793905693
  },
  "17983": {
    "name": "\u041b\u044b\u0441\u0435\u043d\u043a\u043e \u042d\u0434\u0443\u0430\u0440\u0434 \u0410\u043d\u0430\u0442\u043e\u043b\u044c\u0435\u0432\u0438\u0447",
    "rating": 0.7256500831771363
  },
  "17984": {
    "name": "\u0414\u0430\u043d\u0438\u043b\u0435\u043d\u043a\u043e \u0420\u043e\u0441\u0442\u0438\u0441\u043b\u0430\u0432 \u0410\u043d\u0430\u0442\u043e\u043b\u044c\u0435\u0432\u0438\u0447",
    "rating": 0.255221377149574
  },
  "17985": {
    "name": "\u0428\u0430\u043f\u043e\u0448\u043d\u0438\u043a\u043e\u0432\u0430 \u041d\u0430\u0442\u0430\u043b\u044c\u044f \u0412\u0438\u0442\u0430\u043b\u044c\u0435\u0432\u043d\u0430",
    "rating": 0.5999120267034587
  },
  "17986": {
    "name": "\u0428\u0438\u043b\u043e\u0432 \u0410\u043b\u0435\u043a\u0441\u0430\u043d\u0434\u0440 \u041d\u0438\u043a\u043e\u043b\u0430\u0435\u0432\u0438\u0447",
    "rating": 3.1735989550180106
  },
  "17987": {
    "name": "\u0414\u043e\u043b\u0433\u043e\u0432 \u0410\u043b\u0435\u043a\u0441\u0435\u0439 \u041d\u0438\u043a\u043e\u043b\u0430\u0435\u0432\u0438\u0447",
    "rating": 0.6130246588824344
  },
  "17988": {
    "name": "\u0411\u0430\u0431\u0443\u0440\u043a\u0438\u043d \u0421\u0435\u0440\u0433\u0435\u0439 \u0410\u043b\u0435\u043a\u0441\u0430\u043d\u0434\u0440\u043e\u0432\u0438\u0447",
    "rating": 0.8201664560888985
  },
  "17989": {
    "name": "\u0411\u0430\u043a\u0438\u0440\u043e\u0432 \u0410\u043b\u044c\u0444\u0438\u0440 \u0424\u0438\u0434\u0430\u0435\u0432\u0438\u0447",
    "rating": 0.5387249533602997
  },
  "22555": {
    "name": "\u0421\u0442\u0435\u043f\u0430\u043d\u0435\u043d\u043a\u043e \u0414\u043c\u0438\u0442\u0440\u0438\u0439 \u0410\u043b\u0435\u043a\u0441\u0430\u043d\u0434\u0440\u043e\u0432\u0438\u0447",
    "rating": 5.802710581584849e-13
  },
  "22556": {
    "name": "\u0410\u0432\u0434\u0435\u0435\u0432 \u041c\u0430\u043a\u0441\u0438\u043c \u0410\u043b\u0435\u043a\u0441\u0430\u043d\u0434\u0440\u043e\u0432\u0438\u0447",
    "rating": 5.802710581584849e-13
  }
}