{
  "16090": {
    "name": "\u0413\u0438\u043b\u044c\u043c\u0430\u043d\u043e\u0432 \u0424\u0430\u0440\u0438\u0442 \u0424\u0430\u0440\u0440\u0430\u0445\u043e\u0432\u0438\u0447",
    "rating": 3.0267566476170957
  },
  "16091": {
    "name": "\u041c\u0443\u0440\u0430\u0432\u044c\u0435\u0432 \u0412\u0438\u0442\u0430\u043b\u0438\u0439 \u0418\u0432\u0430\u043d\u043e\u0432\u0438\u0447",
    "rating": 0.5788244018952384
  },
  "16092": {
    "name": "\u041c\u0443\u0441\u0442\u0430\u0444\u0438\u043d\u0430 \u0414\u0438\u043b\u044c\u0431\u0430\u0440 \u0420\u0430\u0434\u0438\u043a\u043e\u0432\u043d\u0430",
    "rating": 0.4646663911663338
  },
  "16093": {
    "name": "\u0428\u0430\u043c\u0441\u0443\u0442\u0434\u0438\u043d\u043e\u0432 \u0410\u0431\u0443\u0437\u0430\u0440 \u041a\u0430\u0432\u0438\u0435\u0432\u0438\u0447",
    "rating": 0.7945784159618591
  },
  "16094": {
    "name": "\u0417\u0443\u0431\u0430\u0438\u0440\u043e\u0432 \u0414\u0430\u043d\u0438\u0440 \u042f\u0432\u0434\u0430\u0442\u043e\u0432\u0438\u0447",
    "rating": 0.11114141846299727
  },
  "23815": {
    "name": "\u0414\u0430\u0432\u044b\u0434\u043e\u0432\u0430 \u041b\u0430\u0440\u0438\u0441\u0430 \u0412\u043b\u0430\u0434\u0438\u043c\u0438\u0440\u043e\u0432\u043d\u0430",
    "rating": 4.0
  },
  "23816": {
    "name": "\u0417\u0443\u0435\u0432 \u0410\u043b\u0435\u043a\u0441\u0430\u043d\u0434\u0440 \u0413\u0435\u043e\u0440\u0433\u0438\u0435\u0432\u0438\u0447",
    "rating": 2.4517862341943903
  },
  "23817": {
    "name": "\u0411\u0443\u043b\u0430\u0442\u043e\u0432\u0430 \u0410\u043b\u044c\u0444\u0438\u044f \u0412\u0438\u043b\u044c\u0435\u0432\u043d\u0430",
    "rating": 1.0094455208153086
  },
  "23818": {
    "name": "\u0421\u0430\u043c\u044b\u043b\u044c\u044f\u043d\u043e\u0432\u0430 \u041d\u0430\u0434\u0435\u0436\u0434\u0430 \u0414\u043c\u0438\u0442\u0440\u0438\u0435\u0432\u043d\u0430",
    "rating": 0.0260694075045591
  }
}