{
  "22489": {
    "name": "\u0416\u0430\u0440\u0438\u043a\u043e\u0432 \u041e\u043b\u0435\u0433 \u041e\u043b\u0435\u0433\u043e\u0432\u0438\u0447",
    "rating": 0.4447651640192628
  },
  "22490": {
    "name": "\u0416\u0435\u043a\u0435\u0435\u0432 \u0410\u043b\u0430\u0445\u0431\u0435\u0440\u0434\u0438 \u041c\u0430\u0445\u043c\u0443\u0434\u043e\u0432\u0438\u0447",
    "rating": 0.4161862876369266
  },
  "22491": {
    "name": "\u041c\u0430\u0445\u043e\u0432 \u0410\u0440\u0442\u0443\u0440 \u041b\u043e\u043b\u0435\u0432\u0438\u0447",
    "rating": 0.8614738231545418
  },
  "22492": {
    "name": "\u041b\u0430\u0432\u0440\u0435\u0448\u0438\u043d \u042e\u0440\u0438\u0439 \u0418\u0432\u0430\u043d\u043e\u0432\u0438\u0447",
    "rating": 0.011557837225353895
  },
  "22630": {
    "name": "\u0422\u043b\u043e\u0441\u0442\u0430\u043d\u043e\u0432 \u0417\u0430\u043b\u0438\u043c \u0425\u0430\u0437\u0440\u0438\u0442\u043e\u0432\u0438\u0447",
    "rating": 0.034204295642808684
  }
}