{
  "17895": {
    "name": "\u041f\u043e\u043f\u043e\u0432 \u041d\u0438\u043a\u043e\u043b\u0430\u0439 \u0418\u0432\u0430\u043d\u043e\u0432\u0438\u0447",
    "rating": 6.580087098112987
  },
  "20013": {
    "name": "\u041f\u043e\u043f\u043e\u0432 \u0414\u0435\u043d\u0438\u0441 \u0413\u0435\u043d\u043d\u0430\u0434\u044c\u0435\u0432\u0438\u0447",
    "rating": 0.4257811668531321
  },
  "20027": {
    "name": "\u041b\u043e\u043c\u0430\u043a\u0438\u043d \u0412\u0438\u043a\u0442\u043e\u0440 \u0418\u0432\u0430\u043d\u043e\u0432\u0438\u0447",
    "rating": 0.4148495659653793
  },
  "20031": {
    "name": "\u041c\u0430\u043a\u0435\u0435\u0432 \u041d\u0438\u043a\u043e\u043b\u0430\u0439 \u041d\u0438\u043a\u043e\u043b\u0430\u0435\u0432\u0438\u0447",
    "rating": 2.1098723647538007
  },
  "20035": {
    "name": "\u041c\u043e\u043d\u0434\u043e\u0445\u043e\u043d\u043e\u0432 \u0410\u043d\u0434\u0440\u0435\u0439 \u041d\u0438\u043a\u043e\u043b\u0430\u0435\u0432\u0438\u0447",
    "rating": 0.3863701846094055
  },
  "20037": {
    "name": "\u041f\u043e\u0434\u043a\u043e\u0440\u044b\u0442\u043e\u0432 \u0415\u0432\u0433\u0435\u043d\u0438\u0439 \u0412\u043b\u0430\u0434\u0438\u043c\u0438\u0440\u043e\u0432\u0438\u0447",
    "rating": 3.0
  },
  "21481": {
    "name": "\u0410\u0448\u044b\u0440\u043e\u0432 \u0425\u0430\u043b\u043c\u0443\u0445\u0430\u043c\u0435\u0434 \u0414\u0443\u0440\u0434\u044b\u043c\u0443\u0440\u0430\u0442\u043e\u0432\u0438\u0447",
    "rating": 0.7920956600795817
  },
  "21482": {
    "name": "\u0411\u0430\u0443\u044d\u0440 \u041e\u043b\u044c\u0433\u0430 \u0410\u043d\u0434\u0440\u0435\u0435\u0432\u043d\u0430",
    "rating": 0.02076833532096565
  }
}