{
  "21428": {
    "name": "\u041f\u043e\u043f\u0435\u043b\u044e\u0445 \u0410\u043b\u0435\u043a\u0441\u0430\u043d\u0434\u0440 \u0410\u043d\u0430\u0442\u043e\u043b\u044c\u0435\u0432\u0438\u0447",
    "rating": 0.7844072561796709
  },
  "21904": {
    "name": "\u0415\u0433\u043e\u0440\u043e\u0432 \u041d\u0438\u043a\u043e\u043b\u0430\u0439 \u0412\u0430\u043b\u0435\u043d\u0442\u0438\u043d\u043e\u0432\u0438\u0447",
    "rating": 0.8489976705533002
  },
  "22495": {
    "name": "\u041d\u0438\u043a\u043e\u043d\u043e\u0432 \u0412\u043b\u0430\u0434\u0438\u043c\u0438\u0440 \u041d\u0438\u043a\u043e\u043b\u0430\u0435\u0432\u0438\u0447",
    "rating": 2.9925345478995324
  },
  "22689": {
    "name": "\u0423\u0440\u0430\u0438\u043c\u043e\u0432 \u041a\u0430\u043d\u0438\u0431\u0435\u043a \u0410\u0431\u0434\u0443\u0440\u0430\u0448\u0438\u0442\u043e\u0432\u0438\u0447",
    "rating": 3.447533049962589
  },
  "22696": {
    "name": "\u0421\u0430\u0431\u043b\u0438\u043d \u0410\u043b\u0435\u043a\u0441\u0430\u043d\u0434\u0440 \u041f\u0435\u0442\u0440\u043e\u0432\u0438\u0447",
    "rating": 0.3900612380920062
  },
  "22725": {
    "name": "\u041a\u0443\u0434\u0440\u044f\u0432\u0435\u0446 \u0412\u0438\u0442\u0430\u043b\u0438\u0439 \u041d\u0438\u043a\u043e\u043b\u0430\u0435\u0432\u0438\u0447",
    "rating": 0.9687720135189068
  },
  "22844": {
    "name": "\u0418\u0432\u0430\u043d\u043e\u0432 \u0412\u043b\u0430\u0434\u0438\u043c\u0438\u0440 \u0410\u043b\u0435\u043a\u0441\u0430\u043d\u0434\u0440\u043e\u0432\u0438\u0447",
    "rating": 4.706212222307424
  },
  "22845": {
    "name": "\u041b\u0435\u0438\u043d \u0412\u0430\u0441\u0438\u043b\u0438\u0439 \u0413\u0435\u043d\u043d\u0430\u0434\u044c\u0435\u0432\u0438\u0447",
    "rating": 0.3272039858438305
  },
  "22859": {
    "name": "\u041c\u0430\u043a\u0443\u0448\u0435\u043d\u043a\u043e \u0415\u043b\u0435\u043d\u0430 \u0410\u043b\u0435\u043a\u0441\u0430\u043d\u0434\u0440\u043e\u0432\u043d\u0430",
    "rating": 3.0
  },
  "22884": {
    "name": "\u0422\u0438\u043c\u043e\u0448\u0435\u043d\u043a\u043e \u0410\u043b\u0435\u043a\u0441\u0435\u0439 \u0411\u043e\u0440\u0438\u0441\u043e\u0432\u0438\u0447",
    "rating": 0.31920175308024995
  }
}