{
  "317": {
    "name": "\u041a\u0443\u0440\u043e\u0447\u043a\u0438\u043d  \u0410\u043d\u0442\u043e\u043d  \u0410\u043d\u0430\u0442\u043e\u043b\u044c\u0435\u0432\u0438\u0447",
    "rating": 1.6091890251278256
  },
  "15671": {
    "name": "\u0413\u0443\u043b\u0435\u0432\u0441\u043a\u0438\u0439 \u041c\u0438\u0445\u0430\u0438\u043b \u0412\u043b\u0430\u0434\u0438\u043c\u0438\u0440\u043e\u0432\u0438\u0447",
    "rating": 2.743784785524925
  },
  "15672": {
    "name": "\u041d\u043e\u0432\u0438\u043a\u043e\u0432 \u041d\u0438\u043a\u043e\u043b\u0430\u0439 \u0410\u043b\u0435\u043a\u0441\u0430\u043d\u0434\u0440\u043e\u0432\u0438\u0447",
    "rating": 3.708418564565368
  },
  "15673": {
    "name": "\u041c\u0438\u0433\u0438\u0442\u0430 \u0412\u043b\u0430\u0434\u0438\u043c\u0438\u0440 \u0410\u043d\u0430\u0442\u043e\u043b\u044c\u0435\u0432\u0438\u0447",
    "rating": 0.3242428119979754
  },
  "15674": {
    "name": "\u0428\u0430\u043c\u0430\u0435\u0432\u0430 \u0410\u043d\u043d\u0430 \u041c\u0438\u0442\u0440\u043e\u0444\u0430\u043d\u043e\u0432\u043d\u0430",
    "rating": 0.047158134467133316
  },
  "15675": {
    "name": "\u0422\u0443\u0447\u043a\u043e\u0432 \u0412\u043b\u0430\u0434\u0438\u043c\u0438\u0440 \u0412\u0430\u0441\u0438\u043b\u044c\u0435\u0432\u0438\u0447",
    "rating": 1.0702895614072705
  },
  "17260": {
    "name": "\u0418\u0432\u0430\u043d\u043e\u0432 \u0421\u0435\u0440\u0433\u0435\u0439 \u0412\u044f\u0447\u0435\u0441\u043b\u0430\u0432\u043e\u0432\u0438\u0447",
    "rating": 3.733964733473112
  },
  "24131": {
    "name": "\u0416\u0438\u0433\u0430\u0440\u043e\u0432 \u0424\u0435\u0434\u043e\u0440 \u0410\u043b\u0435\u043a\u0441\u0435\u0435\u0432\u0438\u0447",
    "rating": 1.6944443704580925
  },
  "24132": {
    "name": "\u0422\u0438\u043d\u044c\u043a\u043e\u0432 \u0418\u0433\u043e\u0440\u044c \u0412\u043b\u0430\u0434\u0438\u043c\u0438\u0440\u043e\u0432\u0438\u0447",
    "rating": 2.2565712707689523
  },
  "24133": {
    "name": "\u0413\u0443\u0431\u0430\u043d\u043e\u0432 \u0415\u0432\u0433\u0435\u043d\u0438\u0439 \u0410\u043d\u0430\u0442\u043e\u043b\u044c\u0435\u0432\u0438\u0447",
    "rating": 0.5188384846546557
  },
  "24134": {
    "name": "\u0428\u043e\u0440\u0441\u0442\u043e\u0432 \u0410\u043d\u0434\u0440\u0435\u0439 \u041c\u0438\u0445\u0430\u0439\u043b\u043e\u0432\u0438\u0447",
    "rating": 0.28181821138595137
  },
  "24135": {
    "name": "\u041b\u044b\u0441\u043e\u0432 \u0410\u043b\u0435\u043a\u0441\u0430\u043d\u0434\u0440 \u0412\u043b\u0430\u0434\u0438\u043c\u0438\u0440\u043e\u0432\u0438\u0447",
    "rating": 4.0
  },
  "24136": {
    "name": "\u0418\u0432\u043b\u0435\u0432 \u0412\u0438\u043a\u0442\u043e\u0440 \u0414\u0435\u043d\u0438\u0441\u043e\u0432\u0438\u0447",
    "rating": 1.3310982052346798
  }
}