{
  "41975": {
    "name": "\u041f\u0438\u0447\u0443\u0433\u0438\u043d \u0410\u043d\u0434\u0440\u0435\u0439 \u0412\u0438\u043a\u0442\u043e\u0440\u043e\u0432\u0438\u0447",
    "rating": 3.7815045876615687
  },
  "43906": {
    "name": "\u0413\u0440\u0438\u0433\u043e\u0440\u044c\u0435\u0432\u0430 \u041d\u0430\u0442\u0430\u043b\u044c\u044f \u041d\u0438\u043a\u043e\u043b\u0430\u0435\u0432\u043d\u0430",
    "rating": 2.240181522705945
  }
}