{
  "12926": {
    "name": "\u041a\u043e\u0436\u0430\u043d \u0422\u0430\u043c\u0430\u0440\u0430 \u0414\u043c\u0438\u0442\u0440\u0438\u0435\u0432\u043d\u0430",
    "rating": 1.9473900243127915
  },
  "43304": {
    "name": "\u0424\u0435\u0434\u0435\u043d\u043a\u043e\u0432 \u0418\u0433\u043e\u0440\u044c \u041d\u0438\u043a\u043e\u043b\u0430\u0435\u0432\u0438\u0447",
    "rating": 1.7019229707526806
  }
}