{
  "22254": {
    "name": "\u041d\u0438\u043a\u0438\u0442\u0435\u043d\u043a\u043e \u0410\u043b\u0435\u043a\u0441\u0435\u0439 \u0412\u0438\u043a\u0442\u043e\u0440\u043e\u0432\u0438\u0447",
    "rating": 0.1050176128346192
  },
  "43021": {
    "name": "\u0421\u0435\u0440\u044f\u043a\u043e\u0432 \u0410\u043b\u0435\u043a\u0441\u0430\u043d\u0434\u0440 \u0410\u043b\u044c\u0431\u0435\u0440\u0442\u043e\u0432\u0438\u0447",
    "rating": 2.2211658574656723
  }
}