{
  "16055": {
    "name": "\u0427\u0435\u0440\u043a\u0435\u0441\u043e\u0432 \u041b\u0435\u043e\u043d\u0438\u0434 \u0418\u043b\u044c\u0438\u0447",
    "rating": 3.5135127457608664
  },
  "16056": {
    "name": "\u041b\u0430\u0434\u044b\u043a\u043e\u0432 \u0410\u043b\u0435\u043a\u0441\u0435\u0439 \u041e\u043b\u0435\u0433\u043e\u0432\u0438\u0447",
    "rating": 1.6449048246162798
  },
  "16057": {
    "name": "\u0410\u043b\u0435\u043a\u0441\u0430\u043d\u0434\u0440\u043e\u0432 \u0413\u0435\u0440\u043c\u0430\u043d \u0413\u0435\u043d\u043d\u0430\u0434\u0438\u0435\u0432\u0438\u0447",
    "rating": 4.442084174332295
  },
  "16058": {
    "name": "\u041c\u0430\u043a\u043b\u044b\u0433\u0438\u043d \u0410\u043b\u0435\u043a\u0441\u0435\u0439 \u042e\u0440\u044c\u0435\u0432\u0438\u0447",
    "rating": 0.7581905244498647
  },
  "16059": {
    "name": "\u0412\u0430\u0441\u0438\u043b\u044c\u0435\u0432 \u042e\u0440\u0438\u0439 \u0410\u043b\u0435\u043a\u0441\u0430\u043d\u0434\u0440\u043e\u0432\u0438\u0447",
    "rating": 1.881449662876148
  },
  "16060": {
    "name": "\u0421\u0430\u043b\u0430\u0435\u0432\u0430 \u0410\u043b\u043b\u0430 \u041b\u0435\u043e\u043d\u0438\u0434\u043e\u0432\u043d\u0430",
    "rating": 0.9213230337476972
  },
  "16061": {
    "name": "\u0421\u0435\u043c\u0435\u043d\u043e\u0432 \u041c\u0430\u043a\u0441\u0438\u043c \u041b\u044c\u0432\u043e\u0432\u0438\u0447",
    "rating": 0.8290702862616655
  },
  "16062": {
    "name": "\u041f\u0430\u0432\u043b\u043e\u0432 \u0410\u043d\u0430\u0442\u043e\u043b\u0438\u0439 \u041b\u0435\u043e\u043d\u0438\u0434\u043e\u0432\u0438\u0447",
    "rating": 0.6089288680319389
  },
  "24610": {
    "name": "\u041a\u043b\u0435\u043c\u0435\u043d\u0442\u044c\u0435\u0432\u0430 \u0418\u0440\u0438\u043d\u0430 \u0412\u0441\u0435\u0432\u043e\u043b\u043e\u0434\u043e\u0432\u043d\u0430",
    "rating": 1.4315811230453137
  },
  "24611": {
    "name": "\u041a\u0430\u0437\u0430\u043d\u0446\u0435\u0432\u0430 \u0410\u043d\u043d\u0430 \u0413\u0435\u043e\u0440\u0433\u0438\u0435\u0432\u043d\u0430",
    "rating": 1.2288190974760318
  },
  "24612": {
    "name": "\u0427\u0438\u0436\u0430\u043d\u043e\u0432\u0430 \u041d\u0430\u0442\u044d\u043b\u043b\u0430 \u0420\u043e\u043c\u0438\u043b\u043e\u0432\u043d\u0430",
    "rating": 1.2147293369728984
  }
}