{
  "18017": {
    "name": "\u0418\u0432\u0430\u0439\u043b\u043e\u0432\u0441\u043a\u0438\u0439 \u0414\u043c\u0438\u0442\u0440\u0438\u0439 \u0410\u043b\u0435\u043a\u0441\u0430\u043d\u0434\u0440\u043e\u0432\u0438\u0447",
    "rating": 0.1633257725841421
  },
  "18018": {
    "name": "\u0414\u043e\u043d\u0434\u0443\u0431\u043e\u043d \u0412\u043b\u0430\u0434\u0438\u043c\u0438\u0440 \u041c\u043e\u043b\u043e\u0442\u043e\u0432\u0438\u0447",
    "rating": 0.47040022787169894
  },
  "18019": {
    "name": "\u0421\u0438\u0434\u043e\u0440\u0435\u043d\u043a\u043e \u041b\u044e\u0434\u043c\u0438\u043b\u0430 \u0412\u0430\u043b\u0435\u043d\u0442\u0438\u043d\u043e\u0432\u043d\u0430",
    "rating": 0.012533356312805886
  }
}