{
  "18034": {
    "name": "\u0414\u0438\u0431\u0438\u0440\u043e\u0432 \u041c\u0430\u0433\u043e\u043c\u0435\u0434 \u0422\u0430\u0433\u0438\u0440\u043e\u0432\u0438\u0447",
    "rating": 1.5578359602430167
  },
  "18035": {
    "name": "\u0410\u043b\u0438\u0435\u0432 \u0410\u0434\u0430\u043c \u041c\u0430\u0433\u043e\u043c\u0435\u0434\u043e\u0432\u0438\u0447",
    "rating": 0.96989633085897
  },
  "18036": {
    "name": "\u0413\u0435\u043d\u0436\u0435\u0445\u0430\u043d\u043e\u0432 \u041c\u0443\u0441\u0442\u0430\u043f\u0430 \u041f\u0438\u0440\u0433\u0430\u043d\u0443\u0442\u0434\u0438\u043d\u043e\u0432\u0438\u0447",
    "rating": 0.7414346630740646
  },
  "18037": {
    "name": "\u0413\u0443\u0441\u0430\u0435\u0432 \u0411\u0430\u0433\u0430\u0432\u0443\u0434\u0438\u043d \u041c\u0430\u0433\u043e\u043c\u0435\u0434\u043e\u0432\u0438\u0447",
    "rating": 3.233754626837784
  },
  "18038": {
    "name": "\u0425\u0430\u043b\u0438\u0434\u043e\u0432 \u0425\u0430\u043b\u0438\u0434 \u041c\u0430\u0433\u043e\u043c\u0435\u0434\u043e\u0432\u0438\u0447",
    "rating": 0.22100493051632827
  }
}