{
  "18128": {
    "name": "\u041a\u043b\u0435\u043c\u0435\u043d\u0442\u044c\u0435\u0432 \u041d\u0438\u043a\u043e\u043b\u0430\u0439 \u041a\u043e\u043d\u0441\u0442\u0430\u043d\u0442\u0438\u043d\u043e\u0432\u0438\u0447",
    "rating": 1.0112890692161527
  },
  "18129": {
    "name": "\u041f\u0430\u0442\u0440\u0443\u0448\u0435\u0432\u0430 \u0413\u0430\u043b\u0438\u043d\u0430 \u0410\u043b\u0435\u043a\u0441\u0430\u043d\u0434\u0440\u043e\u0432\u043d\u0430",
    "rating": 0.4643912173775289
  },
  "18130": {
    "name": "\u0424\u043e\u043c\u0438\u043d\u0430 \u041d\u0430\u0434\u0435\u0436\u0434\u0430 \u0414\u043c\u0438\u0442\u0440\u0438\u0435\u0432\u043d\u0430",
    "rating": 0.014751229674807057
  }
}