{
  "11220": {
    "name": "\u0421\u0435\u043c\u0435\u043d\u043e\u0432 \u0412\u0430\u043b\u0435\u0440\u0438\u0439 \u041f\u0435\u0442\u0440\u043e\u0432\u0438\u0447",
    "rating": 0.7215209620426294
  },
  "11221": {
    "name": "\u041a\u0443\u0446\u0435\u0432 \u041d\u0438\u043a\u043e\u043b\u0430\u0439 \u041d\u0438\u043a\u043e\u043b\u0430\u0435\u0432\u0438\u0447",
    "rating": 1.462852500858587
  },
  "11222": {
    "name": "\u0422\u0443\u0440\u043a\u043b\u0438\u0435\u0432 \u041d\u0430\u0437\u0438\u0440 \u0423\u043d\u0443\u0445\u043e\u0432\u0438\u0447",
    "rating": 0.7379295172096175
  },
  "11527": {
    "name": "\u041b\u0430\u0439\u043f\u0430\u043d\u043e\u0432 \u0410\u043b\u043b\u0430\u043d \u041a.",
    "rating": 0.048179745026981004
  },
  "34492": {
    "name": "\u0425\u0443\u0431\u0438\u0435\u0432 \u0418\u0431\u0440\u0430\u0433\u0438\u043c \u0418\u0441\u043c\u0430\u0438\u043b\u043e\u0432\u0438\u0447",
    "rating": 0.7956773601677382
  },
  "34493": {
    "name": "\u041a\u0430\u0442\u0447\u0438\u0435\u0432 \u0410\u0434\u0430\u043c \u0410\u0443\u0431\u0435\u043a\u0438\u0440\u043e\u0432\u0438\u0447",
    "rating": 2.3337904465400534
  },
  "34494": {
    "name": "\u0410\u0440\u0433\u0443\u043d\u043e\u0432 \u041c\u0443\u0440\u0430\u0442 \u041c.",
    "rating": 0.7534593576590849
  },
  "34513": {
    "name": "\u0423\u0440\u0443\u0441\u043e\u0432 \u041c\u0443\u0440\u0430\u0442 \u041c\u0443\u0445\u0430\u0434\u0436\u0438\u0440\u043e\u0432\u0438\u0447",
    "rating": 4.490087735161328
  },
  "34514": {
    "name": "\u0410\u0433\u043e\u0435\u0432 \u0410\u0441\u043b\u0430\u043d  \u041c.",
    "rating": 2.4258700161281754
  },
  "34515": {
    "name": "\u0411\u043e\u0440\u043b\u0430\u043a\u043e\u0432 \u0414\u0436\u0430\u043d\u0431\u043e\u043b\u0430\u0442 \u0410\u0437\u0440\u0435\u0442-\u0410\u043b\u0438\u0435\u0432\u0438\u0447",
    "rating": 1.0210932184273265
  },
  "34516": {
    "name": "\u0411\u043e\u0433\u0430\u0442\u044b\u0440\u0435\u0432 \u041c\u0443\u0434\u0430\u043b\u0438\u0444 \u0410\u0437\u0440\u0435\u0442\u043e\u0432\u0438\u0447",
    "rating": 4.0
  },
  "51723": {
    "name": "\u0411\u0438\u0434\u0436\u0438\u0435\u0432 \u0410\u043b\u044c\u0431\u0435\u0440\u0442 \u041c\u0443\u0434\u0430\u043b\u0438\u0444\u043e\u0432\u0438\u0447",
    "rating": 3.0
  },
  "51724": {
    "name": "\u0422\u0435\u0443\u043d\u0430\u0435\u0432 \u0410.\u0411. ",
    "rating": 3.0
  }
}