{
  "11223": {
    "name": "\u0410\u043d\u0442\u043e\u043d\u043a\u0438\u043d \u041a\u043e\u043d\u0441\u0442\u0430\u043d\u0442\u0438\u043d \u0413\u0435\u043d\u043d\u0430\u0434\u044c\u0435\u0432\u0438\u0447",
    "rating": 3.028477812388677
  },
  "11224": {
    "name": "\u0422\u0430\u0440\u0430\u0441\u043e\u0432 \u0414\u043c\u0438\u0442\u0440\u0438\u0439 \u0410\u043d\u0430\u0442\u043e\u043b\u044c\u0435\u0432\u0438\u0447",
    "rating": 0.8048417131852962
  },
  "11225": {
    "name": "\u041a\u043e\u043b\u043e\u043c\u043d\u0438\u043a\u043e\u0432 \u041e\u043b\u0435\u0433 \u0412\u043b\u0430\u0434\u0438\u043c\u0438\u0440\u043e\u0432\u0438\u0447",
    "rating": 0.07875938182588225
  },
  "11226": {
    "name": "\u0411\u043e\u0440\u0437\u0435\u043d\u043a\u043e\u0432 \u0421\u0435\u0440\u0433\u0435\u0439 \u0410\u043b\u0435\u043a\u0441\u0435\u0435\u0432\u0438\u0447",
    "rating": 0.03589595644239667
  },
  "11227": {
    "name": "\u0410\u043d\u0434\u0440\u0435\u0439 \u0412\u043b\u0430\u0434\u0438\u043c\u0438\u0440\u043e\u0432\u0438\u0447 \u0428\u043c\u0438\u0434\u043a\u043e",
    "rating": 0.07706418721599052
  },
  "11529": {
    "name": "\u0414\u0432\u043e\u0440\u0446\u043e\u0432 \u0412\u0430\u0441\u0438\u043b\u0438\u0439 \u0411\u043e\u0440\u0438\u0441\u043e\u0432\u0438\u0447",
    "rating": 0.04854730488861192
  },
  "11530": {
    "name": "\u0413\u0443\u0441\u0435\u0432 \u0412\u0430\u043b\u0435\u0440\u0438\u0439 \u0413\u0435\u043d\u043d\u0430\u0434\u044c\u0435\u0432\u0438\u0447",
    "rating": 0.6196076843881014
  },
  "11531": {
    "name": "\u0416\u0443\u043a\u043e\u0432\u0430 \u041d\u0430\u0434\u0435\u0436\u0434\u0430  \u0418\u0432\u0430\u043d\u043e\u0432\u043d\u0430",
    "rating": 0.2727019533217402
  },
  "11788": {
    "name": "\u0425\u0430\u0431\u0430\u0440\u043e\u0432 \u0410\u043b\u0435\u043a\u0441\u0430\u043d\u0434\u0440 \u0412\u043b\u0430\u0434\u0438\u043c\u0438\u0440\u043e\u0432\u0438\u0447",
    "rating": 2.3439332535312105
  },
  "37683": {
    "name": "\u0410\u043b\u0435\u043a\u0441\u0430\u0445\u0438\u043d \u0418\u0433\u043e\u0440\u044c \u0412\u044f\u0447\u0435\u0441\u043b\u0430\u0432\u043e\u0432\u0438\u0447",
    "rating": 0.046788525222441577
  },
  "37684": {
    "name": "\u0412\u043e\u0440\u043e\u043d\u043a\u0438\u043d \u0412\u0430\u0434\u0438\u043c \u042e\u0440\u044c\u0435\u0432\u0438\u0447",
    "rating": 0.0137964841206729
  },
  "37685": {
    "name": "\u041a\u0440\u0430\u0441\u043e\u0432\u0441\u043a\u0438\u0439 \u0418\u0433\u043e\u0440\u044c \u0410\u0440\u043a\u0430\u0434\u044c\u0435\u0432\u0438\u0447",
    "rating": 0.03319911701307655
  },
  "37686": {
    "name": "\u041d\u0435\u043f\u043e\u043c\u043d\u044f\u0449\u0438\u0439 \u041d\u0438\u043a\u043e\u043b\u0430\u0439 \u0418\u0432\u0430\u043d\u043e\u0432\u0438\u0447",
    "rating": 0.01008922557406338
  },
  "37687": {
    "name": "\u042e\u0440\u0447\u0435\u043d\u043a\u043e \u0410\u043d\u0434\u0440\u0435\u0439 \u0412\u043b\u0430\u0434\u0438\u043c\u0438\u0440\u043e\u0432\u0438\u0447",
    "rating": 1.0627616302657032
  },
  "37688": {
    "name": "\u0427\u0435\u0440\u043d\u044b\u0448\u0435\u0432 \u0421\u0435\u0440\u0433\u0435\u0439 \u0412\u0438\u0442\u0430\u043b\u044c\u0435\u0432\u0438\u0447",
    "rating": 2.3987354228058244
  },
  "37689": {
    "name": "\u041b\u043e\u0433\u0438\u043d\u043e\u0432 \u0410\u043d\u0434\u0440\u0435\u0439 \u041c\u0438\u0445\u0430\u0439\u043b\u043e\u0432\u0438\u0447",
    "rating": 1.422974899601725
  },
  "37690": {
    "name": "\u0411\u0435\u043a\u043a\u0430\u0440\u044c \u0410\u043b\u0435\u043a\u0441\u0430\u043d\u0434\u0440 \u0410\u043b\u0435\u043a\u0441\u0430\u043d\u0434\u0440\u043e\u0432\u0438\u0447",
    "rating": 0.004582254238487412
  },
  "37691": {
    "name": "\u0414\u0438\u043c\u0438\u0442\u0440\u043e\u0432 \u0410\u043d\u0434\u0440\u0435\u0439 \u041d\u0438\u043a\u043e\u043b\u0430\u0435\u0432\u0438\u0447",
    "rating": 0.5488870950293296
  },
  "37692": {
    "name": "\u041c\u0435\u043b\u044c\u043d\u0438\u043a\u043e\u0432 \u0415\u0432\u0433\u0435\u043d\u0438\u0439 \u0410\u043b\u0435\u043a\u0441\u0435\u0435\u0432\u0438\u0447",
    "rating": 0.1854453500362218
  },
  "37693": {
    "name": "\u041c\u0438\u0445\u043d\u0435\u0432\u0438\u0447 \u0412\u044f\u0447\u0435\u0441\u043b\u0430\u0432 \u0412\u0438\u043a\u0442\u043e\u0440\u043e\u0432\u0438\u0447",
    "rating": 0.022147769275472483
  },
  "37694": {
    "name": "\u0424\u0435\u0434\u043e\u0441\u043e\u0432\u0430 \u041c\u0430\u0440\u0438\u043d\u0430 \u0412\u043b\u0430\u0434\u0438\u043c\u0438\u0440\u043e\u0432\u043d\u0430",
    "rating": 1.4677417319677948
  },
  "37695": {
    "name": "\u0417\u0443\u0431\u0430\u043d\u043e\u0432 \u0421\u0435\u0440\u0433\u0435\u0439 \u041d\u0438\u043a\u043e\u043b\u0430\u0435\u0432\u0438\u0447",
    "rating": 2.2858945355958817
  },
  "37696": {
    "name": "\u0414\u0430\u0432\u044b\u0434\u043e\u0432 \u0410\u043b\u0435\u043a\u0441\u0430\u043d\u0434\u0440 \u0410\u043d\u0430\u0442\u043e\u043b\u044c\u0435\u0432\u0438\u0447",
    "rating": 1.5365262007074998
  },
  "37697": {
    "name": "\u0410\u0441\u0442\u0430\u0448\u043e\u0432 \u0410. \u0414.",
    "rating": 1.4201085766702848
  },
  "37698": {
    "name": "\u041c\u0430\u043b\u044b\u0445\u0438\u043d\u0430 \u041c\u0430\u0440\u0438\u043d\u0430 \u0410\u043d\u0430\u0442\u043e\u043b\u044c\u0435\u0432\u043d\u0430",
    "rating": 1.124089904332535
  },
  "37699": {
    "name": "\u041e\u0441\u0442\u0430\u043f\u0435\u043d\u043a\u043e \u0421\u0435\u0440\u0433\u0435\u0439 \u0410\u043b\u0435\u043a\u0441\u0430\u043d\u0434\u0440\u043e\u0432\u0438\u0447",
    "rating": 0.20029354385328824
  },
  "37700": {
    "name": "\u0416\u0443\u043a\u043e\u0432 \u0410\u043d\u0434\u0440\u0435\u0439 \u0410\u0440\u043a\u0430\u0434\u044a\u0435\u0432\u0438\u0447",
    "rating": 0.04883381445773993
  },
  "37701": {
    "name": "\u0420\u0443\u0441\u0442\u0430\u043c\u043e\u0432 \u0412. \u041a.",
    "rating": 0.07670502127264661
  },
  "37702": {
    "name": "\u0421\u043c\u043e\u043b\u044f\u043d\u0438\u043d\u043e\u0432 \u0410\u043d\u0434\u0440\u0435\u0439 \u0410\u043b\u0435\u043a\u0441\u0435\u0435\u0432\u0438\u0447",
    "rating": 0.18449043923360728
  },
  "37703": {
    "name": "\u0420\u0430\u0439\u0448 \u041a\u043e\u043d\u0441\u0442\u0430\u043d\u0442\u0438\u043d \u0412\u0438\u043a\u0442\u043e\u0440\u043e\u0432\u0438\u0447",
    "rating": 0.30496916843918337
  },
  "37704": {
    "name": "\u0416\u0435\u0440\u043d\u043e\u0432\u0435\u043d\u043a\u043e \u0410\u043b\u0435\u043a\u0441\u0435\u0439 \u0410\u043b\u0435\u043a\u0441\u0435\u0435\u0432\u0438\u0447",
    "rating": 0.05361558330115113
  },
  "37705": {
    "name": "\u042f\u043a\u0438\u043c\u0435\u043d\u043a\u043e \u0410\u043b\u0435\u043a\u0441\u0430\u043d\u0434\u0440 \u0412\u0438\u0442\u0430\u043b\u044c\u0435\u0432\u0438\u0447",
    "rating": 0.02288911798486091
  },
  "37706": {
    "name": "\u041d\u0438\u043a\u0438\u0442\u0438\u043d \u0410\u043d\u0434\u0440\u0435\u0439 \u041d\u0438\u043a\u043e\u043b\u0430\u0435\u0432\u0438\u0447",
    "rating": 1.0332057426993877
  },
  "37707": {
    "name": "\u0429\u0435\u043b\u043e\u043a\u043e\u0432 \u0414\u0435\u043d\u0438\u0441 \u0412\u0430\u043b\u0435\u0440\u044c\u0435\u0432\u0438\u0447",
    "rating": 0.036643971498963056
  },
  "37708": {
    "name": "\u041a\u043e\u0440\u0431\u0430\u043d\u044c \u0412\u0430\u043b\u0435\u043d\u0442\u0438\u043d \u0412\u0430\u043b\u0435\u0440\u044c\u0435\u0432\u0438\u0447",
    "rating": 0.031244205442722942
  },
  "37709": {
    "name": "\u0410\u0433\u0438\u0431\u0430\u043b\u043e\u0432 \u0414\u043c\u0438\u0442\u0440\u0438\u0439 \u041b\u0435\u043e\u043d\u0438\u0434\u043e\u0432\u0438\u0447",
    "rating": 0.02066983053638893
  },
  "37710": {
    "name": "\u0410\u043d\u044e\u0445\u0438\u043d \u0410\u043d\u0434\u0440\u0435\u0439 \u0418\u0432\u0430\u043d\u043e\u0432\u0438\u0447",
    "rating": 0.02052278019494751
  },
  "37711": {
    "name": "\u0418\u043b\u044c\u044f\u0448\u0435\u043d\u043a\u043e \u0410\u043b\u0435\u043a\u0441\u0430\u043d\u0434\u0440 \u0410\u043b\u0435\u043a\u0441\u0430\u043d\u0434\u0440\u043e\u0432\u0438\u0447",
    "rating": 0.2152301198832733
  },
  "37712": {
    "name": "\u0426\u0430\u0442\u0443\u0440\u043e\u0432 \u042d\u0434\u0433\u0430\u0440 \u0412\u0430\u043b\u0435\u0440\u044c\u0435\u0432\u0438\u0447",
    "rating": 0.02597889037795754
  },
  "37713": {
    "name": "\u041c\u0435\u043b\u044c\u043d\u0438\u0447\u0435\u043d\u043a\u043e \u0410\u043d\u0442\u043e\u043d \u0410\u043d\u0430\u0442\u043e\u043b\u044c\u0435\u0432\u0438\u0447",
    "rating": 0.1938625324408397
  },
  "37714": {
    "name": "\u0415\u0433\u043e\u044f\u043d \u0413\u0443\u0440\u0433\u0435\u043d \u0421\u0435\u0440\u0435\u0436\u0430\u0435\u0432\u0438\u0447",
    "rating": 1.69436028925189
  },
  "37715": {
    "name": "\u041a\u0430\u0440\u043e\u044f\u043d \u0410\u043d\u0434\u0440\u0435\u0439 \u0412\u043b\u0430\u0434\u0438\u043c\u0438\u0440\u043e\u0432\u0438\u0447",
    "rating": 0.07955737868079234
  },
  "37716": {
    "name": "\u041d\u0438\u043a\u0438\u0442\u0438\u043d \u0412\u043b\u0430\u0434\u0438\u043c\u0438\u0440 \u0410\u043d\u0430\u0442\u043e\u043b\u044c\u0435\u0432\u0438\u0447",
    "rating": 1.0112971516594405
  },
  "37717": {
    "name": "\u0414\u0443\u0431\u0430\u0435\u0432 \u041c\u0430\u0433\u043e\u043c\u0435\u0434\u0437\u0430\u0445\u0438\u0434 \u0425\u0430\u0439\u0440\u0443\u043b\u0430\u0435\u0432\u0438\u0447",
    "rating": 0.3185719392088712
  },
  "37718": {
    "name": "\u041b\u0435\u043e\u043d\u043e\u0432\u0430 \u041d. \u042f.",
    "rating": 0.005350317472748557
  },
  "37719": {
    "name": "\u041a\u0432\u0438\u0440\u0430\u043c \u0410\u043b\u0435\u043a\u0441\u0430\u043d\u0434\u0440 \u042e\u0440\u044c\u0435\u0432\u0438\u0447",
    "rating": 0.037560730660122894
  },
  "37720": {
    "name": "\u041b\u0430\u0437\u0430\u0440\u0435\u043d\u043a\u043e \u0420. \u0412.",
    "rating": 0.005870335462388926
  },
  "37721": {
    "name": "\u041b\u0430\u0437\u0430\u0440\u0435\u043d\u043a\u043e \u0420. \u0412.",
    "rating": 0.005870335462388926
  },
  "37722": {
    "name": "\u041b\u0435\u0439\u043f\u0438 \u041d. \u0410.",
    "rating": 0.040658307874767034
  },
  "37723": {
    "name": "\u0428\u0443\u0441\u0442\u0435\u0440\u043e\u0432 \u0410\u043b\u0435\u043a\u0441\u0435\u0439 \u0410\u043d\u0430\u0442\u043e\u043b\u044c\u0435\u0432\u0438\u0447",
    "rating": 0.09374261814583916
  },
  "37724": {
    "name": "\u041b\u0430\u0442\u0443\u0448\u043a\u0438\u043d\u0430 \u041e\u043a\u0441\u0430\u043d\u0430 \u0410.",
    "rating": 0.023589904454998343
  },
  "37725": {
    "name": "\u041d\u0438\u043a\u0443\u043b\u0438\u043d \u041a\u043e\u043d\u0441\u0442\u0430\u043d\u0442\u0438\u043d \u0413\u0435\u043d\u043d\u0430\u0434\u044c\u0435\u0432\u0438\u0447",
    "rating": 0.05575982693476168
  },
  "37726": {
    "name": "\u0412\u043e\u043b\u043e\u0434\u0438\u043d \u041c\u0430\u043a\u0441\u0438\u043c \u041d\u0438\u043a\u043e\u043b\u0430\u0435\u0432\u0438\u0447",
    "rating": 1.1027574983626898
  },
  "37727": {
    "name": "\u041c\u043e\u0440\u043e\u0437\u043e\u0432 \u0415\u0432\u0433\u0435\u043d\u0438\u0439 \u0412\u043b\u0430\u0434\u0438\u043c\u0438\u0440\u043e\u0432\u0438\u0447",
    "rating": 2.019454942975747
  },
  "37728": {
    "name": "\u0421\u043a\u043e\u043a\u043e\u0432 \u041c\u0438\u0445\u0430\u0438\u043b \u041c\u0438\u0445\u0430\u0439\u043b\u043e\u0432\u0438\u0447",
    "rating": 0.016665973489308646
  },
  "37729": {
    "name": "\u042f\u0441\u044e\u043a\u0435\u0432\u0438\u0447 \u041a\u043e\u043d\u0441\u0442\u0430\u043d\u0442\u0438\u043d \u0412\u043b\u0430\u0434\u0438\u0441\u043b\u0430\u0432\u043e\u0432\u0438\u0447",
    "rating": 0.06314789762642986
  },
  "37730": {
    "name": "\u0413\u0440\u0435\u0431\u0435\u043d\u043d\u0438\u043a\u043e\u0432 \u0412. \u0412.",
    "rating": 0.22152534472201135
  },
  "37731": {
    "name": "\u0414\u0443\u0434\u043a\u043e \u0410\u043b\u0435\u043a\u0441\u0435\u0439 \u0412\u043b\u0430\u0434\u0438\u043c\u0438\u0440\u043e\u0432\u0438\u0447",
    "rating": 1.0510717641826663
  },
  "37732": {
    "name": "\u0410\u0441\u0442\u0430\u043f\u043e\u0432 \u0412\u043b\u0430\u0434\u0438\u0441\u043b\u0430\u0432 \u0421\u0435\u0440\u0433\u0435\u0435\u0432\u0438\u0447",
    "rating": 1.0298128557678083
  },
  "37733": {
    "name": "\u0413\u043e\u043b\u0443\u0448\u043a\u043e\u0432 \u0421\u0435\u0440\u0433\u0435\u0439 \u0410\u043b\u0435\u043a\u0441\u0430\u043d\u0434\u0440\u043e\u0432\u0438\u0447",
    "rating": 0.05089430568413403
  },
  "37734": {
    "name": "\u0413\u043e\u0440\u043e\u0432\u043e\u0439 \u0418\u0432\u0430\u043d \u0412\u043b\u0430\u0434\u0438\u043c\u0438\u0440\u043e\u0432\u0438\u0447",
    "rating": 0.08334207634403333
  },
  "37735": {
    "name": "\u0421\u044b\u0441\u0443\u0435\u0432 \u0412\u044f\u0447\u0435\u0441\u043b\u0430\u0432 \u0410\u043b\u0435\u043a\u0441\u0435\u0435\u0432\u0438\u0447",
    "rating": 0.2969759737389367
  },
  "37736": {
    "name": "\u042e\u0440\u0438\u043d \u0421\u0435\u0440\u0433\u0435\u0439 \u041c\u0438\u0445\u0430\u0439\u043b\u043e\u0432\u0438\u0447",
    "rating": 2.8184626252770317
  },
  "37737": {
    "name": "\u0414\u0440\u044e\u0446\u043a\u0438\u0439 \u0410\u043b\u0435\u043a\u0441\u0430\u043d\u0434\u0440 \u0410\u043b\u0435\u043a\u0441\u0435\u0435\u0432\u0438\u0447",
    "rating": 0.06356105236593387
  },
  "37738": {
    "name": "\u0410\u0440\u0437\u044e\u0442\u043e\u0432 \u0410\u043d\u0442\u043e\u043d \u0421\u0435\u0440\u0433\u0435\u0435\u0432\u0438\u0447",
    "rating": 4.0
  },
  "37739": {
    "name": "\u041c\u0443\u0445\u0430\u0447\u0435\u0432 \u041c\u0430\u043a\u0441\u0438\u043c \u0410\u043b\u0435\u043a\u0441\u0430\u043d\u0434\u0440\u043e\u0432\u0438\u0447",
    "rating": 0.02976034578188365
  },
  "37740": {
    "name": "\u041d\u0435\u043c\u0447\u0435\u043d\u043a\u043e \u0421\u0435\u0440\u0433\u0435\u0439 \u0412\u043b\u0430\u0434\u0438\u043c\u0438\u0440\u043e\u0432\u0438\u0447",
    "rating": 0.009526572453567882
  },
  "37741": {
    "name": "\u0422\u0438\u0442\u043e\u0432\u0438\u0447 \u041e\u043b\u0435\u0433 \u0412\u0438\u0442\u0430\u043b\u044c\u0435\u0432\u0438\u0447",
    "rating": 0.016297602538306314
  },
  "37742": {
    "name": "\u042f\u043a\u043e\u0432\u043b\u0435\u0432 \u0418\u0432\u0430\u043d \u0418\u0432\u0430\u043d\u043e\u0432\u0438\u0447",
    "rating": 2.057500796983919
  },
  "37743": {
    "name": "\u041d\u043e\u0432\u0438\u043a\u043e\u0432 \u0421\u0435\u0440\u0433\u0435\u0439 \u0412\u043b\u0430\u0434\u0438\u043c\u0438\u0440\u043e\u0432\u0438\u0447",
    "rating": 3.025173692128819
  },
  "37744": {
    "name": "\u0422\u0430\u0440\u0430\u0441\u043e\u0432 \u0415\u0432\u0433\u0435\u043d\u0438\u0439 \u0410\u043d\u0430\u0442\u043e\u043b\u044c\u0435\u0432\u0438\u0447",
    "rating": 1.2081109726144212
  },
  "37745": {
    "name": "\u0428\u0435\u043d\u0446\u043e\u0432 \u0414\u043c\u0438\u0442\u0440\u0438\u0439 \u0413\u0440\u0438\u0433\u043e\u0440\u044c\u0435\u0432\u0438\u0447",
    "rating": 1.0530292713806837
  },
  "37746": {
    "name": "\u0418\u0432\u043e\u0439\u043b\u043e\u0432 \u0410\u043b\u0435\u043a\u0441\u0430\u043d\u0434\u0440 \u0412\u0430\u0441\u0438\u043b\u044c\u0435\u0432\u0438\u0447",
    "rating": 4.0
  },
  "37747": {
    "name": "\u0412\u043e\u043b\u043a\u043e\u0432 \u0410\u043d\u0442\u043e\u043d \u0411\u043e\u0440\u0438\u0441\u043e\u0432\u0438\u0447",
    "rating": 0.022742473698373098
  },
  "37748": {
    "name": "\u041c\u0430\u043c\u0430\u0435\u0432 \u041a\u043e\u043d\u0441\u0442\u0430\u043d\u0442\u0438\u043d \u0421\u0435\u0440\u0433\u0435\u0435\u0432\u0438\u0447",
    "rating": 0.044385181408500105
  },
  "37749": {
    "name": "\u0410\u0441\u0442\u0430\u0445\u043e\u0432 \u0415\u0432\u0433\u0435\u043d\u0438\u0439 \u0418\u0433\u043e\u0440\u0435\u0432\u0438\u0447",
    "rating": 0.03339678579231555
  },
  "37750": {
    "name": "\u041a\u043e\u0442\u043a\u043e\u0432 \u0414\u0435\u043d\u0438\u0441 \u0412\u0430\u0441\u0438\u043b\u044c\u0435\u0432\u0438\u0447",
    "rating": 0.024284530703924136
  },
  "37751": {
    "name": "\u041f\u0435\u0442\u0440\u043e\u0432 \u0412\u0438\u0442\u0430\u043b\u0438\u0439 \u0413\u0435\u043d\u043d\u0430\u0434\u0438\u0435\u0432\u0438\u0447",
    "rating": 0.6619974819145658
  },
  "37752": {
    "name": "\u041f\u0440\u0438\u043b\u0435\u043f\u0441\u043a\u0438\u0439 \u0421\u0435\u0440\u0433\u0435\u0439 \u0411\u043e\u0440\u0438\u0441\u043e\u0432\u0438\u0447",
    "rating": 0.05568308177719866
  },
  "37753": {
    "name": "\u0413\u043e\u043d\u0442\u0430\u0440\u0435\u043d\u043a\u043e \u0410\u043b\u0435\u043a\u0441\u0435\u0439 \u0412\u0438\u043a\u0442\u043e\u0440\u043e\u0432\u0438\u0447",
    "rating": 0.05611467883519312
  },
  "37754": {
    "name": "\u0411\u0435\u0441\u043f\u0430\u043b\u043e\u0432 \u0415\u0432\u0433\u0435\u043d\u0438\u0439 \u0421\u0435\u0440\u0433\u0435\u0435\u0432\u0438\u0447",
    "rating": 0.2502495242257109
  },
  "37755": {
    "name": "\u0413\u0440\u0438\u0434\u0430\u0435\u0432 \u0421\u0435\u0440\u0433\u0435\u0439 \u0412\u0438\u043a\u0442\u043e\u0440\u043e\u0432\u0438\u0447",
    "rating": 0.02948068858975955
  },
  "37756": {
    "name": "\u0420\u0430\u0434\u0447\u0435\u043d\u043a\u043e \u041e\u043b\u0435\u0433 \u0411\u043e\u0440\u0438\u0441\u043e\u0432\u0438\u0447",
    "rating": 0.0552320794784348
  },
  "37757": {
    "name": "\u042e\u0449\u0435\u043d\u043a\u043e \u0415\u043b\u0435\u043d\u0430 \u0413\u0435\u043e\u0440\u0433\u0438\u0435\u0432\u043d\u0430",
    "rating": 0.05240898032480863
  },
  "37758": {
    "name": "\u0412\u0430\u0440\u0430\u043d\u043a\u0438\u043d \u0412\u043b\u0430\u0434\u0438\u043c\u0438\u0440 \u0414\u0435\u043c\u044c\u044f\u043d\u043e\u0432\u0438\u0447",
    "rating": 1.035407311331321
  },
  "37759": {
    "name": "\u041a\u0430\u043d\u0430\u0445\u0438\u043d \u041c\u0438\u0445\u0430\u0438\u043b \u0412\u044f\u0447\u0435\u0441\u043b\u0430\u0432\u043e\u0432\u0438\u0447",
    "rating": 0.19620273151502407
  },
  "37760": {
    "name": "\u041a\u0443\u043b\u0430\u043a\u043e\u0432 \u041d\u0438\u043a\u043e\u043b\u0430\u0439 \u0411\u043e\u0440\u0438\u0441\u043e\u0432\u0438\u0447",
    "rating": 1.019467784284092
  },
  "37761": {
    "name": "\u041d\u0435\u043a\u0440\u0430\u0441\u043e\u0432 \u0415\u0432\u0433\u0435\u043d\u0438\u0439 \u041c\u0438\u0445\u0430\u0439\u043b\u043e\u0432\u0438\u0447",
    "rating": 1.6940898926831327
  },
  "37762": {
    "name": "\u0422\u0438\u0445\u043e\u043d\u043e\u0432 \u0410\u043d\u0434\u0440\u0435\u0439 \u0412\u043b\u0430\u0434\u0438\u043c\u0438\u0440\u043e\u0432\u0438\u0447",
    "rating": 2.5462246763006418
  },
  "37763": {
    "name": "\u041a\u0430\u0440\u043c\u0430\u0434\u043e\u043d\u043e\u0432 \u0410\u043b\u0435\u043a\u0441\u0435\u0439 \u041d\u0438\u043a\u043e\u043b\u0430\u0435\u0432\u0438\u0447",
    "rating": 0.17053010580516773
  },
  "37764": {
    "name": "\u0423\u0441\u0442\u0438\u043d\u043e\u0432\u0438\u0447 \u042e\u0440\u0438\u0439 \u041b\u0435\u043e\u043d\u0438\u0434\u043e\u0432\u0438\u0447",
    "rating": 3.4517802557986523
  },
  "37765": {
    "name": "\u0412\u0435\u0440\u0445\u043e\u0442\u0443\u0440\u043e\u0432 \u041a\u043e\u043d\u0441\u0442\u0430\u043d\u0442\u0438\u043d \u0421\u0435\u0440\u0433\u0435\u0435\u0432\u0438\u0447",
    "rating": 0.06832776721225381
  },
  "37766": {
    "name": "\u041c\u043e\u043b\u043e\u043a\u0430\u043d\u043e\u0432 \u041a\u043e\u043d\u0441\u0442\u0430\u043d\u0442\u0438\u043d \u0412\u0438\u043a\u0442\u043e\u0440\u043e\u0432\u0438\u0447",
    "rating": 0.25844380304136233
  },
  "37767": {
    "name": "\u041f\u043e\u043f\u043a\u043e\u0432 \u0415\u0432\u0433\u0435\u043d\u0438\u0439 \u041b\u0435\u043e\u043d\u0438\u0434\u043e\u0432\u0438\u0447",
    "rating": 2.0872236118508862
  },
  "37768": {
    "name": "\u041e\u0437\u0434\u0435\u0440\u0431\u0438\u0435\u0432 \u0410\u0440\u0442\u0443\u0440 \u0410\u043d\u0440\u0438\u0435\u0432\u0438\u0447",
    "rating": 0.022644954304906085
  },
  "37769": {
    "name": "\u0421\u0443\u0442\u043e\u0440\u043c\u0438\u043d \u0418\u0432\u0430\u043d \u041c\u0438\u0445\u0430\u0439\u043b\u043e\u0432\u0438\u0447",
    "rating": 0.007753941133676086
  },
  "37770": {
    "name": "\u0413\u0430\u0433\u0430\u0440\u0438\u043d \u0412\u0438\u0442\u0430\u043b\u0438\u0439 \u0412\u0430\u043b\u0435\u0440\u044c\u0435\u0432\u0438\u0447",
    "rating": 2.128024420430287
  },
  "37771": {
    "name": "\u0414\u043c\u0438\u0442\u0440\u0438\u0435\u043d\u043a\u043e \u0415\u0432\u0433\u0435\u043d\u0438\u0439 \u0410\u043b\u0435\u043a\u0441\u0435\u0435\u0432\u0438\u0447",
    "rating": 0.30433225945254755
  },
  "37772": {
    "name": "\u041a\u0443\u0437\u044c\u043c\u0438\u043d \u041a\u043e\u043d\u0441\u0442\u0430\u043d\u0442\u0438\u043d \u0410\u043d\u0430\u0442\u043e\u043b\u044c\u0435\u0432\u0438\u0447",
    "rating": 1.047206428106688
  },
  "37773": {
    "name": "\u0416\u0443\u043a\u043e\u0432 \u0414\u043c\u0438\u0442\u0440\u0438\u0439 \u041b\u0435\u043e\u043d\u0438\u0434\u043e\u0432\u0438\u0447",
    "rating": 0.4804386652324191
  },
  "37774": {
    "name": "\u0428\u0438\u0448\u043e\u0432 \u0421\u0435\u0440\u0433\u0435\u0439 \u0410\u043d\u0434\u0440\u0435\u0435\u0432\u0438\u0447",
    "rating": 2.2673961435258705
  },
  "37775": {
    "name": "\u0428\u0443\u0431\u0438\u043d \u0410\u043d\u0434\u0440\u0435\u0439 \u042e\u0440\u044c\u0435\u0432\u0438\u0447",
    "rating": 0.018572209402819468
  },
  "37776": {
    "name": "\u041a\u043e\u0437\u0438\u043a \u0415\u0432\u0433\u0435\u043d\u0438\u0439 \u0412\u0438\u043a\u0442\u043e\u0440\u043e\u0432\u0438\u0447",
    "rating": 0.054637991375176186
  },
  "37777": {
    "name": "\u0416\u0443\u0440\u0430\u0432\u043b\u0435\u0432 \u0410\u043b\u0435\u043a\u0441\u0430\u043d\u0434\u0440 \u0418\u0432\u0430\u043d\u043e\u0432\u0438\u0447",
    "rating": 1.0645411359672785
  },
  "37778": {
    "name": "\u041c\u0430\u0440\u0443\u0434\u0438\u043d \u0412\u044f\u0447\u0435\u0441\u043b\u0430\u0432 \u0410\u043b\u0435\u043a\u0441\u0430\u043d\u0434\u0440\u043e\u0432\u0438\u0447",
    "rating": 3.0
  },
  "37779": {
    "name": "\u041d\u0435\u0447\u0438\u0442\u0430\u0439\u043b\u043e \u041c\u0438\u0445\u0430\u0438\u043b \u0421\u0435\u0440\u0433\u0435\u0435\u0432\u0438\u0447",
    "rating": 0.021517951373509887
  },
  "37780": {
    "name": "\u0421\u0438\u043c\u043e\u043d\u043e\u0432 \u041e\u043b\u0435\u0433 \u0411\u043e\u0440\u0438\u0441\u043e\u0432\u0438\u0447",
    "rating": 0.031456663908226504
  },
  "37781": {
    "name": "\u041d\u0438\u043a\u043e\u043b\u0430\u0435\u0432 \u041a\u043e\u043d\u0441\u0442\u0430\u043d\u0442\u0438\u043d \u0410\u043b\u0435\u043a\u0441\u0430\u043d\u0434\u0440\u043e\u0432\u0438\u0447",
    "rating": 4.288421561483627
  },
  "37782": {
    "name": "\u0411\u0430\u043d\u043d\u0438\u043a\u043e\u0432 \u0412\u043b\u0430\u0434\u0438\u043c\u0438\u0440 \u0412\u0430\u0441\u0438\u043b\u044c\u0435\u0432\u0438\u0447",
    "rating": 2.7664410429098893
  },
  "37783": {
    "name": "\u0410\u0441\u0442\u0430\u0445\u043e\u0432 \u0410\u043b\u0435\u043a\u0441\u0430\u043d\u0434\u0440 \u0413\u0435\u043d\u043d\u0430\u0434\u044c\u0435\u0432\u0438\u0447",
    "rating": 0.020442069101326683
  },
  "37784": {
    "name": "\u0418\u0432\u0430\u0439\u043a\u0438\u043d \u0410\u043b\u0435\u043a\u0441\u0435\u0439 \u042e\u0440\u044c\u0435\u0432\u0438\u0447",
    "rating": 0.026664748091565608
  },
  "37785": {
    "name": "\u041a\u043e\u0432\u0438\u043d \u0412\u043b\u0430\u0434\u0438\u043c\u0438\u0440 \u0412\u0438\u043a\u0442\u043e\u0440\u043e\u0432\u0438\u0447",
    "rating": 0.2178974964195988
  },
  "37786": {
    "name": "\u0427\u0443\u0440\u0438\u043d \u0421\u0435\u0440\u0433\u0435\u0439 \u0412\u0430\u0441\u0438\u043b\u044c\u0435\u0432\u0438\u0447",
    "rating": 0.030965791315431094
  },
  "37787": {
    "name": "\u0420\u044b\u0436\u0435\u043d\u043a\u043e \u041c\u0430\u043a\u0441\u0438\u043c \u0410\u043b\u0435\u043a\u0441\u0430\u043d\u0434\u0440\u043e\u0432\u0438\u0447",
    "rating": 0.028813016682505275
  },
  "37788": {
    "name": "\u041d\u043e\u0441\u043e\u0440\u0435\u0432 \u0410\u043b\u0435\u043a\u0441\u0435\u0439 \u041a\u043e\u043d\u0441\u0442\u0430\u043d\u0442\u0438\u043d\u043e\u0432\u0438\u0447",
    "rating": 0.22426273128490956
  },
  "37789": {
    "name": "\u0413\u0440\u0438\u0433\u043e\u0440\u044c\u0435\u0432 \u041c\u0430\u043a\u0441\u0438\u043c \u041d\u0438\u043a\u043e\u043b\u0430\u0435\u0432\u0438\u0447",
    "rating": 0.020752020856837555
  },
  "37790": {
    "name": "\u0413\u043e\u0432\u043e\u0440\u0443\u0445\u0438\u043d \u0410\u043d\u0434\u0440\u0435\u0439 \u0413\u0435\u043d\u043d\u0430\u0434\u044c\u0435\u0432\u0438\u0447",
    "rating": 0.10203061297188573
  },
  "37791": {
    "name": "\u041a\u0430\u0440\u0430\u0433\u043e\u0434\u0438\u043d \u042e\u0440\u0438\u0439 \u0412\u043b\u0430\u0434\u0438\u043c\u0438\u0440\u043e\u0432\u0438\u0447",
    "rating": 0.016175940081431257
  },
  "37792": {
    "name": "\u041a\u0440\u0438\u0432\u043e\u0448\u0430\u043f\u043a\u0438\u043d \u0415\u0432\u0433\u0435\u043d\u0438\u0439 \u041c\u0438\u0445\u0430\u0439\u043b\u043e\u0432\u0438\u0447",
    "rating": 0.007610577078568125
  },
  "37793": {
    "name": "\u0424\u0435\u0434\u043e\u0441\u0446\u0435\u0432 \u0421\u0435\u0440\u0433\u0435\u0439 \u0410\u043b\u0435\u043a\u0441\u0435\u0435\u0432\u0438\u0447",
    "rating": 0.0383490635806996
  },
  "37794": {
    "name": "\u0410\u0431\u0434\u0440\u0430\u0448\u0438\u0442\u043e\u0432 \u0418\u043d\u0432\u0438\u0440 \u0424\u0430\u0440\u0445\u0430\u0442\u043e\u0432\u0438\u0447",
    "rating": 0.0314983849627962
  },
  "37795": {
    "name": "\u0411\u0435\u043b\u044f\u043a\u043e\u0432 \u0414\u043c\u0438\u0442\u0440\u0438\u0439 \u041d\u0438\u043a\u043e\u043b\u0430\u0435\u0432\u0438\u0447",
    "rating": 0.025432543337487432
  },
  "37796": {
    "name": "\u0413\u0443\u043b\u044f\u0435\u0432 \u0410\u043b\u0435\u043a\u0441\u0435\u0439 \u0412\u043b\u0430\u0434\u0438\u043c\u0438\u0440\u043e\u0432\u0438\u0447",
    "rating": 0.03024953393871665
  },
  "37797": {
    "name": "\u0413\u0438\u043c\u0430\u0434\u0435\u0435\u0432 \u041c\u0430\u0440\u0441\u0435\u043b\u044c \u041c\u0430\u043d\u0441\u0443\u0440\u043e\u0432\u0438\u0447",
    "rating": 0.03391430475271935
  },
  "37798": {
    "name": "\u041f\u0435\u0445\u0442\u0435\u0440\u0435\u0432 \u041e\u043b\u0435\u0433 \u0412\u0438\u043a\u0442\u043e\u0440\u043e\u0432\u0438\u0447",
    "rating": 0.06971745641902473
  },
  "37799": {
    "name": "\u0428\u0430\u043b\u044b\u0433\u0438\u043d \u0410\u043b\u0435\u043a\u0441\u0435\u0439 \u041e\u043b\u0435\u0433\u043e\u0432\u0438\u0447",
    "rating": 0.03691866701633748
  },
  "37800": {
    "name": "\u041a\u043e\u0431\u0435\u0446 \u042e\u0440\u0438\u0439 \u041f\u0435\u0442\u0440\u043e\u0432\u0438\u0447",
    "rating": 1.8077817941147938
  },
  "37801": {
    "name": "\u0418\u0432\u0430\u043d\u043e\u0432 \u0412\u0430\u043b\u0435\u0440\u0438\u0439 \u0410\u043d\u0430\u0442\u043e\u043b\u044c\u0435\u0432\u0438\u0447",
    "rating": 1.031655488094124
  },
  "37802": {
    "name": "\u041b\u0430\u043f\u0438\u043d \u0410\u043d\u0434\u0440\u0435\u0439 \u0410\u043b\u0435\u043a\u0441\u0430\u043d\u0434\u0440\u043e\u0432\u0438\u0447",
    "rating": 0.018670852474570492
  },
  "37803": {
    "name": "\u041f\u043e\u0433\u043e\u0436\u0435\u0432 \u0418\u0433\u043e\u0440\u044c \u041f\u0435\u0442\u0440\u043e\u0432\u0438\u0447",
    "rating": 0.030006694085578992
  },
  "37804": {
    "name": "\u041f\u044f\u0447\u0438\u043d \u0410\u043b\u0435\u043a\u0441\u0430\u043d\u0434\u0440 \u041d\u0438\u043a\u043e\u043b\u0430\u0435\u0432\u0438\u0447",
    "rating": 0.3384559148197338
  },
  "37805": {
    "name": "\u0426\u0435\u043f\u0435\u043d\u043a\u043e\u0432\u0430 \u041b\u044e\u0434\u043c\u0438\u043b\u0430 \u0413\u0440\u0438\u0433\u043e\u0440\u044c\u0435\u0432\u043d\u0430",
    "rating": 0.11408981829781854
  },
  "37807": {
    "name": "\u0417\u0435\u043b\u0435\u043d\u043a\u043e\u0432 \u0410\u043d\u0434\u0440\u0435\u0439 \u0412\u0430\u043b\u0435\u0440\u044c\u0435\u0432\u0438\u0447",
    "rating": 1.038576260398428
  },
  "37808": {
    "name": "\u0411\u0430\u0442\u0440\u0430\u043d\u0438\u043d \u0410\u043b\u0435\u043a\u0441\u0435\u0439 \u0410\u043b\u0435\u043a\u0441\u0430\u043d\u0434\u0440\u043e\u0432\u0438\u0447",
    "rating": 0.015771877271696308
  },
  "37809": {
    "name": "\u041a\u043e\u0432\u0430\u043b\u044c \u041c\u0430\u043a\u0441\u0438\u043c \u0410\u0445\u043c\u0435\u0447\u0430\u043d\u043e\u0432\u0438\u0447",
    "rating": 0.040141369188661666
  },
  "37810": {
    "name": "\u0421\u0435\u0434\u043e\u0432 \u0410\u043b\u0435\u043a\u0441\u0430\u043d\u0434\u0440 \u0421\u0435\u0440\u0433\u0435\u0435\u0432\u0438\u0447",
    "rating": 0.06666763625029716
  },
  "37811": {
    "name": "\u041a\u0443\u043f\u0440\u044f\u0448\u0438\u043d \u0412. \u0418.",
    "rating": 0.1895006395325652
  },
  "37812": {
    "name": "\u0411\u044b\u043a\u043e\u0432 \u0421\u0435\u0440\u0433\u0435\u0439 \u041d\u0438\u043a\u043e\u043b\u0430\u0435\u0432\u0438\u0447",
    "rating": 2.232703073595188
  },
  "37813": {
    "name": "\u0417\u0435\u043b\u0435\u043d\u0438\u043d \u041a\u043e\u043d\u0441\u0442\u0430\u043d\u0442\u0438\u043d \u041d\u0438\u043a\u043e\u043b\u0430\u0435\u0432\u0438\u0447",
    "rating": 0.018218222156239403
  },
  "37814": {
    "name": "\u041c\u0438\u0442\u044e\u043a\u043e\u0432 \u0410\u043b\u0435\u043a\u0441\u0435\u0439 \u0420\u044e\u0440\u0438\u043a\u043e\u0432\u0438\u0447",
    "rating": 0.03749154800520367
  },
  "37815": {
    "name": "\u0421\u0443\u0445\u0438\u0445 \u041e\u043b\u0435\u0433 \u041c\u0438\u0445\u0430\u0439\u043b\u043e\u0432\u0438\u0447",
    "rating": 0.03406700991388898
  },
  "37816": {
    "name": "\u041a\u043e\u0446\u044e\u0431\u0430 \u0412\u044f\u0447\u0435\u0441\u043b\u0430\u0432 \u0414\u043c\u0438\u0442\u0440\u0438\u0435\u0432\u0438\u0447",
    "rating": 0.02675457265089344
  },
  "37817": {
    "name": "\u041b\u0435\u0434\u0435\u0440 \u0418\u0433\u043e\u0440\u044c \u0410\u043b\u0435\u043a\u0441\u0430\u043d\u0434\u0440\u043e\u0432\u0438\u0447",
    "rating": 0.02959854656407449
  },
  "37818": {
    "name": "\u041a\u0438\u0440\u043e\u0432 \u0412\u044f\u0447\u0435\u0441\u043b\u0430\u0432 \u0412\u043b\u0430\u0434\u0438\u043c\u0438\u0440\u043e\u0432\u0438\u0447",
    "rating": 0.09026404713720247
  },
  "37819": {
    "name": "\u041a\u0443\u0437\u043d\u0435\u0446\u043e\u0432 \u0410\u043b\u0435\u043a\u0441\u0430\u043d\u0434\u0440 \u0412\u0438\u043a\u0442\u043e\u0440\u043e\u0432\u0438\u0447",
    "rating": 3.024996494862565
  },
  "37820": {
    "name": "\u0416\u043e\u043b\u0443\u0434\u0435\u0432 \u041e\u043b\u0435\u0433 \u041d\u0438\u043a\u043e\u043b\u0430\u0435\u0432\u0438\u0447",
    "rating": 0.029045391388480918
  },
  "37821": {
    "name": "\u041b\u0430\u0434\u0430\u043d \u0410\u043d\u0434\u0440\u0435\u0439 \u0410\u043b\u0435\u043a\u0441\u0430\u043d\u0434\u0440\u043e\u0432\u0438\u0447",
    "rating": 0.04524573943326324
  },
  "37822": {
    "name": "\u0411\u0435\u043b\u043e\u0431\u043e\u0440\u043e\u0434\u043e\u0432 \u041f\u0435\u0442\u0440 \u0414\u043c\u0438\u0442\u0440\u0438\u0435\u0432\u0438\u0447",
    "rating": 0.016056624073672546
  },
  "37823": {
    "name": "\u0417\u0432\u0435\u0440\u0435\u0432 \u0410\u043b\u0435\u043a\u0441\u0430\u043d\u0434\u0440 \u0418\u0432\u0430\u043d\u043e\u0432\u0438\u0447",
    "rating": 1.0404465625981607
  },
  "37824": {
    "name": "\u0424\u0438\u043b\u0430\u0442\u043e\u0432 \u041d\u0438\u043a\u043e\u043b\u0430\u0439 \u0412\u0430\u0441\u0438\u043b\u044c\u0435\u0432\u0438\u0447",
    "rating": 2.0348341277341118
  },
  "37825": {
    "name": "\u041a\u0438\u0441\u0435\u043b\u0435\u0432 \u0410. \u0413.",
    "rating": 0.0545274354028611
  },
  "37826": {
    "name": "\u0414\u0430\u043d\u0438\u043b\u0435\u043d\u043a\u043e \u0410\u043b\u0435\u043a\u0441\u0430\u043d\u0434\u0440 \u041d\u0438\u043a\u043e\u043b\u0430\u0435\u0432\u0438\u0447",
    "rating": 2.0277936663441967
  },
  "37827": {
    "name": "\u0412\u0435\u0440\u0442\u0435\u0431\u043d\u044b\u0439 \u0412\u043b\u0430\u0434\u0438\u043c\u0438\u0440 \u041d\u0438\u043a\u043e\u043b\u0430\u0435\u0432\u0438\u0447",
    "rating": 0.035761801152753736
  },
  "37828": {
    "name": "\u0421\u043e\u043b\u043e\u0432\u044c\u0435\u0432 \u0414. \u0412.",
    "rating": 0.12624525842759485
  },
  "37829": {
    "name": "\u0420\u043e\u0436\u043a\u043e\u0432\u0430 \u0418. \u0410.",
    "rating": 0.009032962235462556
  },
  "37830": {
    "name": "\u041b\u0435\u043d\u0438\u0432\u044b\u0439 \u0420\u043e\u043c\u0430\u043d \u0418\u0432\u0430\u043d\u043e\u0432\u0438\u0447",
    "rating": 0.01956254100632853
  },
  "37831": {
    "name": "\u0418\u0441\u0430\u0435\u0432 \u0418\u043b\u044c\u044f \u0410\u043b\u0435\u043a\u0441\u0430\u043d\u0434\u0440\u043e\u0432\u0438\u0447",
    "rating": 0.027715528512059
  },
  "37832": {
    "name": "\u041c\u0430\u0440\u043e\u0447\u043a\u043e \u041c. \u0412.",
    "rating": 0.061588442599050275
  },
  "37833": {
    "name": "\u0420\u043e\u0433\u043e\u0436\u0438\u043d\u0430 \u041e. \u0421.",
    "rating": 3.693038301067956
  },
  "37834": {
    "name": "\u041a\u043e\u0441\u0442\u0430\u0440\u0435\u0432 \u0414\u043c\u0438\u0442\u0440\u0438\u0439 \u041d\u0438\u043a\u043e\u043b\u0430\u0435\u0432\u0438\u0447",
    "rating": 1.0633643650711502
  },
  "37835": {
    "name": "\u0421\u0430\u043c\u043e\u043d\u043e\u0432 \u0412\u043b\u0430\u0434\u0438\u043c\u0438\u0440 \u0412\u043b\u0430\u0434\u0438\u043c\u0438\u0440\u043e\u0432\u0438\u0447",
    "rating": 0.020667947161574798
  },
  "37836": {
    "name": "\u0421\u0430\u043c\u043e\u043d\u043e\u0432 \u0412\u043b\u0430\u0434\u0438\u043c\u0438\u0440 \u0412\u043b\u0430\u0434\u0438\u043c\u0438\u0440\u043e\u0432\u0438\u0447",
    "rating": 0.020667947161574798
  },
  "37837": {
    "name": "\u0425\u0430\u0445\u0443\u043b\u0438\u043d \u0415\u0432\u0433\u0435\u043d\u0438\u0439 \u0410\u043b\u0435\u043a\u0441\u0430\u043d\u0434\u0440\u043e\u0432\u0438\u0447",
    "rating": 0.021732422003502047
  },
  "37838": {
    "name": "\u0414\u043e\u043b\u0433\u0438\u0445 \u041d\u0438\u043d\u0430 \u0410\u043b\u0435\u043a\u0441\u0435\u0435\u0432\u043d\u0430",
    "rating": 0.07910715748883948
  },
  "37839": {
    "name": "\u0413\u0443\u0431\u0430\u043b\u044c \u041b\u044e\u0434\u043c\u0438\u043b\u0430 \u041b\u0435\u043e\u043d\u0438\u0434\u043e\u0432\u043d\u0430",
    "rating": 1.0319695223464591
  },
  "37840": {
    "name": "\u041c\u0435\u0434\u0432\u0435\u0434\u0435\u0432 \u0421\u0435\u0440\u0433\u0435\u0439 \u041d\u0438\u043a\u043e\u043b\u0430\u0435\u0432\u0438\u0447",
    "rating": 3.0931243463557654
  },
  "37841": {
    "name": "\u0410\u043d\u0447\u0443\u0433\u043e\u0432\u0430 \u0410\u043d\u043d\u0430 \u0412\u043b\u0430\u0434\u0438\u043c\u0438\u0440\u043e\u0432\u043d\u0430",
    "rating": 0.004072093884812441
  },
  "37843": {
    "name": "\u041a\u043e\u0441\u0442\u044e\u043a\u043e\u0432 \u041d\u0438\u043a\u043e\u043b\u0430\u0439 \u0410\u043b\u0435\u043a\u0441\u0430\u043d\u0434\u0440\u043e\u0432\u0438\u0447",
    "rating": 1.1468340198756215
  },
  "37844": {
    "name": "\u0421\u0443\u0440\u043a\u043e\u0432 \u0412. \u041f.",
    "rating": 1.732695187939223
  },
  "37845": {
    "name": "\u041a\u0443\u043b\u0430\u0435\u0432\u0430 \u0422. \u0415.",
    "rating": 0.06038009605959329
  },
  "37846": {
    "name": "\u041d\u0438\u043a\u0438\u0442\u0438\u043d \u0418\u0432\u0430\u043d \u0412\u0430\u043b\u0435\u043d\u0442\u0438\u043d\u043e\u0432\u0438\u0447",
    "rating": 0.020203873825336317
  },
  "37847": {
    "name": "\u0425\u0430\u0440\u0434\u0438\u043d\u0430 \u0415\u0432\u0433\u0435\u043d\u0438\u044f \u0418\u0432\u0430\u043d\u043e\u0432\u043d\u0430",
    "rating": 0.08207577767683764
  },
  "37848": {
    "name": "\u041a\u043e\u043c\u0430\u0440\u043e\u0432 \u0413\u0435\u043d\u043d\u0430\u0434\u0438\u0439 \u0410\u043b\u0435\u043a\u0441\u0435\u0435\u0432\u0438\u0447",
    "rating": 1.021702672455547
  },
  "37849": {
    "name": "\u0414\u0440\u043e\u0431\u043e\u0442\u043e\u0432\u0430 \u0410. \u0421.",
    "rating": 0.02534884337733872
  },
  "37851": {
    "name": "\u0421\u043c\u0438\u0440\u043d\u043e\u0432 \u041d\u0438\u043a\u043e\u043b\u0430\u0439 \u0410\u043b\u0435\u043a\u0441\u0435\u0435\u0432\u0438\u0447",
    "rating": 3.012873450793101
  },
  "37852": {
    "name": "\u0424\u0440\u0430\u043d\u0446\u0443\u0437\u043e\u0432 \u0421\u0442\u0430\u043d\u0438\u0441\u043b\u0430\u0432 \u0414\u043c\u0438\u0442\u0440\u0438\u0435\u0432\u0438\u0447",
    "rating": 4.0
  },
  "37853": {
    "name": "\u041c\u0430\u043b\u044c\u043a\u043e\u0432\u0430 \u041d. \u0412.",
    "rating": 0.10134662562651583
  },
  "37854": {
    "name": "\u0412\u0435\u0440\u0434\u0435\u0440 \u0415\u043b\u0435\u043d\u0430 \u0421\u0435\u0440\u0433\u0435\u0435\u0432\u043d\u0430",
    "rating": 0.01566359981683791
  },
  "37855": {
    "name": "\u0421\u043e\u043b\u0434\u0430\u0442\u0435\u043d\u043a\u043e \u041c. \u0410.",
    "rating": 0.005244346703930274
  },
  "37856": {
    "name": "\u041f\u0435\u0442\u0440\u043e\u0441\u043e\u0432 \u0420\u0443\u0434\u043e\u043b\u044c\u0444 \u0413\u0440\u0438\u0433\u043e\u0440\u044c\u0435\u0432\u0438\u0447",
    "rating": 1.015449352632785
  },
  "37857": {
    "name": "\u041f\u043e\u043f\u043e\u0432 \u0410\u043b\u0435\u043a\u0441\u0430\u043d\u0434\u0440 \u0421\u0435\u0440\u0433\u0435\u0435\u0432\u0438\u0447",
    "rating": 3.205198732759313
  },
  "37858": {
    "name": "\u0422\u0443\u043c\u0430\u043a\u043e\u0432 \u0415. \u041c.",
    "rating": 0.007033972660788031
  },
  "37859": {
    "name": "\u041a\u043e\u0441\u0442\u044e\u043a\u043e\u0432\u0430 \u0415. \u0410.",
    "rating": 0.23351016546224646
  },
  "37860": {
    "name": "\u041a\u043e\u0441\u0442\u044e\u0447\u0435\u043d\u043a\u043e \u041b\u0435\u043e\u043d\u0438\u0434 \u041c\u0438\u0445\u0430\u0439\u043b\u043e\u0432\u0438\u0447",
    "rating": 0.032128720285873866
  },
  "37861": {
    "name": "\u041d\u0435\u0443\u043f\u043e\u043a\u043e\u0435\u0432\u0430 \u0415. \u0412.",
    "rating": 0.0476653267405442
  },
  "37862": {
    "name": "\u0421\u0430\u0438\u0448\u0438\u043d \u041c\u0438\u0445\u0430\u0438\u043b \u0418\u043b\u043b\u0430\u0440\u0438\u043e\u043d\u043e\u0432\u0438\u0447",
    "rating": 0.19126182242399453
  },
  "37863": {
    "name": "\u0428\u0430\u043f\u043e\u0432\u0430\u043b\u043e\u0432\u0430 \u041c\u0430\u0440\u0438\u044f \u0410\u043b\u0435\u043a\u0441\u0435\u0435\u0432\u043d\u0430",
    "rating": 0.022663555403060708
  },
  "37864": {
    "name": "\u041a\u043e\u043b\u043c\u043e\u0433\u043e\u0440\u043e\u0432 \u0410\u043d\u0434\u0440\u0435\u0439 \u0413\u0440\u0438\u0433\u043e\u0440\u044c\u0435\u0432\u0438\u0447",
    "rating": 0.5501428446816764
  },
  "37865": {
    "name": "\u0417\u0435\u043b\u0435\u043d\u0438\u043d \u041c\u0438\u0445\u0430\u0438\u043b \u0410\u043b\u0435\u043a\u0441\u0430\u043d\u0434\u0440\u043e\u0432\u0438\u0447",
    "rating": 1.9709142222767768
  },
  "37866": {
    "name": "\u0421\u0438\u0434\u043e\u0440\u0435\u043d\u043a\u043e \u0421\u0435\u0440\u0433\u0435\u0439 \u041f\u0430\u0432\u043b\u043e\u0432\u0438\u0447",
    "rating": 0.14367647133801334
  },
  "37867": {
    "name": "\u041f\u043b\u043e\u0442\u043d\u0438\u043a\u043e\u0432\u0430 \u0410. \u0410.",
    "rating": 0.13894389448083916
  }
}