{
  "11290": {
    "name": "\u0414\u0435\u0432\u044f\u0442\u043e\u0432 \u041c\u0438\u0445\u0430\u0438\u043b \u0410\u043d\u0430\u0442\u043e\u043b\u044c\u0435\u0432\u0438\u0447",
    "rating": 4.321597662242163
  },
  "11291": {
    "name": "\u041e\u0441\u0435\u043b\u043a\u043e\u0432 \u0410\u043b\u0435\u043a\u0441\u0430\u043d\u0434\u0440 \u0418\u0432\u0430\u043d\u043e\u0432\u0438\u0447",
    "rating": 1.5286076543900364
  },
  "11292": {
    "name": "\u0421\u043e\u043b\u043e\u043c\u0438\u043d \u0421\u0435\u0440\u0433\u0435\u0439 \u0412\u0430\u043b\u0435\u0440\u044c\u0435\u0432\u0438\u0447",
    "rating": 1.0090389117559948
  },
  "11293": {
    "name": "\u0428\u0430\u043b\u044c\u043d\u0435\u0432\u0430 \u041b\u0430\u0440\u0438\u0441\u0430 \u0412\u0438\u043a\u0442\u043e\u0440\u043e\u0432\u043d\u0430",
    "rating": 1.2562444834589424
  },
  "11545": {
    "name": "\u0411\u0443\u0442\u044c\u044f\u043d\u043e\u0432 \u041e\u043b\u0435\u0433 \u0410\u043d\u0430\u0442\u043e\u043b\u044c\u0435\u0432\u0438\u0447",
    "rating": 0.6642138992162028
  },
  "11546": {
    "name": "\u0411\u0443\u0441\u043b\u0430\u0435\u0432\u0430 \u041b.\u042e. ",
    "rating": 3.0
  },
  "11788": {
    "name": "\u0425\u0430\u0431\u0430\u0440\u043e\u0432 \u0410\u043b\u0435\u043a\u0441\u0430\u043d\u0434\u0440 \u0412\u043b\u0430\u0434\u0438\u043c\u0438\u0440\u043e\u0432\u0438\u0447",
    "rating": 2.3439332535312105
  },
  "28948": {
    "name": "\u041f\u0430\u0432\u043b\u043e\u0432 \u0418\u0433\u043e\u0440\u044c \u0412\u043b\u0430\u0434\u0438\u043c\u0438\u0440\u043e\u0432\u0438\u0447",
    "rating": 0.019716469592142585
  },
  "28949": {
    "name": "\u0418\u0432\u0430\u043d\u043e\u0432 \u0410\u043d\u0434\u0440\u0435\u0439 \u0410\u043d\u0430\u0442\u043e\u043b\u044c\u0435\u0432\u0438\u0447",
    "rating": 3.9552587333057034
  },
  "28950": {
    "name": "\u041c\u0430\u0439\u0441\u043a\u0438\u0439 \u0410\u043b\u0435\u043a\u0441\u0430\u043d\u0434\u0440 \u041d\u0438\u043a\u043e\u043b\u0430\u0435\u0432\u0438\u0447",
    "rating": 2.616187027408764
  },
  "28951": {
    "name": "\u041a\u043e\u0442\u043e\u0432 \u0418\u0433\u043e\u0440\u044c \u0421\u0435\u0440\u0433\u0435\u0435\u0432\u0438\u0447",
    "rating": 2.615146813457029
  },
  "28952": {
    "name": "\u0415\u0433\u043e\u0440\u043e\u0432 \u0410\u043b\u0435\u043a\u0441\u0430\u043d\u0434\u0440 \u0421\u0435\u0440\u0433\u0435\u0435\u0432\u0438\u0447",
    "rating": 1.1193309241708498
  },
  "28953": {
    "name": "\u041f\u043b\u0430\u0442\u0430\u0448\u043e\u0432 \u0412\u0430\u043b\u0435\u0440\u0438\u0439 \u0413\u0435\u043d\u043d\u0430\u0434\u044c\u0435\u0432\u0438\u0447",
    "rating": 0.1213130515748802
  },
  "28954": {
    "name": "\u0412\u0430\u0441\u0438\u043b\u044c\u0435\u0432 \u0410\u043b\u0435\u043a\u0441\u0430\u043d\u0434\u0440 \u0412\u043b\u0430\u0434\u0438\u043c\u0438\u0440\u043e\u0432\u0438\u0447",
    "rating": 3.0442659392172784
  },
  "28955": {
    "name": "\u041a\u043e\u043c\u0430\u0440\u043e\u0432 \u0412\u0438\u043a\u0442\u043e\u0440 \u0421\u0435\u0440\u0433\u0435\u0435\u0432\u0438\u0447",
    "rating": 0.07512617137500112
  },
  "28956": {
    "name": "\u0421\u0443\u043b\u0435\u0439\u043c\u0430\u043d\u043e\u0432 \u0418\u043d\u0442\u0438\u0433\u0430\u043c \u0424\u0443\u0430\u0434",
    "rating": 0.05620918017873346
  },
  "28957": {
    "name": "\u0422\u0438\u0445\u043e\u043c\u0438\u0440\u043e\u0432 \u0415\u0432\u0433\u0435\u043d\u0438\u0439 \u0410\u043d\u0434\u0440\u0435\u0435\u0432\u0438\u0447",
    "rating": 0.00889354292188649
  },
  "28958": {
    "name": "\u041c\u043e\u0440\u0434\u0430\u0448\u043a\u043e \u0418\u0432\u0430\u043d \u0412\u043b\u0430\u0434\u0438\u043c\u0438\u0440\u043e\u0432\u0438\u0447",
    "rating": 0.06072734395527025
  },
  "28959": {
    "name": "\u041e\u0440\u043b\u043e\u0432 \u0415\u0432\u0433\u0435\u043d\u0438\u0439 \u0415\u0432\u0433\u0435\u043d\u044c\u0435\u0432\u0438\u0447",
    "rating": 0.027764362067334576
  },
  "28960": {
    "name": "\u041c\u043e\u0441\u0435\u043d\u043a\u043e\u0432 \u0421\u0435\u0440\u0433\u0435\u0439 \u0412\u043b\u0430\u0434\u0438\u043c\u0438\u0440\u043e\u0432\u0438\u0447",
    "rating": 0.03743710690014257
  },
  "28961": {
    "name": "\u0418\u0433\u043d\u0430\u0442\u0447\u0438\u043a \u0421\u0435\u0440\u0433\u0435\u0439 \u0410\u043b\u0435\u043a\u0441\u0430\u043d\u0434\u0440\u043e\u0432\u0438\u0447",
    "rating": 0.031219510206872587
  },
  "28962": {
    "name": "\u041d\u0438\u043a\u043e\u043b\u0430\u0435\u0432 \u0421\u0435\u0440\u0433\u0435\u0439 \u0418\u0433\u043e\u0440\u0435\u0432\u0438\u0447",
    "rating": 0.03873964096553822
  },
  "28963": {
    "name": "\u0410\u043d\u0434\u0440\u0435\u0435\u0432 \u0412\u043b\u0430\u0434\u0438\u043c\u0438\u0440 \u0412\u043b\u0430\u0434\u0438\u043c\u0438\u0440\u043e\u0432\u0438\u0447",
    "rating": 2.879268222056483
  },
  "28964": {
    "name": "\u0413\u043e\u043b\u0443\u0431\u0435\u0432\u0430 \u042e\u043b\u0438\u044f \u0412\u0438\u043a\u0442\u043e\u0440\u043e\u0432\u043d\u0430",
    "rating": 1.1303884771009658
  },
  "28965": {
    "name": "\u0428\u0435\u0432\u044f\u043a\u043e\u0432 \u0410. \u0412.",
    "rating": 3.0
  },
  "28966": {
    "name": "\u0410\u043d\u0434\u0440\u0435\u0435\u0432 \u0418\u043b\u044c\u044f \u0412\u043b\u0430\u0434\u0438\u043c\u0438\u0440\u043e\u0432\u0438\u0447",
    "rating": 1.3346719334829735
  },
  "28967": {
    "name": "\u041b\u0430\u043f\u0442\u0435\u0432 \u0421\u0435\u0440\u0433\u0435\u0439 \u0418\u0432\u0430\u043d\u043e\u0432\u0438\u0447",
    "rating": 1.1021511599644929
  },
  "28968": {
    "name": "\u0418\u0442\u043a\u0438\u043d \u0415\u0432\u0433\u0435\u043d\u0438\u0439 \u0413\u0440\u0438\u0433\u043e\u0440\u044c\u0435\u0432\u0438\u0447",
    "rating": 0.15210057067886448
  },
  "28969": {
    "name": "\u0412\u0430\u0441\u0438\u043b\u044c\u0435\u0432 \u0410\u043b\u0435\u043a\u0441\u0435\u0439 \u042e\u0440\u044c\u0435\u0432\u0438\u0447",
    "rating": 3.704069742526407
  },
  "28970": {
    "name": "\u0414\u0443\u0445\u043e\u0432\u0441\u043a\u043e\u0439 \u0418\u0433\u043e\u0440\u044c \u0412\u044f\u0447\u0435\u0441\u043b\u0430\u0432\u043e\u0432\u0438\u0447",
    "rating": 1.8056379851487916
  },
  "28971": {
    "name": "\u0421\u043a\u0432\u043e\u0440\u0446\u043e\u0432 \u0410\u043b\u0435\u043a\u0441\u0430\u043d\u0434\u0440 \u0413\u0435\u043d\u043d\u0430\u0434\u044c\u0435\u0432\u0438\u0447",
    "rating": 1.3849378612411938
  },
  "28972": {
    "name": "\u0421\u043c\u0438\u0440\u043d\u043e\u0432 \u0410\u043b\u0435\u043a\u0441\u0435\u0439 \u0412\u043b\u0430\u0434\u0438\u043c\u0438\u0440\u043e\u0432\u0438\u0447",
    "rating": 3.0096586224374
  },
  "28973": {
    "name": "\u041a\u0443\u0437\u044c\u043c\u0438\u043d \u0410\u043b\u0435\u043a\u0441\u0430\u043d\u0434\u0440 \u0412\u043b\u0430\u0434\u0438\u043c\u0438\u0440\u043e\u0432\u0438\u0447",
    "rating": 1.6862858522103008
  },
  "28974": {
    "name": "\u0410\u043d\u0434\u0440\u0435\u0435\u0432 \u0414. \u0412.",
    "rating": 2.28022703181294
  },
  "28975": {
    "name": "\u0413\u0430\u0440\u0438\u043d \u041f\u0430\u0432\u0435\u043b \u0413\u0435\u043d\u043d\u0430\u0434\u044c\u0435\u0432\u0438\u0447",
    "rating": 0.004083601066111822
  },
  "28976": {
    "name": "\u041b\u0443\u043d\u0435\u0432 \u041d\u0438\u043a\u043e\u043b\u0430\u0439 \u0410\u043b\u0435\u043a\u0441\u0430\u043d\u0434\u0440\u043e\u0432\u0438\u0447",
    "rating": 0.03590158998535983
  },
  "28977": {
    "name": "\u0422\u043a\u0430\u0447\u0435\u043d\u043a\u043e \u0421\u0435\u0440\u0433\u0435\u0439 \u0412\u0430\u043b\u0435\u043d\u0442\u0438\u043d\u043e\u0432\u0438\u0447",
    "rating": 1.868384274597081
  },
  "28978": {
    "name": "\u0417\u0443\u0435\u0432\u0430 \u041e\u043a\u0441\u0430\u043d\u0430 \u0412\u043b\u0430\u0434\u0438\u043c\u0438\u0440\u043e\u0432\u043d\u0430",
    "rating": 1.6458626718689526
  },
  "28979": {
    "name": "\u0421\u0435\u043c\u0435\u043d\u043e\u0432\u0430 \u0421\u0432\u0435\u0442\u043b\u0430\u043d\u0430 \u041d\u0438\u043a\u043e\u043b\u0430\u0435\u0432\u043d\u0430",
    "rating": 4.190768268631853
  },
  "28980": {
    "name": "\u041b\u043e\u0441\u043a\u0443\u0442\u043e\u0432 \u0412. \u0412.",
    "rating": 0.17592268231772193
  },
  "28981": {
    "name": "\u0421\u0435\u043c\u0435\u043d\u043e\u0432 \u0410\u043d\u0434\u0440\u0435\u0439 \u041d\u0438\u043a\u043e\u043b\u0430\u0435\u0432\u0438\u0447",
    "rating": 1.0291101329083674
  },
  "28982": {
    "name": "\u041a\u043e\u0436\u0443\u0448\u043d\u044b\u0439 \u0414\u0435\u043d\u0438\u0441 \u0410\u043b\u0435\u043a\u0441\u0430\u043d\u0434\u0440\u043e\u0432\u0438\u0447",
    "rating": 1.8382654495068165
  },
  "28983": {
    "name": "\u041d\u0438\u043a\u043e\u043b\u0438\u043d\u0430 \u041e. \u042e.",
    "rating": 0.489220396360324
  },
  "28984": {
    "name": "\u0423\u0432\u0430\u0440\u043e\u0432 \u0410\u043d\u0434\u0440\u0435\u0439 \u041e\u043b\u0435\u0433\u043e\u0432\u0438\u0447",
    "rating": 1.9000135145621004
  },
  "28985": {
    "name": "\u0411\u0435\u043b\u0438\u043d\u0438\u043d \u0410\u043b\u0435\u043a\u0441\u0435\u0439 \u0412\u044f\u0447\u0435\u0441\u043b\u0430\u0432\u043e\u0432\u0438\u0447",
    "rating": 0.0059751188731798155
  },
  "28986": {
    "name": "\u0421\u0432\u0435\u0442\u043b\u043e\u0432\u0430 \u0422. \u041f.",
    "rating": 0.06331002972353647
  },
  "28987": {
    "name": "\u0410\u0432\u043b\u0430\u0441\u043e\u0432 \u0412\u0438\u043a\u0442\u043e\u0440 \u0412\u043b\u0430\u0434\u0438\u043c\u0438\u0440\u043e\u0432\u0438\u0447",
    "rating": 1.5092569755486742
  },
  "28988": {
    "name": "\u041f\u0430\u0432\u043b\u043e\u0432\u0430 \u041d. \u0421.",
    "rating": 1.289972441548855
  },
  "28989": {
    "name": "\u041a\u0438\u0440\u0438\u043b\u0438\u0447\u0435\u0432\u0430 \u0420. \u0412.",
    "rating": 1.3697893349823478
  },
  "28990": {
    "name": "\u0429\u0435\u0440\u0431\u0430\u043a\u043e\u0432\u0430 \u041e\u043a\u0441\u0430\u043d\u0430 \u0418\u0433\u043e\u0440\u0435\u0432\u043d\u0430",
    "rating": 1.9737369374701872
  },
  "28991": {
    "name": "\u0413\u043e\u0440\u043a\u0443\u043d\u043e\u0432 \u0410\u043b\u0435\u043a\u0441\u0435\u0439 \u0412\u0438\u043a\u0442\u043e\u0440\u043e\u0432\u0438\u0447",
    "rating": 2.3981867012130866
  },
  "28992": {
    "name": "\u0421\u0430\u0432\u0438\u0446\u043a\u0430\u044f \u0422. \u041d.",
    "rating": 0.0519424365177686
  }
}