{
  "17581": {
    "name": "\u0411\u0435\u043b\u044f\u0432\u0441\u043a\u0438\u0439 \u041e\u043b\u0435\u0433 \u0412\u0438\u043a\u0442\u043e\u0440\u043e\u0432\u0438\u0447",
    "rating": 4.0
  },
  "17582": {
    "name": "\u041f\u0430\u043d\u0447\u0435\u043d\u043a\u043e \u0412\u043b\u0430\u0434\u0438\u0441\u043b\u0430\u0432 \u042f\u043a\u043e\u0432\u043b\u0435\u0432\u0438\u0447",
    "rating": 1.8411569890003017
  },
  "17683": {
    "name": "\u0414\u044c\u044f\u0447\u0435\u043d\u043a\u043e \u041e\u043b\u0435\u0433 \u0410\u043d\u0430\u0442\u043e\u043b\u044c\u0435\u0432\u0438\u0447",
    "rating": 0.6934045108543403
  },
  "17684": {
    "name": "\u0421\u0435\u043c\u0430\u0448\u043a\u043e \u0412\u0430\u043b\u0435\u0440\u0438\u0439 \u0412\u0438\u043a\u0442\u043e\u0440\u043e\u0432\u0438\u0447",
    "rating": 0.33273356872130144
  },
  "17685": {
    "name": "\u0415\u043b\u0438\u0441\u0435\u0435\u0432 \u0412\u043b\u0430\u0434\u0438\u043c\u0438\u0440 \u0418\u0432\u0430\u043d\u043e\u0432\u0438\u0447",
    "rating": 1.8806512312328745
  },
  "17686": {
    "name": "\u041c\u0430\u043b\u044e\u0442\u0438\u043d \u0421\u0435\u0440\u0433\u0435\u0439 \u041d\u0438\u043a\u043e\u043b\u0430\u0435\u0432\u0438\u0447",
    "rating": 0.05005097735984295
  }
}