{
  "4530": {
    "name": "\u0421\u0435\u043c\u0435\u043d\u044f\u043a\u0430 \u0410\u043b\u0435\u043a\u0441\u0430\u043d\u0434\u0440 \u041d\u0438\u043a\u043e\u043b\u0430\u0435\u0432\u0438\u0447",
    "rating": 2.0
  }
}