{
  "32769": {
    "name": "\u041a\u0430\u043b\u0438\u0442\u0430 \u0412\u043b\u0430\u0434\u0438\u043c\u0438\u0440 \u041d\u0438\u043a\u043e\u043b\u0430\u0435\u0432\u0438\u0447",
    "rating": 0.04755730692305029
  },
  "32770": {
    "name": "\u041a\u0430\u0440\u043b\u043e\u0432\u0438\u0447 \u0414\u043c\u0438\u0442\u0440\u0438\u0439 \u0412\u043b\u0430\u0434\u0438\u043c\u0438\u0440\u043e\u0432\u0438\u0447",
    "rating": 0.25951201366478155
  },
  "32771": {
    "name": "\u0413\u043b\u0435\u0431\u043e\u0432 \u0412\u043b\u0430\u0434\u0438\u043c\u0438\u0440 \u0410\u043b\u0435\u043a\u0441\u0430\u043d\u0434\u0440\u043e\u0432\u0438\u0447",
    "rating": 1.6327657040769503
  },
  "32772": {
    "name": "\u041b\u0443\u043a\u0430\u0448\u0435\u043d\u043a\u043e \u0410\u043d\u0434\u0440\u0435\u0439 \u0412\u043b\u0430\u0434\u0438\u043c\u0438\u0440\u043e\u0432\u0438\u0447",
    "rating": 0.1273221727411356
  },
  "32773": {
    "name": "\u0411\u0435\u043a\u043a\u0435\u0440 \u0412\u0430\u043b\u0435\u0440\u0438\u0439 \u0420\u0443\u0434\u043e\u043b\u044c\u0444\u043e\u0432\u0438\u0447",
    "rating": 0.14512316298388034
  },
  "32774": {
    "name": "\u0414\u043e\u0440\u043e\u0433\u043e\u0432 \u0412\u043b\u0430\u0434\u0438\u043c\u0438\u0440 \u0413\u0435\u043d\u043d\u0430\u0434\u044c\u0435\u0432\u0438\u0447",
    "rating": 1.14517947932416
  },
  "32775": {
    "name": "\u0413\u043e\u0440\u0434\u0438\u0435\u043d\u043a\u043e \u0412\u0430\u0441\u0438\u043b\u0438\u0439 \u041d\u0438\u043a\u043e\u043b\u0430\u0435\u0432\u0438\u0447",
    "rating": 0.2550591379735044
  },
  "32776": {
    "name": "\u0428\u0430\u0448\u0438\u043d \u0410\u043d\u0434\u0440\u0435\u0439 \u0410\u043b\u0435\u043a\u0441\u0430\u043d\u0434\u0440\u043e\u0432\u0438\u0447",
    "rating": 0.253151959885633
  },
  "32777": {
    "name": "\u0414\u0432\u043e\u0439\u043d\u0438\u0448\u043d\u0438\u043a\u043e\u0432 \u0421\u0435\u0440\u0433\u0435\u0439 \u041d\u0438\u043a\u043e\u043b\u0430\u0435\u0432\u0438\u0447",
    "rating": 0.2429226260575756
  },
  "32778": {
    "name": "\u0414\u0443\u0440\u043e\u0432 \u042e\u0440\u0438\u0439 \u0412\u0430\u0441\u0438\u043b\u044c\u0435\u0432\u0438\u0447",
    "rating": 0.03854075160530941
  },
  "32779": {
    "name": "\u041a\u043e\u043c\u0430\u0440\u043e\u0432 \u0421\u0435\u0440\u0433\u0435\u0439 \u0412\u0430\u043b\u0435\u043d\u0442\u0438\u043d\u043e\u0432\u0438\u0447",
    "rating": 0.33914960284599743
  },
  "32780": {
    "name": "\u0411\u043e\u0440\u0442\u043d\u0438\u043a \u041c\u0430\u043a\u0441\u0438\u043c \u0410\u043d\u0430\u0442\u043e\u043b\u044c\u0435\u0432\u0438\u0447",
    "rating": 0.04504402815207741
  },
  "32781": {
    "name": "\u0411\u0443\u0431\u043d\u043e\u0432 \u0412\u0430\u0441\u0438\u043b\u0438\u0439 \u041d\u0438\u043a\u043e\u043b\u0430\u0435\u0432\u0438\u0447",
    "rating": 0.23050685623151004
  },
  "33285": {
    "name": "\u042f\u0446\u0435\u043d\u043a\u043e \u0410\u043b\u0435\u043a\u0441\u0430\u043d\u0434\u0440 \u041d\u0438\u043a\u043e\u043b\u0430\u0435\u0432\u0438\u0447",
    "rating": 0.5039538290192924
  },
  "33286": {
    "name": "\u0411\u0430\u0442\u0430\u043a\u043e\u0432 \u0410\u043b\u0435\u043a\u0441\u0435\u0439 \u041f\u0440\u043e\u043a\u043e\u043f\u044c\u0435\u0432\u0438\u0447",
    "rating": 0.08350876618727153
  },
  "33288": {
    "name": "\u0411\u0430\u043b\u0447\u0443\u0433\u043e\u0432 \u0412\u0430\u0441\u0438\u043b\u0438\u0439 \u0412\u0430\u0441\u0438\u043b\u044c\u0435\u0432\u0438\u0447",
    "rating": 0.07797417074601347
  },
  "33289": {
    "name": "\u0421\u0430\u043c\u043e\u0439\u043b\u0435\u043d\u043a\u043e \u0421\u0435\u0440\u0433\u0435\u0439 \u0410\u043d\u0430\u0442\u043e\u043b\u044c\u0435\u0432\u0438\u0447",
    "rating": 0.23901670542469836
  },
  "33290": {
    "name": "\u041d\u0430\u0443\u043c\u043e\u0432 \u0418\u043b\u044c\u044f \u0412\u043b\u0430\u0434\u0438\u043c\u0438\u0440\u043e\u0432\u0438\u0447",
    "rating": 0.2459401197909043
  },
  "33294": {
    "name": "\u0411\u0435\u0441\u0441\u043c\u0435\u0440\u0442\u043d\u044b\u0439 \u0410\u043d\u0434\u0440\u0435\u0439 \u0413\u0440\u0438\u0433\u043e\u0440\u044c\u0435\u0432\u0438\u0447",
    "rating": 1.8798413586234923
  },
  "33295": {
    "name": "\u0411\u0430\u043a\u043b\u0430\u043d\u043e\u0432 \u0421\u0435\u0440\u0433\u0435\u0439 \u041b\u0435\u043e\u043d\u0438\u0434\u043e\u0432\u0438\u0447",
    "rating": 0.15644345496524842
  }
}