{
  "18147": {
    "name": "\u0410\u043b\u0435\u043a\u0441\u0435\u0435\u0432 \u0411\u043e\u0440\u0438\u0441 \u0412\u043b\u0430\u0434\u0438\u043c\u0438\u0440\u043e\u0432\u0438\u0447",
    "rating": 4.539552186451856
  },
  "18148": {
    "name": "\u041b\u0435\u0431\u0435\u0434\u0435\u0432\u0430 \u0422\u0430\u0442\u044c\u044f\u043d\u0430 \u0418\u0433\u043e\u0440\u0435\u0432\u043d\u0430",
    "rating": 1.0791043729037149
  },
  "18149": {
    "name": "\u0428\u0430\u0432\u0430\u0435\u0432 \u0415\u0432\u0433\u0435\u043d\u0438\u0439 \u0412\u0430\u0441\u0438\u043b\u044c\u0435\u0432\u0438\u0447",
    "rating": 0.10731856237122116
  },
  "23750": {
    "name": "\u0422\u0438\u043c\u043e\u0444\u0435\u0435\u0432 \u0414\u043c\u0438\u0442\u0440\u0438\u0439 \u041d\u0438\u043a\u043e\u043b\u0430\u0435\u0432\u0438\u0447",
    "rating": 2.0057657329138716
  }
}