{
  "18156": {
    "name": "\u041d\u0430\u043b\u044c\u0432\u0430\u0434\u043e\u0432 \u0410\u043b\u0435\u043a\u0441\u0430\u043d\u0434\u0440 \u042e\u0440\u044c\u0435\u0432\u0438\u0447",
    "rating": 3.6578807733924625
  },
  "18157": {
    "name": "\u0425\u043e\u043c\u0446\u043e\u0432 \u041f\u0430\u0432\u0435\u043b \u0412\u0430\u043b\u0435\u0440\u044c\u0435\u0432\u0438\u0447",
    "rating": 1.9427910303846592
  },
  "18158": {
    "name": "\u0418\u0432\u0430\u043d\u043e\u0432\u0430 \u041d\u0430\u0442\u0430\u043b\u044c\u044f \u0421\u0435\u0440\u0433\u0435\u0435\u0432\u043d\u0430",
    "rating": 5.372024745492925
  }
}