{
  "121": {
    "name": "\u0411\u0430\u0440\u0438\u043d\u043e\u0432 \u0418\u0433\u043e\u0440\u044c \u0412\u044f\u0447\u0435\u0441\u043b\u0430\u0432\u043e\u0432\u0438\u0447",
    "rating": 0.9969642441691436
  },
  "3163": {
    "name": "\u0421\u0435\u043c\u0435\u043d\u043e\u0432 \u041f\u0430\u0432\u0435\u043b \u0412\u043b\u0430\u0434\u0438\u043c\u0438\u0440\u043e\u0432\u0438\u0447",
    "rating": 0.4484862725549641
  },
  "22150": {
    "name": "\u0418\u043f\u0430\u0442\u043e\u0432 \u041c\u0438\u0445\u0430\u0438\u043b \u0412\u0438\u043a\u0442\u043e\u0440\u043e\u0432\u0438\u0447",
    "rating": 0.12943706777845446
  },
  "22151": {
    "name": "\u041c\u0435\u0436\u0435\u043d\u044c\u043a\u043e \u0410\u043d\u0434\u0440\u0435\u0439 \u0412\u043b\u0430\u0434\u0438\u043c\u0438\u0440\u043e\u0432\u0438\u0447",
    "rating": 0.04293489725277533
  },
  "40401": {
    "name": "\u0421\u0435\u0440\u0435\u0433\u0438\u043d \u041e\u043b\u0435\u0433 \u0421\u0435\u0440\u0433\u0435\u0435\u0432\u0438\u0447",
    "rating": 0.014096832040457696
  },
  "40402": {
    "name": "\u0425\u043e\u043b\u043c\u0430\u0442\u043e\u0432 \u0411\u0430\u0445\u0442\u0438\u0435\u0440 \u0410\u0431\u0434\u0443\u043c\u0430\u043b\u0438\u043a\u043e\u0432\u0438\u0447",
    "rating": 0.0216862431017479
  },
  "40403": {
    "name": "\u0411\u0435\u043a\u0441\u0443\u043b\u0442\u0430\u043d\u043e\u0432 \u041a\u0430\u043c\u0438\u043b\u044c \u0411\u0435\u043a\u0441\u0443\u043b\u0442\u0430\u043d\u043e\u0432\u0438\u0447",
    "rating": 0.033871014575750966
  },
  "40404": {
    "name": "\u0411\u0443\u043b\u0430\u0442\u043e\u0432 \u0410\u0431\u0434\u0443\u043b\u0433\u0430\u043c\u0438\u0434 \u041e\u0441\u043c\u0430\u043d\u043e\u0432\u0438\u0447",
    "rating": 0.02173210774493433
  },
  "40405": {
    "name": "\u0421\u0430\u0432\u0435\u043b\u044c\u0435\u0432 \u0414\u043c\u0438\u0442\u0440\u0438\u0439 \u0415\u0432\u0433\u0435\u043d\u044c\u0435\u0432\u0438\u0447",
    "rating": 0.020369717650133054
  },
  "40406": {
    "name": "\u0415\u0440\u0435\u043c\u0435\u0435\u0432\u0430 \u0415\u043b\u0435\u043d\u0430 \u041f\u0435\u0442\u0440\u043e\u0432\u043d\u0430",
    "rating": 1.5250164430016462
  },
  "40407": {
    "name": "\u041a\u043e\u043c\u0438\u0441\u0441\u0430\u0440\u043e\u0432 \u0410\u043d\u0434\u0440\u0435\u0439 \u041c\u0438\u0445\u0430\u0439\u043b\u043e\u0432\u0438\u0447",
    "rating": 0.2902663095220386
  },
  "40408": {
    "name": "\u041d\u0435\u043d\u0430\u0448\u0435\u0432 \u0410\u043b\u0435\u043a\u0441\u0430\u043d\u0434\u0440 \u041d\u0438\u043a\u043e\u043b\u0430\u0435\u0432\u0438\u0447",
    "rating": 0.01252773152444077
  },
  "40409": {
    "name": "\u041f\u043e\u043b\u0435\u0436\u0430\u0435\u0432 \u0415\u0432\u0433\u0435\u043d\u0438\u0439 \u0412\u043b\u0430\u0434\u0438\u0441\u043b\u0430\u0432\u043e\u0432\u0438\u0447",
    "rating": 1.0345502272729998
  },
  "40410": {
    "name": "\u0420\u0435\u0437\u043d\u0438\u043a\u043e\u0432 \u0415\u0432\u0433\u0435\u043d\u0438\u0439 \u0412\u0430\u0441\u0438\u043b\u044c\u0435\u0432\u0438\u0447",
    "rating": 0.1935347934662679
  },
  "40411": {
    "name": "\u0421\u0435\u0440\u0433\u0435\u0435\u0432\u0430 \u0415\u043b\u0435\u043d\u0430 \u0415\u0432\u0433\u0435\u043d\u044c\u0435\u0432\u043d\u0430",
    "rating": 1.0367130054781593
  },
  "40412": {
    "name": "\u0421\u043c\u0438\u0440\u043d\u043e\u0432\u0430 \u0415\u043b\u0435\u043d\u0430 \u041d\u0438\u043a\u043e\u043b\u0430\u0435\u0432\u043d\u0430",
    "rating": 3.005390172845517
  },
  "40413": {
    "name": "\u042f\u043c\u043a\u043e\u0432\u0430 \u0410\u0440\u0438\u043d\u0430 \u041e\u043b\u0435\u0433\u043e\u0432\u043d\u0430",
    "rating": 0.01433698449893202
  }
}