{
  "34221": {
    "name": "\u0413\u0440\u0438\u0431\u043e\u0432\u0441\u043a\u0438\u0439 \u0421\u0435\u0440\u0433\u0435\u0439 \u0412\u0438\u043a\u0442\u043e\u0440\u043e\u0432\u0438\u0447",
    "rating": 1.3319150271994695
  },
  "47275": {
    "name": "\u0421\u0435\u043c\u0447\u0443\u043a\u043e\u0432 \u0410\u043b\u0435\u043a\u0441\u0430\u043d\u0434\u0440 \u0421\u0435\u0440\u0433\u0435\u0435\u0432\u0438\u0447",
    "rating": 0.3611328335153349
  },
  "47276": {
    "name": "\u0410\u0432\u0435\u0440\u044c\u044f\u043d\u043e\u0432 \u0421\u0435\u0440\u0433\u0435\u0439 \u0410\u043d\u0430\u0442\u043e\u043b\u044c\u0435\u0432\u0438\u0447",
    "rating": 0.09932709982471304
  },
  "47277": {
    "name": "\u0410\u0433\u0435\u0435\u0432\u0430 \u0418\u043d\u043d\u0430 \u0424\u0435\u043b\u0438\u043a\u0441\u043e\u0432\u043d\u0430",
    "rating": 2.0
  },
  "47278": {
    "name": "\u0410\u043a\u0441\u0435\u043d\u043e\u0432 \u041c\u0430\u043a\u0441\u0438\u043c \u0415\u0432\u0433\u0435\u043d\u044c\u0435\u0432\u0438\u0447",
    "rating": 0.007976674931989827
  },
  "47279": {
    "name": "\u0410\u043b\u0430\u0439 \u0415\u043b\u0435\u043d\u0430 \u0412\u043b\u0430\u0434\u0438\u043c\u0438\u0440\u043e\u0432\u043d\u0430",
    "rating": 1.0
  },
  "47280": {
    "name": "\u0410\u043b\u0435\u043a\u0441\u0430\u043d\u0434\u0440\u043e\u0432 \u0421\u0435\u0440\u0433\u0435\u0439 \u0410\u043b\u0435\u043a\u0441\u0430\u043d\u0434\u0440\u043e\u0432\u0438\u0447",
    "rating": 3.009160669409749
  },
  "47281": {
    "name": "\u0410\u043b\u0435\u043a\u0441\u0435\u0435\u0432\u0430 \u041d\u0430\u0442\u0430\u043b\u0438\u044f \u041c\u0438\u0445\u0430\u0439\u043b\u043e\u0432\u043d\u0430",
    "rating": 0.07319956636506889
  },
  "47282": {
    "name": "\u0410\u043d\u0434\u0440\u0435\u0435\u0432\u0430 \u0422\u0430\u0442\u044c\u044f\u043d\u0430 \u041f\u0435\u0442\u0440\u043e\u0432\u043d\u0430",
    "rating": 2.434719591779496
  },
  "47283": {
    "name": "\u0410\u0440\u0438\u0441\u0442\u0430\u0440\u043e\u0432\u0430 \u0410\u0440\u0438\u043d\u0430 \u041b\u0435\u043e\u043d\u0438\u0434\u043e\u0432\u043d\u0430",
    "rating": 0.0640499346349953
  },
  "47284": {
    "name": "\u0410\u0441\u043c\u044b\u043a\u043e\u0432\u0438\u0447 \u0421\u0435\u0440\u0433\u0435\u0439 \u0410\u043b\u0435\u043a\u0441\u0430\u043d\u0434\u0440\u043e\u0432\u0438\u0447",
    "rating": 0.05670685537018174
  },
  "47285": {
    "name": "\u0410\u0445\u043c\u0430\u0442\u043e\u0432\u0430 \u041e\u043b\u044c\u0433\u0430 \u0412\u043b\u0430\u0434\u0438\u043c\u0438\u0440\u043e\u0432\u043d\u0430",
    "rating": 0.3563155835897876
  },
  "47286": {
    "name": "\u0410\u0445\u0440\u0430\u043f\u043e\u0442\u043a\u043e\u0432 \u0412\u0430\u0434\u0438\u043c \u0412\u0430\u043b\u0435\u0440\u044c\u0435\u0432\u0438\u0447",
    "rating": 0.0475964881433219
  },
  "47287": {
    "name": "\u0411\u0430\u0431\u0430\u0435\u0432\u0430 \u0412\u0435\u0440\u043e\u043d\u0438\u043a\u0430 \u0412\u044f\u0447\u0435\u0441\u043b\u0430\u0432\u043e\u0432\u043d\u0430",
    "rating": 0.008718118095212935
  },
  "47288": {
    "name": "\u0411\u0430\u0431\u043e\u0447\u043a\u0438\u043d\u0430 \u041e\u043b\u044c\u0433\u0430 \u041d\u0438\u043a\u043e\u043b\u0430\u0435\u0432\u043d\u0430",
    "rating": 2.0
  },
  "47289": {
    "name": "\u0411\u0430\u043d\u0446\u0438\u043a\u0438\u043d \u041f\u0430\u0432\u0435\u043b \u0418\u0433\u043e\u0440\u0435\u0432\u0438\u0447",
    "rating": 1.1552399755460312
  },
  "47290": {
    "name": "\u0411\u0430\u0440\u0430\u043d\u043e\u0432 \u0415\u0432\u0433\u0435\u043d\u0438\u0439 \u041d\u0438\u043a\u043e\u043b\u0430\u0435\u0432\u0438\u0447",
    "rating": 1.134189704160964
  },
  "47291": {
    "name": "\u0411\u0430\u0440\u0430\u043d\u043e\u0432\u0430 \u0418\u0440\u0438\u043d\u0430 \u0421\u0435\u0440\u0433\u0435\u0435\u0432\u043d\u0430",
    "rating": 1.0080870085231084
  },
  "47292": {
    "name": "\u0411\u0430\u0440\u0431\u0430\u0440\u043e\u0432\u0430 \u041d\u0430\u0442\u0430\u043b\u044c\u044f \u0413\u0435\u043e\u0440\u0433\u0438\u0435\u0432\u043d\u0430",
    "rating": 0.02479475895256384
  },
  "47293": {
    "name": "\u0411\u0430\u0440\u0438\u043d\u043e\u0432\u0430 \u042e\u043b\u0438\u044f \u0412\u0438\u043a\u0442\u043e\u0440\u043e\u0432\u043d\u0430",
    "rating": 0.01690804563281581
  },
  "47294": {
    "name": "\u0411\u0430\u0440\u043a\u043e\u0432\u0430 \u041d\u0430\u0434\u0435\u0436\u0434\u0430 \u0410\u043b\u0435\u043a\u0441\u0435\u0435\u0432\u043d\u0430",
    "rating": 1.4186698998591172
  },
  "47295": {
    "name": "\u0411\u0430\u0445\u0430\u0440\u0435\u0432\u0430 \u0412\u0438\u043a\u0442\u043e\u0440\u0438\u044f \u0412\u0430\u0434\u0438\u043c\u043e\u0432\u043d\u0430",
    "rating": 1.1992990152928449
  },
  "47296": {
    "name": "\u0411\u0435\u043b\u043a\u043e\u0432\u0430 \u041d\u0430\u0442\u0430\u043b\u044c\u044f \u0410\u043d\u0434\u0440\u0435\u0435\u0432\u043d\u0430",
    "rating": 0.053632310369951385
  },
  "47297": {
    "name": "\u0411\u0435\u043b\u043e\u0432\u0430 \u0422\u0430\u0442\u044c\u044f\u043d\u0430 \u0418\u0432\u0430\u043d\u043e\u0432\u043d\u0430",
    "rating": 4.0666752158293535
  },
  "47298": {
    "name": "\u0411\u0435\u043b\u044c\u0448 \u0412\u0438\u043a\u0442\u043e\u0440\u0438\u044f \u0410\u043b\u0435\u043a\u0441\u0435\u0435\u0432\u043d\u0430",
    "rating": 0.0072386287749566175
  },
  "47299": {
    "name": "\u0411\u0435\u043b\u044f\u043a\u043e\u0432\u0430 \u0415\u043b\u0435\u043d\u0430 \u041c\u0438\u0445\u0430\u0439\u043b\u043e\u0432\u043d\u0430",
    "rating": 1.2352977319836274
  },
  "47300": {
    "name": "\u0411\u0438\u043b\u044b\u043a \u0418\u0440\u0438\u043d\u0430 \u0410\u043d\u0430\u0442\u043e\u043b\u044c\u0435\u0432\u043d\u0430",
    "rating": 0.2353818040284573
  },
  "47301": {
    "name": "\u0411\u043e\u0433\u043b\u0430\u0447\u0435\u0432\u0430 \u041b\u044e\u0431\u043e\u0432\u044c \u0418\u0433\u043e\u0440\u0435\u0432\u043d\u0430",
    "rating": 0.012870378540154985
  },
  "47302": {
    "name": "\u0411\u043e\u0439\u0446\u043e\u0432 \u0410\u043b\u0435\u043a\u0441\u0435\u0439 \u0415\u0432\u0433\u0435\u043d\u044c\u0435\u0432\u0438\u0447",
    "rating": 0.06831087740681857
  },
  "47303": {
    "name": "\u0411\u043e\u0439\u0447\u0435\u0432\u0441\u043a\u0430 \u0412\u0430\u043b\u0435\u0440\u0438\u044f \u0412\u043b\u0430\u0434\u0438\u043c\u0438\u0440\u043e\u0432\u043d\u0430",
    "rating": 0.006011162269773973
  },
  "47304": {
    "name": "\u0411\u043e\u043b\u044c\u0448\u0443\u043d\u043e\u0432\u0430 \u0415\u043a\u0430\u0442\u0435\u0440\u0438\u043d\u0430 \u0410\u043b\u0435\u043a\u0441\u0430\u043d\u0434\u0440\u043e\u0432\u043d\u0430",
    "rating": 0.008111911316867898
  },
  "47305": {
    "name": "\u0411\u043e\u044f\u0440\u043a\u043e \u042f\u043d\u0430 \u0422\u0430\u0434\u0435\u0443\u0448\u0435\u0432\u043d\u0430",
    "rating": 0.020455052393120704
  },
  "47306": {
    "name": "\u0411\u0440\u0430\u0433\u0438\u043d \u0410\u043d\u0434\u0440\u0435\u0439 \u0414\u043c\u0438\u0442\u0440\u0438\u0435\u0432\u0438\u0447",
    "rating": 0.047281964184602114
  },
  "47307": {
    "name": "\u0411\u0440\u0430\u0436\u0438\u043d\u0430 \u041c\u0430\u0440\u0438\u044f \u0410\u043b\u0435\u043a\u0441\u0430\u043d\u0434\u0440\u043e\u0432\u043d\u0430",
    "rating": 0.0355760230809082
  },
  "47308": {
    "name": "\u0411\u0443\u043b\u0430\u0442\u043e\u0432\u0430 \u0410\u043d\u043d\u0430 \u0410\u043b\u0435\u043a\u0441\u0430\u043d\u0434\u0440\u043e\u0432\u043d\u0430",
    "rating": 1.097446008521214
  },
  "47309": {
    "name": "\u0412\u0435\u0434\u0435\u0440\u043d\u0438\u043a\u043e\u0432\u0430 \u0414\u0430\u0440\u044c\u044f \u041c\u0438\u0445\u0430\u0439\u043b\u043e\u0432\u043d\u0430",
    "rating": 0.01632814286473755
  },
  "47310": {
    "name": "\u0412\u0435\u0440\u0448\u0438\u043d\u0438\u043d\u0430 \u041d\u0430\u0442\u0430\u043b\u044c\u044f \u0410\u043b\u0435\u043a\u0441\u0430\u043d\u0434\u0440\u043e\u0432\u043d\u0430",
    "rating": 1.2582348599252302
  },
  "47311": {
    "name": "\u0412\u0435\u0441\u0435\u043b\u043e\u0432\u0430 \u041e\u043b\u044c\u0433\u0430 \u0410\u043d\u0430\u0442\u043e\u043b\u044c\u0435\u0432\u043d\u0430",
    "rating": 4.0
  },
  "47312": {
    "name": "\u0412\u0438\u043d\u0442\u0443\u0445\u043e\u0432\u0430 \u0418\u0440\u0438\u043d\u0430 \u041d\u0438\u043a\u043e\u043b\u0430\u0435\u0432\u043d\u0430",
    "rating": 0.1704349735815556
  },
  "47313": {
    "name": "\u0412\u0438\u0448\u043d\u0435\u0432\u0441\u043a\u0430\u044f \u041c\u0430\u0440\u0438\u044f \u0412\u043b\u0430\u0434\u0438\u043c\u0438\u0440\u043e\u0432\u043d\u0430",
    "rating": 1.214884643550853
  },
  "47314": {
    "name": "\u0412\u043b\u0430\u0434\u0438\u043c\u0438\u0440\u043e\u0432\u0430 \u0418\u0440\u0438\u043d\u0430 \u0413\u0435\u043d\u043d\u0430\u0434\u044c\u0435\u0432\u043d\u0430",
    "rating": 0.14228414473887033
  },
  "47315": {
    "name": "\u0412\u043b\u0430\u0441\u044e\u043a \u0410\u043d\u043d\u0430 \u041c\u0438\u0445\u0430\u0439\u043b\u043e\u0432\u043d\u0430",
    "rating": 0.009108073312580895
  },
  "47316": {
    "name": "\u0412\u043e\u043b\u043a\u043e\u0432\u0430 \u0413\u0430\u043b\u0438\u043d\u0430 \u0410\u043d\u0430\u0442\u043e\u043b\u044c\u0435\u0432\u043d\u0430",
    "rating": 3.0073933350967716
  },
  "47317": {
    "name": "\u0412\u043e\u0440\u043e\u0431\u044c\u0435\u0432\u0430 \u0418\u0440\u0438\u043d\u0430 \u0412\u0430\u043b\u0435\u0440\u044c\u0435\u0432\u043d\u0430",
    "rating": 0.05361510229473412
  },
  "47318": {
    "name": "\u0412\u043e\u0440\u043e\u0431\u044c\u0435\u0432\u0430 \u042f\u043d\u0438\u043d\u0430 \u042e\u0440\u044c\u0435\u0432\u043d\u0430",
    "rating": 1.2395951189986754
  },
  "47319": {
    "name": "\u0413\u0430\u0432\u0440\u0430 \u0410\u043b\u0435\u0441\u044f \u0410\u043b\u0435\u043a\u0441\u0430\u043d\u0434\u0440\u043e\u0432\u043d\u0430",
    "rating": 0.027939114331408263
  },
  "47320": {
    "name": "\u0413\u0430\u0432\u0440\u0438\u043b\u043e\u0432 \u0421\u0435\u0440\u0433\u0435\u0439 \u0412\u0435\u043d\u0438\u0430\u043c\u0438\u043d\u043e\u0432\u0438\u0447",
    "rating": 0.05436297637758044
  },
  "47321": {
    "name": "\u0413\u0430\u043b\u0430\u043d\u0446\u0435\u0432\u0430 \u041d\u0430\u0434\u0435\u0436\u0434\u0430 \u0413\u0435\u043d\u043d\u0430\u0434\u044c\u0435\u0432\u043d\u0430",
    "rating": 0.05102818261693312
  },
  "47322": {
    "name": "\u0413\u0430\u043b\u0430\u0445\u043e\u0432\u0430 \u041c\u0430\u0440\u0438\u043d\u0430 \u0411\u043e\u0440\u0438\u0441\u043e\u0432\u043d\u0430",
    "rating": 0.1670440504516028
  },
  "47323": {
    "name": "\u0413\u0435\u0440\u043c\u0430\u043d \u0410\u043b\u0435\u043a\u0441\u0430\u043d\u0434\u0440 \u0412\u0438\u043a\u0442\u043e\u0440\u043e\u0432\u0438\u0447",
    "rating": 1.5495317075156234
  },
  "47324": {
    "name": "\u0413\u043b\u0430\u0434\u043a\u043e\u0432 \u0410\u043b\u0435\u043a\u0441\u0435\u0439 \u041c\u0438\u0445\u0430\u0439\u043b\u043e\u0432\u0438\u0447",
    "rating": 0.09813652396686168
  },
  "47325": {
    "name": "\u0413\u043e\u0432\u043e\u0440 \u0421\u0432\u044f\u0442\u043e\u0441\u043b\u0430\u0432 \u0410\u043b\u0435\u043a\u0441\u0430\u043d\u0434\u0440\u043e\u0432\u0438\u0447",
    "rating": 0.015005981762651787
  },
  "47326": {
    "name": "\u0413\u043e\u043d\u0447\u0430\u0440\u043e\u0432\u0430 \u041d\u0430\u0442\u0430\u043b\u044c\u044f \u042e\u0440\u044c\u0435\u0432\u043d\u0430",
    "rating": 2.0264122588433806
  },
  "47327": {
    "name": "\u0413\u043e\u0440\u0431\u0430\u0447\u0435\u0432\u0430 \u041b\u044e\u0434\u043c\u0438\u043b\u0430 \u0412\u0430\u0441\u0438\u043b\u044c\u0435\u0432\u043d\u0430",
    "rating": 1.4478170224845983
  },
  "47328": {
    "name": "\u0413\u043e\u0440\u0435\u043b\u0438\u043a \u0412\u0438\u043a\u0442\u043e\u0440\u0438\u044f \u041c\u0438\u0445\u0430\u0439\u043b\u043e\u0432\u043d\u0430",
    "rating": 1.8998703857835424
  },
  "47329": {
    "name": "\u0413\u043e\u0440\u044f\u0447\u0443\u043a \u0415\u0432\u0433\u0435\u043d\u0438\u044f \u0410\u043d\u0434\u0440\u0435\u0435\u0432\u043d\u0430",
    "rating": 0.002352078454479724
  },
  "47330": {
    "name": "\u0413\u0440\u0430\u043d\u043a\u043e\u0432 \u0420\u043e\u043c\u0430\u043d \u0412\u0438\u0442\u0430\u043b\u044c\u0435\u0432\u0438\u0447",
    "rating": 0.028392220691720895
  },
  "47331": {
    "name": "\u0413\u0440\u0438\u0433\u043e\u0440\u043e\u0432\u0430 \u0415\u043b\u0435\u043d\u0430 \u0412\u0438\u043a\u0442\u043e\u0440\u043e\u0432\u043d\u0430",
    "rating": 0.028566142068164588
  },
  "47332": {
    "name": "\u0413\u0443\u0431\u0438\u043d\u0430 \u0421\u0432\u0435\u0442\u043b\u0430\u043d\u0430 \u0412\u043b\u0430\u0434\u0438\u043c\u0438\u0440\u043e\u0432\u043d\u0430",
    "rating": 5.0
  },
  "47333": {
    "name": "\u0413\u0443\u043b\u044c\u0446\u0435\u0432\u0430 \u0422\u0430\u0442\u044c\u044f\u043d\u0430 \u0412\u0430\u043b\u0435\u0440\u044c\u0435\u0432\u043d\u0430",
    "rating": 0.010257513709695102
  },
  "47334": {
    "name": "\u0413\u0443\u043b\u044f\u0435\u0432\u0441\u043a\u0430\u044f \u0412\u0438\u043a\u0442\u043e\u0440\u0438\u044f \u0412\u0438\u043a\u0442\u043e\u0440\u043e\u0432\u043d\u0430",
    "rating": 0.025489586731398475
  },
  "47335": {
    "name": "\u0413\u0443\u0441\u0438\u043d\u0441\u043a\u0430\u044f \u0421\u0432\u0435\u0442\u043b\u0430\u043d\u0430 \u0411\u043e\u0440\u0438\u0441\u043e\u0432\u043d\u0430",
    "rating": 2.4059683706916357
  },
  "47336": {
    "name": "\u0414\u0435\u0432\u044f\u0442\u043d\u0435\u0432\u0430 \u0415\u043b\u0435\u043d\u0430 \u0413\u0435\u0440\u0430\u043b\u044c\u0434\u043e\u0432\u043d\u0430",
    "rating": 0.28184909066777913
  },
  "47337": {
    "name": "\u0414\u0435\u043c\u0438\u0434\u043e\u0432\u0430 \u041c\u0430\u0440\u0438\u043d\u0430 \u0413\u0435\u043d\u043d\u0430\u0434\u0438\u0435\u0432\u043d\u0430",
    "rating": 2.900066412505857
  },
  "47338": {
    "name": "\u0414\u0435\u043c\u0438\u043d \u0410\u043d\u0442\u043e\u043d \u042e\u0440\u044c\u0435\u0432\u0438\u0447",
    "rating": 0.07789593168958092
  },
  "47339": {
    "name": "\u0414\u0436\u0438\u043a\u0438\u0434\u0437\u0435 \u0422\u0438\u043c\u0443\u0440 \u0420\u0435\u0437\u043e\u0435\u0432\u0438\u0447",
    "rating": 0.015719558912318802
  },
  "47340": {
    "name": "\u0414\u043c\u0438\u0442\u0440\u0438\u0435\u0432\u0430 \u0410\u043d\u043d\u0430 \u0412\u043b\u0430\u0434\u0438\u043c\u0438\u0440\u043e\u0432\u043d\u0430",
    "rating": 1.0
  },
  "47341": {
    "name": "\u0414\u043c\u0438\u0442\u0440\u0438\u0435\u0432\u0430 \u0415\u043a\u0430\u0442\u0435\u0440\u0438\u043d\u0430 \u0421\u0435\u0440\u0433\u0435\u0435\u0432\u043d\u0430",
    "rating": 1.497961613903371
  },
  "47342": {
    "name": "\u0414\u043c\u0438\u0442\u0440\u0438\u0435\u0432\u0430 \u0422\u0430\u0442\u044c\u044f\u043d\u0430 \u0421\u0435\u0440\u0433\u0435\u0435\u0432\u043d\u0430",
    "rating": 1.3640109797993487
  },
  "47343": {
    "name": "\u0414\u043e\u043a\u0443\u0447\u0430\u0435\u0432\u0430 \u0416\u0430\u043d\u043d\u0430 \u042e\u0440\u044c\u0435\u0432\u043d\u0430",
    "rating": 0.0055136429809899325
  },
  "47344": {
    "name": "\u0414\u043e\u0440\u043e\u0436\u043a\u0438\u043d\u0430 \u0415\u043b\u0435\u043d\u0430 \u0410\u043d\u0430\u0442\u043e\u043b\u044c\u0435\u0432\u043d\u0430",
    "rating": 0.08738322340993454
  },
  "47345": {
    "name": "\u0414\u0440\u0438\u0431\u043d\u043e\u0445\u043e\u0434 \u0421\u0435\u0440\u0433\u0435\u0439 \u041b\u0435\u043e\u043d\u0438\u0434\u043e\u0432\u0438\u0447",
    "rating": 0.40377559595000345
  },
  "47346": {
    "name": "\u0414\u0443\u0431\u0440\u043e\u0432\u0441\u043a\u0430\u044f \u0415\u0432\u0433\u0435\u043d\u0438\u044f \u0412\u0430\u043b\u0435\u0440\u044c\u0435\u0432\u043d\u0430",
    "rating": 0.021323850884852245
  },
  "47347": {
    "name": "\u0414\u044c\u044f\u043a\u043e\u0432 \u0410\u043b\u0435\u043a\u0441\u0435\u0439 \u041e\u043b\u0435\u0433\u043e\u0432\u0438\u0447",
    "rating": 0.0624544883035283
  },
  "47348": {
    "name": "\u0415\u0432\u0448\u0438\u043d\u0430 \u041c\u0430\u0440\u0438\u044f \u0410\u043b\u0435\u043a\u0441\u0430\u043d\u0434\u0440\u043e\u0432\u043d\u0430",
    "rating": 0.005451734551003071
  },
  "47349": {
    "name": "\u0415\u0440\u043e\u0444\u0435\u0435\u0432 \u0418\u0432\u0430\u043d \u0410\u043b\u0435\u043a\u0441\u0430\u043d\u0434\u0440\u043e\u0432\u0438\u0447",
    "rating": 0.015658491535937846
  },
  "47350": {
    "name": "\u0415\u0444\u0440\u0435\u043c\u043e\u0432 \u041f\u0435\u0442\u0440 \u0410\u043b\u0435\u043a\u0441\u0430\u043d\u0434\u0440\u043e\u0432\u0438\u0447",
    "rating": 0.012222057141690551
  },
  "47351": {
    "name": "\u0416\u0434\u0430\u043d\u043e\u0432\u0430 \u041a\u0440\u0438\u0441\u0442\u0438\u043d\u0430 \u0410\u043b\u0435\u043a\u0441\u0430\u043d\u0434\u0440\u043e\u0432\u043d\u0430",
    "rating": 0.006878353696070448
  },
  "47352": {
    "name": "\u0416\u0443\u043b\u044c\u0435\u0432\u0430 \u0415\u043a\u0430\u0442\u0435\u0440\u0438\u043d\u0430 \u0412\u0430\u043b\u0435\u0440\u044c\u0435\u0432\u043d\u0430",
    "rating": 1.2789048010689348
  },
  "47353": {
    "name": "\u0417\u0430\u0440\u0435\u043c\u0431\u043e \u0422\u0430\u0442\u044c\u044f\u043d\u0430 \u0413\u0435\u043d\u043d\u0430\u0434\u044c\u0435\u0432\u043d\u0430",
    "rating": 0.02581124139465503
  },
  "47354": {
    "name": "\u0417\u0430\u0442\u0435\u0439\u0449\u0438\u043a\u043e\u0432\u0430 \u0415\u043a\u0430\u0442\u0435\u0440\u0438\u043d\u0430 \u0410\u043d\u0430\u0442\u043e\u043b\u044c\u0435\u0432\u043d\u0430",
    "rating": 0.0
  },
  "47355": {
    "name": "\u0417\u0435\u043b\u0435\u043d\u043a\u043e\u0432\u0430 \u0410\u043d\u043d\u0430 \u0410\u043b\u0435\u043a\u0441\u0435\u0435\u0432\u043d\u0430",
    "rating": 1.5240148673648537
  },
  "47356": {
    "name": "\u0417\u043e\u043b\u043a\u0438\u043d\u0430 \u042e\u043b\u0438\u044f \u0421\u0435\u0440\u0433\u0435\u0435\u0432\u043d\u0430",
    "rating": 0.24811060869404666
  },
  "47357": {
    "name": "\u0418\u0432\u0430\u043d\u043e\u0432 \u0415\u0432\u0433\u0435\u043d\u0438\u0439 \u0410\u043b\u0435\u043a\u0441\u0430\u043d\u0434\u0440\u043e\u0432\u0438\u0447",
    "rating": 3.0670666609347683
  },
  "47358": {
    "name": "\u0418\u0432\u0430\u043d\u043e\u0432 \u041c\u0438\u0445\u0430\u0438\u043b \u0412\u0438\u043a\u0442\u043e\u0440\u043e\u0432\u0438\u0447",
    "rating": 2.2328011971786355
  },
  "47359": {
    "name": "\u0418\u0432\u0430\u043d\u043e\u0432 \u041d\u0438\u043a\u043e\u043b\u0430\u0439 \u0412\u043b\u0430\u0434\u0438\u043c\u0438\u0440\u043e\u0432\u0438\u0447",
    "rating": 0.04788661418532978
  },
  "47360": {
    "name": "\u0418\u0432\u0430\u043d\u043e\u0432\u0430 \u041d\u0430\u0434\u0435\u0436\u0434\u0430 \u0412\u043b\u0430\u0434\u0438\u043c\u0438\u0440\u043e\u0432\u043d\u0430",
    "rating": 1.0100046002509095
  },
  "47361": {
    "name": "\u0418\u0432\u0430\u043d\u043e\u0432\u0430 \u041e\u043b\u044c\u0433\u0430 \u0415\u0432\u0433\u0435\u043d\u044c\u0435\u0432\u043d\u0430",
    "rating": 0.2084774031804968
  },
  "47362": {
    "name": "\u0418\u043f\u0430\u0442\u043e\u0432\u0430 \u042e\u043b\u0438\u044f \u0421\u0435\u0440\u0433\u0435\u0435\u0432\u043d\u0430",
    "rating": 0.015204114937867797
  },
  "47363": {
    "name": "\u0418\u043f\u043f\u043e\u043b\u0438\u0442\u043e\u0432\u0430 \u0416\u0430\u043d\u043d\u0430 \u0412\u043b\u0430\u0434\u0438\u043c\u0438\u0440\u043e\u0432\u043d\u0430",
    "rating": 1.0
  },
  "47364": {
    "name": "\u0418\u0440\u0438\u0441\u043a\u0438\u043d\u0430 \u0421\u0432\u0435\u0442\u043b\u0430\u043d\u0430 \u0410\u043b\u0435\u043a\u0441\u0430\u043d\u0434\u0440\u043e\u0432\u043d\u0430",
    "rating": 1.2081225576870294
  },
  "47365": {
    "name": "\u0418\u0441\u0443\u043f\u043e\u0432\u0430 \u0415\u043b\u0435\u043d\u0430 \u0412\u043b\u0430\u0434\u0438\u043c\u0438\u0440\u043e\u0432\u043d\u0430",
    "rating": 0.023029966574541327
  },
  "47366": {
    "name": "\u0418\u0443\u0434\u0438\u0447\u0435\u0432\u0430 \u041b\u044e\u0434\u043c\u0438\u043b\u0430 \u042e\u0440\u044c\u0435\u0432\u043d\u0430",
    "rating": 0.004386999155033796
  },
  "47367": {
    "name": "\u041a\u0430\u043b\u0438\u043d\u0438\u043d\u0430 \u041d\u0430\u0442\u0430\u043b\u044c\u044f \u0410\u043b\u0435\u043a\u0441\u0430\u043d\u0434\u0440\u043e\u0432\u043d\u0430",
    "rating": 1.013955687551932
  },
  "47368": {
    "name": "\u041a\u0430\u043b\u0438\u043d\u0438\u0447\u0435\u043d\u043a\u043e \u041d\u0438\u043a\u043e\u043b\u0430\u0439 \u041d\u0438\u043a\u043e\u043b\u0430\u0435\u0432\u0438\u0447",
    "rating": 1.018333276473701
  },
  "47369": {
    "name": "\u041a\u0430\u043b\u044f\u0435\u0432 \u041c\u0430\u0440\u043a \u0410\u043b\u0435\u043a\u0441\u0435\u0435\u0432\u0438\u0447",
    "rating": 0.019168523361459976
  },
  "47370": {
    "name": "\u041a\u0430\u043f\u043f\u0438 \u041d\u0430\u0442\u0430\u043b\u044c\u044f \u041d\u0438\u043a\u043e\u043b\u0430\u0435\u0432\u043d\u0430",
    "rating": 0.016988551998325385
  },
  "47371": {
    "name": "\u041a\u0430\u043f\u0440\u0430\u043d \u041d\u0430\u0434\u0435\u0436\u0434\u0430 \u041d\u0438\u043a\u043e\u043b\u0430\u0435\u0432\u043d\u0430",
    "rating": 0.016909267375922757
  },
  "47372": {
    "name": "\u041a\u0430\u0440\u043d\u0430\u0443\u0445\u043e\u0432\u0430 \u041d\u0430\u0442\u0430\u043b\u044c\u044f \u0411\u043e\u0440\u0438\u0441\u043e\u0432\u043d\u0430",
    "rating": 0.007634366208082426
  },
  "47373": {
    "name": "\u041a\u0430\u0442\u0430\u043b\u043e\u0432\u0430 \u0410\u043d\u043d\u0430 \u0421\u0435\u0440\u0433\u0435\u0435\u0432\u043d\u0430",
    "rating": 0.011191435388791152
  },
  "47374": {
    "name": "\u041a\u0438\u043c \u0410\u043d\u0430\u0442\u043e\u043b\u0438\u0439 \u0415\u0432\u0433\u0435\u043d\u044c\u0435\u0432\u0438\u0447",
    "rating": 0.04079276428510925
  },
  "47375": {
    "name": "\u041a\u0438\u0441\u0435\u043b\u044c \u041c\u0430\u0440\u0438\u043d\u0430 \u0410\u043b\u0435\u043a\u0441\u0430\u043d\u0434\u0440\u043e\u0432\u043d\u0430",
    "rating": 0.013120400938291622
  },
  "47376": {
    "name": "\u041a\u043b\u0438\u043c\u0435\u043d\u043a\u043e \u0414\u0430\u0440\u044c\u044f \u0412\u043b\u0430\u0434\u0438\u043c\u0438\u0440\u043e\u0432\u043d\u0430",
    "rating": 0.0
  },
  "47377": {
    "name": "\u041a\u043e\u0432\u0430\u043b\u0435\u0432\u0441\u043a\u0430\u044f \u041d\u0430\u0442\u0430\u043b\u044c\u044f \u041c\u0438\u0445\u0430\u0439\u043b\u043e\u0432\u043d\u0430",
    "rating": 0.016650410557101668
  },
  "47378": {
    "name": "\u041a\u043e\u043a\u0438\u043d\u0430 \u042f\u043d\u0438\u043d\u0430 \u0412\u0438\u043a\u0442\u043e\u0440\u043e\u0432\u043d\u0430",
    "rating": 0.01104182860503613
  },
  "47379": {
    "name": "\u041a\u043e\u043b\u0443\u0448\u0435\u0432\u0430 \u042e\u043b\u0438\u044f \u042d\u0434\u0443\u0430\u0440\u0434\u043e\u0432\u043d\u0430",
    "rating": 0.006117523102848338
  },
  "47380": {
    "name": "\u041a\u043e\u043c\u043f\u0430\u043d\u0438\u0435\u0446 \u0412\u0438\u043a\u0442\u043e\u0440\u0438\u044f \u041d\u0438\u043a\u043e\u043b\u0430\u0435\u0432\u043d\u0430",
    "rating": 1.7403798767123853
  },
  "47381": {
    "name": "\u041a\u043e\u043d\u043e\u043d\u0435\u0432\u0441\u043a\u0430\u044f \u041a\u0441\u0435\u043d\u0438\u044f \u0410\u043b\u0435\u043a\u0441\u0430\u043d\u0434\u0440\u043e\u0432\u043d\u0430",
    "rating": 0.04509388803015204
  },
  "47382": {
    "name": "\u041a\u043e\u0440\u043d\u0435\u0432\u0430 \u041b\u0438\u0434\u0438\u044f \u0411\u043e\u0440\u0438\u0441\u043e\u0432\u043d\u0430",
    "rating": 0.009006207457789373
  },
  "47383": {
    "name": "\u041a\u043e\u0440\u043e\u043b\u044c\u043a\u043e\u0432\u0430 \u041c\u0430\u0440\u0438\u044f \u0410\u043b\u0435\u043a\u0441\u0430\u043d\u0434\u0440\u043e\u0432\u043d\u0430",
    "rating": 0.3557340954941762
  },
  "47384": {
    "name": "\u041a\u043e\u0440\u0443\u0448\u043e\u0432 \u0421\u0435\u0440\u0433\u0435\u0439 \u041e\u043b\u0435\u0433\u043e\u0432\u0438\u0447",
    "rating": 2.5152001501450325
  },
  "47385": {
    "name": "\u041a\u043e\u0440\u0447\u0435\u0431\u043d\u0430\u044f \u0410\u043d\u043d\u0430 \u0418\u0432\u0430\u043d\u043e\u0432\u043d\u0430",
    "rating": 0.061734661344047315
  },
  "47386": {
    "name": "\u041a\u043e\u0441\u0435\u043d\u043a\u043e \u0411\u043e\u0440\u0438\u0441 \u0412\u043b\u0430\u0434\u0438\u043c\u0438\u0440\u043e\u0432\u0438\u0447",
    "rating": 0.034897169231428264
  },
  "47387": {
    "name": "\u041a\u043e\u0441\u0442\u0440\u044e\u043a\u043e\u0432\u0430 \u041b\u044e\u0434\u043c\u0438\u043b\u0430 \u0415\u0432\u0433\u0435\u043d\u044c\u0435\u0432\u043d\u0430",
    "rating": 0.010871680405699436
  },
  "47388": {
    "name": "\u041a\u043e\u0442\u0438\u043b\u0435\u0432\u0441\u043a\u0430\u044f \u0412\u0430\u043b\u0435\u043d\u0442\u0438\u043d\u0430 \u0414\u043c\u0438\u0442\u0440\u0438\u0435\u0432\u043d\u0430",
    "rating": 0.4008256898281425
  },
  "47389": {
    "name": "\u041a\u043e\u0445 \u041d\u0438\u043a\u0438\u0442\u0430 \u0412\u044f\u0447\u0435\u0441\u043b\u0430\u0432\u043e\u0432\u0438\u0447",
    "rating": 0.04690348771805805
  },
  "47390": {
    "name": "\u041a\u0440\u0435\u0445\u0430\u043b\u0435\u0432\u0430 \u0410\u043b\u044c\u043c\u0438\u0440\u0430 \u041c\u0443\u0434\u0430\u0440\u0438\u0441\u043e\u0432\u043d\u0430",
    "rating": 0.21603813047592946
  },
  "47391": {
    "name": "\u041a\u0440\u0443\u0447\u0438\u043d\u0438\u043d\u0430 \u0421\u0432\u0435\u0442\u043b\u0430\u043d\u0430 \u0415\u0432\u0433\u0435\u043d\u044c\u0435\u0432\u043d\u0430",
    "rating": 0.1336800683407991
  },
  "47392": {
    "name": "\u041a\u0440\u044b\u043b\u043e\u0432 \u0410\u043b\u0435\u043a\u0441\u0435\u0439 \u0412\u044f\u0447\u0435\u0441\u043b\u0430\u0432\u043e\u0432\u0438\u0447",
    "rating": 4.0
  },
  "47393": {
    "name": "\u041a\u0440\u044b\u043b\u043e\u0432\u0430 \u0410\u043b\u0438\u043d\u0430 \u041c\u0430\u0442\u0432\u0435\u0435\u0432\u043d\u0430",
    "rating": 0.02611502275594901
  },
  "47394": {
    "name": "\u041a\u0440\u044b\u0441\u0430\u043d\u043e\u0432\u0430 \u0415\u043b\u0435\u043d\u0430 \u0412\u0438\u0442\u0430\u043b\u044c\u0435\u0432\u043d\u0430",
    "rating": 1.2957135948061336
  },
  "47395": {
    "name": "\u041a\u0443\u0434\u0440\u044f\u0432\u0446\u0435\u0432 \u0414\u043c\u0438\u0442\u0440\u0438\u0439 \u042e\u0440\u044c\u0435\u0432\u0438\u0447",
    "rating": 0.05586630422424379
  },
  "47396": {
    "name": "\u041a\u0443\u0434\u0440\u044f\u0432\u0446\u0435\u0432\u0430 \u0415\u043b\u0435\u043d\u0430 \u0412\u0438\u0442\u0430\u043b\u044c\u0435\u0432\u043d\u0430",
    "rating": 1.0510239205850764
  },
  "47397": {
    "name": "\u041a\u0443\u0437\u044c\u043c\u0438\u043d\u0430 \u041d\u0430\u0434\u0435\u0436\u0434\u0430 \u0410\u043b\u0435\u043a\u0441\u0430\u043d\u0434\u0440\u043e\u0432\u043d\u0430",
    "rating": 3.30952157879085
  },
  "47398": {
    "name": "\u041a\u0443\u0437\u044c\u043c\u0438\u0447\u0435\u0432\u0430 \u041e\u043b\u044c\u0433\u0430 \u0413\u0435\u043d\u043d\u0430\u0434\u044c\u0435\u0432\u043d\u0430",
    "rating": 1.469960394068753
  },
  "47399": {
    "name": "\u041a\u0443\u043b\u0438\u0447\u043a\u043e\u0432\u0430 \u0418\u0440\u0438\u043d\u0430 \u0421\u0435\u0440\u0433\u0435\u0435\u0432\u043d\u0430",
    "rating": 1.7075562550334729
  },
  "47400": {
    "name": "\u041a\u0443\u0440\u0447\u0430\u043d\u043e\u0432 \u041a\u043e\u043d\u0441\u0442\u0430\u043d\u0442\u0438\u043d \u041d\u0438\u043a\u043e\u043b\u0430\u0435\u0432\u0438\u0447",
    "rating": 0.03182723287464353
  },
  "47401": {
    "name": "\u041a\u0443\u0445\u0430\u0440\u0435\u0432\u0430 \u0417\u043b\u0430\u0442\u0430 \u0410\u0440\u043a\u0430\u0434\u044c\u0435\u0432\u043d\u0430",
    "rating": 0.0607297184186393
  },
  "47402": {
    "name": "\u041a\u0443\u0446 \u0415\u043b\u0435\u043d\u0430 \u0410\u043d\u0430\u0442\u043e\u043b\u044c\u0435\u0432\u043d\u0430",
    "rating": 1.0533479132143757
  },
  "47403": {
    "name": "\u041a\u0443\u0447\u0443\u043c\u043e\u0432 \u0421\u0435\u0440\u0433\u0435\u0439 \u0412\u043b\u0430\u0434\u0438\u043c\u0438\u0440\u043e\u0432\u0438\u0447",
    "rating": 0.050543159505271766
  },
  "47404": {
    "name": "\u041b\u0435\u0431\u0435\u0434\u0435\u0432\u0430 \u0415\u043b\u0435\u043d\u0430 \u041c\u0438\u0445\u0430\u0439\u043b\u043e\u0432\u043d\u0430",
    "rating": 5.139994835827644
  },
  "47405": {
    "name": "\u041b\u0435\u0431\u0435\u0434\u0435\u0432\u0430 \u041b\u044e\u0434\u043c\u0438\u043b\u0430 \u042e\u0440\u044c\u0435\u0432\u043d\u0430",
    "rating": 0.0005023231779652679
  },
  "47406": {
    "name": "\u041b\u0435\u0432\u043a\u043e\u0432\u0430 \u0415\u043b\u0438\u0437\u0430\u0432\u0435\u0442\u0430 \u0410\u043d\u0434\u0440\u0435\u0435\u0432\u043d\u0430",
    "rating": 0.05916563446644003
  },
  "47407": {
    "name": "\u041b\u0435\u043e\u043d\u043e\u0432\u0430 \u041d\u0430\u0442\u0430\u043b\u044c\u044f \u0415\u0432\u0433\u0435\u043d\u044c\u0435\u0432\u043d\u0430",
    "rating": 2.4538004398408098
  },
  "47408": {
    "name": "\u041b\u0438\u0441\u0442\u0432\u0438\u043d\u0430 \u0418\u0440\u0438\u043d\u0430 \u0415\u0432\u0433\u0435\u043d\u044c\u0435\u0432\u043d\u0430",
    "rating": 1.2111529454050267
  },
  "47409": {
    "name": "\u041b\u0438\u0445\u0430\u0447\u0435\u0432\u0430 \u041b\u0438\u043b\u0438\u044f \u0410\u043d\u0430\u0442\u043e\u043b\u044c\u0435\u0432\u043d\u0430",
    "rating": 1.904789720716116
  },
  "47410": {
    "name": "\u041b\u043e\u0433\u0430\u0447\u0435\u0432\u0430 \u0410\u043d\u0436\u0435\u043b\u0438\u043a\u0430 \u0410\u043b\u0435\u043a\u0441\u0430\u043d\u0434\u0440\u043e\u0432\u043d\u0430",
    "rating": 0.04751545709488352
  },
  "47411": {
    "name": "\u041b\u043e\u0437\u0438\u043d\u0430 \u041e\u043a\u0441\u0430\u043d\u0430 \u042e\u0440\u044c\u0435\u0432\u043d\u0430",
    "rating": 0.05381504889356373
  },
  "47412": {
    "name": "\u041b\u0443\u0437\u0438\u043d\u043e\u0432\u0430 \u0418\u0440\u0438\u043d\u0430 \u041d\u0438\u043a\u043e\u043b\u0430\u0435\u0432\u043d\u0430",
    "rating": 0.02219900239801818
  },
  "47413": {
    "name": "\u041b\u0443\u043a\u0430\u0448 \u0412\u0430\u043b\u0435\u043d\u0442\u0438\u043d \u0412\u0430\u043b\u0435\u043d\u0442\u0438\u043d\u043e\u0432\u0438\u0447",
    "rating": 0.003035697962445345
  },
  "47414": {
    "name": "\u041b\u0443\u0449\u0438\u043a \u0425\u0440\u0438\u0441\u0442\u0438\u043d\u0430 \u0418\u0432\u0430\u043d\u043e\u0432\u043d\u0430",
    "rating": 0.0
  },
  "47415": {
    "name": "\u041b\u044b\u0441\u0435\u043d\u0441\u043a\u0430\u044f \u041b\u044e\u0434\u043c\u0438\u043b\u0430 \u0418\u0432\u0430\u043d\u043e\u0432\u043d\u0430",
    "rating": 0.03162366136205639
  },
  "47416": {
    "name": "\u041b\u044e\u0431\u0447\u0435\u043d\u043a\u043e \u0418\u0440\u0438\u043d\u0430 \u041d\u0438\u043a\u043e\u043b\u0430\u0435\u0432\u043d\u0430",
    "rating": 0.0947769238654096
  },
  "47417": {
    "name": "\u041c\u0430\u0433\u043e\u043c\u0435\u0434\u043e\u0432\u0430 \u041d\u0430\u0442\u0430\u043b\u044c\u044f \u041b\u0435\u043e\u043d\u0438\u0434\u043e\u0432\u043d\u0430",
    "rating": 0.022368261173764625
  },
  "47418": {
    "name": "\u041c\u0430\u043a\u0430\u0440\u043e\u0432\u0441\u043a\u0438\u0439 \u0410\u043b\u0435\u043a\u0441\u0430\u043d\u0434\u0440 \u0421\u0435\u0440\u0433\u0435\u0435\u0432\u0438\u0447",
    "rating": 1.2717107803417504
  },
  "47419": {
    "name": "\u041c\u0430\u043a\u0441\u0438\u043c\u043e\u0432\u0430 \u0415\u043b\u0435\u043d\u0430 \u041c\u0438\u0445\u0430\u0439\u043b\u043e\u0432\u043d\u0430",
    "rating": 1.026960066052793
  },
  "47420": {
    "name": "\u041c\u0430\u043b\u044c\u0446\u0435\u0432\u0430 \u0415\u043b\u0435\u043d\u0430 \u041d\u0438\u043a\u043e\u043b\u0430\u0435\u0432\u043d\u0430",
    "rating": 1.072535344688481
  },
  "47421": {
    "name": "\u041c\u0430\u0440\u043a\u043e\u0432\u0430 \u0415\u043b\u0435\u043d\u0430 \u0410\u0440\u043a\u0430\u0434\u044c\u0435\u0432\u043d\u0430",
    "rating": 1.251357180768843
  },
  "47422": {
    "name": "\u041c\u0430\u0442\u0432\u0435\u0435\u0432\u0430 \u0418\u0440\u0438\u043d\u0430 \u041d\u0438\u043a\u043e\u043b\u0430\u0435\u0432\u043d\u0430",
    "rating": 1.023502623232938
  },
  "47423": {
    "name": "\u041c\u0430\u0442\u0432\u0435\u0435\u0432\u0430 \u0422\u0430\u0442\u044c\u044f\u043d\u0430 \u0411\u043e\u0440\u0438\u0441\u043e\u0432\u043d\u0430",
    "rating": 0.3040752946603395
  },
  "47424": {
    "name": "\u041c\u0430\u0442\u044e\u0449\u0435\u043d\u043a\u043e \u041b\u044e\u0434\u043c\u0438\u043b\u0430 \u0412\u0438\u043a\u0442\u043e\u0440\u043e\u0432\u043d\u0430",
    "rating": 0.01216033319091772
  },
  "47425": {
    "name": "\u041c\u0435\u0434\u043d\u0438\u043a\u043e\u0432\u0430 \u0410\u043d\u043d\u0430 \u0412\u0435\u043d\u0438\u0430\u043c\u0438\u043d\u043e\u0432\u043d\u0430",
    "rating": 0.07460702715904574
  },
  "47426": {
    "name": "\u041c\u0438\u043b\u044c\u043a\u0430\u043c\u0430\u043d\u043e\u0432\u0438\u0447 \u0410\u043b\u0435\u043a\u0441\u0430\u043d\u0434\u0440\u0430 \u041c\u0438\u0445\u0430\u0439\u043b\u043e\u0432\u043d\u0430",
    "rating": 0.0
  },
  "47427": {
    "name": "\u041c\u0438\u0442\u0438\u043d\u0430 \u041d\u0430\u0442\u0430\u043b\u044c\u044f \u0421\u0435\u0440\u0433\u0435\u0435\u0432\u043d\u0430",
    "rating": 0.03170076227394468
  },
  "47428": {
    "name": "\u041c\u0438\u0445\u0430\u0439\u043b\u043e\u0432\u0430 \u0410\u043d\u0430\u0441\u0442\u0430\u0441\u0438\u044f \u041d\u0438\u043a\u043e\u043b\u0430\u0435\u0432\u043d\u0430",
    "rating": 1.026773705806301
  },
  "47429": {
    "name": "\u041c\u0438\u0445\u0430\u0439\u043b\u043e\u0432\u0430 \u0415\u043b\u0435\u043d\u0430 \u042e\u0440\u044c\u0435\u0432\u043d\u0430",
    "rating": 2.068870359449209
  },
  "47430": {
    "name": "\u041c\u0438\u0445\u0435\u0435\u0432\u0430 \u041e\u043b\u044c\u0433\u0430 \u042e\u0440\u044c\u0435\u0432\u043d\u0430",
    "rating": 1.0308248803404805
  },
  "47431": {
    "name": "\u041c\u043e\u0440\u043e\u0437\u043e\u0432\u0430 \u0410\u043d\u043d\u0430 \u0421\u0435\u0440\u0433\u0435\u0435\u0432\u043d\u0430",
    "rating": 0.0007280082813013973
  },
  "47432": {
    "name": "\u041c\u043e\u0440\u043e\u0437\u043e\u0432\u0430 \u0415\u043a\u0430\u0442\u0435\u0440\u0438\u043d\u0430 \u0410\u043b\u0435\u043a\u0441\u0430\u043d\u0434\u0440\u043e\u0432\u043d\u0430",
    "rating": 2.0933767505507026
  },
  "47433": {
    "name": "\u041c\u043e\u0440\u043e\u0437\u043e\u0432\u0430 \u0415\u043b\u0435\u043d\u0430 \u0410\u043b\u0435\u043a\u0441\u0430\u043d\u0434\u0440\u043e\u0432\u043d\u0430",
    "rating": 4.505616493543628
  },
  "47434": {
    "name": "\u041c\u043e\u0441\u043a\u043e\u0432\u0446\u0435\u0432\u0430 \u0415\u043b\u0435\u043d\u0430 \u041d\u0438\u043a\u043e\u043b\u0430\u0435\u0432\u043d\u0430",
    "rating": 1.1275702970314836
  },
  "47435": {
    "name": "\u041c\u0443\u0440\u0430\u0432\u044c\u0435\u0432\u0430 \u0418\u0440\u0438\u043d\u0430 \u0412\u0430\u0441\u0438\u043b\u044c\u0435\u0432\u043d\u0430",
    "rating": 0.02997154177233585
  },
  "47436": {
    "name": "\u041c\u0443\u0440\u0430\u0448\u0435\u0432\u0430 \u0415\u043b\u0435\u043d\u0430 \u0421\u0435\u0440\u0433\u0435\u0435\u0432\u043d\u0430",
    "rating": 0.003920461640239306
  },
  "47437": {
    "name": "\u041d\u0430\u0437\u0430\u0440\u043e\u0432\u0430 \u041d\u0430\u0442\u0430\u043b\u044c\u044f \u0412\u0438\u043a\u0442\u043e\u0440\u043e\u0432\u043d\u0430",
    "rating": 2.140588346768721
  },
  "47438": {
    "name": "\u041d\u0430\u0443\u043c\u043e\u0432\u0430 \u041e\u043b\u044c\u0433\u0430 \u0412\u043b\u0430\u0434\u0438\u043c\u0438\u0440\u043e\u0432\u043d\u0430",
    "rating": 3.1869304830174
  },
  "47439": {
    "name": "\u041d\u0435\u043a\u0438\u043f\u0435\u043b\u043e\u0432\u0430 \u0418\u0440\u0438\u043d\u0430 \u0410\u043b\u0435\u043a\u0441\u0430\u043d\u0434\u0440\u043e\u0432\u043d\u0430",
    "rating": 0.08635687149334442
  },
  "47440": {
    "name": "\u041d\u0438\u043a\u0438\u0442\u0435\u043d\u043a\u043e \u041a\u0441\u0435\u043d\u0438\u044f \u0410\u043d\u0434\u0440\u0435\u0435\u0432\u043d\u0430",
    "rating": 0.03067813164568977
  },
  "47441": {
    "name": "\u041d\u0438\u043a\u043e\u043b\u0430\u0435\u0432\u0430 \u0415\u043b\u0435\u043d\u0430 \u0418\u0432\u0430\u043d\u043e\u0432\u043d\u0430",
    "rating": 2.07955005992937
  },
  "47442": {
    "name": "\u041d\u0438\u043a\u043e\u043b\u0430\u0435\u0432\u0430 \u0422\u0430\u0442\u044c\u044f\u043d\u0430 \u0414\u043c\u0438\u0442\u0440\u0438\u0435\u0432\u043d\u0430",
    "rating": 0.006179769674078114
  },
  "47443": {
    "name": "\u041e\u0431\u0443\u0445\u043e\u0432 \u0410\u043b\u0435\u043a\u0441\u0435\u0439 \u0412\u0430\u043b\u0435\u0440\u044c\u0435\u0432\u0438\u0447",
    "rating": 4.0
  },
  "47444": {
    "name": "\u041e\u0432\u0441\u044f\u043d\u043d\u0438\u043a\u043e\u0432 \u041c\u0430\u043a\u0441\u0438\u043c \u041c\u0438\u0445\u0430\u0439\u043b\u043e\u0432\u0438\u0447",
    "rating": 1.2978912474132462
  },
  "47445": {
    "name": "\u041e\u0440\u043b\u043e\u0432 \u0412\u043b\u0430\u0434\u0438\u043c\u0438\u0440 \u0410\u043b\u0435\u043a\u0441\u0430\u043d\u0434\u0440\u043e\u0432\u0438\u0447",
    "rating": 4.167740478512334
  },
  "47446": {
    "name": "\u041e\u0445\u0430\u043d\u043e\u0432\u0430 \u0415\u043b\u0435\u043d\u0430 \u041e\u043b\u0435\u0433\u043e\u0432\u043d\u0430",
    "rating": 0.0
  },
  "47447": {
    "name": "\u041f\u0430\u0437\u0438\u043b\u043e\u0432 \u0410\u043b\u0435\u043a\u0441\u0430\u043d\u0434\u0440 \u041d\u0438\u043a\u043e\u043b\u0430\u0435\u0432\u0438\u0447",
    "rating": 0.0876684982177777
  },
  "47448": {
    "name": "\u041f\u0430\u043d\u043e\u0432\u0430 \u041e\u043a\u0441\u0430\u043d\u0430 \u041d\u0435\u0442",
    "rating": 1.558913905109728
  },
  "47449": {
    "name": "\u041f\u0430\u043d\u0447\u0435\u043d\u043a\u043e \u0421\u043e\u0444\u0438\u044f \u0412\u0430\u0441\u0438\u043b\u044c\u0435\u0432\u043d\u0430",
    "rating": 0.01439904810048316
  },
  "47450": {
    "name": "\u041f\u0430\u0445\u043e\u043c\u043e\u0432\u0430 \u0418\u0440\u0438\u043d\u0430 \u042e\u0440\u044c\u0435\u0432\u043d\u0430",
    "rating": 1.8441415713695744
  },
  "47451": {
    "name": "\u041f\u0435\u0442\u0440\u0435\u043d\u043a\u043e \u0410\u043d\u043d\u0430 \u0410\u043b\u0435\u043a\u0441\u0430\u043d\u0434\u0440\u043e\u0432\u043d\u0430",
    "rating": 1.0115918110321338
  },
  "47452": {
    "name": "\u041f\u0438\u043d\u0430\u0435\u0432\u0430 \u041f\u043e\u043b\u0438\u043d\u0430 \u041d\u0438\u043a\u043e\u043b\u0430\u0435\u0432\u043d\u0430",
    "rating": 1.9312318635566956
  },
  "47453": {
    "name": "\u041f\u0438\u0441\u0430\u0440\u0435\u043d\u043a\u043e \u0412\u0435\u0440\u043e\u043d\u0438\u043a\u0430 \u0420\u0443\u0441\u043b\u0430\u043d\u043e\u0432\u043d\u0430",
    "rating": 0.00041460885587566316
  },
  "47454": {
    "name": "\u041f\u043e\u0437\u0434\u043d\u044f\u043a\u043e\u0432\u0430 \u041d\u0430\u0442\u0430\u043b\u044c\u044f \u0410\u043b\u0435\u043a\u0441\u0435\u0435\u0432\u043d\u0430",
    "rating": 0.06790427362087376
  },
  "47455": {
    "name": "\u041f\u043e\u043b\u043e\u0437\u043e\u0432\u0430 \u0410\u043d\u043d\u0430 \u0412\u043b\u0430\u0434\u0438\u043c\u0438\u0440\u043e\u0432\u043d\u0430",
    "rating": 0.0066468342204879785
  },
  "47456": {
    "name": "\u041f\u043e\u0442\u0435\u0440\u044f\u0435\u0432\u0430 \u0415\u043b\u0435\u043d\u0430 \u0421\u0435\u0440\u0433\u0435\u0435\u0432\u043d\u0430",
    "rating": 0.2496427631190015
  },
  "47457": {
    "name": "\u041f\u0440\u0435\u043e\u0431\u0440\u0430\u0436\u0435\u043d\u0441\u043a\u0438\u0439 \u0410\u043b\u0435\u043a\u0441\u0435\u0439 \u0415\u0432\u0433\u0435\u043d\u044c\u0435\u0432\u0438\u0447",
    "rating": 0.02217285870793597
  },
  "47458": {
    "name": "\u041f\u0440\u043e\u043d\u0438\u043d\u0430 \u041e\u043b\u044c\u0433\u0430 \u0410\u043d\u0430\u0442\u043e\u043b\u044c\u0435\u0432\u043d\u0430",
    "rating": 1.2975118551771516
  },
  "47459": {
    "name": "\u041f\u0440\u043e\u043d\u0447\u0430\u0442\u043e\u0432\u0430 \u041e\u043b\u044c\u0433\u0430 \u041d\u0438\u043a\u043e\u043b\u0430\u0435\u0432\u043d\u0430",
    "rating": 0.060552669512092025
  },
  "47460": {
    "name": "\u041f\u0440\u043e\u0446\u0435\u043d\u043a\u043e \u0413\u0430\u043b\u0438\u043d\u0430 \u0424\u0435\u0434\u043e\u0440\u043e\u0432\u043d\u0430",
    "rating": 0.010398024827598008
  },
  "47461": {
    "name": "\u041f\u0440\u043e\u0448\u043b\u0435\u0446\u043e\u0432\u0430 \u041d\u0430\u0434\u0435\u0436\u0434\u0430 \u042e\u0440\u044c\u0435\u0432\u043d\u0430",
    "rating": 0.18579529151180169
  },
  "47462": {
    "name": "\u041f\u0447\u0435\u043b\u0438\u043d\u0446\u0435\u0432 \u042e\u0440\u0438\u0439 \u0412\u043b\u0430\u0434\u0438\u043c\u0438\u0440\u043e\u0432\u0438\u0447",
    "rating": 0.01025936438644361
  },
  "47463": {
    "name": "\u0420\u0430\u0434\u0438\u043e\u043d\u043e\u0432 \u0421\u0435\u0440\u0433\u0435\u0439 \u041c\u0438\u0445\u0430\u0439\u043b\u043e\u0432\u0438\u0447",
    "rating": 0.02294548337671717
  },
  "47464": {
    "name": "\u0420\u0430\u0434\u0447\u0435\u043d\u043a\u043e \u041e\u043a\u0441\u0430\u043d\u0430 \u0412\u043b\u0430\u0434\u0438\u043c\u0438\u0440\u043e\u0432\u043d\u0430",
    "rating": 1.031667225239478
  },
  "47465": {
    "name": "\u0420\u0430\u0437\u043c\u044b\u0448\u043b\u044f\u0435\u0432 \u041e\u043b\u0435\u0433 \u0412\u0438\u043a\u0442\u043e\u0440\u043e\u0432\u0438\u0447",
    "rating": 1.9170478034802696
  },
  "47466": {
    "name": "\u0420\u0435\u0437\u043d\u0438\u043a \u0410\u043d\u0434\u0440\u0435\u0439 \u0418\u0432\u0430\u043d\u043e\u0432\u0438\u0447",
    "rating": 0.03017708565688555
  },
  "47467": {
    "name": "\u0420\u0435\u043c\u043d\u044f\u043a\u043e\u0432\u0430 \u0415\u043a\u0430\u0442\u0435\u0440\u0438\u043d\u0430 \u042e\u0440\u044c\u0435\u0432\u043d\u0430",
    "rating": 0.23849080154353045
  },
  "47468": {
    "name": "\u0420\u043e\u0434\u0438\u043e\u043d\u043e\u0432\u0430 \u042e\u043b\u0438\u044f \u0412\u0430\u0441\u0438\u043b\u044c\u0435\u0432\u043d\u0430",
    "rating": 0.007021011869271666
  },
  "47469": {
    "name": "\u0420\u043e\u043c\u0430\u043d\u043e\u0432\u0441\u043a\u0430\u044f \u0415\u043b\u0435\u043d\u0430 \u041c\u0438\u0445\u0430\u0439\u043b\u043e\u0432\u043d\u0430",
    "rating": 2.598676248252226
  },
  "47470": {
    "name": "\u0420\u0443\u0441\u0438\u043d\u0430 \u0410\u043d\u043d\u0430 \u0421\u0435\u0440\u0433\u0435\u0435\u0432\u043d\u0430",
    "rating": 0.019269985649417183
  },
  "47471": {
    "name": "\u0420\u044b\u043b\u0435\u0435\u0432\u0430 \u0415\u043a\u0430\u0442\u0435\u0440\u0438\u043d\u0430 \u041a\u043e\u043d\u0441\u0442\u0430\u043d\u0442\u0438\u043d\u043e\u0432\u043d\u0430",
    "rating": 0.07776438915604475
  },
  "47472": {
    "name": "\u0421\u0430\u0432\u0435\u043b\u043e\u0432\u0430 \u0414\u0430\u0440\u044c\u044f \u041e\u043b\u0435\u0433\u043e\u0432\u043d\u0430",
    "rating": 0.18642070093920288
  },
  "47473": {
    "name": "\u0421\u0430\u0432\u0447\u0435\u043d\u043a\u043e \u0410\u043d\u0430\u0441\u0442\u0430\u0441\u0438\u044f \u0421\u0435\u0440\u0433\u0435\u0435\u0432\u043d\u0430",
    "rating": 0.006058184632911072
  },
  "47474": {
    "name": "\u0421\u0430\u043b\u044c\u043d\u0438\u043a\u043e\u0432\u0430 \u041b\u044e\u0434\u043c\u0438\u043b\u0430 \u041b\u044c\u0432\u043e\u0432\u043d\u0430",
    "rating": 0.04880554373309052
  },
  "47475": {
    "name": "\u0421\u0430\u0444\u0440\u043e\u043d\u043e\u0432\u0430 \u0410\u043b\u0435\u043a\u0441\u0430\u043d\u0434\u0440\u0430 \u041b\u0435\u043e\u043d\u0438\u0434\u043e\u0432\u043d\u0430",
    "rating": 0.006577038104111043
  },
  "47476": {
    "name": "\u0421\u0430\u0447\u043a\u043e \u0415\u043b\u0435\u043d\u0430 \u041d\u0438\u043a\u043e\u043b\u0430\u0435\u0432\u043d\u0430",
    "rating": 0.0
  },
  "47477": {
    "name": "\u0421\u0435\u0434\u044b\u0445 \u0415\u0432\u0433\u0435\u043d\u0438\u0439 \u0415\u0432\u0433\u0435\u043d\u044c\u0435\u0432\u0438\u0447",
    "rating": 0.08106945320012983
  },
  "47478": {
    "name": "\u0421\u0435\u043c\u0435\u043d\u043e\u0432\u0430 \u041e\u043b\u044c\u0433\u0430 \u0418\u0432\u0430\u043d\u043e\u0432\u043d\u0430",
    "rating": 0.16047918355941204
  },
  "47479": {
    "name": "\u0421\u0435\u043c\u0447\u0438\u043d \u041a\u0438\u0440\u0438\u043b\u043b \u0412\u0438\u043a\u0442\u043e\u0440\u043e\u0432\u0438\u0447",
    "rating": 0.002104703110728605
  },
  "47480": {
    "name": "\u0421\u0435\u0440\u0435\u0434\u0430 \u041e\u043b\u044c\u0433\u0430 \u0410\u043b\u0435\u043a\u0441\u0435\u0435\u0432\u043d\u0430",
    "rating": 1.4827063697984058
  },
  "47481": {
    "name": "\u0421\u0438\u0434\u0435\u043b\u0435\u0432\u0430 \u0415\u043b\u0435\u043d\u0430 \u0410\u043b\u0435\u043a\u0441\u0430\u043d\u0434\u0440\u043e\u0432\u043d\u0430",
    "rating": 2.3021263563012995
  },
  "47482": {
    "name": "\u0421\u0438\u043b\u0430\u0447\u0435\u0432\u0430 \u042e\u043b\u0438\u044f \u041d\u0438\u043a\u043e\u043b\u0430\u0435\u0432\u043d\u0430",
    "rating": 0.016180009969009666
  },
  "47483": {
    "name": "\u0421\u043a\u0440\u0438\u043f\u043d\u0438\u0447\u0435\u043d\u043a\u043e \u041e\u043b\u044c\u0433\u0430 \u042e\u0440\u044c\u0435\u0432\u043d\u0430",
    "rating": 0.007666997267284541
  },
  "47484": {
    "name": "\u0421\u043b\u043e\u0431\u043e\u0434\u0447\u0438\u043a\u043e\u0432\u0430 \u041e\u043b\u0435\u0441\u044f \u041d\u0438\u043a\u043e\u043b\u0430\u0435\u0432\u043d\u0430",
    "rating": 1.3643513744027689
  },
  "47485": {
    "name": "\u0421\u043c\u0438\u0440\u043d\u043e\u0432\u0430 \u0410\u043b\u043b\u0430 \u0412\u043b\u0430\u0434\u0438\u043c\u0438\u0440\u043e\u0432\u043d\u0430",
    "rating": 2.0199696241611758
  },
  "47486": {
    "name": "\u0421\u043c\u0438\u0440\u043d\u043e\u0432\u0430 \u0415\u043a\u0430\u0442\u0435\u0440\u0438\u043d\u0430 \u0410\u043d\u0434\u0440\u0435\u0435\u0432\u043d\u0430",
    "rating": 1.0423791411178878
  },
  "47487": {
    "name": "\u0421\u043c\u0438\u0440\u043d\u043e\u0432\u0430 \u041b\u044e\u0431\u043e\u0432\u044c \u041d\u0438\u043a\u043e\u043b\u0430\u0435\u0432\u043d\u0430",
    "rating": 3.020925519668677
  },
  "47488": {
    "name": "\u0421\u043c\u043e\u043b\u0438\u043d\u0430 \u041c\u0430\u0440\u0438\u043d\u0430 \u0412\u0430\u043b\u0435\u043d\u0442\u0438\u043d\u043e\u0432\u043d\u0430",
    "rating": 0.1683122974736063
  },
  "47489": {
    "name": "\u0421\u043e\u0431\u043e\u043b\u0435\u0432\u0430 \u0415\u043a\u0430\u0442\u0435\u0440\u0438\u043d\u0430 \u041d\u0438\u043a\u043e\u043b\u0430\u0435\u0432\u043d\u0430",
    "rating": 1.066831012355639
  },
  "47490": {
    "name": "\u0421\u043e\u043a\u043e\u043b\u043e\u0432\u0430 \u0418\u0440\u0438\u043d\u0430 \u0412\u0430\u043b\u0435\u0440\u044c\u0435\u0432\u043d\u0430",
    "rating": 1.3764122567625556
  },
  "47491": {
    "name": "\u0421\u043e\u043b\u043e\u0432\u044c\u0435\u0432 \u041c\u0438\u0445\u0430\u0438\u043b \u041e\u043b\u0435\u0433\u043e\u0432\u0438\u0447",
    "rating": 0.013171076458612709
  },
  "47492": {
    "name": "\u0421\u0442\u0430\u0440\u0436\u0435\u0432\u0441\u043a\u0430\u044f \u0410\u043b\u0435\u043a\u0441\u0430\u043d\u0434\u0440\u0430 \u0410\u043d\u0434\u0440\u0435\u0435\u0432\u043d\u0430",
    "rating": 0.008521961396955326
  },
  "47493": {
    "name": "\u0421\u0442\u0430\u0440\u0438\u0447\u0435\u043d\u043a\u043e \u0421\u0432\u0435\u0442\u043b\u0430\u043d\u0430 \u0412\u043b\u0430\u0434\u0438\u043c\u0438\u0440\u043e\u0432\u043d\u0430",
    "rating": 0.11942343940774992
  },
  "47494": {
    "name": "\u0421\u0442\u0435\u043c\u043a\u043e\u0432\u0441\u043a\u0430\u044f \u0421\u0432\u0435\u0442\u043b\u0430\u043d\u0430 \u042e\u0440\u044c\u0435\u0432\u043d\u0430",
    "rating": 0.21033123583094013
  },
  "47495": {
    "name": "\u0421\u0442\u0440\u0443\u043d\u043d\u0438\u043a\u043e\u0432 \u0410\u043b\u0435\u043a\u0441\u0430\u043d\u0434\u0440 \u0410\u043b\u0435\u043a\u0441\u0430\u043d\u0434\u0440\u043e\u0432\u0438\u0447",
    "rating": 1.0094767100426036
  },
  "47496": {
    "name": "\u0421\u0442\u0443\u043a\u0430\u043d \u041b\u044e\u0434\u043c\u0438\u043b\u0430 \u0421\u0442\u0430\u043d\u0438\u0441\u043b\u0430\u0432\u043e\u0432\u043d\u0430",
    "rating": 0.04057101477346792
  },
  "47497": {
    "name": "\u0421\u0443\u043c\u043a\u0438\u043d\u0430 \u0410\u043d\u0430\u0441\u0442\u0430\u0441\u0438\u044f \u042e\u0440\u044c\u0435\u0432\u043d\u0430",
    "rating": 0.0088003702938447
  },
  "47498": {
    "name": "\u0421\u0443\u0440\u0438\u043d\u0430 \u0412\u0438\u043a\u0442\u043e\u0440\u0438\u044f \u0410\u043b\u0435\u043a\u0441\u0430\u043d\u0434\u0440\u043e\u0432\u043d\u0430",
    "rating": 0.011534961259495031
  },
  "47499": {
    "name": "\u0421\u0443\u0440\u0438\u043d\u0430 \u0421\u043e\u0444\u0438\u044f \u0412\u043b\u0430\u0434\u0438\u0441\u043b\u0430\u0432\u043e\u0432\u043d\u0430",
    "rating": 0.00953959958971213
  },
  "47500": {
    "name": "\u0421\u0443\u0445\u043e\u0440\u0443\u043a\u043e\u0432\u0430 \u0418\u0440\u0438\u043d\u0430 \u0412\u043b\u0430\u0434\u0438\u043c\u0438\u0440\u043e\u0432\u043d\u0430",
    "rating": 1.0338503378142545
  },
  "47501": {
    "name": "\u0421\u044f\u0441\u0438\u043d\u0430 \u041e\u043b\u044c\u0433\u0430 \u0410\u043b\u0435\u043a\u0441\u0430\u043d\u0434\u0440\u043e\u0432\u043d\u0430",
    "rating": 0.027230294790318764
  },
  "47502": {
    "name": "\u0422\u0430\u0431\u0430\u043d\u0430\u0439\u043d\u0435\u043d \u0410\u043b\u0435\u043a\u0441\u0430\u043d\u0434\u0440 \u0410\u043b\u044c\u0431\u0435\u0440\u0442\u043e\u0432\u0438\u0447",
    "rating": 0.0378004189104644
  },
  "47503": {
    "name": "\u0422\u0435\u043f\u043b\u044f\u043a\u043e\u0432\u0430 \u0412\u0430\u043b\u0435\u0440\u0438\u044f \u0418\u0433\u043e\u0440\u0435\u0432\u043d\u0430",
    "rating": 0.007016925652726526
  },
  "47504": {
    "name": "\u0422\u0438\u043a\u0443\u043d\u043e\u0432\u0430 \u0414\u0430\u0440\u0438\u043d\u0430 \u0412\u043b\u0430\u0434\u0438\u043c\u0438\u0440\u043e\u0432\u043d\u0430",
    "rating": 0.015238973081852934
  },
  "47505": {
    "name": "\u0422\u0438\u043c\u043e\u0444\u0435\u0435\u0432 \u0414\u043c\u0438\u0442\u0440\u0438\u0439 \u042e\u0440\u044c\u0435\u0432\u0438\u0447",
    "rating": 0.05255563102988266
  },
  "47506": {
    "name": "\u0422\u0438\u0442\u043e\u0432\u0430 \u0410\u043d\u0430\u0441\u0442\u0430\u0441\u0438\u044f \u0412\u0430\u043b\u0435\u0440\u044c\u0435\u0432\u043d\u0430",
    "rating": 0.005213690387475792
  },
  "47507": {
    "name": "\u0422\u0438\u0445\u043e\u043c\u0438\u0440\u043e\u0432\u0430 \u0422\u0430\u0442\u044c\u044f\u043d\u0430 \u0421\u0435\u0440\u0433\u0435\u0435\u0432\u043d\u0430",
    "rating": 2.221936038363964
  },
  "47508": {
    "name": "\u0422\u0440\u043e\u0438\u0446\u043a\u0430\u044f \u0417\u0443\u043b\u044c\u0444\u0438\u044f \u0428\u0430\u043c\u0438\u043b\u0435\u0432\u043d\u0430",
    "rating": 0.16106877466789105
  },
  "47509": {
    "name": "\u0422\u0440\u043e\u0438\u0446\u043a\u0430\u044f \u041c\u0430\u0440\u0438\u043d\u0430 \u0421\u0435\u0440\u0433\u0435\u0435\u0432\u043d\u0430",
    "rating": 0.06917195960299631
  },
  "47510": {
    "name": "\u0422\u0440\u0443\u0441\u043e\u0432\u0430 \u0418\u0440\u0438\u043d\u0430 \u0410\u043b\u0435\u043a\u0441\u0430\u043d\u0434\u0440\u043e\u0432\u043d\u0430",
    "rating": 0.032599934809822304
  },
  "47511": {
    "name": "\u0422\u0443\u0440\u043a\u0438\u043d \u0410\u043d\u0434\u0440\u0435\u0439 \u0410\u043b\u0435\u043a\u0441\u0430\u043d\u0434\u0440\u043e\u0432\u0438\u0447",
    "rating": 1.6380433826518566
  },
  "47512": {
    "name": "\u0422\u0443\u0440\u0443\u0442\u0438\u043d\u0430 \u0415\u043b\u0435\u043d\u0430 \u0418\u0433\u043e\u0440\u0435\u0432\u043d\u0430",
    "rating": 0.06706666093476832
  },
  "47513": {
    "name": "\u0423\u0441\u0442\u0438\u043d\u043e\u0432\u0430 \u0410\u043b\u0435\u043a\u0441\u0430\u043d\u0434\u0440\u0430 \u0412\u0430\u043b\u0435\u0440\u044c\u0435\u0432\u043d\u0430",
    "rating": 0.0
  },
  "47514": {
    "name": "\u0424\u0435\u0434\u0438\u043d\u0430 \u041b\u044e\u0434\u043c\u0438\u043b\u0430 \u0412\u0438\u0442\u0430\u043b\u044c\u0435\u0432\u043d\u0430",
    "rating": 0.18647196968833696
  },
  "47515": {
    "name": "\u0424\u0438\u043b\u0430\u043d\u043e\u0432\u0441\u043a\u0438\u0439 \u0412\u043b\u0430\u0434\u0438\u043c\u0438\u0440 \u0410\u043b\u0435\u043a\u0441\u0430\u043d\u0434\u0440\u043e\u0432\u0438\u0447",
    "rating": 0.11707326909755494
  },
  "47516": {
    "name": "\u0424\u0438\u043b\u0430\u0442\u043e\u0432\u0430 \u0415\u043a\u0430\u0442\u0435\u0440\u0438\u043d\u0430 \u0410\u043b\u0435\u043a\u0441\u0430\u043d\u0434\u0440\u043e\u0432\u043d\u0430",
    "rating": 0.0
  },
  "47517": {
    "name": "\u0424\u0438\u043b\u0438\u043d \u0412\u0430\u0434\u0438\u043c \u0421\u0435\u0440\u0433\u0435\u0435\u0432\u0438\u0447",
    "rating": 0.007025599510144747
  },
  "47518": {
    "name": "\u0425\u0430\u043d\u044c\u043a\u043e\u0432 \u0410\u043b\u0435\u043a\u0441\u0430\u043d\u0434\u0440 \u041b\u0435\u043e\u043d\u0438\u0434\u043e\u0432\u0438\u0447",
    "rating": 1.4690245515760851
  },
  "47519": {
    "name": "\u0425\u0430\u043d\u044c\u043a\u043e\u0432\u0430 \u0412\u0438\u043a\u0442\u043e\u0440\u0438\u044f \u0412\u0438\u043a\u0442\u043e\u0440\u043e\u0432\u043d\u0430",
    "rating": 1.4690245515760851
  },
  "47520": {
    "name": "\u0425\u0435\u0439\u0444\u0435\u0446 \u0418\u0440\u0438\u043d\u0430 \u041d\u0438\u043a\u043e\u043b\u0430\u0435\u0432\u043d\u0430",
    "rating": 0.039644919465071635
  },
  "47521": {
    "name": "\u0425\u043c\u0435\u043b\u0435\u0432\u0430 \u041d\u0430\u0442\u0430\u043b\u044c\u044f \u0412\u0438\u043a\u0442\u043e\u0440\u043e\u0432\u043d\u0430",
    "rating": 2.689582391941242
  },
  "47522": {
    "name": "\u0426\u0432\u0435\u0442\u043e\u0432\u0430 \u041b\u044e\u0434\u043c\u0438\u043b\u0430 \u0413\u0435\u043d\u043d\u0430\u0434\u044c\u0435\u0432\u043d\u0430",
    "rating": 0.0
  },
  "47523": {
    "name": "\u0426\u044b\u0431\u0435\u043d\u043a\u043e \u0410\u043b\u0435\u043d\u0430 \u0415\u0432\u0433\u0435\u043d\u044c\u0435\u0432\u043d\u0430",
    "rating": 0.016410607931215352
  },
  "47524": {
    "name": "\u0426\u044b\u0431\u0443\u043b\u044c\u0441\u043a\u0430\u044f \u041e\u043b\u044c\u0433\u0430 \u041d\u0438\u043a\u043e\u043b\u0430\u0435\u0432\u043d\u0430",
    "rating": 1.159883112934338
  },
  "47525": {
    "name": "\u0427\u0430\u0432\u044b\u0447\u0430\u043b\u043e\u0432\u0430 \u0415\u043b\u0435\u043d\u0430 \u0412\u0430\u043b\u0435\u0440\u044c\u0435\u0432\u043d\u0430",
    "rating": 2.7414330270226004
  },
  "47526": {
    "name": "\u0427\u0435\u0431\u044b\u043a\u0438\u043d\u0430 \u0410\u043d\u0430\u0441\u0442\u0430\u0441\u0438\u044f \u0410\u043d\u0434\u0440\u0435\u0435\u0432\u043d\u0430",
    "rating": 0.042107835975650314
  },
  "47527": {
    "name": "\u0427\u0435\u0440\u043d\u043e\u0432\u0430 \u0418\u0440\u0438\u043d\u0430 \u0418\u0432\u0430\u043d\u043e\u0432\u043d\u0430",
    "rating": 2.3561930027227884
  },
  "47528": {
    "name": "\u0427\u0435\u0440\u043d\u043e\u043c\u043e\u0440\u0435\u0446 \u0413\u0430\u043b\u0438\u043d\u0430 \u0418\u0432\u0430\u043d\u043e\u0432\u043d\u0430",
    "rating": 0.019157305289003453
  },
  "47529": {
    "name": "\u0427\u0438\u0441\u0442\u044f\u043a\u043e\u0432 \u0410\u0440\u0442\u0435\u043c \u0421\u0435\u0440\u0433\u0435\u0435\u0432\u0438\u0447",
    "rating": 0.13817314420396087
  },
  "47530": {
    "name": "\u0427\u0438\u0447\u043a\u0430\u043d\u043e\u0432\u0430 \u041c\u0430\u0440\u0438\u044f \u0411\u043e\u0440\u0438\u0441\u043e\u0432\u043d\u0430",
    "rating": 0.017014654747594955
  },
  "47531": {
    "name": "\u0427\u0443\u0445\u043e\u043d\u0446\u0435\u0432\u0430 \u0410\u043d\u0430\u0441\u0442\u0430\u0441\u0438\u044f \u0410\u043b\u0435\u043a\u0441\u0430\u043d\u0434\u0440\u043e\u0432\u043d\u0430",
    "rating": 0.009940657332948974
  },
  "47532": {
    "name": "\u0428\u0430\u0439\u0431\u0438\u043d \u0410\u043b\u0435\u043a\u0441\u0435\u0439 \u0421\u0435\u0440\u0433\u0435\u0435\u0432\u0438\u0447",
    "rating": 0.018307350309226256
  },
  "47533": {
    "name": "\u0428\u0430\u0442\u0440\u0430\u0432\u0438\u043d\u0430 \u0415\u043b\u0435\u043d\u0430 \u0412\u0430\u0441\u0438\u043b\u044c\u0435\u0432\u043d\u0430",
    "rating": 0.06501779140651834
  },
  "47534": {
    "name": "\u0428\u0443\u043c\u0430\u0439\u043b\u043e\u0432\u0430 \u0421\u0432\u0435\u0442\u043b\u0430\u043d\u0430 \u0421\u0435\u0440\u0433\u0435\u0435\u0432\u043d\u0430",
    "rating": 0.00949967790444558
  },
  "47535": {
    "name": "\u0428\u0443\u043c\u0435\u0439\u043a\u043e \u0412\u0438\u043a\u0442\u043e\u0440\u0438\u044f \u0410\u043b\u0435\u043a\u0441\u0430\u043d\u0434\u0440\u043e\u0432\u043d\u0430",
    "rating": 1.1119824952978243
  },
  "47536": {
    "name": "\u0429\u0443\u043a\u0438\u043d\u0430 \u0418\u0440\u0438\u043d\u0430 \u0412\u0430\u0441\u0438\u043b\u044c\u0435\u0432\u043d\u0430",
    "rating": 1.013838029544757
  },
  "47537": {
    "name": "\u042d\u0439\u0434\u0443\u043a \u0410\u043b\u043b\u0430 \u041d\u0438\u043a\u043e\u043b\u0430\u0435\u0432\u043d\u0430",
    "rating": 0.4284478673186387
  },
  "47538": {
    "name": "\u042e\u0444\u0435\u0440\u0435\u0432\u0430 \u042e\u043b\u0438\u044f \u0421\u0435\u0440\u0433\u0435\u0435\u0432\u043d\u0430",
    "rating": 0.017862691401245863
  },
  "47539": {
    "name": "\u042f\u043a\u0438\u043c\u0438\u0448\u0438\u043d\u0430 \u0422\u0430\u0442\u044c\u044f\u043d\u0430 \u041e\u043b\u0435\u0433\u043e\u0432\u043d\u0430",
    "rating": 0.04709801446551922
  },
  "47540": {
    "name": "\u042f\u043a\u043e\u0432\u043b\u0435\u0432\u0430 \u041d\u0430\u0442\u0430\u043b\u044c\u044f \u0410\u043b\u0435\u043a\u0441\u0430\u043d\u0434\u0440\u043e\u0432\u043d\u0430",
    "rating": 3.095257354208385
  },
  "47541": {
    "name": "\u042f\u043a\u0443\u0448\u0435\u0432\u0430 \u0415\u043b\u0435\u043d\u0430 \u042e\u0440\u044c\u0435\u0432\u043d\u0430",
    "rating": 0.06662067194376746
  },
  "47542": {
    "name": "\u042f\u043d\u043a\u0438\u043d\u0430 \u041c\u0430\u0440\u0438\u043d\u0430 \u041c\u0438\u0445\u0430\u0439\u043b\u043e\u0432\u043d\u0430",
    "rating": 0.5182142577260042
  },
  "47543": {
    "name": "\u042f\u0440\u0435\u043c\u0435\u043d\u043a\u043e \u0421\u0435\u0440\u0433\u0435\u0439 \u0412\u0438\u043a\u0442\u043e\u0440\u043e\u0432\u0438\u0447",
    "rating": 4.0
  },
  "47544": {
    "name": "\u0415\u0444\u0440\u0435\u043c\u043e\u0432 \u042e\u0440\u0438\u0439 \u041c\u0438\u0445\u0430\u0439\u043b\u043e\u0432\u0438\u0447",
    "rating": 1.690482459953328
  }
}