{
  "6351": {
    "name": "\u0413\u043e\u0440\u043e\u0431\u0435\u0446 \u041d\u0438\u043a\u0438\u0442\u0430 \u0421\u0435\u0440\u0433\u0435\u0435\u0432\u0438\u0447",
    "rating": 0.0
  },
  "9404": {
    "name": "\u041a\u043e\u0441\u0442\u044b\u043b\u0435\u0432 \u0410\u043b\u0435\u043a\u0441\u0430\u043d\u0434\u0440 \u0421\u0435\u043b\u0438\u0432\u0435\u0440\u0441\u0442\u043e\u0432\u0438\u0447",
    "rating": 2.0322703419040127
  },
  "9405": {
    "name": "\u041a\u043e\u0442\u043e\u0432\u0430 \u042e\u043b\u0438\u044f \u042e\u0440\u044c\u0435\u0432\u043d\u0430",
    "rating": 1.454703626933037
  },
  "9407": {
    "name": "\u0421\u0430\u0442\u0443\u0435\u0432 \u0411\u0438\u0441\u043b\u0430\u043d \u0410\u0445\u0438\u043c\u0441\u0443\u043b\u0442\u0430\u043d\u043e\u0432\u0438\u0447",
    "rating": 0.6386207401673055
  },
  "9413": {
    "name": "\u0410\u043c\u0430\u0435\u0432\u0430 \u0421\u0430\u0431\u0438\u043d\u0430 \u0425\u0438\u0437\u0431\u0443\u043b\u0430\u0435\u0432\u043d\u0430",
    "rating": 0.5075034842143256
  },
  "9415": {
    "name": "\u0410\u043d\u0438\u0441\u0438\u043c\u043e\u0432\u0430 \u041e\u043a\u0441\u0430\u043d\u0430 \u0421\u0435\u0440\u0433\u0435\u0435\u0432\u043d\u0430",
    "rating": 0.4610979110733064
  },
  "9422": {
    "name": "\u0411\u0435\u043b\u044f\u0435\u0432 \u0415\u0432\u0433\u0435\u043d\u0438\u0439 \u0412\u0430\u043b\u0435\u0440\u044c\u0435\u0432\u0438\u0447",
    "rating": 1.4490972737014585
  },
  "9424": {
    "name": "\u0411\u0435\u0440\u0447\u0443\u043a \u0412\u0438\u043a\u0442\u043e\u0440\u0438\u044f \u0410\u043b\u0435\u043a\u0441\u0430\u043d\u0434\u0440\u043e\u0432\u043d\u0430",
    "rating": 0.4966774641821133
  },
  "9426": {
    "name": "\u0411\u043e\u0440\u043e\u0432\u0438\u043a\u043e\u0432\u0430 \u041e\u043b\u044c\u0433\u0430 \u0410\u043b\u0435\u043a\u0441\u0430\u043d\u0434\u0440\u043e\u0432\u043d\u0430",
    "rating": 0.4640636025447598
  },
  "9431": {
    "name": "\u0413\u0430\u0432\u0440\u0438\u043b\u043e\u0432\u0430 \u0415\u043b\u0435\u043d\u0430 \u042e\u0440\u044c\u0435\u0432\u043d\u0430",
    "rating": 0.4662040882764994
  },
  "9434": {
    "name": "\u0413\u0435\u0440\u0430\u0441\u0438\u043c\u043e\u0432\u0430 \u0418\u0440\u0438\u043d\u0430 \u0412\u043b\u0430\u0434\u0438\u0441\u043b\u0430\u0432\u043e\u0432\u043d\u0430",
    "rating": 2.5579018093552652
  },
  "9440": {
    "name": "\u0413\u0440\u0438\u0433\u043e\u0440\u044c\u0435\u0432 \u0410\u043b\u0435\u043a\u0441\u0435\u0439 \u0410\u043b\u0435\u043a\u0441\u0435\u0435\u0432\u0438\u0447",
    "rating": 1.4507392036389852
  },
  "9442": {
    "name": "\u0413\u0440\u0438\u0433\u043e\u0440\u044c\u0435\u0432\u0430 \u041e\u043b\u044c\u0433\u0430 \u0412\u043b\u0430\u0434\u0438\u043c\u0438\u0440\u043e\u0432\u043d\u0430",
    "rating": 2.439293352132831
  },
  "9444": {
    "name": "\u0413\u0443\u0441\u0435\u0432\u0430 \u041e\u043a\u0441\u0430\u043d\u0430 \u042e\u0440\u044c\u0435\u0432\u043d\u0430",
    "rating": 1.4566172045058077
  },
  "9447": {
    "name": "\u0414\u0435\u043d\u0438\u0441\u044e\u043a \u041e\u043b\u044c\u0433\u0430 \u041b\u044e\u0434\u0432\u0438\u0433\u043e\u0432\u043d\u0430",
    "rating": 0.4669445604343431
  },
  "9449": {
    "name": "\u0414\u0443\u0434\u043a\u0438\u043d \u0412\u043b\u0430\u0434\u0438\u0441\u043b\u0430\u0432 \u0410\u043d\u0430\u0442\u043e\u043b\u044c\u0435\u0432\u0438\u0447",
    "rating": 0.4936190377559538
  },
  "9451": {
    "name": "\u0415\u0437\u0435\u0440\u0441\u043a\u0430\u044f \u0421\u0432\u0435\u0442\u043b\u0430\u043d\u0430 \u0412\u0430\u0441\u0438\u043b\u044c\u0435\u0432\u043d\u0430",
    "rating": 1.5650712385070893
  },
  "9453": {
    "name": "\u0415\u0444\u0438\u043c\u043e\u0432 \u0410\u043d\u0434\u0440\u0435\u0439 \u0421\u0435\u0440\u0433\u0435\u0435\u0432\u0438\u0447",
    "rating": 0.5025803254045335
  },
  "9454": {
    "name": "\u0417\u0430\u0431\u043e\u043b\u043e\u0442\u0441\u043a\u0438\u0445 \u041c\u0430\u0440\u0438\u043d\u0430 \u0412\u044f\u0447\u0435\u0441\u043b\u0430\u0432\u043e\u0432\u043d\u0430",
    "rating": 0.4671533741718965
  },
  "9462": {
    "name": "\u041a\u043b\u0438\u043c\u0435\u043d\u0442\u044c\u0435\u0432 \u042e\u0440\u0438\u0439 \u0410\u043b\u0435\u043a\u0441\u0435\u0435\u0432\u0438\u0447",
    "rating": 0.5049390596443956
  },
  "9464": {
    "name": "\u041a\u043e\u0445\u0430\u043d\u043e\u0432 \u042e\u0440\u0438\u0439 \u0410\u043b\u044c\u0431\u0435\u0440\u0442\u043e\u0432\u0438\u0447",
    "rating": 2.1953715418454696
  },
  "9473": {
    "name": "\u041a\u0443\u0449\u0435\u043d\u043a\u043e \u0415\u0432\u0433\u0435\u043d\u0438\u0439 \u0412\u0430\u0441\u0438\u043b\u044c\u0435\u0432\u0438\u0447",
    "rating": 1.7061480397140676
  },
  "9475": {
    "name": "\u041b\u0435\u0431\u0435\u0434\u0435\u0432\u0430 \u0418\u0440\u0438\u043d\u0430 \u0410\u043b\u0435\u043a\u0441\u0430\u043d\u0434\u0440\u043e\u0432\u043d\u0430",
    "rating": 4.621689497944638
  },
  "9476": {
    "name": "\u041b\u044f\u0445\u043e\u0432\u043d\u0435\u043d\u043a\u043e \u0421\u0435\u0440\u0433\u0435\u0439 \u0424\u0435\u0434\u043e\u0440\u043e\u0432\u0438\u0447",
    "rating": 2.290970788346803
  },
  "9478": {
    "name": "\u041c\u0430\u043b\u0438\u043a\u043e\u0432\u0430 \u041d\u0438\u043d\u0430 \u0412\u043b\u0430\u0434\u0438\u043c\u0438\u0440\u043e\u0432\u043d\u0430",
    "rating": 3.429489430564204
  },
  "9480": {
    "name": "\u041c\u0430\u043b\u0438\u043d\u0438\u043d \u0421\u0435\u0440\u0433\u0435\u0439 \u041b\u044c\u0432\u043e\u0432\u0438\u0447",
    "rating": 0.7427512327424048
  },
  "9482": {
    "name": "\u041c\u0430\u0441\u043b\u043e\u0432\u0430 \u041d\u0438\u0435\u043b\u044f \u041a\u043b\u0438\u043c\u0435\u043d\u0442\u044c\u0435\u0432\u043d\u0430",
    "rating": 0.6445483589686563
  },
  "9485": {
    "name": "\u041c\u0438\u0437\u0433\u0443\u043b\u0438\u043d\u0430 \u0415\u043b\u0435\u043d\u0430 \u041d\u0438\u043a\u043e\u043b\u0430\u0435\u0432\u043d\u0430",
    "rating": 0.4758562618533678
  },
  "9488": {
    "name": "\u041c\u0438\u0437\u044e\u043a\u0438\u043d \u0412\u0430\u0434\u0438\u043c \u0412\u0430\u043b\u0435\u043d\u0442\u0438\u043d\u043e\u0432\u0438\u0447",
    "rating": 1.2590268361549228
  },
  "9489": {
    "name": "\u041c\u043e\u0442\u043e\u0432\u0430 \u0415\u043a\u0430\u0442\u0435\u0440\u0438\u043d\u0430 \u0410\u0440\u043a\u0430\u0434\u044c\u0435\u0432\u043d\u0430",
    "rating": 1.595809752071658
  },
  "9492": {
    "name": "\u041d\u0435\u0432\u0437\u043e\u0440\u043e\u0432 \u0410\u043d\u0434\u0440\u0435\u0439 \u0418\u0433\u043e\u0440\u0435\u0432\u0438\u0447",
    "rating": 0.4952797798827665
  },
  "9493": {
    "name": "\u041d\u0438\u043a\u043e\u043b\u0430\u0435\u0432\u0430 \u042e\u043b\u0438\u044f \u0421\u0435\u0440\u0433\u0435\u0435\u0432\u043d\u0430",
    "rating": 2.2720768512500364
  },
  "9495": {
    "name": "\u041d\u0438\u043a\u043e\u043b\u0430\u0448\u0435\u043d \u0414\u043c\u0438\u0442\u0440\u0438\u0439 \u0412\u0430\u0434\u0438\u043c\u043e\u0432\u0438\u0447",
    "rating": 0.5193628257221086
  },
  "9498": {
    "name": "\u041e\u0441\u043e\u043a\u0438\u043d\u0430 \u042e\u043b\u0438\u044f \u0410\u043b\u0435\u043a\u0441\u0430\u043d\u0434\u0440\u043e\u0432\u043d\u0430",
    "rating": 0.510647854838995
  },
  "9500": {
    "name": "\u041f\u0430\u0449\u0435\u043d\u043a\u043e \u041a\u0438\u0440\u0438\u043b\u043b \u0410\u043d\u0430\u0442\u043e\u043b\u044c\u0435\u0432\u0438\u0447",
    "rating": 1.7323035526341697
  },
  "9502": {
    "name": "\u041f\u0435\u0441\u043a\u043e\u0432\u0430 \u0415\u043b\u0435\u043d\u0430 \u0410\u043b\u0435\u043a\u0441\u0430\u043d\u0434\u0440\u043e\u0432\u043d\u0430",
    "rating": 1.795387504749412
  },
  "9508": {
    "name": "\u041f\u043e\u043f\u043e\u0432\u0430 \u0415\u043b\u0435\u043d\u0430 \u0412\u0430\u043b\u0435\u043d\u0442\u0438\u043d\u043e\u0432\u043d\u0430",
    "rating": 3.5372101289369646
  },
  "9510": {
    "name": "\u0420\u043e\u0434\u0438\u043d\u0430 \u0412\u0438\u043a\u0442\u043e\u0440\u0438\u044f \u041c\u0438\u0445\u0430\u0439\u043b\u043e\u0432\u043d\u0430",
    "rating": 1.5284515478145009
  },
  "9513": {
    "name": "\u0420\u044f\u0431\u0435\u0432 \u0418\u0433\u043e\u0440\u044c \u0410\u043b\u0435\u043a\u0441\u0430\u043d\u0434\u0440\u043e\u0432\u0438\u0447",
    "rating": 0.5170746129260755
  },
  "9522": {
    "name": "\u0421\u0435\u043c\u0435\u043d\u043e\u0432 \u0410\u043b\u0435\u043a\u0441\u0430\u043d\u0434\u0440 \u0412\u0438\u043a\u0442\u043e\u0440\u043e\u0432\u0438\u0447",
    "rating": 5.409881587426948
  },
  "9525": {
    "name": "\u0421\u0438\u043c\u043e\u043d\u043e\u0432\u0430 \u0415\u0432\u0433\u0435\u043d\u0438\u044f \u0412\u0438\u0442\u0430\u043b\u044c\u0435\u0432\u043d\u0430",
    "rating": 0.4971267655348835
  },
  "9527": {
    "name": "\u0421\u043b\u0443\u0446\u043a\u0438\u0439 \u0410\u043b\u0435\u043a\u0441\u0430\u043d\u0434\u0440 \u0412\u044f\u0447\u0435\u0441\u043b\u0430\u0432\u043e\u0432\u0438\u0447",
    "rating": 0.547361031068048
  },
  "9528": {
    "name": "\u0421\u043e\u043b\u043e\u0432\u0441\u043a\u0438\u0439 \u041c\u0430\u043a\u0441\u0438\u043c \u0413\u0435\u043d\u043d\u0430\u0434\u044c\u0435\u0432\u0438\u0447",
    "rating": 0.4706311555462706
  },
  "9530": {
    "name": "\u0421\u0442\u0435\u043f\u0430\u043d\u043e\u0432 \u0412\u0430\u0434\u0438\u043c \u041d\u0438\u043a\u043e\u043b\u0430\u0435\u0432\u0438\u0447",
    "rating": 2.15512657034924
  },
  "9531": {
    "name": "\u0421\u0442\u0435\u043f\u0430\u043d\u043e\u0432\u0430 \u041c\u0430\u0440\u0438\u043d\u0430 \u0412\u043b\u0430\u0434\u0438\u043c\u0438\u0440\u043e\u0432\u043d\u0430",
    "rating": 2.5051950301761545
  },
  "9535": {
    "name": "\u0422\u0430\u0440\u0430\u0441\u043e\u0432\u0430 \u041e\u043b\u044c\u0433\u0430 \u0412\u0438\u043a\u0442\u043e\u0440\u043e\u0432\u043d\u0430",
    "rating": 1.4781488086404189
  },
  "9536": {
    "name": "\u041c\u0447\u0435\u0434\u043b\u0438\u0434\u0437\u0435 (\u0422\u0438\u043c\u043e\u0448\u0435\u043d\u043a\u043e) \u042e\u043b\u0438\u044f \u0414\u043c\u0438\u0442\u0440\u0438\u0435\u0432\u043d\u0430",
    "rating": 0.4768503119282265
  },
  "9537": {
    "name": "\u0422\u0440\u0435\u043d\u0438\u043d\u0430 \u0415\u043a\u0430\u0442\u0435\u0440\u0438\u043d\u0430 \u041d\u0438\u043a\u043e\u043b\u0430\u0435\u0432\u043d\u0430",
    "rating": 0.4717462138034588
  },
  "9540": {
    "name": "\u0423\u0445\u043e\u0432\u0430 \u041d\u0430\u0442\u0430\u043b\u044c\u044f \u0412\u0430\u0441\u0438\u043b\u044c\u0435\u0432\u043d\u0430",
    "rating": 1.4776693177758509
  },
  "9541": {
    "name": "\u0425\u043e\u043b\u043c\u043e\u0433\u043e\u0440\u0441\u043a\u0430\u044f \u0410\u043d\u043d\u0430 \u0415\u0432\u0433\u0435\u043d\u044c\u0435\u0432\u043d\u0430",
    "rating": 0.4596215589560341
  },
  "9543": {
    "name": "\u0428\u0435\u0432\u0447\u0435\u043d\u043a\u043e \u0410\u043b\u0435\u043a\u0441\u0430\u043d\u0434\u0440 \u0412\u0438\u043a\u0442\u043e\u0440\u043e\u0432\u0438\u0447",
    "rating": 1.4615372814361651
  },
  "9544": {
    "name": "\u0428\u0443\u043c\u0438\u043b\u043e\u0432\u0430 \u041e\u043b\u044c\u0433\u0430 \u0412\u043b\u0430\u0434\u0438\u0441\u043b\u0430\u0432\u043e\u0432\u043d\u0430",
    "rating": 0.5081915884158468
  },
  "9545": {
    "name": "\u042f\u043d\u0447\u0435\u043d\u043a\u043e \u041c\u0430\u0440\u0438\u043d\u0430 \u0412\u043b\u0430\u0434\u0438\u043c\u0438\u0440\u043e\u0432\u043d\u0430",
    "rating": 0.09022492053081144
  },
  "47545": {
    "name": "\u0411\u0430\u043b\u0430\u043d\u0434\u0438\u043d\u0430 \u041a\u0441\u0435\u043d\u0438\u044f \u0410\u043b\u0435\u043a\u0441\u0430\u043d\u0434\u0440\u043e\u0432\u043d\u0430",
    "rating": 0.05174955404750217
  },
  "47546": {
    "name": "\u0411\u043e\u0440\u0438\u0441\u0435\u043d\u043a\u043e \u042e\u043b\u0438\u044f \u0412\u043b\u0430\u0434\u0438\u043c\u0438\u0440\u043e\u0432\u043d\u0430",
    "rating": 0.031914941893462084
  },
  "47547": {
    "name": "\u0411\u043e\u0447\u0430\u0440\u043d\u0438\u043a\u043e\u0432\u0430 \u0414\u0430\u0440\u044c\u044f \u0412\u043b\u0430\u0434\u0438\u043c\u0438\u0440\u043e\u0432\u043d\u0430",
    "rating": 0.011079254086293136
  },
  "47548": {
    "name": "\u0412\u0430\u043d-\u0417\u0430\u0430\u043c \u042e\u043b\u0438\u044f \u0412\u0430\u043b\u0435\u0440\u044c\u0435\u0432\u043d\u0430",
    "rating": 1.1527881110909062
  },
  "47549": {
    "name": "\u0413\u043b\u044f\u043d\u0446\u0435\u0432\u0430 \u041e\u043b\u044c\u0433\u0430 \u0412\u0430\u043b\u0435\u043d\u0442\u0438\u043d\u043e\u0432\u043d\u0430",
    "rating": 1.2091003508692748
  },
  "47550": {
    "name": "\u041a\u043e\u0442\u0443\u0433\u0438\u043d\u0430 \u0410\u043d\u0430\u0441\u0442\u0430\u0441\u0438\u044f \u0410\u043b\u0435\u043a\u0441\u0430\u043d\u0434\u0440\u043e\u0432\u043d\u0430",
    "rating": 0.005146545600021615
  },
  "47551": {
    "name": "\u041b\u0435\u0441\u043d\u0438\u0447\u0435\u043d\u043a\u043e \u0418\u0440\u0438\u043d\u0430 \u041c\u0438\u0445\u0430\u0439\u043b\u043e\u0432\u043d\u0430",
    "rating": 0.10761847815111712
  },
  "47552": {
    "name": "\u041b\u044e\u0445\u0442\u0435\u0440 \u0412\u0430\u0440\u0432\u0430\u0440\u0430 \u042e\u0440\u044c\u0435\u0432\u043d\u0430",
    "rating": 1.3382853627181528
  },
  "47553": {
    "name": "\u041f\u043e\u043b\u0443\u044f\u043d\u0441\u043a\u0430\u044f \u041d\u0430\u0442\u0430\u043b\u0438\u044f \u0410\u043b\u0435\u043a\u0441\u0435\u0435\u0432\u043d\u0430",
    "rating": 4.0
  },
  "47554": {
    "name": "\u0421\u043c\u0443\u0440\u043e\u0432\u0430 \u041e\u043b\u044c\u0433\u0430 \u041d\u0438\u043a\u043e\u043b\u0430\u0435\u0432\u043d\u0430",
    "rating": 1.3043358655816433
  },
  "47555": {
    "name": "\u0421\u044b\u0447\u0435\u0432\u0430 \u041e\u043b\u044c\u0433\u0430 \u0410\u043b\u0435\u043a\u0441\u0430\u043d\u0434\u0440\u043e\u0432\u043d\u0430",
    "rating": 2.019943624918253
  },
  "47556": {
    "name": "\u0422\u0435\u043c\u043d\u043e\u0432\u0430 \u041b\u0430\u043b\u0438 \u0410\u043a\u0430\u043a\u0438\u0435\u0432\u043d\u0430",
    "rating": 0.019395232066402902
  },
  "47557": {
    "name": "\u0422\u0440\u043e\u043f\u043d\u0438\u043a\u043e\u0432\u0430 \u041c\u0430\u0440\u0438\u044f \u0421\u0435\u0440\u0433\u0435\u0435\u0432\u043d\u0430",
    "rating": 0.047345241285355485
  },
  "47558": {
    "name": "\u0422\u044e\u0442\u044e\u043d\u043e\u0432\u0430 \u041b\u0438\u0434\u0438\u044f \u0421\u0435\u0440\u0433\u0435\u0435\u0432\u043d\u0430",
    "rating": 0.041157548831544384
  },
  "47559": {
    "name": "\u0424\u043e\u043c\u0438\u043d\u044b\u0445 \u041f\u0430\u0432\u0435\u043b \u0410\u043b\u0435\u043a\u0441\u0430\u043d\u0434\u0440\u043e\u0432\u0438\u0447",
    "rating": 0.019224287625683983
  },
  "47560": {
    "name": "\u0425\u043e\u043b\u043a\u0438\u043d\u0430 \u0415\u043b\u0435\u043d\u0430 \u0410\u043d\u0434\u0440\u0435\u0435\u0432\u043d\u0430",
    "rating": 0.03551261994092185
  },
  "47561": {
    "name": "\u0428\u0430\u0431\u043d\u043e\u0432 \u0412\u0438\u043a\u0442\u043e\u0440 \u041c\u0438\u0445\u0430\u0439\u043b\u043e\u0432\u0438\u0447",
    "rating": 1.4700908610371872
  },
  "47562": {
    "name": "\u0428\u0443\u0448\u043a\u043e\u0432\u0430 \u041c\u0430\u0440\u0438\u044f \u0415\u0432\u0433\u0435\u043d\u044c\u0435\u0432\u043d\u0430",
    "rating": 0.046711962419263765
  },
  "47563": {
    "name": "\u0410\u0433\u0430\u0440\u0430\u0433\u0438\u043c\u043e\u0432 \u0424\u0440\u0443\u0434\u0438\u043d \u041c\u0435\u0432\u043b\u0443\u0442\u043e\u0432\u0438\u0447",
    "rating": 2.7863723716318587
  }
}