{
  "11013": {
    "name": "\u041b\u044b\u0441\u0435\u043d\u043a\u043e \u041d\u0430\u0434\u0435\u0436\u0434\u0430 \u041c\u0438\u0445\u0430\u0439\u043b\u043e\u0432\u043d\u0430",
    "rating": 1.128090987761448
  },
  "48894": {
    "name": "\u041a\u0443\u0437\u043d\u0435\u0446\u043e\u0432\u0430 \u0415\u043b\u0435\u043d\u0430 \u0410\u043b\u0435\u043a\u0441\u0435\u0435\u0432\u043d\u0430",
    "rating": 4.4002638488126244
  },
  "48895": {
    "name": "\u041c\u0430\u0445\u043d\u043e \u041e\u043b\u0435\u0433 \u0418\u0432\u0430\u043d\u043e\u0432\u0438\u0447",
    "rating": 3.0
  },
  "48896": {
    "name": "\u0410\u0440\u0435\u0441\u0442\u043e\u0432 \u0412\u0430\u0441\u0438\u043b\u0438\u0439 \u0412\u0438\u043a\u0442\u043e\u0440\u043e\u0432\u0438\u0447",
    "rating": 0.002683455945140607
  },
  "48897": {
    "name": "\u0411\u043e\u0433\u0430\u0442\u043e\u0432\u0430 \u0410\u043d\u043d\u0430 \u0415\u0432\u0433\u0435\u043d\u044c\u0435\u0432\u043d\u0430",
    "rating": 0.014189727965859818
  },
  "48898": {
    "name": "\u0412\u0435\u043b\u0438\u0447\u043a\u043e \u0410\u0441\u044f \u041a\u043e\u043d\u0441\u0442\u0430\u043d\u0442\u0438\u043d\u043e\u0432\u043d\u0430",
    "rating": 0.08710292986474087
  },
  "48899": {
    "name": "\u0412\u043e\u0439\u0442\u0435\u043d\u043a\u043e \u042f\u043d\u0430 \u041b\u0435\u043e\u043d\u0438\u0434\u043e\u0432\u043d\u0430",
    "rating": 0.06376014672742297
  },
  "48900": {
    "name": "\u0414\u0430\u043d\u0438\u043b\u043e\u0432\u0430 \u0412\u0438\u043a\u0442\u043e\u0440\u0438\u044f \u042e\u0440\u044c\u0435\u0432\u043d\u0430",
    "rating": 3.379533397698472e-13
  },
  "48901": {
    "name": "\u0414\u0432\u0443\u0445\u0438\u043c\u0435\u043d\u043d\u044b\u0439 \u0412\u043b\u0430\u0434\u0438\u043c\u0438\u0440 \u0410\u043b\u0435\u043a\u0441\u0430\u043d\u0434\u0440\u043e\u0432\u0438\u0447",
    "rating": 2.0510190897179257
  },
  "48902": {
    "name": "\u0414\u043e\u043c\u043d\u0438\u043d \u0421\u0435\u0440\u0433\u0435\u0439 \u042e\u0440\u044c\u0435\u0432\u0438\u0447",
    "rating": 2.481290078692604
  },
  "48903": {
    "name": "\u0415\u043d\u0431\u0443\u043b\u0430\u0435\u0432 \u0410\u043b\u0435\u043a\u0441\u0430\u043d\u0434\u0440 \u0410\u043b\u0435\u043a\u0441\u0430\u043d\u0434\u0440\u043e\u0432\u0438\u0447",
    "rating": 1.1156983553626805
  },
  "48904": {
    "name": "\u0417\u0430\u0432\u0430\u0434\u0441\u043a\u0430\u044f \u0412\u0435\u0440\u0430 \u0412\u0430\u043b\u0435\u043d\u0442\u0438\u043d\u043e\u0432\u043d\u0430",
    "rating": 1.2841182136443627
  },
  "48905": {
    "name": "\u0418\u0432\u0430\u043d\u043e\u0432 \u0418\u0433\u043e\u0440\u044c \u041f\u0435\u0442\u0440\u043e\u0432\u0438\u0447",
    "rating": 0.005811542152168382
  },
  "48906": {
    "name": "\u041a\u043e\u043b\u044c\u0432\u0430 \u0410\u043b\u0435\u043a\u0441\u0430\u043d\u0434\u0440 \u041d\u0438\u043a\u043e\u043b\u0430\u0435\u0432\u0438\u0447",
    "rating": 2.336551750612374
  },
  "48907": {
    "name": "\u041a\u0443\u043b\u0438\u043a\u043e\u0432 \u041c\u0430\u043a\u0441\u0438\u043c \u042e\u0440\u044c\u0435\u0432\u0438\u0447",
    "rating": 2.821985423921165
  },
  "48908": {
    "name": "\u041a\u0443\u0440\u043a\u0438\u043d\u0430 \u0420\u0438\u0442\u0430 \u041d\u0438\u043a\u043e\u043b\u0430\u0435\u0432\u043d\u0430",
    "rating": 0.014971601162311669
  },
  "48909": {
    "name": "\u041b\u044e\u0431\u0438\u0447 \u041b\u0438\u043d\u0434\u0430 \u0412\u044f\u0447\u0435\u0441\u043b\u0430\u0432\u043e\u0432\u043d\u0430",
    "rating": 0.0025463525790926874
  },
  "48910": {
    "name": "\u041d\u0438\u043a\u043e\u043b\u0430\u0435\u0432\u0430 \u0415\u043b\u0435\u043d\u0430 \u0418\u0432\u0430\u043d\u043e\u0432\u043d\u0430",
    "rating": 2.0084320495506884
  },
  "48911": {
    "name": "\u041e\u043a\u0440\u0443\u0448\u043a\u043e \u0412\u0430\u0434\u0438\u043c \u042f\u043a\u043e\u0432\u043b\u0435\u0432\u0438\u0447",
    "rating": 4.0
  },
  "48913": {
    "name": "\u041f\u0440\u0438\u0434\u0438\u0443\u0441 \u0412\u0430\u0434\u0438\u043c \u0412\u0430\u0441\u0438\u043b\u044c\u0435\u0432\u0438\u0447",
    "rating": 1.9398326815698776
  },
  "48914": {
    "name": "\u0420\u0435\u043f\u043a\u0438\u043d \u0421\u0435\u0440\u0433\u0435\u0439 \u0412\u0438\u043a\u0442\u043e\u0440\u043e\u0432\u0438\u0447",
    "rating": 0.02274583774445969
  },
  "48915": {
    "name": "\u0421\u043c\u0443\u0440\u044b\u0433\u0438\u043d \u0414\u043c\u0438\u0442\u0440\u0438\u0439 \u041c\u0438\u0445\u0430\u0439\u043b\u043e\u0432\u0438\u0447",
    "rating": 0.01487532868784707
  },
  "48916": {
    "name": "\u0421\u043f\u0435\u0440\u0430\u043d\u0441\u043a\u0438\u0439 \u041a\u0438\u0440\u0438\u043b\u043b \u0412\u043b\u0430\u0434\u0438\u043c\u0438\u0440\u043e\u0432\u0438\u0447",
    "rating": 1.923887969311456
  },
  "48917": {
    "name": "\u0422\u0438\u0442\u043e\u0432\u0430 \u041d\u0430\u0442\u0430\u043b\u044c\u044f \u0418\u0432\u0430\u043d\u043e\u0432\u043d\u0430",
    "rating": 5.0
  },
  "48918": {
    "name": "\u0424\u0440\u043e\u043b\u043e\u0432 \u0410\u043d\u0434\u0440\u0435\u0439 \u0421\u0435\u0440\u0433\u0435\u0435\u0432\u0438\u0447",
    "rating": 0.010648758521939528
  }
}