{
  "5988": {
    "name": "\u0422\u0435\u0440\u0435\u043d\u0442\u044c\u0435\u0432\u0430 \u041d\u0430\u0442\u0430\u043b\u0438\u044f \u0412\u0430\u0441\u0438\u043b\u044c\u0435\u0432\u043d\u0430",
    "rating": 0.5304936738935468
  },
  "6344": {
    "name": "\u0427\u0435\u0447\u0438\u043d\u0430 \u041d\u0430\u0442\u0430\u043b\u044c\u044f \u0412\u0430\u043b\u0435\u043d\u0442\u0438\u043d\u043e\u0432\u043d\u0430",
    "rating": 0.4828376990831769
  },
  "10166": {
    "name": "\u041c\u0443\u0441\u0430\u0442\u043e\u0432\u0430 \u0415\u043b\u0435\u043d\u0430 \u0412\u043b\u0430\u0434\u0438\u043c\u0438\u0440\u043e\u0432\u043d\u0430",
    "rating": 2.599158411205906
  },
  "10212": {
    "name": "\u0424\u0435\u0434\u043e\u0440\u043e\u0432\u0430 \u041d\u0430\u0442\u0430\u043b\u044c\u044f \u041c\u0438\u0445\u0430\u0439\u043b\u043e\u0432\u043d\u0430",
    "rating": 1.0214117772476563
  },
  "10451": {
    "name": "\u0414\u044e\u0431\u0430 \u0421\u0432\u0435\u0442\u043b\u0430\u043d\u0430 \u0410\u043d\u0434\u0440\u0435\u0435\u0432\u043d\u0430",
    "rating": 1.028954189992583
  },
  "49744": {
    "name": "\u0420\u0436\u0430\u043d\u0435\u043d\u043a\u043e\u0432 \u0410\u043b\u0435\u043a\u0441\u0430\u043d\u0434\u0440 \u041d\u0438\u043a\u043e\u043b\u0430\u0435\u0432\u0438\u0447",
    "rating": 1.7611849491103382
  },
  "49745": {
    "name": "\u0411\u043e\u043b\u044c\u0448\u0430\u043a\u043e\u0432\u0430 \u0422\u0430\u0442\u044c\u044f\u043d\u0430 \u042e\u0440\u044c\u0435\u0432\u043d\u0430",
    "rating": 0.0030272458630259554
  },
  "49746": {
    "name": "\u0421\u043e\u0440\u043e\u043a\u0438\u043d\u0430 \u041e\u043b\u044c\u0433\u0430 \u0412\u0438\u043a\u0442\u043e\u0440\u043e\u0432\u043d\u0430",
    "rating": 1.0890492287976512
  },
  "49747": {
    "name": "\u0411\u0443\u0439\u043d\u0435\u0432\u0438\u0447 \u0414\u043c\u0438\u0442\u0440\u0438\u0439 \u0412\u0438\u043a\u0442\u043e\u0440\u043e\u0432\u0438\u0447",
    "rating": 2.5456841688233722
  },
  "49748": {
    "name": "\u041a\u043e\u043b\u043e\u0441\u043e\u0432\u0430 \u0413\u0430\u043b\u0438\u043d\u0430 \u0412\u043b\u0430\u0434\u0438\u043c\u0438\u0440\u043e\u0432\u043d\u0430",
    "rating": 0.04998204345105452
  },
  "49749": {
    "name": "\u041b\u044e\u0431\u0438\u043c\u043e\u0432 \u0410\u043b\u0435\u043a\u0441\u0430\u043d\u0434\u0440 \u0411\u043e\u0440\u0438\u0441\u043e\u0432\u0438\u0447",
    "rating": 0.2103900585968804
  },
  "49750": {
    "name": "\u0424\u0438\u0434\u0440\u0438\u043a\u043e\u0432\u0430 \u0415\u043b\u0435\u043d\u0430 \u041d\u0438\u043a\u043e\u043b\u0430\u0435\u0432\u043d\u0430",
    "rating": 0.01243805379606545
  },
  "49751": {
    "name": "\u0411\u043e\u0433\u0430\u0447\u0435\u0432\u0430 \u041c\u0430\u0440\u0438\u043d\u0430 \u0412\u0430\u043b\u0435\u0440\u044c\u0435\u0432\u043d\u0430",
    "rating": 1.565464490630635
  },
  "49752": {
    "name": "\u0411\u043e\u043d\u0434\u0430\u0440\u0435\u043d\u043a\u043e \u041d\u0430\u0442\u0430\u043b\u044c\u044f \u0410\u043d\u0430\u0442\u043e\u043b\u044c\u0435\u0432\u043d\u0430",
    "rating": 0.01741156667451758
  },
  "49753": {
    "name": "\u0411\u043e\u0433\u0443\u0448 \u041d\u0430\u0442\u0430\u043b\u044c\u044f \u041f\u0435\u0442\u0440\u043e\u0432\u043d\u0430",
    "rating": 0.018472420859907617
  },
  "49754": {
    "name": "\u0411\u0443\u043b\u0430\u0448\u0435\u0432\u0430 \u0422\u0430\u0442\u044c\u044f\u043d\u0430 \u041d\u0438\u043a\u043e\u043b\u0430\u0435\u0432\u043d\u0430",
    "rating": 0.027000246779837284
  },
  "49755": {
    "name": "\u0411\u0443\u043a\u0430\u0442\u0438\u043d\u0430 \u041e\u043b\u044c\u0433\u0430 \u0410\u043b\u0435\u043a\u0441\u0435\u0435\u0432\u043d\u0430",
    "rating": 0.005933955826384414
  },
  "49756": {
    "name": "\u0411\u043e\u0440\u043e\u0434\u0438\u043d\u0441\u043a\u0438\u0439 \u0410\u043b\u0435\u043a\u0441\u0430\u043d\u0434\u0440 \u041c\u0438\u0445\u0430\u0439\u043b\u043e\u0432\u0438\u0447",
    "rating": 1.1064944897121132
  },
  "49757": {
    "name": "\u0412\u0430\u0441\u0438\u043b\u044c\u0435\u0432\u0430 \u041c\u0430\u0440\u0438\u043d\u0430 \u0414\u043c\u0438\u0442\u0440\u0438\u0435\u0432\u043d\u0430",
    "rating": 0.016966641933316037
  },
  "49758": {
    "name": "\u0412\u043e\u0439\u0442\u043e\u0432\u0430 \u041b\u044e\u0431\u043e\u0432\u044c \u0410\u043b\u0435\u043a\u0441\u0430\u043d\u0434\u0440\u043e\u0432\u043d\u0430",
    "rating": 0.024824494415871656
  },
  "49759": {
    "name": "\u0413\u043e\u0440\u0434\u0435\u0435\u0432\u0430 \u041e\u043b\u044c\u0433\u0430 \u0412\u0438\u0442\u0430\u043b\u044c\u0435\u0432\u043d\u0430",
    "rating": 0.027822299561122397
  },
  "49760": {
    "name": "\u0413\u043b\u0443\u0445\u043e\u0432\u0430 \u0410\u043d\u043d\u0430 \u0413\u0435\u0440\u043c\u0430\u043d\u043e\u0432\u043d\u0430",
    "rating": 0.0
  },
  "49761": {
    "name": "\u0414\u043c\u0438\u0442\u0440\u0438\u0435\u0432\u0430 \u0415\u043b\u0435\u043d\u0430 \u0421\u0435\u0440\u0433\u0435\u0435\u0432\u043d\u0430",
    "rating": 1.8445881823177401
  },
  "49762": {
    "name": "\u0415\u043b\u043a\u0438\u043d\u0430 \u041d\u0430\u0442\u0430\u043b\u044c\u044f \u0412\u043b\u0430\u0434\u0438\u043c\u0438\u0440\u043e\u0432\u043d\u0430",
    "rating": 0.01584791486587736
  },
  "49763": {
    "name": "\u0415\u043b\u0435\u0446\u043a\u0430\u044f \u041b\u044e\u0431\u043e\u0432\u044c \u0412\u0438\u043a\u0442\u043e\u0440\u043e\u0432\u043d\u0430",
    "rating": 0.034903870683104465
  },
  "49764": {
    "name": "\u0416\u0443\u043a\u043e\u0432\u0430 \u041d\u0430\u0434\u0435\u0436\u0434\u0430 \u0413\u0435\u043d\u043d\u0430\u0434\u044c\u0435\u0432\u043d\u0430",
    "rating": 0.027550020085418302
  },
  "49765": {
    "name": "\u0417\u0435\u043c\u0441\u043a\u0430\u044f \u0410\u043d\u0430\u0441\u0442\u0430\u0441\u0438\u044f \u0410\u043d\u0434\u0440\u0435\u0435\u0432\u043d\u0430",
    "rating": 0.02783872578034465
  },
  "49766": {
    "name": "\u0417\u0432\u043e\u043d\u0446\u043e\u0432\u0430 \u0415\u043a\u0430\u0442\u0435\u0440\u0438\u043d\u0430 \u041c\u0438\u0445\u0430\u0439\u043b\u043e\u0432\u043d\u0430",
    "rating": 1.4350522502145011
  },
  "49767": {
    "name": "\u0417\u0443\u0431\u0440\u0438\u043b\u0438\u043d\u0430 \u0421\u0432\u0435\u0442\u043b\u0430\u043d\u0430 \u0411\u043e\u0440\u0438\u0441\u043e\u0432\u043d\u0430",
    "rating": 1.4558815342763127
  },
  "49768": {
    "name": "\u0418\u0441\u0430\u0435\u0432\u0430 \u0415\u043b\u0435\u043d\u0430 \u0415\u0432\u0433\u0435\u043d\u044c\u0435\u0432\u043d\u0430",
    "rating": 0.01589287534277031
  },
  "49769": {
    "name": "\u0418\u0441\u0430\u0435\u0432\u0430 \u041d\u0430\u0442\u0430\u043b\u0435\u0442\u0442\u0430 \u0421\u0435\u0440\u0433\u0435\u0435\u0432\u043d\u0430",
    "rating": 0.009734411318427231
  },
  "49770": {
    "name": "\u0418\u043b\u044c\u044f\u0448\u0435\u043d\u043a\u043e \u041b\u0430\u0440\u0438\u0441\u0430 \u041e\u043b\u0435\u0433\u043e\u0432\u043d\u0430",
    "rating": 1.3931745918085368
  },
  "49771": {
    "name": "\u041a\u0430\u043f\u0443\u0441\u0442\u0438\u043d\u0430 \u0410\u043b\u0435\u043d\u0430 \u0410\u043b\u0435\u043a\u0441\u0430\u043d\u0434\u0440\u043e\u0432\u043d\u0430",
    "rating": 0.3313193838768311
  },
  "49772": {
    "name": "\u041a\u0430\u0440\u044b\u0448\u0435\u0432\u0430 \u0415\u043a\u0430\u0442\u0435\u0440\u0438\u043d\u0430 \u0412\u0430\u043b\u0435\u0440\u044c\u0435\u0432\u043d\u0430",
    "rating": 0.018276705699968997
  },
  "49773": {
    "name": "\u041a\u043e\u0440\u0441\u0430\u043a \u0421\u0432\u0435\u0442\u043b\u0430\u043d\u0430 \u0412\u0438\u0442\u0430\u043b\u044c\u0435\u0432\u043d\u0430",
    "rating": 0.02316010085851777
  },
  "49774": {
    "name": "\u041a\u043e\u0440\u0448\u0443\u043d\u043e\u0432 \u0414\u0435\u043d\u0438\u0441 \u0412\u043b\u0430\u0434\u0438\u043c\u0438\u0440\u043e\u0432\u0438\u0447",
    "rating": 0.03450787150438117
  },
  "49775": {
    "name": "\u041a\u043e\u0445\u0430\u043d\u043e\u0432\u0430 \u0415\u043a\u0430\u0442\u0435\u0440\u0438\u043d\u0430 \u0412\u0438\u043a\u0442\u043e\u0440\u043e\u0432\u043d\u0430",
    "rating": 0.005033069160006193
  },
  "49776": {
    "name": "\u041a\u0440\u0443\u0442\u043e\u0432\u0430 \u041e\u043b\u044c\u0433\u0430 \u0412\u043b\u0430\u0434\u0438\u043c\u0438\u0440\u043e\u0432\u043d\u0430",
    "rating": 0.04848198327671754
  },
  "49777": {
    "name": "\u041a\u0443\u0441\u043a\u043e\u0432\u0430 \u0415\u043b\u0435\u043d\u0430 \u041d\u0438\u043a\u043e\u043b\u0430\u0435\u0432\u043d\u0430",
    "rating": 0.033751943899524885
  },
  "49778": {
    "name": "\u041a\u0443\u0446 \u0412\u0430\u043b\u0435\u043d\u0442\u0438\u043d\u0430 \u0412\u043b\u0430\u0434\u0438\u043c\u0438\u0440\u043e\u0432\u043d\u0430",
    "rating": 0.024508934014682297
  },
  "49779": {
    "name": "\u041a\u043e\u043d\u0434\u0440\u0430\u0445\u0438\u043d\u0430 \u041e\u043b\u044c\u0433\u0430 \u0421\u0435\u0440\u0433\u0435\u0435\u0432\u043d\u0430",
    "rating": 0.006773513536600511
  },
  "49780": {
    "name": "\u041a\u043e\u043d\u0441\u0442\u0430\u043d\u0442\u0438\u043d\u043e\u0432\u0430 \u0418\u0440\u0438\u043d\u0430 \u0413\u0440\u0438\u0433\u043e\u0440\u044c\u0435\u0432\u043d\u0430",
    "rating": 0.2005877175548504
  },
  "49781": {
    "name": "\u041b\u0435\u0432\u0430\u0434\u043d\u0430\u044f \u041d\u0430\u0442\u0430\u043b\u0438\u044f \u0413\u0435\u043d\u043d\u0430\u0434\u044c\u0435\u0432\u043d\u0430",
    "rating": 0.1925326230383116
  },
  "49782": {
    "name": "\u041b\u0435\u043e\u043d\u043e\u0432\u0430 \u041c\u0430\u0440\u0438\u043d\u0430 \u0412\u0430\u043b\u0435\u043d\u0442\u0438\u043d\u043e\u0432\u043d\u0430",
    "rating": 1.0182930527230516
  },
  "49783": {
    "name": "\u041b\u0435\u043c\u043a\u0435 \u041d\u0430\u0442\u0430\u043b\u044c\u044f \u041f\u0435\u0442\u0440\u043e\u0432\u043d\u0430",
    "rating": 0.060882826568667565
  },
  "49784": {
    "name": "\u041b\u0438\u043b\u0435\u043d\u043a\u043e\u0432\u0430 \u0415\u043b\u0435\u043d\u0430 \u0418\u0432\u0430\u043d\u043e\u0432\u043d\u0430",
    "rating": 0.275943617438857
  },
  "49785": {
    "name": "\u041b\u0438\u0447\u0430\u043a \u041f\u0430\u0432\u0435\u043b \u042e\u0440\u044c\u0435\u0432\u0438\u0447",
    "rating": 0.005266051360169776
  },
  "49786": {
    "name": "\u041b\u043e\u043c\u0430\u043a\u0438\u043d\u0430 \u0415\u043b\u0435\u043d\u0430 \u041d\u0438\u043a\u043e\u043b\u0430\u0435\u0432\u043d\u0430",
    "rating": 0.37500388844366905
  },
  "49787": {
    "name": "\u041b\u0443\u043a\u044c\u044f\u043d\u0447\u0435\u043d\u043a\u043e\u0432\u0430 \u0413\u0430\u043b\u0438\u043d\u0430 \u0418\u0432\u0430\u043d\u043e\u0432\u043d\u0430",
    "rating": 1.5343930458142443
  },
  "49788": {
    "name": "\u041c\u0430\u043a\u043e\u0440\u0442\u0430 \u0413\u043b\u0435\u0431 \u0410\u043b\u0435\u043a\u0441\u0430\u043d\u0434\u0440\u043e\u0432\u0438\u0447",
    "rating": 0.06784646949219607
  },
  "49789": {
    "name": "\u041c\u0430\u0439\u0431\u043e\u0440\u043e\u0434\u0430 \u0415\u043a\u0430\u0442\u0435\u0440\u0438\u043d\u0430 \u0410\u043d\u0430\u0442\u043e\u043b\u044c\u0435\u0432\u043d\u0430",
    "rating": 1.1569260123203378
  },
  "49790": {
    "name": "\u041c\u0430\u043a\u0441\u0438\u043c\u0435\u043d\u043a\u043e \u0410\u0440\u0442\u0435\u043c \u0421\u0435\u0440\u0433\u0435\u0435\u0432\u0438\u0447",
    "rating": 0.062307353003186565
  },
  "49791": {
    "name": "\u041c\u0430\u0442\u0432\u0435\u0435\u0432\u0430 \u0415\u043a\u0430\u0442\u0435\u0440\u0438\u043d\u0430 \u0411\u043e\u0440\u0438\u0441\u043e\u0432\u043d\u0430",
    "rating": 0.020256537886815886
  },
  "49792": {
    "name": "\u041c\u0430\u0442\u043a\u043e\u0432\u0430 \u0422\u0430\u043c\u0430\u0440\u0430 \u041b\u0430\u0437\u0430\u0440\u0435\u0432\u043d\u0430",
    "rating": 0.01663806476952891
  },
  "49793": {
    "name": "\u041c\u0430\u0446\u043a\u0435\u0432\u0438\u0447 \u0421\u0435\u0440\u0433\u0435\u0439 \u042e\u0440\u044c\u0435\u0432\u0438\u0447",
    "rating": 1.2463728862811074
  },
  "49794": {
    "name": "\u041c\u0430\u0446\u0443\u0435\u0432\u0430 \u0415\u043a\u0430\u0442\u0435\u0440\u0438\u043d\u0430 \u041c\u0438\u0445\u0430\u0439\u043b\u043e\u0432\u043d\u0430",
    "rating": 0.05297806806861341
  },
  "49795": {
    "name": "\u041c\u0435\u043b\u044c\u043d\u0438\u043a\u043e\u0432 \u0410\u043b\u0435\u043a\u0441\u0430\u043d\u0434\u0440 \u0412\u0438\u043a\u0442\u043e\u0440\u043e\u0432\u0438\u0447",
    "rating": 2.002861884483354
  },
  "49796": {
    "name": "\u041c\u0435\u0440\u043a\u0443\u0448\u0435\u0432\u0430 \u041d\u0430\u0442\u0430\u043b\u044c\u044f \u0412\u0430\u0441\u0438\u043b\u044c\u0435\u0432\u043d\u0430",
    "rating": 0.04580956721507312
  },
  "49797": {
    "name": "\u041c\u0438\u043d\u044c\u043a\u043e\u0432\u0430 \u041d\u0430\u0434\u0435\u0436\u0434\u0430 \u041a\u043e\u043d\u0441\u0442\u0430\u043d\u0442\u0438\u043d\u043e\u0432\u043d\u0430",
    "rating": 0.04363238772563117
  },
  "49798": {
    "name": "\u041c\u043e\u0438\u0441\u0435\u0435\u0432\u0430 \u041c\u0430\u0440\u0433\u0430\u0440\u0438\u0442\u0430 \u041d\u0438\u043a\u043e\u043b\u0430\u0435\u0432\u043d\u0430",
    "rating": 1.0203873354950663
  },
  "49799": {
    "name": "\u041d\u0430\u0443\u043c\u043e\u0432\u0430 \u041d\u0430\u0442\u0430\u043b\u044c\u044f \u0413\u0440\u0438\u0433\u043e\u0440\u044c\u0435\u0432\u043d\u0430",
    "rating": 1.468238021408404
  },
  "49800": {
    "name": "\u041d\u0438\u043a\u043e\u043b\u0430\u0435\u0432\u0430 \u0410\u043b\u0435\u043a\u0441\u0430\u043d\u0434\u0440\u0430 \u0412\u043b\u0430\u0434\u0438\u043c\u0438\u0440\u043e\u0432\u043d\u0430",
    "rating": 0.0023843928865336485
  },
  "49801": {
    "name": "\u041d\u043e\u0432\u0438\u0446\u043a\u0430\u044f \u0422\u0430\u0442\u044c\u044f\u043d\u0430 \u041a\u0430\u0440\u043b\u043e\u0432\u043d\u0430",
    "rating": 0.01854648386374017
  },
  "49802": {
    "name": "\u041d\u043e\u0432\u0438\u043a\u043e\u0432 \u041d\u0438\u043a\u0438\u0442\u0430 \u0418\u0433\u043e\u0440\u0435\u0432\u0438\u0447",
    "rating": 1.0104194187071824
  },
  "49803": {
    "name": "\u041e\u0432\u0441\u044f\u043d\u043d\u0438\u043a\u043e\u0432\u0430 \u0410\u0439\u0436\u0430\u043d \u0421\u0430\u0442\u0430\u0440\u043a\u0443\u043b\u043e\u0432\u043d\u0430",
    "rating": 0.014019774387625698
  },
  "49804": {
    "name": "\u041e\u0440\u0435\u0448\u043a\u0438\u043d\u0430 \u041e\u043b\u044c\u0433\u0430 \u0410\u043b\u0435\u043a\u0441\u0430\u043d\u0434\u0440\u043e\u0432\u043d\u0430",
    "rating": 1.0026050908717958
  },
  "49805": {
    "name": "\u041f\u0430\u0440\u0448\u0438\u043d\u0430 \u0415\u043b\u0435\u043d\u0430 \u0412\u0435\u043d\u0438\u0430\u043c\u0438\u043d\u043e\u0432\u043d\u0430",
    "rating": 0.003589492360818818
  },
  "49806": {
    "name": "\u041f\u0435\u043d\u0442\u044e\u043a\u043e\u0432 \u0420\u043e\u043c\u0430\u043d \u0412\u0430\u043b\u0435\u043d\u0442\u0438\u043d\u043e\u0432\u0438\u0447",
    "rating": 0.052286929853698524
  },
  "49807": {
    "name": "\u041f\u0435\u0442\u0440\u043e\u0432 \u0414\u0430\u043d\u0438\u043b\u0430 \u0412\u0430\u043b\u0435\u0440\u044c\u0435\u0432\u0438\u0447",
    "rating": 0.05408073831178092
  },
  "49808": {
    "name": "\u041f\u0435\u0442\u0443\u0445\u043e\u0432\u0430 \u041d\u0430\u0442\u0430\u043b\u044c\u044f \u0412\u043b\u0430\u0434\u0438\u043c\u0438\u0440\u043e\u0432\u043d\u0430",
    "rating": 0.05165963830347146
  },
  "49809": {
    "name": "\u041f\u0435\u0448\u0438\u043a\u043e\u0432\u0430 \u0415\u0432\u0433\u0435\u043d\u0438\u044f \u0415\u0432\u0433\u0435\u043d\u044c\u0435\u0432\u043d\u0430",
    "rating": 0.0136525942867975
  },
  "49810": {
    "name": "\u041f\u0440\u043e\u0432\u043e\u0440\u043e\u0432\u0430 \u041b\u044e\u0434\u043c\u0438\u043b\u0430 \u0411\u043e\u0440\u0438\u0441\u043e\u0432\u043d\u0430",
    "rating": 0.01246068688031772
  },
  "49811": {
    "name": "\u041f\u0440\u043e\u0441\u043a\u0443\u0440\u044f\u043a\u043e\u0432\u0430 \u0410\u043b\u0435\u043a\u0441\u0430\u043d\u0434\u0440\u0430 \u0410\u043b\u0435\u043a\u0441\u0430\u043d\u0434\u0440\u043e\u0432\u043d\u0430",
    "rating": 1.0
  },
  "49812": {
    "name": "\u0420\u0430\u0442\u043d\u0438\u043a\u043e\u0432\u0430 \u0418\u0440\u0438\u043d\u0430 \u041f\u0435\u0442\u0440\u043e\u0432\u043d\u0430",
    "rating": 0.014727777112631927
  },
  "49813": {
    "name": "\u0421\u0430\u0432\u043a\u0438\u043d\u0430 \u041e\u043b\u044c\u0433\u0430 \u0424\u0435\u043b\u0438\u043a\u0441\u043e\u0432\u043d\u0430",
    "rating": 0.012306998571793178
  },
  "49814": {
    "name": "\u0421\u0430\u0433\u0438\u0442\u043e\u0432\u0430 \u041c\u0430\u0440\u0438\u044f \u0421\u0435\u0440\u0433\u0435\u0435\u0432\u043d\u0430",
    "rating": 2.45398471692307
  },
  "49815": {
    "name": "\u0421\u0432\u0438\u0440\u0438\u0434\u0430 \u041a\u0441\u0435\u043d\u0438\u044f \u042e\u0440\u044c\u0435\u0432\u043d\u0430",
    "rating": 0.03440384321884213
  },
  "49816": {
    "name": "\u0421\u043c\u0438\u0440\u043d\u043e\u0432\u0430 \u041e\u043b\u044c\u0433\u0430 \u0412\u043b\u0430\u0434\u0438\u043c\u0438\u0440\u043e\u0432\u043d\u0430",
    "rating": 2.2243357232236614
  },
  "49817": {
    "name": "\u0421\u043c\u0438\u0440\u043d\u043e\u0432\u0430 \u0422\u0430\u0442\u044c\u044f\u043d\u0430 \u0412\u043b\u0430\u0434\u0438\u043c\u0438\u0440\u043e\u0432\u043d\u0430",
    "rating": 3.1459208506498992
  },
  "49818": {
    "name": "\u0421\u043c\u0438\u0440\u043d\u043e\u0432\u0430 \u0415\u043b\u0435\u043d\u0430 \u0410\u043b\u0435\u043a\u0441\u0435\u0435\u0432\u043d\u0430",
    "rating": 1.0254035995345163
  },
  "49819": {
    "name": "\u0421\u043c\u043e\u0442\u0440\u043e\u0432\u0430 \u0415\u043b\u0435\u043d\u0430 \u0414\u043c\u0438\u0442\u0440\u0438\u0435\u0432\u043d\u0430",
    "rating": 1.0290245807254033
  },
  "49820": {
    "name": "\u0421\u043e\u043b\u043e\u0432\u044c\u0435\u0432\u0430 \u041b\u0438\u043b\u0438\u044f \u0411\u043e\u0440\u0438\u0441\u043e\u0432\u043d\u0430",
    "rating": 2.14675059040348
  },
  "49821": {
    "name": "\u0421\u043e\u043b\u043e\u0432\u044c\u0435\u0432\u0430 \u041c\u0430\u0440\u0438\u044f \u0410\u043b\u0435\u043a\u0441\u0430\u043d\u0434\u0440\u043e\u0432\u043d\u0430",
    "rating": 1.0260541597960904
  },
  "49822": {
    "name": "\u0421\u043e\u0441\u0438\u043d\u0430 \u0418\u043d\u043d\u0430 \u0412\u0438\u043a\u0442\u043e\u0440\u043e\u0432\u043d\u0430",
    "rating": 0.022603146236131744
  },
  "49823": {
    "name": "\u0421\u043f\u0438\u0440\u0438\u0434\u043e\u043d\u043e\u0432 \u041a\u043e\u043d\u0441\u0442\u0430\u043d\u0442\u0438\u043d \u0412\u0438\u043a\u0442\u043e\u0440\u043e\u0432\u0438\u0447",
    "rating": 0.017161742113774553
  },
  "49824": {
    "name": "\u0421\u0443\u0445\u0430\u0447\u0435\u0432\u0430 \u041d\u0430\u0434\u0435\u0436\u0434\u0430 \u0413\u0435\u043d\u043d\u0430\u0434\u044c\u0435\u0432\u043d\u0430",
    "rating": 0.4685834286753636
  },
  "49825": {
    "name": "\u0422\u043a\u0430\u0447 \u041b\u0430\u0440\u0438\u0441\u0430 \u0412\u0430\u0441\u0438\u043b\u044c\u0435\u0432\u043d\u0430",
    "rating": 0.038615092843817325
  },
  "49826": {
    "name": "\u0422\u044f\u043f\u0438\u043d\u0430 \u041e\u043b\u044c\u0433\u0430 \u0412\u0430\u043b\u0435\u043d\u0442\u0438\u043d\u043e\u0432\u043d\u0430",
    "rating": 1.9829258139843904
  },
  "49827": {
    "name": "\u0424\u0435\u0449\u0435\u043d\u043a\u043e \u0418\u0433\u043e\u0440\u044c \u0421\u0442\u0430\u043d\u0438\u0441\u043b\u0430\u0432\u043e\u0432\u0438\u0447",
    "rating": 0.059311947161254784
  },
  "49848": {
    "name": "\u0425\u0440\u0443\u0441\u0442\u0430\u043b\u0435\u0432\u0430 \u0422\u0430\u0442\u044c\u044f\u043d\u0430 \u0421\u0430\u0432\u0435\u043b\u044c\u0435\u0432\u043d\u0430",
    "rating": 0.00988336736957893
  },
  "49849": {
    "name": "\u0426\u0438\u0443\u043d\u0435\u043b\u044c \u041c\u0430\u0440\u0438\u043d\u0430 \u0410\u043b\u0435\u043a\u0441\u0430\u043d\u0434\u0440\u043e\u0432\u043d\u0430",
    "rating": 0.04795067570140104
  },
  "49850": {
    "name": "\u0427\u0435\u043c\u0438\u043d\u0430\u0432\u0430 \u0422\u0435\u0439\u043c\u0443\u0440\u0430\u0437 \u0412\u0430\u0440\u043b\u0430\u043c\u043e\u0432\u0438\u0447",
    "rating": 0.3068369162506486
  },
  "49851": {
    "name": "\u0427\u0438\u0441\u0442\u044f\u043a\u043e\u0432\u0430 \u0422\u0430\u0442\u044c\u044f\u043d\u0430 \u0413\u0435\u043d\u043d\u0430\u0434\u044c\u0435\u0432\u043d\u0430",
    "rating": 0.035143936253524265
  },
  "49852": {
    "name": "\u0427\u0443\u043a\u0438\u043d\u0430 \u0421\u0432\u0435\u0442\u043b\u0430\u043d\u0430 \u0424\u0435\u0434\u043e\u0440\u043e\u0432\u043d\u0430",
    "rating": 0.0
  },
  "49853": {
    "name": "\u0427\u0443\u043f\u0440\u0438\u044f\u043d\u043e\u0432\u0430 \u041e\u043b\u044c\u0433\u0430 \u0410\u043b\u0435\u043a\u0441\u0430\u043d\u0434\u0440\u043e\u0432\u043d\u0430",
    "rating": 0.04243642739821669
  },
  "49854": {
    "name": "\u0428\u0435\u0440\u0435\u043c\u0435\u0442\u0435\u0432\u0430 \u0418\u0440\u0438\u043d\u0430 \u041d\u0438\u043a\u043e\u043b\u0430\u0435\u0432\u043d\u0430",
    "rating": 0.013107330544284836
  },
  "49855": {
    "name": "\u0428\u0438\u0431\u0430\u043a\u043e\u0432\u0430 \u041f\u043e\u043b\u0438\u043d\u0430 \u0410\u043b\u0435\u043a\u0441\u0430\u043d\u0434\u0440\u043e\u0432\u043d\u0430",
    "rating": 0.006178493766191526
  },
  "49856": {
    "name": "\u0428\u0438\u0442\u043e\u0432\u0430 \u0410\u043b\u043b\u0430 \u0421\u0435\u0440\u0433\u0435\u0435\u0432\u043d\u0430",
    "rating": 1.2163564627645609
  },
  "49857": {
    "name": "\u0428\u043c\u0438\u0434\u0442 \u0412\u0438\u043a\u0442\u043e\u0440 \u0410\u043b\u0435\u043a\u0441\u0430\u043d\u0434\u0440\u043e\u0432\u0438\u0447",
    "rating": 0.0432809917506689
  },
  "49858": {
    "name": "\u042e\u0440\u0430\u043b\u0435\u0432\u0438\u0447 \u0421\u0432\u0435\u0442\u043b\u0430\u043d\u0430 \u0410\u043b\u0435\u043a\u0441\u0430\u043d\u0434\u0440\u043e\u0432\u043d\u0430",
    "rating": 0.00909489181634056
  },
  "49859": {
    "name": "\u042f\u0432\u043e\u0440\u0441\u043a\u0438\u0439 \u0414\u043c\u0438\u0442\u0440\u0438\u0439 \u0410\u043b\u0435\u043a\u0441\u0430\u043d\u0434\u0440\u043e\u0432\u0438\u0447",
    "rating": 4.0
  },
  "49860": {
    "name": "\u0410\u043b\u0435\u043a\u0441\u0435\u0435\u043d\u043a\u043e \u0410\u043d\u0434\u0440\u0435\u0439 \u0410\u043b\u0435\u043a\u0441\u0430\u043d\u0434\u0440\u043e\u0432\u0438\u0447",
    "rating": 0.08676055629237255
  },
  "49861": {
    "name": "\u0410\u0441\u0438\u043a\u0440\u0438\u0442\u043e\u0432 \u0412\u0430\u043b\u0435\u0440\u0438\u0439 \u041d\u0438\u043a\u043e\u043b\u0430\u0435\u0432\u0438\u0447",
    "rating": 0.06970022099606751
  },
  "49862": {
    "name": "\u0411\u0430\u0435\u0432 \u041e\u043b\u0435\u0433 \u0410\u043b\u0435\u043a\u0441\u0430\u043d\u0434\u0440\u043e\u0432\u0438\u0447",
    "rating": 4.0
  },
  "49863": {
    "name": "\u0411\u0435\u043b\u0430\u044f \u0421\u0432\u0435\u0442\u043b\u0430\u043d\u0430 \u0412\u043b\u0430\u0434\u0438\u043c\u0438\u0440\u043e\u0432\u043d\u0430",
    "rating": 1.0693789565068772
  },
  "49864": {
    "name": "\u0411\u044b\u0446\u0435\u043d\u043a\u043e \u0410\u043b\u0435\u043a\u0441\u0430\u043d\u0434\u0440 \u0412\u0430\u0434\u0438\u043c\u043e\u0432\u0438\u0447",
    "rating": 0.029945176395356682
  },
  "49865": {
    "name": "\u0412\u0430\u0441\u0438\u043b\u044c\u0435\u0432 \u0421\u0435\u0440\u0433\u0435\u0439 \u041f\u0430\u0432\u043b\u043e\u0432\u0438\u0447",
    "rating": 1.013704324348557
  },
  "49866": {
    "name": "\u0412\u0435\u0440\u0435\u0432\u043a\u0438\u043d \u0418\u0432\u0430\u043d \u0410\u043b\u0435\u043a\u0441\u0430\u043d\u0434\u0440\u043e\u0432\u0438\u0447",
    "rating": 1.90609592684272
  },
  "49867": {
    "name": "\u0412\u044f\u0437\u043e\u0432\u0430\u044f \u041b\u044e\u0431\u043e\u0432\u044c \u042d\u0440\u0438\u043a\u043e\u0432\u043d\u0430",
    "rating": 0.020029104934165556
  },
  "49868": {
    "name": "\u0413\u0430\u043b\u043a\u0438\u043d\u0430 \u041e\u043b\u044c\u0433\u0430 \u0412\u0430\u0441\u0438\u043b\u044c\u0435\u0432\u0430",
    "rating": 0.09986875579034728
  },
  "49869": {
    "name": "\u0413\u0443\u0441\u0430\u043a \u042e\u043b\u0438\u044f \u041b\u044c\u0432\u043e\u0432\u043d\u0430",
    "rating": 1.0537595489087934
  },
  "49870": {
    "name": "\u0413\u0440\u0435\u0447\u0438\u0448\u043a\u0438\u043d\u0430 \u041c\u0430\u0440\u0438\u043d\u0430 \u0410\u043d\u0430\u0442\u043e\u043b\u044c\u0435\u0432\u043d\u0430",
    "rating": 1.1807044378334264
  },
  "49871": {
    "name": "\u0413\u0440\u0438\u0433\u043e\u0440\u0435\u043d\u043a\u043e \u042d\u0434\u0443\u0430\u0440\u0434 \u0413\u0435\u043e\u0440\u0433\u0438\u0435\u0432\u0438\u0447",
    "rating": 1.4312175002392826
  },
  "49872": {
    "name": "\u0413\u043e\u0440\u0431\u0443\u043d\u043e\u0432 \u041a\u043e\u043d\u0441\u0442\u0430\u043d\u0442\u0438\u043d \u042e\u0440\u044c\u0435\u0432\u0438\u0447",
    "rating": 0.04170766898108705
  },
  "49873": {
    "name": "\u0413\u043e\u0440\u043e\u0434\u043d\u044b\u0439 \u0415\u0432\u0433\u0435\u043d\u0438\u0439 \u041f\u0435\u0442\u0440\u043e\u0432\u0438\u0447",
    "rating": 0.04556133528122597
  },
  "49874": {
    "name": "\u0414\u043e\u0440\u0436\u0438\u0435\u0432\u0430 \u0411\u0430\u044f\u0440\u043c\u0430 \u0411\u0430\u0442\u043e\u0440\u043e\u0432\u043d\u0430",
    "rating": 0.022616213187031844
  },
  "49875": {
    "name": "\u0414\u0435\u0440\u044f\u0431\u0438\u043d\u0430 \u0418\u0440\u0438\u043d\u0430 \u0412\u0438\u043a\u0442\u043e\u0440\u043e\u0432\u043d\u0430",
    "rating": 1.0108537280098289
  },
  "49876": {
    "name": "\u0416\u0443\u043a\u0430\u0443\u0441\u043a\u0438\u0435\u043d\u0435 \u0421\u0432\u0435\u0442\u043b\u0430\u043d\u0430 \u0412\u0430\u0441\u0438\u043b\u044c\u0435\u0432\u043d\u0430",
    "rating": 1.0127702053643437
  },
  "49877": {
    "name": "\u0417\u0430\u0431\u0435\u043b\u0438\u043d\u0430 \u041e\u043a\u0441\u0430\u043d\u0430 \u042f\u043a\u043e\u0432\u043b\u0435\u0432\u043d\u0430",
    "rating": 0.07750499318817756
  },
  "49878": {
    "name": "\u0417\u0435\u043b\u0438\u043d\u0441\u043a\u0430\u044f \u041d\u0430\u0442\u0430\u043b\u044c\u044f \u0413\u0440\u0438\u0433\u043e\u0440\u044c\u0435\u0432\u043d\u0430",
    "rating": 2.4258914341156004
  },
  "49879": {
    "name": "\u0418\u0432\u0430\u043d\u043e\u0432 \u0413\u0435\u043d\u043d\u0430\u0434\u0438\u0439 \u0413\u0440\u0438\u0433\u043e\u0440\u044c\u0435\u0432\u0438\u0447",
    "rating": 0.2301003852060645
  },
  "49880": {
    "name": "\u0418\u0432\u0430\u043d\u043e\u0432 \u0421\u0435\u043c\u0435\u043d \u0412\u043b\u0430\u0434\u0438\u0441\u043b\u0430\u0432\u043e\u0432\u0438\u0447",
    "rating": 3.0
  },
  "49881": {
    "name": "\u041a\u043e\u043d\u0434\u0440\u0430\u0445\u0438\u043d \u0420\u043e\u043c\u0430\u043d \u0410\u043b\u0435\u043a\u0441\u0430\u043d\u0434\u0440\u043e\u0432\u0438\u0447",
    "rating": 0.2439198081121261
  },
  "49882": {
    "name": "\u041a\u043e\u0441\u0442\u0438\u0432 \u0418\u0440\u0438\u043d\u0430 \u0413\u0440\u0438\u0433\u043e\u0440\u044c\u0435\u0432\u043d\u0430",
    "rating": 1.314423643814846
  },
  "49883": {
    "name": "\u041b\u0430\u043f\u0430\u043d \u0412\u0438\u043a\u0442\u043e\u0440 \u0411\u043e\u0440\u0438\u0441\u043e\u0432\u0438\u0447",
    "rating": 0.29009642047909456
  },
  "49884": {
    "name": "\u041b\u0443\u043a\u0438\u043d \u041c\u0430\u0442\u0432\u0435\u0439 \u0410\u043b\u0435\u043a\u0441\u0430\u043d\u0434\u0440\u043e\u0432\u0438\u0447",
    "rating": 2.6703014486156893
  },
  "49885": {
    "name": "\u041c\u0430\u043a\u0430\u0440\u043e\u0432 \u0418\u0433\u043e\u0440\u044c \u0410\u043d\u0430\u0442\u043e\u043b\u044c\u0435\u0432\u0438\u0447",
    "rating": 1.0229183698687734
  },
  "49886": {
    "name": "\u041c\u043e\u0440\u043e\u0437\u043e\u0432\u0430 \u0412\u0430\u043b\u0435\u043d\u0442\u0438\u043d\u0430 \u0412\u0430\u0441\u0438\u043b\u044c\u0435\u0432\u043d\u0430",
    "rating": 2.0503099919358263
  },
  "49887": {
    "name": "\u041c\u0435\u0449\u0430\u043d\u0438\u043d\u043e\u0432\u0430 \u0422\u0430\u0442\u044c\u044f\u043d\u0430 \u041f\u0435\u0442\u0440\u043e\u0432\u043d\u0430",
    "rating": 0.3119314254794351
  },
  "49888": {
    "name": "\u041d\u0435\u0432\u0441\u043a\u0430\u044f \u041d\u0430\u0434\u0435\u0436\u0434\u0430 \u0420\u043e\u0431\u0435\u0440\u0442\u043e\u0432\u043d\u0430",
    "rating": 1.7337373054772447
  },
  "49889": {
    "name": "\u041d\u0438\u043a\u0438\u0442\u0438\u043d \u041a\u0438\u0440\u0438\u043b\u043b \u0412\u043b\u0430\u0434\u0438\u0441\u043b\u0430\u0432\u043e\u0432\u0438\u0447",
    "rating": 0.031876121412187985
  },
  "49890": {
    "name": "\u041f\u0430\u0432\u043b\u043e\u0432 \u041a\u043e\u043d\u0441\u0442\u0430\u043d\u0442\u0438\u043d \u0415\u0432\u0433\u0435\u043d\u044c\u0435\u0432\u0438\u0447",
    "rating": 1.023668157404246
  },
  "49891": {
    "name": "\u041f\u043e\u0433\u043e\u0440\u0435\u043b\u043e\u0432\u0430 \u0410\u043b\u0435\u0432\u0442\u0438\u043d\u0430 \u0412\u0430\u0441\u0438\u043b\u044c\u0435\u0432\u043d\u0430",
    "rating": 1.5894759240126652
  },
  "49892": {
    "name": "\u041f\u043e\u043d\u043e\u043c\u0430\u0440\u0435\u0432 \u0410\u043b\u0435\u043a\u0441\u0430\u043d\u0434\u0440 \u0412\u0430\u043b\u0435\u043d\u0442\u0438\u043d\u043e\u0432\u0438\u0447",
    "rating": 0.034298612037320424
  },
  "49893": {
    "name": "\u041f\u043e\u0440\u0444\u0438\u0440\u044c\u0435\u0432\u0430 \u0421\u0432\u0435\u0442\u043b\u0430\u043d\u0430 \u0410\u043d\u0430\u0442\u043e\u043b\u044c\u0435\u0432\u043d\u0430",
    "rating": 1.0187852399771915
  },
  "49894": {
    "name": "\u0420\u044f\u0431\u043a\u043e \u041c\u0430\u0440\u0438\u043d\u0430 \u041f\u0435\u0442\u0440\u043e\u0432\u043d\u0430",
    "rating": 0.00256028358523732
  },
  "49895": {
    "name": "\u0421\u043c\u043e\u043b\u044c\u044f\u043d\u0441\u043a\u0430\u044f \u041d\u0435\u043b\u043b\u0438 \u0412\u0430\u043b\u0435\u043d\u0442\u0438\u043d\u043e\u0432\u043d\u0430",
    "rating": 0.010428675150961865
  },
  "49896": {
    "name": "\u0421\u0435\u0432\u0430\u0441\u0442\u044c\u044f\u043d\u043e\u0432 \u041c\u0438\u0445\u0430\u0438\u043b \u0410\u043b\u0435\u043a\u0441\u0430\u043d\u0434\u0440\u043e\u0432\u0438\u0447",
    "rating": 1.5401969954344048
  },
  "49897": {
    "name": "\u0421\u043c\u0435\u043a\u0430\u043b\u043e\u0432\u0430 \u0410\u043b\u0435\u043d\u0430 \u0410\u043d\u0430\u0442\u043e\u043b\u044c\u0435\u0432\u043d\u0430",
    "rating": 1.0083704093147523
  },
  "49898": {
    "name": "\u0421\u043e\u043a\u043e\u043b\u043e\u0432 \u041a\u043e\u043d\u0441\u0442\u0430\u043d\u0442\u0438\u043d \u0411\u043e\u0440\u0438\u0441\u043e\u0432\u0438\u0447",
    "rating": 0.04714893469843435
  },
  "49899": {
    "name": "\u0422\u0438\u043c\u043e\u0444\u0435\u0435\u0432\u0430 \u041e\u043b\u044c\u0433\u0430 \u041a\u043e\u043d\u0441\u0442\u0430\u043d\u0442\u0438\u043d\u043e\u0432\u043d\u0430",
    "rating": 2.608078054971689
  },
  "49900": {
    "name": "\u0424\u0440\u043e\u043b\u043e\u0432 \u0412\u043b\u0430\u0434\u0438\u043c\u0438\u0440 \u0415\u0432\u0433\u0435\u043d\u044c\u0435\u0432\u0438\u0447",
    "rating": 1.0620610866075952
  },
  "49901": {
    "name": "\u0427\u0435\u0440\u0442\u043a\u043e\u0432 \u0410\u043b\u0435\u043a\u0441\u0430\u043d\u0434\u0440 \u0412\u043b\u0430\u0434\u0438\u043c\u0438\u0440\u043e\u0432\u0438\u0447",
    "rating": 1.535084750113883
  },
  "49902": {
    "name": "\u0427\u0435\u0440\u044e\u043a\u0430\u043d\u043e\u0432 \u0410\u043b\u0435\u043a\u0441\u0430\u043d\u0434\u0440 \u0412\u044f\u0447\u0435\u0441\u043b\u0430\u0432\u043e\u0432\u0438\u0447",
    "rating": 1.0436180007239853
  },
  "49903": {
    "name": "\u0427\u0438\u0441\u0442\u044f\u043a\u043e\u0432 \u0415\u0432\u0433\u0435\u043d\u0438\u0439 \u0412\u043b\u0430\u0434\u0438\u043c\u0438\u0440\u043e\u0432\u0438\u0447",
    "rating": 1.0430254088665334
  },
  "49904": {
    "name": "\u0428\u0435\u043b\u0435\u0433 \u041c\u0430\u0440\u0438\u043d\u0430 \u041d\u0438\u043a\u043e\u043b\u0430\u0435\u0432\u043d\u0430",
    "rating": 0.025850445602564026
  },
  "49905": {
    "name": "\u0429\u0435\u0440\u0431\u0430\u043a\u043e\u0432 \u041c\u0430\u043a\u0441\u0438\u043c \u0412\u044f\u0447\u0435\u0441\u043b\u0430\u0432\u043e\u0432\u0438\u0447",
    "rating": 1.45800094375058
  },
  "49906": {
    "name": "\u042e\u0437\u0435\u0444\u043e\u0432\u0438\u0447 \u0410\u043b\u0435\u043a\u0441\u0430\u043d\u0434\u0440 \u0421\u0432\u044f\u0442\u043e\u0441\u043b\u0430\u0432\u043e\u0432\u0438\u0447",
    "rating": 0.03846777484509177
  }
}