{
  "50055": {
    "name": "\u0421\u0430\u043c\u043e\u0439\u043b\u043e\u0432 \u0412\u043b\u0430\u0434\u0438\u0441\u043b\u0430\u0432 \u0424\u0435\u0434\u043e\u0440\u043e\u0432\u0438\u0447",
    "rating": 0.06470929153139315
  },
  "50056": {
    "name": "\u0411\u0430\u0445\u043c\u0443\u0442\u0441\u043a\u0430\u044f \u0410\u043b\u0435\u043a\u0441\u0430\u043d\u0434\u0440\u0430 \u0412\u0438\u043a\u0442\u043e\u0440\u043e\u0432\u043d\u0430",
    "rating": 1.320257759550214
  },
  "50057": {
    "name": "\u041e\u0441\u0438\u043d\u0446\u0435\u0432\u0430 \u0415\u043b\u0435\u043d\u0430 \u0413\u0435\u043d\u043d\u0430\u0434\u044c\u0435\u0432\u043d\u0430",
    "rating": 1.3594791881394213
  },
  "50058": {
    "name": "\u0412\u0435\u043b\u0435\u0441\u0435\u0432\u0438\u0447 \u0410\u043d\u0434\u0440\u0435\u0439 \u0410\u043b\u0435\u043a\u0441\u0430\u043d\u0434\u0440\u043e\u0432\u0438\u0447",
    "rating": 0.1983572391920893
  },
  "50059": {
    "name": "\u041b\u044c\u0432\u043e\u0432 \u0410\u043b\u0435\u043a\u0441\u0435\u0439 \u0412\u043b\u0430\u0434\u0438\u043c\u0438\u0440\u043e\u0432\u0438\u0447",
    "rating": 0.6441150084629161
  },
  "50060": {
    "name": "\u041c\u0430\u0442\u0432\u0435\u0435\u0432 \u041e\u043b\u0435\u0433 \u0410\u043d\u0430\u0442\u043e\u043b\u044c\u0435\u0432\u0438\u0447",
    "rating": 2.068656814609614
  },
  "50061": {
    "name": "\u0424\u0435\u0434\u043e\u0441\u0435\u0435\u0432 \u041f\u0430\u0432\u0435\u043b \u041e\u043b\u0435\u0433\u043e\u0432\u0438\u0447",
    "rating": 2.1917990268100738
  },
  "50062": {
    "name": "\u0420\u044b\u0436\u043a\u043e\u0432\u0430 \u0415\u043b\u0435\u043d\u0430 \u0412\u0438\u043a\u0442\u043e\u0440\u043e\u0432\u043d\u0430",
    "rating": 1.4190840550456456
  },
  "50063": {
    "name": "\u041f\u043e\u0441\u044b\u043f\u0430\u0439\u043a\u043e \u0422\u0430\u0442\u044c\u044f\u043d\u0430 \u0412\u0438\u043a\u0442\u043e\u0440\u043e\u0432\u043d\u0430",
    "rating": 2.337240208267037
  },
  "50064": {
    "name": "\u0428\u0438\u0448\u043a\u0438\u043d\u0430 \u041e\u043b\u044c\u0433\u0430 \u0410\u043d\u0430\u0442\u043e\u043b\u044c\u0435\u0432\u043d\u0430",
    "rating": 1.291922177369631
  },
  "50065": {
    "name": "\u041c\u043e\u043a\u0435\u0435\u0432\u0430 \u0415\u043a\u0430\u0442\u0435\u0440\u0438\u043d\u0430 \u0410\u043b\u0435\u043a\u0441\u0430\u043d\u0434\u0440\u043e\u0432\u043d\u0430",
    "rating": 1.6055602652070102
  },
  "50066": {
    "name": "\u0423\u0441\u0430\u043d\u043e\u0432 \u0414\u0435\u043d\u0438\u0441 \u0421\u0435\u0440\u0433\u0435\u0435\u0432\u0438\u0447",
    "rating": 1.6759028736899644
  },
  "50067": {
    "name": "\u041c\u0430\u043b\u0438\u043d\u0441\u043a\u0438\u0439 \u0414\u043c\u0438\u0442\u0440\u0438\u0439 \u0410\u043b\u0435\u043a\u0441\u0430\u043d\u0434\u0440\u043e\u0432\u0438\u0447",
    "rating": 0.27750945288131923
  },
  "50068": {
    "name": "\u0422\u0438\u0445\u043e\u043d\u043e\u0432\u0430 \u0418\u0440\u0438\u043d\u0430 \u0415\u0432\u0433\u0435\u043d\u044c\u0435\u0432\u043d\u0430",
    "rating": 0.1461663772416305
  },
  "50069": {
    "name": "\u041f\u043e\u043b\u0445\u043e\u0432\u0441\u043a\u0430\u044f \u0421\u0432\u0435\u0442\u043b\u0430\u043d\u0430 \u0410\u043b\u0435\u043a\u0441\u0430\u043d\u0434\u0440\u043e\u0432\u043d\u0430",
    "rating": 0.003783005553346117
  },
  "50070": {
    "name": "\u0421\u0430\u043b\u0442\u044b\u043a\u043e\u0432\u0430 \u041e\u043b\u044c\u0433\u0430 \u0412\u0430\u0441\u0438\u043b\u044c\u0435\u0432\u043d\u0430",
    "rating": 1.0
  },
  "50071": {
    "name": "\u0420\u044b\u0431\u0430\u043a \u0421\u0435\u0440\u0433\u0435\u0439 \u0412\u0430\u043b\u0435\u043d\u0442\u0438\u043d\u043e\u0432\u0438\u0447",
    "rating": 0.09900630037182988
  },
  "50072": {
    "name": "\u041f\u0440\u043e\u043a\u043e\u043f\u044c\u0435\u0432\u0430 \u0414\u0430\u0440\u044c\u044f \u0412\u043b\u0430\u0434\u0438\u043c\u0438\u0440\u043e\u0432\u043d\u0430",
    "rating": 0.03549347350463048
  },
  "50073": {
    "name": "\u0414\u0430\u0432\u044b\u0434\u043e\u0432\u0430 \u0421\u0432\u0435\u0442\u043b\u0430\u043d\u0430 \u0412\u0430\u043b\u0435\u043d\u0442\u0438\u043d\u043e\u0432\u043d\u0430",
    "rating": 1.5483513857293456
  },
  "50074": {
    "name": "\u0412\u0438\u043b\u044c\u043a\u0438\u043d\u0430 \u041d\u0430\u0442\u0430\u043b\u044c\u044f \u0418\u0433\u043e\u0440\u0435\u0432\u043d\u0430",
    "rating": 0.01640491399502659
  },
  "50075": {
    "name": "\u0421\u043a\u0430\u0447\u043a\u043e \u041e\u043b\u044c\u0433\u0430 \u0412\u043b\u0430\u0434\u0438\u043c\u0438\u0440\u043e\u0432\u043d\u0430",
    "rating": 0.0
  },
  "50076": {
    "name": "\u0417\u0430\u0438\u043a\u0430 \u0410\u043b\u043b\u0430 \u0410\u043d\u0430\u0442\u043e\u043b\u044c\u0435\u0432\u043d\u0430",
    "rating": 1.5607085972817405
  },
  "50077": {
    "name": "\u0418\u0431\u0440\u0430\u0435\u0432\u0430 \u0422\u0430\u0442\u044c\u044f\u043d\u0430 \u0412\u043b\u0430\u0434\u0438\u043c\u0438\u0440\u043e\u0432\u043d\u0430",
    "rating": 0.015214598008873696
  },
  "50078": {
    "name": "\u0412\u0430\u043d\u044f\u0433\u0438\u043d \u0410\u043b\u0435\u043a\u0441\u0435\u0439 \u0421\u0435\u043c\u0435\u043d\u043e\u0432\u0438\u0447",
    "rating": 0.04645338717542102
  },
  "50079": {
    "name": "\u0412\u0438\u043d\u043e\u0433\u0440\u0430\u0434\u043e\u0432\u0430 \u041b\u0430\u0440\u0438\u0441\u0430 \u0410\u043d\u0430\u0442\u043e\u043b\u044c\u0435\u0432\u043d\u0430",
    "rating": 3.1749929958648044
  },
  "50080": {
    "name": "\u0411\u043e\u043d\u0434\u0430\u0440\u0435\u0432\u0430 \u0415\u043b\u0435\u043d\u0430 \u0410\u043b\u0435\u043a\u0441\u0435\u0435\u0432\u043d\u0430",
    "rating": 0.3962118454207796
  },
  "50081": {
    "name": "\u0428\u0443\u0440\u0438\u043d\u0430 \u0422\u0430\u0442\u044c\u044f\u043d\u0430 \u0410\u043b\u0435\u043a\u0441\u0430\u043d\u0434\u0440\u043e\u0432\u043d\u0430",
    "rating": 0.016484861045893258
  },
  "50082": {
    "name": "\u0422\u0435\u043c\u043d\u0438\u043a\u043e\u0432\u0430 \u042e\u043b\u0438\u044f \u041d\u0438\u043a\u043e\u043b\u0430\u0435\u0432\u043d\u0430",
    "rating": 0.004209756678021153
  },
  "50083": {
    "name": "\u041f\u0440\u0438\u0441\u0442\u0443\u043f\u0438\u043d\u0430 \u0418\u0440\u0438\u043d\u0430 \u0412\u0430\u043b\u0435\u0440\u044c\u0435\u0432\u043d\u0430",
    "rating": 1.0
  },
  "50084": {
    "name": "\u041f\u044f\u0442\u0430\u043a\u043e\u0432 \u0410\u043b\u0435\u043a\u0441\u0435\u0439 \u0412\u0430\u043b\u0435\u043d\u0442\u0438\u043d\u043e\u0432\u0438\u0447",
    "rating": 0.2171760468967316
  },
  "50085": {
    "name": "\u0417\u0430\u044f\u0435\u0432\u0430 \u041c\u0430\u0440\u0438\u044f \u0411\u0430\u0434\u0430\u043b\u0435\u0432\u043d\u0430",
    "rating": 1.2875248184086965
  },
  "50086": {
    "name": "\u041a\u0430\u0441\u0430\u0442\u043a\u0438\u043d\u0430 \u041c\u0430\u0440\u0438\u043d\u0430 \u0421\u0442\u0430\u043d\u0438\u0441\u043b\u0430\u0432\u043e\u0432\u043d\u0430",
    "rating": 1.190956764698318
  },
  "50087": {
    "name": "\u041a\u0440\u0443\u0442\u0441\u043a\u0438\u0445 \u041c\u0430\u0440\u0438\u043d\u0430 \u0413\u0440\u0438\u0433\u043e\u0440\u044c\u0435\u0432\u043d\u0430",
    "rating": 0.011751335034209857
  },
  "50088": {
    "name": "\u041a\u043b\u0435\u0439\u043c\u0435\u043d\u043e\u0432 \u0410\u043b\u0435\u043a\u0441\u0430\u043d\u0434\u0440 \u0421\u0435\u0440\u0433\u0435\u0435\u0432\u0438\u0447",
    "rating": 1.049776553407698
  },
  "50089": {
    "name": "\u041a\u0443\u0437\u043d\u0435\u0446\u043e\u0432\u0430 \u041d\u0430\u0442\u0430\u043b\u044c\u044f \u0412\u043b\u0430\u0434\u0438\u0441\u043b\u0430\u0432\u043e\u0432\u043d\u0430",
    "rating": 0.008980173177668832
  },
  "50090": {
    "name": "\u0421\u043f\u0438\u0440\u0438\u043d \u0414\u043c\u0438\u0442\u0440\u0438\u0439 \u0412\u043b\u0430\u0434\u0438\u043c\u0438\u0440\u043e\u0432\u0438\u0447",
    "rating": 0.0585851641497394
  },
  "50091": {
    "name": "\u0412\u0430\u0441\u0438\u043b\u044c\u0435\u0432 \u0412\u0430\u0441\u0438\u043b\u0438\u0439 \u0412\u0430\u0441\u0438\u043b\u044c\u0435\u0432\u0438\u0447",
    "rating": 3.0444843137287307
  },
  "50092": {
    "name": "\u0417\u0430\u0439\u0446\u0435\u0432 \u0410\u043d\u0430\u0442\u043e\u043b\u0438\u0439 \u0412\u0430\u043b\u0435\u0440\u044c\u0435\u0432\u0438\u0447",
    "rating": 0.014773450063182503
  },
  "50093": {
    "name": "\u0427\u0435\u0440\u043d\u044f\u0442\u0438\u043d \u0421\u0435\u0440\u0433\u0435\u0439 \u0412\u043b\u0430\u0434\u0438\u043c\u0438\u0440\u043e\u0432\u0438\u0447",
    "rating": 0.0
  },
  "50094": {
    "name": "\u041d\u0438\u043a\u0438\u0442\u0438\u043d \u0413\u0435\u043e\u0440\u0433\u0438\u0439 \u0412\u044f\u0447\u0435\u0441\u043b\u0430\u0432\u043e\u0432\u0438\u0447",
    "rating": 1.0
  },
  "50095": {
    "name": "\u0421\u0443\u043b\u0438\u043d\u0430 \u041e\u043b\u0435\u0441\u044f \u0412\u044f\u0447\u0435\u0441\u043b\u0430\u0432\u043e\u0432\u043d\u0430",
    "rating": 2.0
  },
  "50096": {
    "name": "\u0415\u0432\u0441\u0442\u0438\u0433\u043d\u0435\u0435\u0432 \u0410\u043b\u0435\u043a\u0441\u0435\u0439 \u041f\u0435\u0442\u0440\u043e\u0432\u0438\u0447",
    "rating": 0.1753368596354178
  },
  "50097": {
    "name": "\u041d\u0438\u043a\u0438\u0442\u0438\u043d \u0412\u043b\u0430\u0434\u0438\u043c\u0438\u0440 \u041f\u0435\u0442\u0440\u043e\u0432\u0438\u0447",
    "rating": 1.007527123740009
  },
  "50098": {
    "name": "\u041f\u043e\u043f\u043e\u0432\u0430 \u041a\u0440\u0438\u0441\u0442\u0438\u043d\u0430 \u0410\u043d\u0434\u0440\u0435\u0435\u0432\u043d\u0430",
    "rating": 0.0
  },
  "50099": {
    "name": "\u0410\u043b\u0435\u043a\u0441\u0435\u0435\u0432 \u0410\u043b\u0435\u043a\u0441\u0430\u043d\u0434\u0440 \u0410\u043b\u0435\u043a\u0441\u0430\u043d\u0434\u0440\u043e\u0432\u0438\u0447",
    "rating": 7.0
  },
  "50100": {
    "name": "\u041a\u043e\u043d\u043d\u043e\u0432 \u0410\u043d\u0430\u0442\u043e\u043b\u0438\u0439 \u0410\u043b\u0435\u043a\u0441\u0435\u0435\u0432\u0438\u0447",
    "rating": 1.0237287455765036
  },
  "50101": {
    "name": "\u041c\u0430\u0440\u0442\u044e\u0448\u043e\u0432 \u041d\u0438\u043a\u0438\u0442\u0430 \u0412\u0430\u0441\u0438\u043b\u044c\u0435\u0432\u0438\u0447",
    "rating": 0.02244688751283937
  },
  "50102": {
    "name": "\u041a\u043e\u043b\u0431\u0443\u043d\u043e\u0432\u0430 \u0415\u043b\u0435\u043d\u0430 \u041c\u0438\u0445\u0430\u0439\u043b\u043e\u0432\u043d\u0430",
    "rating": 1.153722319902294
  },
  "50103": {
    "name": "\u041a\u0438\u0441\u0435\u043b\u0435\u0432 \u0421\u0435\u0440\u0433\u0435\u0439 \u0410\u043b\u0435\u043a\u0441\u0430\u043d\u0434\u0440\u043e\u0432\u0438\u0447",
    "rating": 4.137514735714859
  },
  "50104": {
    "name": "\u0422\u0438\u0445\u043e\u043c\u0438\u0440\u043e\u0432 \u041a\u0438\u0440\u0438\u043b\u043b \u0421\u0435\u0440\u0433\u0435\u0435\u0432\u0438\u0447",
    "rating": 0.01983978690739004
  },
  "50105": {
    "name": "\u041f\u0438\u0449\u0443\u043a\u0435\u0432\u0438\u0447 \u0412\u0430\u0441\u0438\u043b\u0438\u0439 \u0418\u0432\u0430\u043d\u043e\u0432\u0438\u0447",
    "rating": 0.5180561188106997
  },
  "50106": {
    "name": "\u041f\u043e\u043f\u043e\u0432\u0430 \u0422\u0430\u0442\u044c\u044f\u043d\u0430 \u0421\u0435\u0440\u0433\u0435\u0435\u0432\u043d\u0430",
    "rating": 2.3204875504364946
  }
}