{
  "18191": {
    "name": "\u0412\u0435\u0442\u0440\u043e\u0432\u0430 \u041b\u044e\u0434\u043c\u0438\u043b\u0430 \u041b\u0435\u043e\u043d\u0438\u0434\u043e\u0432\u043d\u0430",
    "rating": 0.5978390880776308
  },
  "18192": {
    "name": "\u0421\u043e\u0432\u0435\u0442\u043d\u0438\u043a\u043e\u0432 \u0421\u0435\u0440\u0433\u0435\u0439 \u0412\u0438\u043a\u0442\u043e\u0440\u043e\u0432\u0438\u0447",
    "rating": 0.6402279003261312
  },
  "18193": {
    "name": "\u041b\u0443\u043a\u044c\u044f\u043d\u043e\u0432\u0430 \u041b\u044e\u0434\u043c\u0438\u043b\u0430 \u041d\u0438\u043a\u043e\u043b\u0430\u0435\u0432\u043d\u0430",
    "rating": 0.6107528213680414
  }
}