{
  "18247": {
    "name": "\u041a\u043e\u0441\u0442\u0435\u043d\u043a\u043e \u0421\u0435\u0440\u0433\u0435\u0439 \u042e\u0440\u044c\u0435\u0432\u0438\u0447",
    "rating": 1.2924769331236452
  },
  "18248": {
    "name": "\u041c\u0430\u0448\u043a\u043e\u0432 \u0410\u043b\u0435\u043a\u0441\u0430\u043d\u0434\u0440 \u041d\u0438\u043a\u043e\u043b\u0430\u0435\u0432\u0438\u0447",
    "rating": 1.5788203785940842
  },
  "18249": {
    "name": "\u041a\u043b\u0438\u043c\u043e\u0432 \u041d\u0438\u043a\u043e\u043b\u0430\u0439 \u041c\u0438\u0445\u0430\u0439\u043b\u043e\u0432\u0438\u0447",
    "rating": 1.9318266047102115
  }
}