{
  "29997": {
    "name": "\u0410\u0432\u0434\u0435\u0435\u0432 \u0418\u0433\u043e\u0440\u044c \u0410\u043b\u0435\u043a\u0441\u0430\u043d\u0434\u0440\u043e\u0432\u0438\u0447",
    "rating": 1.0622856500362454
  },
  "30031": {
    "name": "\u0417\u044b\u0440\u0442\u043e\u0432 \u0421\u0435\u0440\u0433\u0435\u0439 \u0413\u0435\u043e\u0440\u0433\u0438\u0435\u0432\u0438\u0447",
    "rating": 1.0564368039345051
  },
  "30257": {
    "name": "\u0415\u043b\u0438\u0441\u0435\u0435\u0432 \u0412\u0438\u0442\u0430\u043b\u0438\u0439 \u0410\u043b\u0435\u043a\u0441\u0430\u043d\u0434\u0440\u043e\u0432\u0438\u0447",
    "rating": 0.01446048526198996
  },
  "31019": {
    "name": "\u0421\u0442\u0440\u0443\u043a\u043e\u0432 \u0412\u043b\u0430\u0434\u0438\u043c\u0438\u0440 \u0412\u0430\u0441\u0438\u043b\u044c\u0435\u0432\u0438\u0447",
    "rating": 4.0
  }
}