{
  "21621": {
    "name": "\u041b\u0430\u0430\u0441 \u0410\u043b\u0435\u043a\u0441\u0430\u043d\u0434\u0440 \u0410\u043b\u0435\u043a\u0441\u0430\u043d\u0434\u0440\u043e\u0432\u0438\u0447",
    "rating": 0.3437462821280501
  },
  "30033": {
    "name": "\u0413\u0430\u0432\u0440\u0438\u043b\u0438\u043d \u041f\u0430\u0432\u0435\u043b \u0412\u043b\u0430\u0434\u0438\u043c\u0438\u0440\u043e\u0432\u0438\u0447",
    "rating": 0.9372518673454076
  },
  "30075": {
    "name": "\u0422\u0430\u0431\u0430\u043a\u0430\u0435\u0432 \u0410\u043b\u0435\u043a\u0441\u0430\u043d\u0434\u0440 \u0412\u0438\u043a\u0442\u043e\u0440\u043e\u0432\u0438\u0447",
    "rating": 0.7270765193972559
  },
  "30375": {
    "name": "\u041a\u043e\u0432\u0448\u043e\u0432\u0430 \u0421\u0432\u0435\u0442\u043b\u0430\u043d\u0430 \u0414\u043c\u0438\u0442\u0440\u0438\u0435\u0432\u043d\u0430",
    "rating": 0.5621336240838654
  },
  "30376": {
    "name": "\u0422\u0438\u043c\u043e\u0444\u0435\u0435\u0432 \u0410\u043b\u0435\u043a\u0441\u0430\u043d\u0434\u0440 \u0410\u043b\u0435\u043a\u0441\u0435\u0435\u0432\u0438\u0447",
    "rating": 0.6744671240123612
  },
  "31025": {
    "name": "\u0423\u0434\u043e\u0432\u0435\u043d\u043a\u043e \u0410\u043b\u0435\u043a\u0441\u0430\u043d\u0434\u0440 \u0418\u0432\u0430\u043d\u043e\u0432\u0438\u0447",
    "rating": 0.5643681285336544
  }
}