{
  "29793": {
    "name": "\u0427\u0435\u0440\u043d\u043e\u0433\u043e\u0440 \u0410\u043b\u0435\u043a\u0441\u0430\u043d\u0434\u0440 \u0421\u0435\u0440\u0433\u0435\u0435\u0432\u0438\u0447",
    "rating": 1.5084542902778093
  },
  "29803": {
    "name": "\u041c\u0443\u0445\u0430\u043c\u0435\u0442\u0448\u0438\u043d \u0424\u0430\u0438\u043c \u0411\u0430\u044f\u0437\u0438\u0442\u043e\u0432\u0438\u0447",
    "rating": 3.1425940742726985
  },
  "30510": {
    "name": "\u0410\u043d\u0434\u0440\u0435\u0435\u0432 \u0412\u044f\u0447\u0435\u0441\u043b\u0430\u0432 \u041d\u0438\u043a\u043e\u043b\u0430\u0435\u0432\u0438\u0447",
    "rating": 2.0629698422024854
  },
  "30690": {
    "name": "\u0417\u0430\u043a\u043e\u043c\u0430\u043b\u0434\u0438\u043d \u041c\u0438\u0445\u0430\u0438\u043b \u0418\u0432\u0430\u043d\u043e\u0432\u0438\u0447",
    "rating": 1.5397659215691055
  },
  "30950": {
    "name": "\u041c\u0438\u0445\u0430\u0439\u043b\u043e\u0432 \u0412\u0438\u043a\u0442\u043e\u0440 \u041d\u0438\u043a\u043e\u043b\u0430\u0435\u0432\u0438\u0447",
    "rating": 6.455596359005573
  },
  "30981": {
    "name": "\u041f\u043e\u043b\u0442\u0430\u0432\u0435\u0446 \u0415\u0432\u0433\u0435\u043d\u0438\u0439 \u0410\u043b\u0435\u043a\u0441\u0435\u0435\u0432\u0438\u0447",
    "rating": 0.07663170972259974
  },
  "33655": {
    "name": "\u0414\u0443\u0431\u043e\u0432\u0438\u0446\u043a\u0438\u0439 \u0410\u043d\u0434\u0440\u0435\u0439 \u0410\u043d\u0430\u0442\u043e\u043b\u044c\u0435\u0432\u0438\u0447",
    "rating": 3.0
  },
  "33857": {
    "name": "\u041d\u0438\u0433\u043c\u0430\u0442\u0443\u043b\u043b\u0438\u043d \u0420\u0438\u0448\u0430\u0442 \u0412\u0430\u0445\u0438\u0434\u043e\u0432\u0438\u0447",
    "rating": 0.5492372078872707
  },
  "40736": {
    "name": "\u041a\u0443\u0434\u0440\u044f\u0432\u0446\u0435\u0432 \u0410\u043b\u0435\u043a\u0441\u0430\u043d\u0434\u0440 \u0412\u043b\u0430\u0434\u0438\u043c\u0438\u0440\u043e\u0432\u0438\u0447",
    "rating": 2.870376025252706
  },
  "40821": {
    "name": "\u041c\u0438\u043d\u044f\u0448\u0430\u0440\u043e\u0432  \u0410\u043b\u0438\u043a  \u041c\u0430\u043b\u0438\u043a\u043e\u0432\u0438\u0447",
    "rating": 0.08213012980815829
  }
}