{
  "30255": {
    "name": "\u0417\u0435\u043b\u0435\u043d\u0441\u043a\u0438\u0439 \u041c\u0438\u0445\u0430\u0438\u043b \u042e\u0440\u044c\u0435\u0432\u0438\u0447",
    "rating": 3.1376752487648534
  },
  "30811": {
    "name": "\u041c\u0430\u0433\u043e\u043c\u0435\u0434\u043e\u0432 \u0410\u0431\u0434\u0443\u0440\u0430\u0448\u0438\u0434 \u041c\u0430\u0433\u043e\u043c\u0435\u0434\u043e\u0432\u0438\u0447",
    "rating": 1.610442144981033
  },
  "30999": {
    "name": "\u0421\u0430\u043b\u044e\u0442\u0438\u043d \u0412\u0430\u0441\u0438\u043b\u0438\u0439 \u0412\u0438\u043a\u0442\u043e\u0440\u043e\u0432\u0438\u0447",
    "rating": 3.0
  },
  "32618": {
    "name": "\u0413\u0430\u0437\u0438\u043c\u0430\u0433\u043e\u043c\u0435\u0434\u043e\u0432 \u041c\u0430\u0433\u043e\u043c\u0435\u0434 \u0413\u0430\u0437\u0438\u043c\u0430\u0433\u043e\u043c\u0435\u0434\u043e\u0432\u0438\u0447",
    "rating": 2.3924043861900666
  },
  "33596": {
    "name": "\u0411\u0430\u0442\u0430\u043b\u0438\u0435\u0432 \u0410\u0445\u043c\u0435\u0434 \u041c\u0430\u0433\u043e\u043c\u0435\u0434\u043e\u0432\u0438\u0447",
    "rating": 0.7148821913434683
  },
  "40476": {
    "name": "\u041a\u0430\u0440\u043f\u043e\u0432 \u0421\u0435\u0440\u0433\u0435\u0439 \u0410\u043b\u0435\u043a\u0441\u0430\u043d\u0434\u0440\u043e\u0432\u0438\u0447",
    "rating": 2.054017613649581
  }
}