{
  "30010": {
    "name": "\u0428\u0430\u043c\u0440\u0430\u0442\u043e\u0432 \u0418\u043b\u044c\u044f \u041c\u0438\u0445\u0430\u0439\u043b\u043e\u0432\u0438\u0447",
    "rating": 1.9688749240552332
  },
  "30084": {
    "name": "\u0411\u0430\u0440\u0442\u043a\u043e\u0432\u0441\u043a\u0438\u0439 \u0421\u0435\u0440\u0433\u0435\u0439 \u0412\u043b\u0430\u0434\u0438\u043c\u0438\u0440\u043e\u0432\u0438\u0447",
    "rating": 0.9102174099097762
  },
  "30085": {
    "name": "\u0411\u0443\u0431\u043b\u0438\u043a \u0414\u043c\u0438\u0442\u0440\u0438\u0439 \u041d\u0438\u043a\u043e\u043b\u0430\u0435\u0432\u0438\u0447",
    "rating": 0.6159353059866445
  },
  "30530": {
    "name": "\u0410\u0444\u0430\u043d\u0430\u0441\u044c\u0435\u0432 \u041d\u0438\u043a\u043e\u043b\u0430\u0439 \u041d\u0438\u043a\u043e\u043b\u0430\u0435\u0432\u0438\u0447",
    "rating": 1.4654911686574164
  }
}