{
  "30012": {
    "name": "\u041d\u0438\u043d\u0435\u043d\u043a\u043e \u041c\u0438\u0445\u0430\u0438\u043b \u0413\u0435\u043e\u0440\u0433\u0438\u0435\u0432\u0438\u0447",
    "rating": 1.000000000000928
  },
  "30013": {
    "name": "\u041b\u0430\u043f\u0447\u0443\u043a \u0420\u043e\u043c\u0430\u043d \u041e\u043b\u0435\u0433\u043e\u0432\u0438\u0447",
    "rating": 6.187779763078193e-13
  },
  "30224": {
    "name": "\u041a\u043e\u043b\u043f\u0430\u043a\u043e\u0432 \u0412\u043b\u0430\u0434\u0438\u0441\u043b\u0430\u0432 \u0412\u0438\u043a\u0442\u043e\u0440\u043e\u0432\u0438\u0447",
    "rating": 0.500000000000879
  },
  "30721": {
    "name": "\u041a\u0430\u043d\u0434\u0430\u043d \u0410\u044f\u0441 \u0410\u0440\u0437\u044b\u043b\u0430\u043d\u043e\u0432\u0438\u0447",
    "rating": 1.0000000000004747
  },
  "33867": {
    "name": "\u041f\u0435\u0442\u0440\u043e\u0432 \u041c\u0430\u0440\u043a \u0412\u0435\u043d\u0438\u0430\u043c\u0438\u043d\u043e\u0432\u0438\u0447",
    "rating": 4.748302416008981e-13
  },
  "40742": {
    "name": "\u041b\u0443\u043a\u0438\u043d \u0418\u043b\u044c\u044f \u0412\u0430\u043b\u0435\u0440\u0438\u0435\u0432\u0438\u0447",
    "rating": 2.8162940116861434e-13
  }
}