{
  "1735": {
    "name": "\u0428\u0435\u0439\u043a\u043e \u0412\u0435\u0440\u0430 \u0413\u0435\u043d\u043d\u0430\u0434\u044c\u0435\u0432\u043d\u0430",
    "rating": 0.0
  },
  "5377": {
    "name": "\u0410\u0440\u0442\u0435\u043c\u044c\u0435\u0432 \u0418\u0433\u043e\u0440\u044c \u042e\u0440\u044c\u0435\u0432\u0438\u0447",
    "rating": 2.3597237939851534
  },
  "5403": {
    "name": "\u0424\u0435\u0441\u044e\u043a \u0414\u0430\u043d\u0438\u0438\u043b \u0412\u0430\u043b\u0435\u0440\u044c\u0435\u0432\u0438\u0447",
    "rating": 0.7701004118975467
  },
  "11848": {
    "name": "\u0426\u0430\u0440\u0438\u043a\u043e\u0432\u0441\u043a\u0438\u0439 \u0410\u043d\u0434\u0440\u0435\u0439 \u042e\u0440\u044c\u0435\u0432\u0438\u0447",
    "rating": 0.8446181304160904
  },
  "11849": {
    "name": "\u0413\u043e\u043b\u043e\u043c\u043e\u043b\u0437\u0438\u043d \u0410\u043d\u0430\u0442\u043e\u043b\u0438\u0439 \u041d\u0438\u043a\u043e\u043b\u0430\u0435\u0432\u0438\u0447",
    "rating": 0.2703098601073992
  },
  "11850": {
    "name": "\u0414\u043e\u0446\u0435\u043d\u043a\u043e \u0410\u043b\u0435\u043a\u0441\u0435\u0439 \u0412\u0438\u043a\u0442\u043e\u0440\u043e\u0432\u0438\u0447",
    "rating": 0.5710434202788849
  },
  "11851": {
    "name": "\u041a\u0430\u0448\u0435\u0432\u0430\u0440\u043e\u0432 \u0410\u043d\u0434\u0440\u0435\u0439 \u0411\u043e\u0440\u0438\u0441\u043e\u0432\u0438\u0447",
    "rating": 0.7754939833922305
  },
  "11852": {
    "name": "\u041a\u0438\u043d\u0451\u0432 \u0410\u043b\u0435\u043a\u0441\u0430\u043d\u0434\u0440 \u042e\u0440\u044c\u0435\u0432\u0438\u0447",
    "rating": 1.0664553852707943
  },
  "11853": {
    "name": "\u0426\u044b\u0433\u0430\u043d\u043e\u0432 \u0410\u043d\u0434\u0440\u0435\u0439 \u0413\u0435\u043d\u043d\u0430\u0434\u044c\u0435\u0432\u0438\u0447",
    "rating": 0.4603981177616011
  },
  "22087": {
    "name": "\u041a\u043e\u0440\u043e\u043b\u0435\u0432 \u0412\u0438\u0442\u0430\u043b\u0438\u0439 \u0413\u0435\u043d\u043d\u0430\u0434\u044c\u0435\u0432\u0438\u0447",
    "rating": 0.29968940467634736
  },
  "22088": {
    "name": "\u041e\u0432\u0447\u0438\u043d\u043d\u0438\u043a\u043e\u0432 \u041c\u0430\u043a\u0441\u0438\u043c \u0410\u043b\u0435\u043a\u0441\u0430\u043d\u0434\u0440\u043e\u0432\u0438\u0447",
    "rating": 0.3157584444653139
  },
  "22089": {
    "name": "\u041f\u0443\u0437\u044b\u0440\u0435\u0432\u0441\u043a\u0438\u0439 \u0421\u0435\u0440\u0433\u0435\u0439 \u0410\u043d\u0430\u0442\u043e\u043b\u044c\u0435\u0432\u0438\u0447",
    "rating": 0.3014585170636581
  },
  "22090": {
    "name": "\u0420\u0435\u0434\u044c\u043a\u043e \u0410\u043b\u0435\u043a\u0441\u0430\u043d\u0434\u0440 \u0412\u0438\u043a\u0442\u043e\u0440\u043e\u0432\u0438\u0447",
    "rating": 0.07179822634197125
  },
  "36669": {
    "name": "\u0411\u0430\u0440\u0430\u043d\u043e\u0432 \u0418\u0433\u043e\u0440\u044c \u0412\u0430\u0441\u0438\u043b\u044c\u0435\u0432\u0438\u0447",
    "rating": 0.8039722016452944
  },
  "39357": {
    "name": "\u041f\u0435\u0442\u0440\u043e\u0441\u044f\u043d \u0420\u0430\u0447\u0438\u043a \u0410\u0448\u043e\u0442\u043e\u0432\u0438\u0447",
    "rating": 0.856684021252235
  },
  "39358": {
    "name": "\u0411\u043e\u0434\u043d\u0430\u0440 \u0415\u0432\u0433\u0435\u043d\u0438\u0439 \u0410\u043b\u0435\u043a\u0441\u0430\u043d\u0434\u0440\u043e\u0432\u0438\u0447",
    "rating": 0.305608730297253
  },
  "39359": {
    "name": "\u041a\u0430\u0447\u0430\u043b\u0438\u043d \u0412\u043b\u0430\u0434\u0438\u043c\u0438\u0440 \u0412\u0438\u043a\u0442\u043e\u0440\u043e\u0432\u0438\u0447",
    "rating": 0.4345479018884784
  },
  "39360": {
    "name": "\u041c\u0430\u043a\u0441\u0438\u043c\u043e\u0432 \u0421\u0435\u0440\u0433\u0435\u0439 \u0412\u0430\u0441\u0438\u043b\u044c\u0435\u0432\u0438\u0447",
    "rating": 1.2548017893858714
  },
  "39361": {
    "name": "\u0421\u0443\u0431\u0431\u043e\u0442\u0438\u043d \u041f\u0430\u0432\u0435\u043b \u0422\u0438\u043c\u043e\u0444\u0435\u0435\u0432\u0438\u0447",
    "rating": 0.9894215966133566
  },
  "39362": {
    "name": "\u0422\u0438\u043c\u043e\u0448\u0435\u043d\u043a\u043e \u0410\u043b\u0435\u0444\u0442\u0438\u043d\u0430 \u0421\u0435\u0440\u0433\u0435\u0435\u0432\u043d\u0430",
    "rating": 0.506392591293039
  },
  "39363": {
    "name": "\u0417\u0430\u0431\u043e\u0440\u0449\u0438\u043a\u043e\u0432 \u041f\u0430\u0432\u0435\u043b \u0412\u0438\u043a\u0442\u043e\u0440\u043e\u0432\u0438\u0447",
    "rating": 0.5338573981232814
  },
  "39364": {
    "name": "\u0410\u043b\u0435\u0448\u0438\u043d \u041a\u043e\u043d\u0441\u0442\u0430\u043d\u0442\u0438\u043d \u041d\u0438\u043a\u043e\u043b\u0430\u0435\u0432\u0438\u0447",
    "rating": 0.04336832018118561
  },
  "39365": {
    "name": "\u041c\u0438\u0448\u0435\u043b\u043e\u0432\u0438\u043d \u0412\u043b\u0430\u0434\u0438\u043c\u0438\u0440 \u0411\u043e\u0440\u0438\u0441\u043e\u0432\u0438\u0447",
    "rating": 3.0
  },
  "39366": {
    "name": "\u041c\u043e\u043b\u0447\u0430\u043d\u043e\u0432 \u0410\u0440\u0442\u0435\u043c \u0412\u043b\u0430\u0434\u0438\u043c\u0438\u0440\u043e\u0432\u0438\u0447",
    "rating": 0.05538846385829613
  },
  "39367": {
    "name": "\u0411\u0435\u043b\u043e\u0443\u0441\u043e\u0432\u0430 \u0415\u043a\u0430\u0442\u0435\u0440\u0438\u043d\u0430 \u0412\u0438\u043a\u0442\u043e\u0440\u043e\u0432\u043d\u0430",
    "rating": 0.016872503585988574
  },
  "39368": {
    "name": "\u0411\u0435\u043b\u043e\u0432 \u0421\u0435\u0440\u0433\u0435\u0439 \u041d\u0438\u043a\u043e\u043b\u0430\u0435\u0432\u0438\u0447",
    "rating": 1.4862214896920642
  },
  "39369": {
    "name": "\u0412\u0430\u0441\u0438\u043b\u044c\u0435\u0432 \u0412\u0430\u043b\u0435\u0440\u0438\u0439 \u0411\u043e\u0440\u0438\u0441\u043e\u0432\u0438\u0447",
    "rating": 2.1887190692617877
  },
  "39370": {
    "name": "\u0411\u0440\u044b\u043a\u0438\u043d \u0414\u043c\u0438\u0442\u0440\u0438\u0439 \u041c\u0438\u0445\u0430\u0439\u043b\u043e\u0432\u0438\u0447",
    "rating": 0.1552191425669251
  },
  "39371": {
    "name": "\u041f\u0443\u0434\u043e\u0432 \u0410\u043b\u0435\u043a\u0441\u0430\u043d\u0434\u0440 \u0410\u043d\u0434\u0440\u0435\u0435\u0432\u0438\u0447",
    "rating": 0.059077844570633926
  },
  "39372": {
    "name": "\u042e\u043d\u0430\u043a \u0410\u043d\u0434\u0440\u0435\u0439 \u0412\u0430\u0441\u0438\u043b\u044c\u0435\u0432\u0438\u0447",
    "rating": 0.03018360507428798
  },
  "39373": {
    "name": "\u0413\u0430\u043b\u0438\u043c\u0445\u0430\u043d\u043e\u0432\u0430 \u041d\u0435\u043b\u043b\u0438 \u0424\u0438\u0434\u0440\u0430\u0442\u043e\u0432\u043d\u0430",
    "rating": 0.05115853451679765
  },
  "39374": {
    "name": "\u0414\u0435\u043c\u0438\u0434\u043e\u0432\u0430 \u0422\u0430\u0442\u044c\u044f\u043d\u0430 \u041f\u0430\u0432\u043b\u043e\u0432\u043d\u0430",
    "rating": 0.3326665989023888
  },
  "39375": {
    "name": "\u041a\u0430\u0440\u0442\u0430\u0448\u043e\u0432 \u041d\u0438\u043a\u043e\u043b\u0430\u0439 \u041d\u0438\u043a\u043e\u043b\u0430\u0435\u0432\u0438\u0447",
    "rating": 0.2672243449181829
  },
  "39376": {
    "name": "\u041d\u0438\u0436\u0435\u0433\u043e\u0440\u043e\u0434\u0446\u0435\u0432 \u0422\u0438\u043c\u043e\u0444\u0435\u0439 \u0412\u0438\u0442\u0430\u043b\u044c\u0435\u0432\u0438\u0447",
    "rating": 1.059273230833151
  },
  "39377": {
    "name": "\u041a\u043e\u0440\u043d\u0435\u0435\u0432 \u041e\u043b\u0435\u0433 \u0421\u0442\u0430\u043d\u0438\u0441\u043b\u0430\u0432\u043e\u0432\u0438\u0447",
    "rating": 1.3409823543689936
  },
  "39378": {
    "name": "\u0413\u0440\u0435\u0448\u043d\u0435\u0432 \u0410\u043d\u0434\u0440\u0435\u0439 \u0410\u043b\u0435\u043a\u0441\u0435\u0435\u0432\u0438\u0447",
    "rating": 2.4645795602086342
  },
  "39379": {
    "name": "\u0413\u0440\u0438\u0448\u0438\u043d \u0418\u043b\u044c\u044f \u0412\u043b\u0430\u0434\u0438\u043c\u0438\u0440\u043e\u0432\u0438\u0447",
    "rating": 0.025349007668728992
  },
  "39380": {
    "name": "\u0421\u0435\u0440\u0433\u0435\u0435\u0432\u0430 \u041e\u043b\u044c\u0433\u0430 \u0421\u0435\u0440\u0433\u0435\u0435\u0432\u043d\u0430",
    "rating": 0.0
  },
  "39381": {
    "name": "\u041c\u0438\u0440\u043e\u0447\u0438\u043d\u0435\u043d\u043a\u043e \u0410\u043d\u043d\u0430 \u0412\u0430\u043b\u0435\u0440\u044c\u0435\u0432\u043d\u0430",
    "rating": 0.2032164793611682
  },
  "39382": {
    "name": "\u0414\u0430\u0432\u044b\u0434\u043e\u0432\u0430 \u041b\u0435\u0441\u044f \u0415\u0432\u0433\u0435\u043d\u044c\u0435\u0432\u043d\u0430",
    "rating": 0.051575877448105684
  },
  "39383": {
    "name": "\u0421\u0443\u0432\u043e\u0440\u043e\u0432 \u041f\u0430\u0432\u0435\u043b \u0410\u043d\u0430\u0442\u043e\u043b\u044c\u0435\u0432\u0438\u0447",
    "rating": 0.011350320388262931
  },
  "39384": {
    "name": "\u041a\u0430\u0448\u0443\u043d\u0438\u043d\u0430 \u0418\u0440\u0438\u043d\u0430 \u0412\u0430\u043b\u0435\u0440\u044c\u0435\u0432\u043d\u0430",
    "rating": 0.1168883331869039
  },
  "39385": {
    "name": "\u0422\u0435\u043d\u0438\u0448\u0435\u0432 \u0410\u043d\u0434\u0440\u0435\u0439 \u041f\u0435\u0442\u0440\u043e\u0432\u0438\u0447",
    "rating": 0.114113558414564
  },
  "39386": {
    "name": "\u042e\u0434\u0438\u043d\u0430 \u042e\u043b\u0438\u044f \u0412\u0438\u043a\u0442\u043e\u0440\u043e\u0432\u043d\u0430",
    "rating": 0.470634480581429
  },
  "39387": {
    "name": "\u041c\u0430\u0442\u044e\u0445\u0438\u043d \u0410\u043b\u0435\u043a\u0441\u0435\u0439 \u0413\u0435\u043d\u043d\u0430\u0434\u044c\u0435\u0432\u0438\u0447",
    "rating": 0.05302342427777925
  },
  "39388": {
    "name": "\u0417\u0430\u0435\u0432\u0430 \u0415\u043b\u0435\u043d\u0430 \u0410\u043b\u0435\u043a\u0441\u0430\u043d\u0434\u0440\u043e\u0432\u043d\u0430",
    "rating": 0.04056025396037182
  },
  "39389": {
    "name": "\u041c\u0430\u0445\u043e\u043d\u0438\u043d \u0414\u043c\u0438\u0442\u0440\u0438\u0439 \u041d\u0438\u043a\u043e\u043b\u0430\u0435\u0432\u0438\u0447",
    "rating": 0.09226957527068727
  },
  "39390": {
    "name": "\u0413\u043e\u0440\u043b\u0438\u043d\u0441\u043a\u0438\u0439 \u0410\u043b\u0435\u043a\u0441\u0435\u0439 \u0418\u0433\u043e\u0440\u0435\u0432\u0438\u0447",
    "rating": 0.0333903068712664
  },
  "39391": {
    "name": "\u0412\u0430\u0441\u0438\u043b\u044c\u0435\u0432 \u0414\u043c\u0438\u0442\u0440\u0438\u0439 \u0410\u043d\u0434\u0440\u0435\u0435\u0432\u0438\u0447",
    "rating": 0.02319954398794837
  },
  "39392": {
    "name": "\u0411\u0430\u0448\u043b\u0430\u043a\u043e\u0432-\u041d\u0438\u043a\u043e\u043b\u0430\u0435\u0432 \u0418\u0433\u043e\u0440\u044c \u0412\u0430\u0441\u0438\u043b\u044c\u0435\u0432\u0438\u0447",
    "rating": 2.5551841270849014
  }
}