{
  "39395": {
    "name": "\u041a\u0440\u0438\u0433\u0430 \u0410\u043b\u0435\u043a\u0441\u0430\u043d\u0434\u0440 \u0421\u0435\u0440\u0433\u0435\u0435\u0432\u0438\u0447",
    "rating": 0.3931377200230269
  },
  "39399": {
    "name": "\u0420\u044f\u043f\u043e\u043b\u043e\u0432\u0430 \u041d\u0438\u043d\u0430 \u0410\u043b\u0435\u043a\u0441\u0430\u043d\u0434\u0440\u043e\u0432\u043d\u0430",
    "rating": 0.3822597240957047
  },
  "39400": {
    "name": "\u0423\u0441\u043a\u043e\u0432 \u041f\u0435\u0442\u0440 \u0410\u043b\u0435\u043a\u0441\u0430\u043d\u0434\u0440\u043e\u0432\u0438\u0447",
    "rating": 0.4156599089673228
  }
}