{
  "39406": {
    "name": "\u0410\u043b\u0435\u043a\u0441\u0435\u0435\u0432\u0430 \u0421\u0432\u0435\u0442\u043b\u0430\u043d\u0430 \u0410\u043d\u0430\u0442\u043e\u043b\u044c\u0435\u0432\u043d\u0430",
    "rating": 4.565053569134839
  },
  "39410": {
    "name": "\u041c\u0430\u0440\u0430\u043a\u0443\u043b\u0438\u043d \u041e\u043b\u0435\u0433 \u041f\u0430\u0432\u043b\u043e\u0432\u0438\u0447",
    "rating": 2.55108915572273
  },
  "39416": {
    "name": "\u041f\u0438\u043b\u0438\u043f\u0435\u043d\u043a\u043e \u0412\u0438\u043a\u0442\u043e\u0440 \u0413\u0435\u043e\u0440\u0433\u0438\u0435\u0432\u0438\u0447",
    "rating": 0.02115726915771186
  }
}