{
  "1912": {
    "name": "\u041d\u043e\u0432\u0438\u043a\u043e\u0432 \u0421\u0435\u0440\u0433\u0435\u0439 \u0413\u0435\u043d\u043d\u0430\u0434\u044c\u0435\u0432\u0438\u0447",
    "rating": 2.4081105710027986
  },
  "5405": {
    "name": "\u0410\u043b\u043b\u0438\u043b\u0443\u0435\u0432\u0430 \u041e\u043b\u044c\u0433\u0430 \u0413\u0435\u043d\u043d\u0430\u0434\u044c\u0435\u0432\u043d\u0430",
    "rating": 0.2821392158102385
  },
  "11941": {
    "name": "\u0421\u0442\u0435\u0431\u0443\u043d\u043e\u0432\u0430 \u0422\u0430\u043c\u0430\u0440\u0430 \u0418\u0432\u0430\u043d\u043e\u0432\u043d\u0430",
    "rating": 0.6257349651425725
  },
  "11942": {
    "name": "\u041f\u043e\u043c\u0447\u0430\u043b\u043e\u0432\u0430 \u0415\u043b\u0435\u043d\u0430 \u0412\u0430\u043b\u0435\u043d\u0442\u0438\u043d\u043e\u0432\u043d\u0430",
    "rating": 3.0
  },
  "11943": {
    "name": "\u0428\u0438\u0431\u043d\u0435\u0432 \u0421\u0435\u0440\u0433\u0435\u0439 \u0412\u0430\u043b\u0435\u043d\u0442\u0438\u043d\u043e\u0432\u0438\u0447",
    "rating": 2.321070517319174
  },
  "11944": {
    "name": "\u0417\u0438\u043d\u0447\u0435\u043d\u043a\u043e \u0421\u0435\u0440\u0433\u0435\u0439 \u041d\u0438\u043a\u043e\u043b\u0430\u0435\u0432\u0438\u0447",
    "rating": 2.4921727708430983
  },
  "11945": {
    "name": "\u0411\u043e\u0434\u044f\u0433\u0438\u043d \u0418\u0433\u043e\u0440\u044c \u0412\u043b\u0430\u0434\u0438\u043c\u0438\u0440\u043e\u0432\u0438\u0447",
    "rating": 0.17046748141885798
  }
}