{
  "1884": {
    "name": "\u0411\u043e\u0440\u0442\u043d\u0438\u043a\u043e\u0432 \u0410\u043b\u0435\u043a\u0441\u0430\u043d\u0434\u0440 \u0412\u0430\u0441\u0438\u043b\u044c\u0435\u0432\u0438\u0447",
    "rating": 2.0013649708544863
  },
  "11871": {
    "name": "\u0421\u043c\u0438\u0440\u043d\u043e\u0432 \u0421\u0435\u0440\u0433\u0435\u0439 \u041c\u0438\u0445\u0430\u0439\u043b\u043e\u0432\u0438\u0447",
    "rating": 3.3452712684567816
  },
  "11872": {
    "name": "\u041a\u0443\u043b\u0438\u0448\u043e\u0432 \u0412\u043b\u0430\u0434\u0438\u043c\u0438\u0440 \u0413\u0440\u0438\u0433\u043e\u0440\u044c\u0435\u0432\u0438\u0447",
    "rating": 1.219466969765935
  },
  "11873": {
    "name": "\u0428\u0430\u043b\u044c\u043a\u043e\u0432 \u0414\u043c\u0438\u0442\u0440\u0438\u0439 \u0412\u043b\u0430\u0434\u0438\u0441\u043b\u0430\u0432\u043e\u0432\u0438\u0447",
    "rating": 0.8012320078560548
  },
  "11874": {
    "name": "\u041a\u0443\u043f\u0440\u044f\u0436\u043a\u0438\u043d \u0410\u043b\u0435\u043a\u0441\u0430\u043d\u0434\u0440 \u041d\u0438\u043a\u043e\u043b\u0430\u0435\u0432\u0438\u0447",
    "rating": 0.7872271897836572
  },
  "11875": {
    "name": "\u0421\u044b\u0441\u043e\u0435\u0432 \u0415\u0432\u0433\u0435\u043d\u0438\u0439 \u0421\u0435\u0440\u0433\u0435\u0435\u0432\u0438\u0447",
    "rating": 0.6612639107281276
  },
  "20300": {
    "name": "\u0421\u0438\u0440\u043e\u0442\u043a\u0438\u043d \u0418\u0433\u043e\u0440\u044c \u0413\u0435\u043d\u043d\u0430\u0434\u044c\u0435\u0432\u0438\u0447",
    "rating": 2.5949897775164343
  },
  "32463": {
    "name": "\u0417\u0438\u043d\u0438\u0447\u0435\u0432 \u0415\u0432\u0433\u0435\u043d\u0438\u0439 \u041d\u0438\u043a\u043e\u043b\u0430\u0435\u0432\u0438\u0447",
    "rating": 1.8953859920731408
  }
}