{
  "1276": {
    "name": "\u0413\u0440\u0438\u0433\u043e\u0440\u043e\u0432 \u0421\u0435\u0440\u0433\u0435\u0439 \u0418\u0432\u0430\u043d\u043e\u0432\u0438\u0447",
    "rating": 2.138653999040324
  },
  "1911": {
    "name": "\u0421\u0435\u043b\u0438\u043d \u0412\u043b\u0430\u0434\u0438\u043c\u0438\u0440 \u0412\u0438\u043a\u0442\u043e\u0440\u043e\u0432\u0438\u0447",
    "rating": 2.2689750124355017
  },
  "5406": {
    "name": "\u042f\u043a\u0438\u043c\u043e\u0432 \u0421\u0435\u0440\u0433\u0435\u0439 \u0424\u043e\u0442\u044c\u0435\u0432\u0438\u0447",
    "rating": 0.7227564912310147
  },
  "11946": {
    "name": "\u0411\u0440\u0430\u0433\u0438\u043d \u0410\u043b\u0435\u043a\u0441\u0430\u043d\u0434\u0440 \u0410\u043b\u0435\u043a\u0441\u0430\u043d\u0434\u0440\u043e\u0432\u0438\u0447",
    "rating": 3.422705117772183
  },
  "11947": {
    "name": "\u0414\u0435\u0440\u0433\u0430\u0447\u0435\u0432 \u0412\u0438\u0442\u0430\u043b\u0438\u0439 \u0412\u0430\u0441\u0438\u043b\u044c\u0435\u0432\u0438\u0447",
    "rating": 1.8225107930555264
  },
  "11948": {
    "name": "\u041a\u0443\u0446 \u0410\u043d\u0430\u0442\u043e\u043b\u0438\u0439 \u0412\u043b\u0430\u0434\u0438\u043c\u0438\u0440\u043e\u0432\u0438\u0447",
    "rating": 1.4191994856076744
  },
  "22118": {
    "name": "\u041b\u044e\u0442\u0438\u043a\u043e\u0432 \u0412\u0438\u0442\u0430\u043b\u0438\u0439 \u0421\u0435\u0440\u0433\u0435\u0435\u0432\u0438\u0447",
    "rating": 0.06336977430362463
  },
  "39857": {
    "name": "\u0413\u0443\u0449\u0430 \u0421\u0435\u0440\u0433\u0435\u0439 \u0410\u0440\u043a\u0430\u0434\u044c\u0435\u0432\u0438\u0447",
    "rating": 0.1749269941156037
  },
  "39858": {
    "name": "\u0413\u043b\u0443\u0445\u043e\u0432 \u0412\u0438\u0442\u0430\u043b\u0438\u0439 \u0412\u0438\u043a\u0442\u043e\u0440\u043e\u0432\u0438\u0447",
    "rating": 0.2271798748499161
  },
  "39859": {
    "name": "\u041c\u0430\u0440\u0442\u0438\u043d\u0435\u0446 \u041d\u0438\u043a\u043e\u043b\u0430\u0439 \u041c\u0438\u0445\u0430\u0439\u043b\u043e\u0432\u0438\u0447",
    "rating": 0.3863887787477244
  },
  "39860": {
    "name": "\u041d\u0438\u043a\u043e\u043b\u044c\u0441\u043a\u0438\u0439 \u0410\u043d\u0434\u0440\u0435\u0439 \u0410\u043d\u0430\u0442\u043e\u043b\u044c\u0435\u0432\u0438\u0447",
    "rating": 0.2357954097874083
  },
  "39861": {
    "name": "\u0421\u043e\u0440\u043e\u043a\u0438\u043d \u0410\u043b\u0435\u043a\u0441\u0435\u0439 \u0410\u043b\u0435\u043a\u0441\u0435\u0435\u0432\u0438\u0447",
    "rating": 2.318443821321374
  }
}