{
  "37316": {
    "name": "\u041a\u0440\u0430\u0432\u0447\u0435\u043d\u043a\u043e \u0410\u043d\u0430\u0442\u043e\u043b\u0438\u0439 \u0412\u0430\u0441\u0438\u043b\u044c\u0435\u0432\u0438\u0447",
    "rating": 3.5516670813707245
  },
  "37323": {
    "name": "\u041f\u0440\u043e\u043a\u043e\u0444\u044c\u0435\u0432 \u0421\u0435\u0440\u0433\u0435\u0439 \u041d\u0438\u043a\u043e\u043b\u0430\u0435\u0432\u0438\u0447",
    "rating": 1.8852382630103968
  },
  "37331": {
    "name": "\u041c\u043e\u0441\u0435\u0435\u043d\u043a\u043e\u0432 \u0410\u043b\u0435\u043a\u0441\u0430\u043d\u0434\u0440 \u0412\u043b\u0430\u0434\u0438\u043c\u0438\u0440\u043e\u0432\u0438\u0447",
    "rating": 0.03789374065730607
  },
  "37336": {
    "name": "\u041a\u043e\u043d\u0434\u0440\u0430\u0448\u043e\u0432\u0430 \u0422\u0430\u0442\u044c\u044f\u043d\u0430 \u0421\u0435\u0440\u0433\u0435\u0435\u0432\u043d\u0430",
    "rating": 0.04706747720593757
  },
  "37384": {
    "name": "\u041a\u0430\u0440\u043f\u043e\u0432 \u042e\u0440\u0438\u0439 \u0410\u043b\u0435\u043a\u0441\u0430\u043d\u0434\u0440\u043e\u0432\u0438\u0447",
    "rating": 1.7221631772304518
  }
}