{
  "5580": {
    "name": "\u041e\u043d\u0438\u043b\u043e\u0432 \u042e\u0440\u0438\u0439 \u0424\u0435\u0434\u043e\u0440\u043e\u0432\u0438\u0447",
    "rating": 0.689825387529594
  },
  "5581": {
    "name": "\u0412\u043e\u043b\u043e\u0441\u043e\u0432 \u0410\u043b\u0435\u043a\u0441\u0430\u043d\u0434\u0440 \u0418\u0432\u0430\u043d\u043e\u0432\u0438\u0447",
    "rating": 0.9659122739037822
  },
  "5582": {
    "name": "\u0425\u043e\u0434\u043e\u0441 \u0410\u043b\u0435\u043a\u0441\u0430\u043d\u0434\u0440 \u0412\u0430\u0441\u0438\u043b\u044c\u0435\u0432\u0438\u0447",
    "rating": 0.974198660340612
  },
  "12013": {
    "name": "\u0417\u0430\u0433\u043e\u0440\u0443\u043b\u044c\u043a\u043e \u0410\u043b\u0435\u043a\u0441\u0430\u043d\u0434\u0440 \u0415\u0432\u0433\u0435\u043d\u044c\u0435\u0432\u0438\u0447",
    "rating": 0.8467393514270402
  },
  "12014": {
    "name": "\u041c\u043e\u0440\u0434\u043e\u0432\u0435\u0446 \u0410\u043b\u0435\u043a\u0441\u0430\u043d\u0434\u0440 \u0410\u043b\u0435\u043a\u0441\u0430\u043d\u0434\u0440\u043e\u0432\u0438\u0447",
    "rating": 1.2519618089070867
  },
  "12015": {
    "name": "\u0414\u0435\u0448\u0435\u0432\u044b\u0445 \u042e\u0440\u0438\u0439 \u0418\u0432\u0430\u043d\u043e\u0432\u0438\u0447",
    "rating": 2.0981660582121178
  },
  "22160": {
    "name": "\u0411\u0443\u0440\u044f\u043a\u043e\u0432 \u0410\u043b\u0435\u043a\u0441\u0430\u043d\u0434\u0440 \u0410\u043b\u0435\u043a\u0441\u0430\u043d\u0434\u0440\u043e\u0432\u0438\u0447",
    "rating": 0.4082169089260344
  },
  "25355": {
    "name": "\u0422\u0430\u0448\u043b\u044b\u043a \u041c\u0438\u0445\u0430\u0438\u043b \u041f\u0435\u0442\u0440\u043e\u0432\u0438\u0447",
    "rating": 1.0107882430048394
  }
}