{
  "1000": {
    "name": "\u0422\u0438\u0445\u043e\u043d\u043e\u0432 \u0412\u0430\u043b\u0435\u0440\u0438\u0439 \u0412\u043b\u0430\u0434\u0438\u043c\u0438\u0440\u043e\u0432\u0438\u0447",
    "rating": 2.020720101430009
  },
  "5374": {
    "name": "\u0411\u043e\u00ad\u0447\u0430\u0440\u00ad\u043d\u0438\u00ad\u043a\u043e\u0432 \u0412\u043b\u0430\u00ad\u0434\u0438\u00ad\u043c\u0438\u0440 \u0410\u043b\u0435\u043a\u00ad\u0441\u0435\u00ad\u0435\u00ad\u0432\u0438\u0447",
    "rating": 0.9043441112525886
  },
  "11846": {
    "name": "\u041a\u0430\u043b\u0435\u0434\u043a\u0438\u043d \u0410\u043b\u0435\u043a\u0441\u0430\u043d\u0434\u0440 \u041d\u0438\u043a\u043e\u043b\u0430\u0435\u0432\u0438\u0447",
    "rating": 0.016100120694311583
  },
  "39333": {
    "name": "\u0428\u0438\u0435\u043d\u043a\u043e\u0432 \u0410\u043b\u0435\u043a\u0441\u0430\u043d\u0434\u0440 \u0410\u043b\u0435\u043a\u0441\u0430\u043d\u0434\u0440\u043e\u0432\u0438\u0447",
    "rating": 0.05014528783649621
  },
  "39334": {
    "name": "\u0418\u0432\u0430\u043d\u043e\u0432 \u0410\u043b\u0435\u043a\u0441\u0430\u043d\u0434\u0440 \u042e\u0440\u044c\u0435\u0432\u0438\u0447",
    "rating": 3.21233751836746
  },
  "39335": {
    "name": "\u0413\u0440\u0438\u0434\u043d\u0435\u0432 \u041e\u043b\u0435\u0433 \u0410\u043b\u0435\u043a\u0441\u0435\u0435\u0432\u0438\u0447",
    "rating": 0.2537602030358639
  },
  "39336": {
    "name": "\u0413\u0430\u0439\u0434\u0443\u043a\u043e\u0432 \u0418\u0433\u043e\u0440\u044c \u0421\u0442\u0430\u043d\u0438\u0441\u043b\u0430\u0432\u043e\u0432\u0438\u0447",
    "rating": 0.01877635192399801
  },
  "39337": {
    "name": "\u041a\u0443\u0434\u043b\u0430\u0435\u0432 \u0412\u043b\u0430\u0434\u0438\u043c\u0438\u0440 \u041c\u0438\u0445\u0430\u0439\u043b\u043e\u0432\u0438\u0447",
    "rating": 0.21113688234904487
  },
  "39338": {
    "name": "\u0422\u0440\u0438\u0444\u0430\u043d\u043e\u0432 \u0415\u0432\u0433\u0435\u043d\u0438\u0439 \u0412\u043b\u0430\u0434\u0438\u043c\u0438\u0440\u043e\u0432\u0438\u0447",
    "rating": 0.02425013620319237
  }
}