{
  "47716": {
    "name": "\u041f\u043b\u0435\u0441\u043e\u0432\u0441\u043a\u0438\u0445 \u0424\u0435\u0434\u043e\u0440 \u0413\u0435\u043d\u043d\u0430\u0434\u044c\u0435\u0432\u0438\u0447",
    "rating": 0.2861568925996408
  },
  "50542": {
    "name": "\u042d\u0440\u043b\u0435\u0440 \u0412\u0438\u0442\u0430\u043b\u0438\u0439 \u0418\u0432\u0430\u043d\u043e\u0432\u0438\u0447",
    "rating": 0.3141996241442901
  },
  "50543": {
    "name": "\u041b\u0435\u0431\u0435\u0434\u0438\u043d\u0441\u043a\u0438\u0439 \u0410\u043d\u0430\u0442\u043e\u043b\u0438\u0439 \u0413\u0435\u043d\u043d\u0430\u0434\u044c\u0435\u0432\u0438\u0447",
    "rating": 0.373163576450842
  },
  "50544": {
    "name": "\u041e\u043f\u043b\u0430\u0447\u043a\u043e \u0421\u0432\u0435\u0442\u043b\u0430\u043d\u0430 \u0418\u0432\u0430\u043d\u043e\u0432\u043d\u0430",
    "rating": 0.5082544242886524
  },
  "50545": {
    "name": "\u041f\u0435\u0447\u0443\u0440\u0438\u043d \u041c\u0438\u0445\u0430\u0438\u043b \u041d\u0438\u043a\u043e\u043b\u0430\u0435\u0432\u0438\u0447",
    "rating": 2.0
  },
  "50546": {
    "name": "\u0425\u043e\u0434\u0430\u043d\u043e\u0432\u0438\u0447 \u041d\u0438\u043a\u043e\u043b\u0430\u0439 \u041d\u0438\u043a\u043e\u043b\u0430\u0435\u0432\u0438\u0447",
    "rating": 0.43514372000437795
  },
  "50547": {
    "name": "\u0411\u0430\u0431\u043a\u043e\u0432 \u042d\u0434\u0443\u0430\u0440\u0434 \u0412\u0438\u0442\u0430\u043b\u044c\u0435\u0432\u0438\u0447",
    "rating": 0.15587441139411146
  }
}