{
  "300": {
    "name": "\u041d\u0430\u0440\u044b\u0448\u043a\u0438\u043d \u0421\u0435\u0440\u0433\u0435\u0439 \u0415\u0432\u0433\u0435\u043d\u044c\u0435\u0432\u0438\u0447",
    "rating": 1.508766593239412
  },
  "5375": {
    "name": "\u0424\u0440\u0430\u0434\u043a\u043e\u0432 \u041c\u0438\u0445\u0430\u0438\u043b \u0415\u0444\u0438\u043c\u043e\u0432\u0438\u0447",
    "rating": 2.0
  },
  "20356": {
    "name": "\u041b\u0430\u0440\u0438\u043d \u0410\u043b\u0435\u043a\u0441\u0435\u0439 \u0410\u043b\u0435\u043a\u0441\u0435\u0435\u0432\u0438\u0447",
    "rating": 0.7983053905167595
  },
  "20357": {
    "name": "\u0427\u0443\u0440\u0438\u043d \u0421\u0435\u0440\u0433\u0435\u0439 \u0412\u043b\u0430\u0434\u0438\u043c\u0438\u0440\u043e\u0432\u0438\u0447",
    "rating": 1.03025101040649
  },
  "32461": {
    "name": "\u0411\u0430\u043b\u0430\u043a\u0438\u043d \u0410.\u041d. ",
    "rating": 1.7642765101715057
  },
  "32462": {
    "name": "\u041b\u0430\u0432\u0440\u0438\u0449\u0435\u0432 \u041a.\u041d. ",
    "rating": 0.12429388711823801
  }
}