{
  "21119": {
    "name": "\u042e\u0434\u0438\u043d \u0410\u043b\u0435\u043a\u0441\u0430\u043d\u0434\u0440 \u0412\u0438\u0442\u043e\u0440\u043e\u0432\u0438\u0447",
    "rating": 0.32289536214062325
  }
}