{
  "36961": {
    "name": "\u0421\u0435\u043b\u0438\u0432\u0435\u0440\u0441\u0442\u043e\u0432\u0430 \u041d\u0435\u043b\u043b\u0438 \u0413\u0435\u043d\u043d\u0430\u0434\u044c\u0435\u0432\u043d\u0430",
    "rating": 1.4395895806920949
  },
  "36962": {
    "name": "\u041e\u043b\u0435\u043d\u0438\u0447\u0435\u0432 \u0410\u043b\u0435\u043a\u0441\u0430\u043d\u0434\u0440 \u0412\u0430\u0441\u0438\u043b\u044c\u0435\u0432\u0438\u0447",
    "rating": 1.1408551757782135
  }
}