{
  "5466": {
    "name": "\u0411\u0430\u0432\u043b\u043e\u0432 \u0412\u043b\u0430\u0434\u0438\u043c\u0438\u0440 \u041d\u0438\u043a\u043e\u043b\u0430\u0435\u0432\u0438\u0447",
    "rating": 0.06713959611150813
  },
  "5467": {
    "name": "\u041c\u043e\u0440\u043e\u0437\u043e\u0432 \u0410\u043d\u0434\u0440\u0435\u0439 \u0424\u0435\u0434\u043e\u0440\u043e\u0432\u0438\u0447",
    "rating": 0.1400066039622362
  },
  "5468": {
    "name": "\u041c\u043e\u043d\u0430\u0441\u0442\u044b\u0440\u043d\u044b\u0445 \u041e\u043b\u0435\u0433 \u0421\u0442\u0435\u043f\u0430\u043d\u043e\u0432\u0438\u0447",
    "rating": 3.0
  },
  "5469": {
    "name": "\u041a\u0438\u0441\u0435\u043b\u0435\u0432 \u0415\u0432\u0433\u0435\u043d\u0438\u0439 \u0410\u0440\u043a\u0430\u0434\u044c\u0435\u0432\u0438\u0447",
    "rating": 0.4193763739341067
  },
  "9281": {
    "name": "\u041f\u0430\u043a \u0412\u0430\u043b\u0435\u0440\u0438\u0439 \u0410\u043d\u0430\u0442\u043e\u043b\u044c\u0435\u0432\u0438\u0447",
    "rating": 1.3270545815950707
  },
  "11990": {
    "name": "\u041a\u0430\u0441\u043f\u0430\u0440\u043e\u0432 \u041e\u0440\u0435\u0441\u0442 \u0421\u0435\u0442\u0440\u0430\u043a\u043e\u0432\u0438\u0447",
    "rating": 0.2500041511816371
  },
  "11991": {
    "name": "\u0428\u0442\u0435\u0439\u043d\u0438\u043a\u043e\u0432 \u0415\u0432\u0433\u0435\u043d\u0438\u0439 \u0412\u044f\u0447\u0435\u0441\u043b\u0430\u0432\u043e\u0432\u0438\u0447",
    "rating": 0.10140633484739373
  },
  "40429": {
    "name": "\u0410\u043a\u0441\u0435\u043d\u043e\u0432 \u0421\u0435\u0440\u0433\u0435\u0439 \u0410\u043b\u0435\u043a\u0441\u0435\u0435\u0432\u0438\u0447",
    "rating": 1.0007478711359858
  },
  "40430": {
    "name": "\u0410\u0439\u0432\u0430\u0437\u043e\u0432\u0430 \u041c\u0430\u0440\u0438\u043d\u0430 \u0410\u043d\u0430\u0442\u043e\u043b\u044c\u0435\u0432\u043d\u0430",
    "rating": 0.1872273273536645
  },
  "40431": {
    "name": "\u041b\u0435\u043d\u044c\u0447\u0443\u043a \u0414\u043c\u0438\u0442\u0440\u0438\u0439 \u0412\u0430\u0441\u0438\u043b\u044c\u0435\u0432\u0438\u0447",
    "rating": 1.5762086795157382
  },
  "40432": {
    "name": "\u041b\u044b\u0433\u0438\u043d \u0410\u043b\u0435\u043a\u0441\u0435\u0439 \u041c\u0438\u0445\u0430\u0439\u043b\u043e\u0432\u0438\u0447",
    "rating": 0.2087093265491595
  },
  "40433": {
    "name": "\u0420\u0443\u0434\u043d\u0435\u0432 \u0410\u043b\u0435\u043a\u0441\u0435\u0439 \u0412\u044f\u0447\u0435\u0441\u043b\u0430\u0432\u043e\u0432\u0438\u0447",
    "rating": 0.09455313057795996
  },
  "40434": {
    "name": "\u0425\u043b\u0435\u0431\u043d\u0438\u043a\u043e\u0432 \u041f\u0430\u0432\u0435\u043b \u0410\u043b\u0435\u043a\u0441\u0430\u043d\u0434\u0440\u043e\u0432\u0438\u0447",
    "rating": 0.03133262746131198
  },
  "40435": {
    "name": "\u0421\u0430\u0432\u0438\u0446\u043a\u0438\u0439 \u041c\u0435\u0447\u0438\u0441\u043b\u0430\u0432 \u0424\u0435\u043b\u0438\u043a\u0441\u043e\u0432\u0438\u0447",
    "rating": 0.2795600074543793
  },
  "40436": {
    "name": "\u041c\u0430\u043b\u044e\u0442\u0438\u043d \u0415\u0432\u0433\u0435\u043d\u0438\u0439 \u0418\u0432\u0430\u043d\u043e\u0432\u0438\u0447",
    "rating": 1.1483733445437758
  },
  "40437": {
    "name": "\u0420\u044b\u043b\u044c\u043a\u043e\u0432 \u0421\u0435\u0440\u0433\u0435\u0439 \u0410\u043b\u0435\u043a\u0441\u0430\u043d\u0434\u0440\u043e\u0432\u0438\u0447",
    "rating": 0.017434695659721115
  },
  "40438": {
    "name": "\u0420\u0430\u0441\u043f\u043e\u043f\u043e\u0432 \u042e\u0440\u0438\u0439 \u0412\u0430\u043b\u0435\u043d\u0442\u0438\u043d\u043e\u0432\u0438\u0447",
    "rating": 0.3053133425570414
  },
  "40439": {
    "name": "\u041d\u0435\u0432\u043e\u043b\u044c\u043a\u043e \u0410\u043b\u0435\u043a\u0441\u0430\u043d\u0434\u0440 \u0418\u0432\u0430\u043d\u043e\u0432\u0438\u0447",
    "rating": 0.12950812177005108
  },
  "40440": {
    "name": "\u0424\u0438\u043b\u0438\u043f\u0446\u043e\u0432 \u042e\u0440\u0438\u0439 \u0410\u043b\u0435\u043a\u0441\u0435\u0435\u0432\u0438\u0447",
    "rating": 0.008512222454543144
  },
  "40441": {
    "name": "\u041b\u0430\u0446\u0430\u043d\u043e\u0432\u0441\u043a\u0438\u0439 \u0418\u0433\u043e\u0440\u044c \u0410\u043b\u0435\u043a\u0441\u0430\u043d\u0434\u0440\u043e\u0432\u0438\u0447",
    "rating": 1.02355589104763
  },
  "40442": {
    "name": "\u0411\u043e\u0439\u043a\u043e \u0410\u043b\u0435\u043a\u0441\u0430\u043d\u0434\u0440 \u0412\u0438\u0442\u0430\u043b\u044c\u0435\u0432\u0438\u0447",
    "rating": 0.032255751021214384
  },
  "40443": {
    "name": "\u0425\u0430\u043c\u0438\u0434\u0443\u043b\u0438\u043d \u0412\u043b\u0430\u0434\u0438\u043c\u0438\u0440 \u0412\u0430\u043b\u0435\u0440\u044c\u0435\u0432\u0438\u0447",
    "rating": 2.4766705483608336
  },
  "40444": {
    "name": "\u0412\u0435\u0440\u0442\u0438\u0439 \u0421\u0442\u0430\u043d\u0438\u0441\u043b\u0430\u0432 \u041d\u0438\u043a\u043e\u043b\u0430\u0435\u0432\u0438\u0447",
    "rating": 0.1929123403392279
  },
  "40445": {
    "name": "\u0412\u0430\u0440\u043b\u0430\u043c\u043e\u0432 \u0410\u043b\u0435\u043a\u0441\u0435\u0439 \u0418\u0432\u0430\u043d\u043e\u0432\u0438\u0447",
    "rating": 0.6818494858335156
  },
  "40446": {
    "name": "\u0410\u043d\u043d\u0435\u043d\u043a\u043e\u0432 \u0410\u043d\u0430\u0442\u043e\u043b\u0438\u0439 \u0410\u043b\u0435\u043a\u0441\u0435\u0435\u0432\u0438\u0447",
    "rating": 0.2288213527825941
  },
  "40447": {
    "name": "\u041a\u0430\u043c\u0438\u043d\u0441\u043a\u0438\u0439 \u0412\u0430\u043b\u0435\u0440\u0438\u0439 \u0414\u043c\u0438\u0442\u0440\u0438\u0435\u0432\u0438\u0447",
    "rating": 0.298380885597675
  },
  "40448": {
    "name": "\u041a\u043b\u0438\u043c\u043e\u0432 \u0410\u043b\u0435\u043a\u0441\u0430\u043d\u0434\u0440 \u041a\u043e\u043d\u0441\u0442\u0430\u043d\u0442\u0438\u043d\u043e\u0432\u0438\u0447",
    "rating": 1.9648569365149773
  },
  "40449": {
    "name": "\u041f\u0435\u0442\u0440\u043e\u0432 \u041e\u043b\u0435\u0433 \u0412\u043b\u0430\u0434\u0438\u043c\u0438\u0440\u043e\u0432\u0438\u0447",
    "rating": 4.081623740295937
  },
  "40450": {
    "name": "\u041c\u0430\u0448\u043a\u043e\u0432\u0446\u0435\u0432 \u0413\u0440\u0438\u0433\u043e\u0440\u0438\u0439 \u0410\u043d\u0430\u0442\u043e\u043b\u044c\u0435\u0432\u0438\u0447",
    "rating": 1.2415988973987675
  },
  "40451": {
    "name": "\u041c\u043e\u0440\u043e\u0437\u043e\u0432 \u0412\u0430\u0441\u0438\u043b\u0438\u0439 \u042e\u0440\u044c\u0435\u0432\u0438\u0447",
    "rating": 1.4322523774800968
  },
  "40452": {
    "name": "\u0413\u0443\u0434\u043a\u043e\u0432 \u0421\u0435\u0440\u0433\u0435\u0439 \u0412\u0438\u043a\u0442\u043e\u0440\u043e\u0432\u0438\u0447",
    "rating": 4.0
  },
  "40453": {
    "name": "\u0410\u0431\u0440\u0430\u043c\u043e\u0432 \u0414\u043c\u0438\u0442\u0440\u0438\u0439 \u0412\u0430\u0434\u0438\u043c\u043e\u0432\u0438\u0447",
    "rating": 1.011379842179182
  },
  "40454": {
    "name": "\u0428\u043f\u0443\u0440\u043e\u0432 \u0418\u0433\u043e\u0440\u044c \u0412\u0438\u043a\u0442\u043e\u0440\u043e\u0432\u0438\u0447",
    "rating": 0.7588534034558437
  },
  "40455": {
    "name": "\u0420\u0443\u0441\u0430\u043a\u0435\u0432\u0438\u0447 \u041d\u0438\u043a\u043e\u043b\u0430\u0439 \u0415\u0432\u0433\u0435\u043d\u044c\u0435\u0432\u0438\u0447",
    "rating": 0.18605099836685876
  },
  "40456": {
    "name": "\u0411\u0443\u0440\u043c\u0438\u0441\u0442\u0440\u043e\u0432 \u0418\u043b\u044c\u044f \u0412\u0430\u043b\u0435\u0440\u044c\u0435\u0432\u0438\u0447",
    "rating": 0.03789395692125243
  },
  "40457": {
    "name": "\u0413\u0440\u0438\u0433\u043e\u0440\u043e\u0432\u0438\u0447 \u0412\u0430\u043b\u0435\u0440\u0438\u0439 \u042f\u043d\u043e\u0432\u0438\u0447",
    "rating": 0.021612174792579087
  },
  "40458": {
    "name": "\u041a\u043e\u0441\u0430\u0440\u0438\u043a\u043e\u0432\u0430 \u0422\u0430\u0442\u044c\u044f\u043d\u0430 \u0410\u043b\u0435\u043a\u0441\u0430\u043d\u0434\u0440\u043e\u0432\u043d\u0430",
    "rating": 0.0502858331419796
  },
  "40459": {
    "name": "\u0413\u043e\u0440\u0431\u043e\u0432 \u0412\u0430\u043b\u0435\u0440\u0438\u0439 \u0410\u043d\u0430\u0442\u043e\u043b\u044c\u0435\u0432\u0438\u0447",
    "rating": 0.7328297200554813
  },
  "40460": {
    "name": "\u042f\u043b\u043e\u0432\u0438\u043a \u0413\u0435\u043e\u0440\u0433\u0438\u0439 \u0410\u0439\u0440\u0430\u0442\u043e\u0432\u0438\u0447",
    "rating": 1.021337951467471
  },
  "40461": {
    "name": "\u0411\u043e\u0440\u0438\u0441\u043e\u0432 \u0412\u043b\u0430\u0434\u0438\u043c\u0438\u0440 \u0410\u043b\u0435\u043a\u0441\u0430\u043d\u0434\u0440\u043e\u0432\u0438\u0447",
    "rating": 4.00671561989064
  }
}