{
  "1927": {
    "name": "\u042d\u043b\u044c\u043a\u0438\u043d \u0413\u0440\u0438\u0433\u043e\u0440\u0438\u0439 \u0418\u043e\u0441\u0438\u0444\u043e\u0432\u0438\u0447",
    "rating": 3.9686843156788187
  },
  "5487": {
    "name": "\u041a\u0440\u0443\u0442\u0438\u043a\u043e\u0432 \u0412\u043b\u0430\u0434\u0438\u043c\u0438\u0440 \u041d\u0438\u043a\u043e\u043b\u0430\u0435\u0432\u0438\u0447",
    "rating": 1.0470425604988045
  },
  "5488": {
    "name": "\u041f\u0435\u0442\u0440\u043e\u0441\u044f\u043d \u0415\u0432\u0433\u0435\u043d\u0438\u0439 \u0420\u043e\u0431\u0435\u0440\u0442\u043e\u0432\u0438\u0447",
    "rating": 2.231890026674037
  },
  "5489": {
    "name": "\u0417\u0430\u0436\u0438\u0433\u0430\u043b\u043a\u0438\u043d \u0410\u043b\u0435\u043a\u0441\u0430\u043d\u0434\u0440 \u0412\u043b\u0430\u0434\u0438\u043c\u0438\u0440\u043e\u0432\u0438\u0447",
    "rating": 2.327941380855908
  },
  "5490": {
    "name": "\u0428\u0430\u043c\u043e\u043b\u0438\u043d \u0410\u043b\u0435\u043a\u0441\u0430\u043d\u0434\u0440 \u0421\u0435\u0440\u0433\u0435\u0435\u0432\u0438\u0447",
    "rating": 0.7546732521341419
  },
  "5491": {
    "name": "\u0411\u0443\u043b\u044b\u0433\u0438\u043d \u0424\u0451\u0434\u043e\u0440 \u0412\u043b\u0430\u0434\u0438\u043b\u0435\u043d\u043e\u0432\u0438\u0447",
    "rating": 0.009824851762219368
  },
  "11997": {
    "name": "\u0410\u0431\u0440\u0430\u043c\u043e\u0432 \u0410\u043b\u0435\u043a\u0441\u0435\u0439 \u0412\u043b\u0430\u0434\u0438\u043c\u0438\u0440\u043e\u0432\u0438\u0447",
    "rating": 1.7816357558281601
  },
  "11998": {
    "name": "\u0413\u043e\u043b\u0443\u0431\u0435\u0432 \u0421\u0435\u0440\u0433\u0435\u0439 \u0421\u0435\u0440\u0433\u0435\u0435\u0432\u0438\u0447",
    "rating": 1.5318854584945465
  },
  "11999": {
    "name": "\u041a\u0443\u043b\u0435\u0448\u043e\u0432 \u0410\u043b\u0435\u043a\u0441\u0435\u0439 \u0412\u043b\u0430\u0434\u0438\u043c\u0438\u0440\u043e\u0432\u0438\u0447",
    "rating": 0.6316257082556919
  },
  "12000": {
    "name": "\u0420\u0443\u0441\u0441 \u0412\u043b\u0430\u0434\u0438\u043c\u0438\u0440 \u0413\u0440\u0438\u0433\u043e\u0440\u044c\u0435\u0432\u0438\u0447",
    "rating": 0.18885722814434902
  },
  "22157": {
    "name": "\u041f\u043e\u0442\u0435\u043c\u043a\u0438\u043d \u0411\u043e\u0440\u0438\u0441 \u041c\u0438\u0445\u0430\u0439\u043b\u043e\u0432\u0438\u0447",
    "rating": 0.06041393904589271
  },
  "40544": {
    "name": "\u0428\u0430\u043b\u0430\u0435\u0432 \u0410\u043d\u0442\u043e\u043d \u041f\u0430\u0432\u043b\u043e\u0432\u0438\u0447",
    "rating": 1.0531351226431909
  },
  "40545": {
    "name": "\u0411\u0435\u043b\u043e\u0443\u0441\u043e\u0432\u0430 \u041c\u0430\u0440\u0438\u044f \u0413\u0435\u043d\u043d\u0430\u0434\u044c\u0435\u0432\u043d\u0430",
    "rating": 0.029923304502375344
  },
  "40546": {
    "name": "\u0414\u043c\u0438\u0442\u0440\u0438\u0435\u0432 \u0410\u043d\u0442\u043e\u043d \u0412\u0430\u0441\u0438\u043b\u044c\u0435\u0432\u0438\u0447",
    "rating": 0.05426151183522143
  },
  "40547": {
    "name": "\u041c\u0430\u043b\u043e\u0432\u0430 \u041c\u0430\u0434\u0438\u043d\u0430 \u042e\u0441\u0443\u0444\u0434\u0436\u0430\u043d\u043e\u0432\u043d\u0430",
    "rating": 0.023439670894369245
  },
  "40548": {
    "name": "\u041a\u043e\u0436\u0435\u0432\u043d\u0438\u043a\u043e\u0432\u0430 \u0422\u0430\u043c\u0430\u0440\u0430 \u042f\u043a\u043e\u0432\u043b\u0435\u0432\u043d\u0430",
    "rating": 0.4135985862841097
  },
  "40549": {
    "name": "\u041c\u0430\u043a\u0430\u0440\u0435\u043d\u043a\u043e \u0421\u0435\u0440\u0433\u0435\u0439 \u0421\u0442\u0430\u043d\u0438\u0441\u043b\u0430\u0432\u043e\u0432\u0438\u0447",
    "rating": 1.5239916401840965
  },
  "40550": {
    "name": "\u0420\u043e\u0434\u0438\u043d \u0420\u043e\u043c\u0430\u043d \u0410\u043b\u0435\u043a\u0441\u0430\u043d\u0434\u0440\u043e\u0432\u0438\u0447",
    "rating": 0.4232202646591531
  },
  "40551": {
    "name": "\u0421\u0438\u0432\u043a\u043e\u0432 \u0421\u0435\u0440\u0433\u0435\u0439 \u0412\u0430\u043b\u0435\u0440\u044c\u0435\u0432\u0438\u0447",
    "rating": 0.012420606391994441
  },
  "40552": {
    "name": "\u0429\u0435\u043b\u043a\u0430\u043d\u043e\u0432 \u0420\u043e\u043c\u0430\u043d \u041d\u0438\u043a\u043e\u043b\u0430\u0435\u0432\u0438\u0447",
    "rating": 0.11512439910973428
  },
  "40553": {
    "name": "\u041c\u0435\u0437\u0435\u043d\u0446\u0435\u0432\u0430 \u041e\u043a\u0441\u0430\u043d\u0430 \u0412\u0430\u0441\u0438\u043b\u044c\u0435\u0432\u043d\u0430",
    "rating": 0.3543933954778313
  },
  "40554": {
    "name": "\u0421\u0442\u0430\u043d\u0438\u0448\u0435\u0432\u0441\u043a\u0430\u044f \u0412\u0435\u0440\u0430 \u0421\u0435\u043c\u0435\u043d\u043e\u0432\u043d\u0430",
    "rating": 0.052002115486092376
  },
  "40555": {
    "name": "\u041b\u0430\u0437\u0430\u0440\u0435\u043d\u043a\u043e \u0415\u0432\u0433\u0435\u043d\u0438\u0439 \u0420\u0443\u0441\u043b\u0430\u043d\u043e\u0432\u0438\u0447",
    "rating": 0.33143597419483795
  },
  "40556": {
    "name": "\u0413\u043e\u0433\u043e\u043b\u0435\u0432 \u0414\u043c\u0438\u0442\u0440\u0438\u0439 \u0412\u043b\u0430\u0434\u0438\u043c\u0438\u0440\u043e\u0432\u0438\u0447",
    "rating": 0.4990295160537542
  },
  "40557": {
    "name": "\u041a\u043e\u0441\u0442\u0430\u043d\u0434\u044f\u043d \u0410\u0440\u0442\u0443\u0440 \u0412\u0430\u043b\u0435\u0440\u0438\u0435\u0432\u0438\u0447",
    "rating": 0.05513239759676193
  },
  "40558": {
    "name": "\u041c\u0430\u0442\u0432\u0435\u0435\u043d\u043a\u043e \u042e\u043b\u0438\u044f \u0412\u0438\u043a\u0442\u043e\u0440\u043e\u0432\u043d\u0430",
    "rating": 3.0
  },
  "40559": {
    "name": "\u041c\u043e\u043b\u0447\u0430\u043d\u043e\u0432 \u041c\u0438\u0445\u0430\u0438\u043b \u0418\u0432\u0430\u043d\u043e\u0432\u0438\u0447",
    "rating": 0.13751361142955565
  },
  "40560": {
    "name": "\u041f\u0440\u043e\u0441\u043a\u0443\u0440\u0438\u043d \u0410\u043b\u0435\u043a\u0441\u0430\u043d\u0434\u0440 \u0412\u0430\u043b\u0435\u0440\u044c\u0435\u0432\u0438\u0447",
    "rating": 0.08256525211228108
  },
  "40561": {
    "name": "\u0421\u043c\u044b\u043a\u043e\u0432 \u0410\u043d\u0434\u0440\u0435\u0439 \u0410\u043d\u0434\u0440\u0435\u0435\u0432\u0438\u0447",
    "rating": 0.005515111005635516
  },
  "40562": {
    "name": "\u0422\u0440\u0430\u0445\u0430\u043d\u043e\u0432\u0430 \u0410\u043d\u0430\u0441\u0442\u0430\u0441\u0438\u044f \u0421\u0435\u0440\u0433\u0435\u0435\u0432\u043d\u0430",
    "rating": 0.014883329061203734
  },
  "40563": {
    "name": "\u0427\u0443\u0434\u0438\u043d\u043e\u0432\u0430 \u0415\u043b\u0438\u0437\u0430\u0432\u0435\u0442\u0430 \u0410\u043b\u0435\u043a\u0441\u0430\u043d\u0434\u0440\u043e\u0432\u043d\u0430",
    "rating": 0.007273166848183531
  },
  "40564": {
    "name": "\u0411\u0430\u0441\u043e\u0432\u0430 \u041e\u043b\u044c\u0433\u0430 \u0421\u0435\u0440\u0433\u0435\u0435\u0432\u043d\u0430",
    "rating": 1.0078160737463089
  },
  "40565": {
    "name": "\u0411\u0435\u0434\u0438\u043d\u043e\u0432\u0430 \u0415\u0432\u0433\u0435\u043d\u0438\u044f \u041e\u043b\u0435\u0433\u043e\u0432\u043d\u0430",
    "rating": 0.7149104475231304
  },
  "40566": {
    "name": "\u0411\u043e\u0440\u043e\u0434\u0438\u043d\u0430 \u041e\u043a\u0441\u0430\u043d\u0430 \u0418\u0432\u0430\u043d\u043e\u0432\u043d\u0430",
    "rating": 1.1303493761968744
  },
  "40567": {
    "name": "\u0411\u0443\u0434\u0430\u0436\u0430\u043f\u043e\u0432\u0430 \u041c\u0430\u0439\u044f \u0416\u0430\u043b\u0441\u0430\u043d\u043e\u0432\u043d\u0430",
    "rating": 0.0458417473660664
  },
  "40568": {
    "name": "\u0412\u0435\u0440\u0431\u0430 \u041e\u043b\u044c\u0433\u0430 \u0412\u0430\u043b\u0435\u0440\u0438\u0435\u0432\u043d\u0430",
    "rating": 0.004997352264329085
  },
  "40569": {
    "name": "\u0412\u043e\u0440\u043e\u0436\u043a\u0438\u043d\u0430 \u042e\u043b\u0438\u044f \u0412\u043b\u0430\u0434\u0438\u043c\u0438\u0440\u043e\u0432\u043d\u0430",
    "rating": 0.008895588651680527
  },
  "40570": {
    "name": "\u0418\u0432\u0430\u043d\u0438\u043b\u043e\u0432\u0430 \u0418\u0440\u0438\u043d\u0430 \u0413\u0435\u043d\u043d\u0430\u0434\u044c\u0435\u0432\u043d\u0430",
    "rating": 1.53576520339067
  },
  "40571": {
    "name": "\u0415\u043c\u0435\u043b\u044c\u044f\u043d\u043e\u0432\u0430 \u0413\u0430\u043b\u0438\u043d\u0430 \u0412\u0430\u043b\u0435\u0440\u0438\u0435\u0432\u043d\u0430",
    "rating": 0.03415608806986283
  },
  "40572": {
    "name": "\u041f\u0438\u0449\u0443\u043b\u0438\u043d\u0430 \u041c\u0430\u0440\u0438\u044f \u0412\u0430\u0441\u0438\u043b\u044c\u0435\u0432\u043d\u0430",
    "rating": 0.011936942659880493
  },
  "40573": {
    "name": "\u0422\u0440\u043e\u0444\u0438\u043c\u043e\u0432\u0430 \u041e\u043b\u044c\u0433\u0430 \u0410\u043d\u0434\u0440\u0435\u0435\u0432\u043d\u0430",
    "rating": 0.0403072283984672
  },
  "40574": {
    "name": "\u0422\u044e\u043b\u0435\u043d\u0435\u0432 \u041a\u0438\u0440\u0438\u043b\u043b \u0413\u0435\u043d\u043d\u0430\u0434\u044c\u0435\u0432\u0438\u0447",
    "rating": 0.016641780046974673
  },
  "40575": {
    "name": "\u0424\u0435\u0434\u043e\u0440\u043e\u0432 \u0410\u043b\u0435\u043a\u0441\u0430\u043d\u0434\u0440 \u0410\u0441\u0435\u043a\u0441\u0430\u043d\u0434\u0440\u043e\u0432\u0438\u0447",
    "rating": 1.5428374124265454
  }
}