{
  "1916": {
    "name": "\u0427\u0435\u043f\u0435\u0446 \u0412\u043b\u0430\u0434\u0438\u043c\u0438\u0440 \u042e\u0440\u044c\u0435\u0432\u0438\u0447",
    "rating": 3.191475849419568
  },
  "5438": {
    "name": "\u0426\u044b\u0434\u0435\u043d\u043e\u0432 \u0410\u043b\u0435\u043a\u0441\u0435\u0439 \u0421\u0430\u043c\u0431\u0443\u0435\u0432\u0438\u0447",
    "rating": 0.8126418637515007
  },
  "5439": {
    "name": "\u0411\u0435\u0440\u0448\u0430\u043d\u0441\u043a\u0438\u0439 \u041b\u0435\u043e\u043d\u0438\u0434 \u0418\u0433\u043e\u0440\u0435\u0432\u0438\u0447",
    "rating": 0.03624290323973433
  },
  "5440": {
    "name": "\u041b\u0443\u043a\u043e\u0432\u043d\u0438\u043a\u043e\u0432 \u0415\u0432\u0433\u0435\u043d\u0438\u0439 \u0412\u0430\u043b\u0435\u043d\u0442\u0438\u043d\u043e\u0432\u0438\u0447",
    "rating": 1.2599222054784758
  },
  "5441": {
    "name": "\u0421\u0435\u043c\u0438\u0433\u043b\u0430\u0437\u043e\u0432 \u041e\u043b\u0435\u0433 \u0410\u043b\u0435\u043a\u0441\u0430\u043d\u0434\u0440\u043e\u0432\u0438\u0447",
    "rating": 0.3446820959074057
  },
  "5442": {
    "name": "\u041c\u0438\u0446\u0443\u043a \u0418\u0433\u043e\u0440\u044c \u0412\u043b\u0430\u0434\u0438\u043c\u0438\u0440\u043e\u0432\u0438\u0447",
    "rating": 0.12203737333931446
  },
  "40247": {
    "name": "\u0428\u043f\u0430\u0434\u0438 \u0414\u043c\u0438\u0442\u0440\u0438\u0439 \u0412\u043b\u0430\u0434\u0438\u043c\u0438\u0440\u043e\u0432\u0438\u0447",
    "rating": 2.215649178586056
  },
  "40248": {
    "name": "\u0417\u0430\u0445\u0430\u0440\u043e\u0432\u0430 \u0422\u0430\u0442\u0430\u044c\u044f\u043d\u0430 \u0412\u0438\u043a\u0442\u043e\u0440\u043e\u0432\u043d\u0430",
    "rating": 0.30800964973588313
  },
  "40249": {
    "name": "\u0413\u0440\u0438\u0433\u043e\u0440\u044c\u0435\u0432 \u041a\u043e\u043d\u0441\u0442\u0430\u043d\u0442\u0438\u043d \u0412\u043b\u0430\u0434\u0438\u043c\u0438\u0440\u043e\u0432\u0438\u0447",
    "rating": 0.06880194049610966
  },
  "40250": {
    "name": "\u0415\u0433\u043e\u0440\u0435\u043d\u043a\u043e\u0432 \u042e\u0440\u0438\u0439 \u0412\u044f\u0447\u0435\u0441\u043b\u0430\u0432\u043e\u0432\u0438\u0447",
    "rating": 1.8284546390586736
  },
  "40251": {
    "name": "\u0420\u044f\u0431\u043e\u0432 \u041c\u0438\u0445\u0430\u0438\u043b \u0412\u0430\u0441\u0438\u043b\u044c\u0435\u0432\u0438\u0447",
    "rating": 5.0
  },
  "40252": {
    "name": "\u0422\u0438\u0442\u043e\u0432 \u041f\u0430\u0432\u0435\u043b \u0412\u0438\u043a\u0442\u043e\u0440\u043e\u0432\u0438\u0447",
    "rating": 0.00605007716715949
  },
  "40253": {
    "name": "\u0417\u044f\u0431\u043b\u0438\u0446\u043a\u0438\u0439 \u0418\u0433\u043e\u0440\u044c \u042e\u0440\u044c\u0435\u0432\u0438\u0447",
    "rating": 1.2063569523390203
  },
  "40254": {
    "name": "\u0412\u0430\u0441\u0438\u043b\u044c\u0435\u0432 \u0418\u0433\u043e\u0440\u044c \u0410\u043b\u0435\u043a\u0441\u0435\u0435\u0432\u0438\u0447",
    "rating": 2.031306807269748
  },
  "40255": {
    "name": "\u0412\u043e\u0434\u044f\u043d\u043e\u0432\u0430 \u041c\u0430\u0440\u0433\u0430\u0440\u0438\u0442\u0430 \u041d\u0438\u043a\u043e\u043b\u0430\u0435\u0432\u043d\u0430",
    "rating": 0.03098074307176588
  },
  "40256": {
    "name": "\u041c\u0435\u0440\u043a\u0443\u043b\u043e\u0432 \u0413\u0435\u043e\u0440\u0433\u0438\u0439 \u0412\u043b\u0430\u0434\u0438\u043c\u0438\u0440\u043e\u0432\u0438\u0447",
    "rating": 0.14761003683304316
  },
  "40257": {
    "name": "\u0412\u0435\u0440\u0435\u0442\u0435\u043d\u043d\u0438\u043a\u043e\u0432\u0430 \u041d\u0430\u0442\u0430\u043b\u044c\u044f \u0412\u0430\u043b\u0435\u0440\u044c\u0435\u0432\u043d\u0430",
    "rating": 0.028906269552302438
  },
  "40258": {
    "name": "\u0411\u0435\u0441\u043f\u0430\u043b\u043e\u0432 \u0410\u043d\u0434\u0440\u0435\u0439 \u041c\u0438\u0445\u0430\u0439\u043b\u043e\u0432\u0438\u0447",
    "rating": 0.3815418312497532
  },
  "40259": {
    "name": "\u0417\u0430\u0433\u0443\u0431\u043d\u044b\u0439 \u042e\u0440\u0438\u0439 \u041d\u0438\u043a\u043e\u043b\u0430\u0435\u0432\u0438\u0447",
    "rating": 1.7459440105417916
  },
  "40260": {
    "name": "\u0421\u0430\u0432\u0435\u043b\u044c\u0435\u0432\u0430 \u041e\u043b\u044c\u0433\u0430 \u0410\u043b\u0435\u043a\u0441\u0430\u043d\u0434\u0440\u043e\u0432\u043d\u0430",
    "rating": 1.0497510392981038
  },
  "40261": {
    "name": "\u041d\u044b\u0447\u043a\u0438\u043d \u0413\u0435\u043d\u043d\u0430\u0434\u0438\u0439 \u0412\u044f\u0447\u0435\u0441\u043b\u0430\u0432\u043e\u0432\u0438\u0447",
    "rating": 0.0302537492729826
  },
  "40262": {
    "name": "\u0412\u044f\u0437\u043e\u0432 \u0413\u0440\u0438\u0433\u043e\u0440\u0438\u0439 \u0412\u043b\u0430\u0434\u0438\u043c\u0438\u0440\u043e\u0432\u0438\u0447",
    "rating": 0.029767108002722205
  }
}