{
  "883": {
    "name": "\u041b\u0435\u0431\u0435\u0434\u0435\u0432 \u0412\u043b\u0430\u0434\u0438\u043c\u0438\u0440 \u0410\u043b\u044c\u0431\u0435\u0440\u0442\u043e\u0432\u0438\u0447",
    "rating": 5.863429470786972
  },
  "5443": {
    "name": "\u0421\u0430\u0432\u0438\u043d\u043e\u0432 \u0410\u043b\u0435\u043a\u0441\u0435\u0439 \u0418\u0432\u0430\u043d\u043e\u0432\u0438\u0447",
    "rating": 1.6250613748249556
  },
  "5444": {
    "name": "\u041c\u0430\u0441\u043b\u044f\u043a\u043e\u0432 \u0412\u0438\u043a\u0442\u043e\u0440 \u041d\u0438\u043a\u043e\u043b\u0430\u0435\u0432\u0438\u0447",
    "rating": 5.119694011772745
  },
  "5445": {
    "name": "\u0414\u043c\u0438\u0442\u0440\u0438\u0435\u0432 \u042e\u0440\u0438\u0439 \u0418\u0433\u043e\u0440\u0435\u0432\u0438\u0447",
    "rating": 0.9836516110424685
  },
  "5446": {
    "name": "\u041a\u0440\u043e\u0442\u043e\u0432 \u041d\u0438\u043a\u043e\u043b\u0430\u0439 \u0421\u0442\u0435\u043f\u0430\u043d\u043e\u0432\u0438\u0447",
    "rating": 0.5664429497214998
  },
  "5447": {
    "name": "\u041f\u0430\u043d\u0444\u0438\u043b\u043e\u0432 \u0410\u043b\u0435\u043a\u0441\u0430\u043d\u0434\u0440 \u0412\u0438\u043a\u0442\u043e\u0440\u043e\u0432\u0438\u0447",
    "rating": 1.2934835595103316
  },
  "9280": {
    "name": "\u0412\u0430\u043b\u0435\u043d\u0442\u0438\u043a \u0418\u0432\u0430\u043d \u0412\u043b\u0430\u0434\u0438\u043c\u0438\u0440\u043e\u0432\u0438\u0447",
    "rating": 1.082257797508806
  },
  "11971": {
    "name": "\u041a\u043e\u043c\u0430\u0440 \u0415\u043b\u0435\u043d\u0430 \u0421\u0442\u0435\u043f\u0430\u043d\u043e\u0432\u043d\u0430",
    "rating": 0.4703007064632534
  },
  "11972": {
    "name": "\u0428\u0438\u0448\u043e\u0432 \u0412\u043b\u0430\u0434\u0438\u043c\u0438\u0440 \u0410\u043d\u0430\u0442\u043e\u043b\u044c\u0435\u0432\u0438\u0447",
    "rating": 0.3018124259175721
  },
  "11973": {
    "name": "\u041a\u0443\u043a\u0443\u0448\u043a\u0438\u043d \u041f\u0430\u0432\u0435\u043b \u041e\u043b\u0435\u0433\u043e\u0432\u0438\u0447",
    "rating": 0.08255712182937025
  },
  "11974": {
    "name": "\u041a\u043b\u0438\u043d\u043e\u0432 \u041c\u0438\u0445\u0430\u0438\u043b \u042e\u0440\u044c\u0435\u0432\u0438\u0447",
    "rating": 0.6211514476520043
  },
  "22146": {
    "name": "\u0412\u0438\u043d\u043e\u043a\u0443\u0440\u043e\u0432\u0430 \u0410\u043d\u0430\u0441\u0442\u0430\u0441\u0438\u044f \u041e\u043b\u0435\u0433\u043e\u0432\u043d\u0430",
    "rating": 0.11105445797177356
  },
  "40263": {
    "name": "\u041b\u0430\u0439\u043f\u0430\u043d\u043e\u0432 \u041a\u0430\u0437\u0431\u0435\u043a \u0414\u0436\u0430\u043c\u0430\u043b\u043e\u0432\u0438\u0447",
    "rating": 0.02537570375101695
  },
  "40264": {
    "name": "\u041b\u0443\u043a\u0438\u043d \u041e\u043b\u0435\u0433 \u042e\u0440\u044c\u0435\u0432\u0438\u0447",
    "rating": 0.19486037773609888
  },
  "40265": {
    "name": "\u041a\u0443\u0434\u0438\u043d\u043e\u0432\u0430 \u0415\u043a\u0430\u0442\u0435\u0440\u0438\u043d\u0430 \u0421\u0435\u0440\u0433\u0435\u0435\u0432\u043d\u0430",
    "rating": 0.03483299820349474
  },
  "40266": {
    "name": "\u041a\u043e\u0440\u044b\u0442\u043d\u0438\u043a\u043e\u0432 \u041f\u0430\u0432\u0435\u043b \u0412\u043b\u0430\u0434\u0438\u0441\u043b\u0430\u0432\u043e\u0432\u0438\u0447",
    "rating": 4.0
  },
  "40267": {
    "name": "\u0422\u043e\u043a\u0430\u0440\u0435\u0432 \u041e\u043b\u0435\u0433 \u0412\u0430\u0441\u0438\u043b\u044c\u0435\u0432\u0438\u0447",
    "rating": 5.0
  },
  "40268": {
    "name": "\u041f\u0435\u0442\u0443\u0445\u043e\u0432 \u0418\u0432\u0430\u043d \u0421\u0435\u0440\u0433\u0435\u0435\u0432\u0438\u0447",
    "rating": 0.02242571282474311
  },
  "40269": {
    "name": "\u0426\u0430\u0440\u0435\u0433\u0440\u0430\u0434\u0441\u043a\u0438\u0439 \u041f\u0430\u0432\u0435\u043b \u0412\u0430\u043b\u0435\u0440\u044c\u0435\u0432\u0438\u0447",
    "rating": 0.29110894725890524
  },
  "40270": {
    "name": "\u0411\u0443\u043b\u0430\u0442\u043d\u0430\u044f \u041d\u0430\u0442\u0430\u043b\u044c\u044f \u0410\u043b\u0435\u043a\u0441\u0430\u043d\u0434\u0440\u043e\u0432\u043d\u0430",
    "rating": 2.0
  },
  "40271": {
    "name": "\u0416\u0434\u0430\u043d\u043e\u0432 \u041c.\u0421. ",
    "rating": 0.02794693579642396
  },
  "40272": {
    "name": "\u041e\u0440\u043b\u043e\u0432 \u041c\u0430\u0440\u043a \u0412\u043b\u0430\u0434\u0438\u043c\u0438\u0440\u043e\u0432\u0438\u0447",
    "rating": 0.43135392933482936
  },
  "40273": {
    "name": "\u0410\u043a\u0431\u0435\u0440\u0434\u0438\u043d \u0412\u0438\u0442\u0430\u043b\u0438\u0439 \u0412\u0438\u043a\u0442\u043e\u0440\u043e\u0432\u0438\u0447",
    "rating": 0.07630065221992989
  },
  "40274": {
    "name": "\u0414\u043e\u0440\u043e\u043d\u0438\u043d \u041c\u0438\u0445\u0430\u0438\u043b \u0421\u0435\u0440\u0433\u0435\u0435\u0432\u0438\u0447",
    "rating": 0.05558981161527747
  },
  "40275": {
    "name": "\u0414\u043c\u0438\u0442\u0440\u0438\u0435\u0432 \u0412\u043b\u0430\u0434\u0438\u043c\u0438\u0440 \u0412\u0438\u043a\u0442\u043e\u0440\u043e\u0432\u0438\u0447",
    "rating": 1.0298788928455955
  },
  "40276": {
    "name": "\u0424\u0443\u0440\u0441\u043e\u0432\u0430 \u0410\u043d\u043d\u0430 \u0410\u043d\u0430\u0442\u043e\u043b\u044c\u0435\u0432\u043d\u0430",
    "rating": 0.12804566433153594
  },
  "40277": {
    "name": "\u041d\u0435\u0444\u0435\u0434\u043e\u0432\u0430 \u0421\u0432\u0435\u0442\u043b\u0430\u043d\u0430 \u0412\u0430\u0441\u0438\u043b\u044c\u0435\u0432\u043d\u0430",
    "rating": 1.111316856072206
  },
  "40278": {
    "name": "\u0418\u043b\u043b\u0430\u0440\u0438\u043e\u0448\u0438\u043d\u0430 \u041e\u043b\u044c\u0433\u0430 \u0412\u043b\u0430\u0434\u0438\u0441\u043b\u0430\u0432\u043e\u0432\u043d\u0430",
    "rating": 0.16129537809172745
  },
  "40279": {
    "name": "\u041a\u0440\u043e\u0442\u043e\u0432\u0430 \u041d\u0430\u0442\u0430\u043b\u044c\u044f \u041b\u044c\u0432\u043e\u0432\u043d\u0430",
    "rating": 0.3354409673792895
  },
  "40280": {
    "name": "\u0410\u0440\u0442\u0430\u043c\u043e\u043d\u043e\u0432 \u0421\u0435\u0440\u0433\u0435\u0439 \u0418\u0432\u0430\u043d\u043e\u0432\u0438\u0447",
    "rating": 0.2706543300548735
  }
}