{
  "1928": {
    "name": "\u041a\u0440\u0430\u0439\u043d\u0438\u0439 \u0410\u043d\u0434\u0440\u0435\u0439 \u0410\u043d\u0430\u0442\u043e\u043b\u044c\u0435\u0432\u0438\u0447",
    "rating": 4.207702989466313
  },
  "5366": {
    "name": "\u0428\u0435\u0441\u0442\u0430\u043a\u043e\u0432 \u0418\u043b\u044c\u044f \u0412\u0430\u0441\u0438\u043b\u044c\u0435\u0432\u0438\u0447",
    "rating": 0.9702817447935674
  },
  "5481": {
    "name": "\u0411\u044b\u0447\u043a\u043e\u0432 \u0412\u044f\u0447\u0435\u0441\u043b\u0430\u0432 \u0411\u043e\u0440\u0438\u0441\u043e\u0432\u0438\u0447",
    "rating": 1.8358450584429544
  },
  "5482": {
    "name": "\u0420\u0438\u0441\u043e\u0432\u0430\u043d\u044b\u0439 \u0412\u0438\u043a\u0442\u043e\u0440 \u0412\u0438\u043a\u0442\u043e\u0440\u043e\u0432\u0438\u0447",
    "rating": 0.030823488095630326
  },
  "5483": {
    "name": "\u041f\u043e\u0434\u043e\u043b\u044f\u043d \u0421\u0435\u0440\u0433\u0435\u0439 \u0410\u043d\u0430\u0442\u043e\u043b\u044c\u0435\u0432\u0438\u0447",
    "rating": 0.035284247504091606
  },
  "5484": {
    "name": "\u0428\u0435\u0431\u0438\u043d\u0430 \u041d\u0430\u0434\u0435\u0436\u0434\u0430 \u0412\u044f\u0447\u0435\u0441\u043b\u0430\u0432\u043e\u0432\u043d\u0430",
    "rating": 0.8236159679886805
  },
  "5485": {
    "name": "\u0421\u043e\u043a\u043e\u043b\u043e\u0432 \u0412\u0430\u0441\u0438\u043b\u0438\u0439 \u0418\u0433\u043e\u0440\u0435\u0432\u0438\u0447",
    "rating": 0.5642699912574641
  },
  "5486": {
    "name": "\u0421\u043e\u043a\u043e\u043b\u043e\u0432 \u0412\u043b\u0430\u0434\u0438\u043c\u0438\u0440 \u0412\u0438\u0442\u0430\u043b\u044c\u0435\u0432\u0438\u0447",
    "rating": 1.0297556129854402
  },
  "11996": {
    "name": "\u0420\u043e\u043c\u0430\u043d\u0435\u043d\u043a\u043e \u0418\u0440\u0438\u043d\u0430 \u0411\u043e\u0440\u0438\u0441\u043e\u0432\u043d\u0430",
    "rating": 2.150910923921608
  },
  "14064": {
    "name": "\u0421\u0430\u0432\u0447\u0443\u043a \u041f\u0435\u0442\u0440 \u0421\u0442\u0435\u043f\u0430\u043d\u043e\u0432\u0438\u0447",
    "rating": 0.25718041701852185
  },
  "21325": {
    "name": "\u0425\u043e\u0445\u043b\u043e\u0432 \u042e\u0440\u0438\u0439 \u0410\u043b\u0435\u043a\u0441\u0430\u043d\u0434\u0440\u043e\u0432\u0438\u0447",
    "rating": 0.031033760232356933
  },
  "22156": {
    "name": "\u0411\u0430\u0433\u0440\u043e\u0432\u0430 \u042f\u043d\u0430 \u0410\u043b\u0435\u043a\u0441\u0430\u043d\u0434\u0440\u043e\u0432\u043d\u0430",
    "rating": 0.4610597652076242
  },
  "40482": {
    "name": "\u0422\u0438\u043c\u0430\u043a\u043e\u0432\u0430 \u041a\u0441\u0435\u043d\u0438\u044f \u0412\u043b\u0430\u0434\u0438\u043c\u0438\u0440\u043e\u0432\u043d\u0430",
    "rating": 0.01706440387176795
  },
  "40483": {
    "name": "\u041f\u0430\u043d\u043e\u0432 \u0410\u043b\u0435\u043a\u0441\u0435\u0439 \u0411\u043e\u0440\u0438\u0441\u043e\u0432\u0438\u0447",
    "rating": 1.7546547700437751
  },
  "40484": {
    "name": "\u041c\u0430\u043a\u0430\u0440\u043e\u0432 \u0415\u0432\u0433\u0435\u043d\u0438\u0439 \u0410\u043b\u0435\u043a\u0441\u0430\u043d\u0434\u0440\u043e\u0432\u0438\u0447",
    "rating": 0.024674905706621668
  },
  "40485": {
    "name": "\u0411\u0435\u0434\u043d\u0430\u0440\u0441\u043a\u0430\u044f \u0422\u0430\u043c\u0430\u0440\u0430 \u0412\u0430\u0441\u0438\u043b\u044c\u0435\u0432\u043d\u0430",
    "rating": 0.19380429910262734
  },
  "40486": {
    "name": "\u0412\u0430\u0441\u0438\u043b\u044c\u0435\u0432 \u0410\u043b\u0435\u043a\u0441\u0435\u0439 \u0412\u0438\u043a\u0442\u043e\u0440\u043e\u0432\u0438\u0447",
    "rating": 3.0389445118053704
  },
  "40487": {
    "name": "\u0410\u0441\u043e\u043d\u043e\u0432\u0430 \u041d\u0430\u0442\u0430\u043b\u044c\u044f \u0410\u043d\u0430\u0442\u043e\u043b\u044c\u0435\u0432\u043d\u0430",
    "rating": 0.14188878487402815
  },
  "40488": {
    "name": "\u041a\u0430\u043b\u0430\u0448\u043d\u0438\u043a\u043e\u0432 \u041e\u043b\u0435\u0433 \u0412\u0438\u043a\u0442\u043e\u0440\u043e\u0432\u0438\u0447",
    "rating": 0.015198568303027082
  },
  "40489": {
    "name": "\u042e\u0440\u0447\u0435\u043d\u043a\u043e \u0410\u043d\u0434\u0440\u0435\u0439 \u041d\u0438\u043a\u043e\u043b\u0430\u0435\u0432\u0438\u0447",
    "rating": 0.044580326871344216
  },
  "40490": {
    "name": "\u041a\u043e\u0441\u043c\u0438\u043d \u0410\u043d\u0434\u0440\u0435\u0439 \u0410\u043b\u0435\u043a\u0441\u0430\u043d\u0434\u0440\u043e\u0432\u0438\u0447",
    "rating": 0.12141333185286395
  },
  "40491": {
    "name": "\u0428\u043a\u0430\u0440\u0438\u043d\u0430 \u0421\u0432\u0435\u0442\u043b\u0430\u043d\u0430 \u0412\u0438\u043a\u0442\u043e\u0440\u043e\u0432\u043d\u0430",
    "rating": 0.005335619805791412
  },
  "40492": {
    "name": "\u0414\u0443\u043a\u0438\u043d \u041a\u043e\u043d\u0441\u0442\u0430\u043d\u0442\u0438\u043d \u0412\u0430\u0441\u0438\u043b\u044c\u0435\u0432\u0438\u0447",
    "rating": 0.3095528446256198
  },
  "40493": {
    "name": "\u0421\u0443\u0431\u0431\u043e\u0442\u0438\u043d \u0414\u043c\u0438\u0442\u0440\u0438\u0439 \u0421\u0435\u0440\u0433\u0435\u0435\u0432\u0438\u0447",
    "rating": 0.02814031279379197
  },
  "40494": {
    "name": "\u041a\u0443\u043f\u0440\u0438\u043d \u041d\u0438\u043a\u043e\u043b\u0430\u0439 \u041d\u0438\u043a\u043e\u043b\u0430\u0435\u0432\u0438\u0447",
    "rating": 1.0154399253851696
  },
  "40495": {
    "name": "\u041f\u043b\u0430\u0442\u043e\u043d\u043e\u0432\u0430 \u0410\u043d\u0430\u0441\u0442\u0430\u0441\u0438\u044f \u041d\u0438\u043a\u043e\u043b\u0430\u0435\u0432\u043d\u0430",
    "rating": 0.05445052989074358
  },
  "40496": {
    "name": "\u0413\u043e\u043b\u0443\u0431\u0435\u043d\u043a\u043e \u0421\u0435\u0440\u0433\u0435\u0439 \u041b\u044c\u0432\u043e\u0432\u0438\u0447",
    "rating": 0.13704757809814402
  },
  "40497": {
    "name": "\u041f\u0443\u0445\u043e\u0432 \u0421\u0435\u0440\u0433\u0435\u0439 \u0412\u0430\u0441\u0438\u043b\u044c\u0435\u0432\u0438\u0447",
    "rating": 0.03394653142497096
  },
  "40498": {
    "name": "\u0424\u0443\u043d\u0442\u0438\u043a\u043e\u0432 \u042e\u0440\u0438\u0439 \u0424\u0435\u043e\u0444\u0430\u043d\u043e\u0432\u0438\u0447",
    "rating": 4.0
  },
  "40499": {
    "name": "\u0414\u0443\u0431\u043d\u0438\u043a \u0410\u043d\u0430\u0442\u043e\u043b\u0438\u0439 \u0415\u0432\u0433\u0435\u043d\u044c\u0435\u0432\u0438\u0447",
    "rating": 1.3208138987104694
  },
  "40500": {
    "name": "\u0411\u0430\u043d\u0434\u0443\u0440\u0438\u043d \u041a\u043e\u043d\u0441\u0442\u0430\u043d\u0442\u0438\u043d \u0412\u0438\u043a\u0442\u043e\u0440\u043e\u0432\u0438\u0447",
    "rating": 0.035605325423801834
  },
  "40501": {
    "name": "\u0411\u0430\u0440\u0430\u043d\u043e\u0432 \u0410\u043b\u0435\u043a\u0441\u0435\u0439 \u0410\u043d\u0430\u0442\u043e\u043b\u044c\u0435\u0432\u0438\u0447",
    "rating": 1.1657096426306957
  },
  "40502": {
    "name": "\u041c\u0430\u0442\u0432\u0435\u0435\u0432\u0430 \u041b\u044e\u0434\u043c\u0438\u043b\u0430 \u0412\u0438\u0442\u0430\u043b\u044c\u0435\u0432\u043d\u0430",
    "rating": 0.005176167219028364
  },
  "40503": {
    "name": "\u041f\u0435\u0442\u0440\u043e\u0432 \u0410\u043d\u0434\u0440\u0435\u0439 \u0424\u0435\u0434\u043e\u0440\u043e\u0432\u0438\u0447",
    "rating": 1.2135669008724503
  },
  "40504": {
    "name": "\u0428\u0438\u043b\u0438\u043d \u0418\u0433\u043e\u0440\u044c \u0412\u043b\u0430\u0434\u0438\u043c\u0438\u0440\u043e\u0432\u0438\u0447",
    "rating": 0.3465677168364381
  },
  "40505": {
    "name": "\u041a\u0443\u0440\u0435\u043d\u043a\u043e\u0432 \u0414\u043c\u0438\u0442\u0440\u0438\u0439 \u041a\u043e\u043d\u0441\u0442\u0430\u043d\u0442\u0438\u043d\u043e\u0432\u0438\u0447",
    "rating": 0.005124068360046648
  },
  "40506": {
    "name": "\u0421\u0438\u043c\u0430\u043a\u043e\u0432 \u0421\u0435\u0440\u0433\u0435\u0439 \u0412\u0430\u0441\u0438\u043b\u044c\u0435\u0432\u0438\u0447",
    "rating": 2.0125984273144164
  },
  "40507": {
    "name": "\u041a\u0440\u0435\u043c\u0435\u043d\u044e\u043a \u0414\u043c\u0438\u0442\u0440\u0438\u0439 \u0418\u0432\u0430\u043d\u043e\u0432\u0438\u0447",
    "rating": 1.337582963100408
  },
  "40508": {
    "name": "\u0411\u0430\u0434\u044c\u0438\u043d\u0430 \u042e\u043b\u0438\u044f \u0410\u043b\u0435\u043a\u0441\u0430\u043d\u0434\u0440\u043e\u0432\u043d\u0430",
    "rating": 0.08272293323777231
  },
  "40509": {
    "name": "\u0417\u0434\u0435\u0442\u043e\u0432\u0435\u0442\u0441\u043a\u0438\u0439 \u0410\u043d\u0434\u0440\u0435\u0439 \u0413\u0435\u043e\u0440\u0433\u0438\u0435\u0432\u0438\u0447",
    "rating": 0.2701611323424309
  },
  "40510": {
    "name": "\u0421\u0435\u0434\u043e\u0432 \u0418\u0433\u043e\u0440\u044c \u041b\u0435\u043e\u043d\u0438\u0434\u043e\u0432\u0438\u0447",
    "rating": 0.13316215675484888
  },
  "40511": {
    "name": "\u0413\u0438\u043d\u043a\u0435\u043b\u044c \u0410\u043d\u0434\u0440\u0435\u0439 \u0412\u043b\u0430\u0434\u0438\u043c\u0438\u0440\u043e\u0432\u0438\u0447",
    "rating": 0.07390669374500107
  },
  "40512": {
    "name": "\u0411\u0443\u0440\u043a\u0430\u043d\u043e\u0432 \u0412\u0430\u0441\u0438\u043b\u0438\u0439 \u0418\u0432\u0430\u043d\u043e\u0432\u0438\u0447",
    "rating": 0.19410606066284453
  },
  "40513": {
    "name": "\u041c\u043e\u0440\u043e\u0437\u043e\u0432\u0430 \u0415\u043a\u0430\u0442\u0435\u0440\u0438\u043d\u0430 \u0412\u043b\u0430\u0434\u0438\u043c\u0438\u0440\u043e\u0432\u043d\u0430",
    "rating": 2.007775127549183
  },
  "40514": {
    "name": "\u041a\u0443\u0434\u0440\u044f\u0448\u043e\u0432 \u0421\u0442\u0430\u043d\u0438\u0441\u043b\u0430\u0432 \u0412\u043b\u0430\u0434\u0438\u043c\u0438\u0440\u043e\u0432\u0438\u0447",
    "rating": 0.023221518801343585
  },
  "40515": {
    "name": "\u0410\u0431\u0440\u0430\u043c\u043e\u0432\u0430 \u0415\u043a\u0430\u0442\u0435\u0440\u0438\u043d\u0430 \u0421\u0435\u0440\u0433\u0435\u0435\u0432\u043d\u0430",
    "rating": 2.010623083024891
  },
  "40516": {
    "name": "\u0411\u0443\u0440\u0443\u043b\u044c\u043a\u043e \u0410\u043d\u043d\u0430 \u0415\u0432\u0433\u0435\u043d\u044c\u0435\u0432\u043d\u0430",
    "rating": 0.05563704670792255
  },
  "40517": {
    "name": "\u0411\u044b\u0447\u0435\u043d\u043a\u043e\u0432\u0430 \u0410\u043b\u0435\u043a\u0441\u0430\u043d\u0434\u0440\u0430 \u0410\u043b\u0435\u043a\u0441\u0430\u043d\u0434\u0440\u043e\u0432\u043d\u0430",
    "rating": 4.0
  },
  "40518": {
    "name": "\u0411\u0443\u0434\u044b\u043a\u0438\u043d\u0430 \u041b\u044e\u0434\u043c\u0438\u043b\u0430 \u0418\u0432\u0430\u043d\u043e\u0432\u043d\u0430",
    "rating": 1.5676206042699348
  },
  "40519": {
    "name": "\u0410\u0432\u0434\u0435\u0435\u0432\u0430 \u041e\u043b\u044c\u0433\u0430 \u041f\u0430\u0432\u043b\u043e\u0432\u043d\u0430",
    "rating": 0.02248839117825173
  },
  "40520": {
    "name": "\u041a\u0438\u0441\u0435\u043b\u0435\u0432\u0430 \u041b\u0438\u043b\u0438\u044f \u0412\u0430\u0441\u0438\u043b\u044c\u0435\u0432\u043d\u0430",
    "rating": 0.5934443154175749
  },
  "40521": {
    "name": "\u041c\u0435\u0434\u0432\u0435\u0434\u0435\u0432 \u041c\u0438\u0445\u0430\u0438\u043b \u0421\u0435\u0440\u0433\u0435\u0435\u0432\u0438\u0447",
    "rating": 4.0
  },
  "40522": {
    "name": "\u041f\u0430\u0448\u043a\u0438\u043d\u0430 \u0415\u043b\u0435\u043d\u0430 \u0412\u043b\u0430\u0434\u0438\u043c\u0438\u0440\u043e\u0432\u043d\u0430",
    "rating": 0.023006587502581045
  },
  "40523": {
    "name": "\u0417\u0435\u043b\u0435\u043d\u0443\u0445\u0438\u043d \u0421\u0435\u0440\u0433\u0435\u0439 \u0410\u043b\u0435\u043a\u0441\u0435\u0435\u0432\u0438\u0447",
    "rating": 0.05878868104464706
  },
  "40524": {
    "name": "\u0411\u0430\u0440\u0441\u0443\u043a\u043e\u0432 \u0412\u043b\u0430\u0434\u0438\u043c\u0438\u0440 \u042e\u0440\u044c\u0435\u0432\u0438\u0447",
    "rating": 0.034861229343034414
  },
  "40525": {
    "name": "\u0413\u0430\u043b\u043a\u0438\u043d \u0410\u043d\u0434\u0440\u0435\u0439 \u0412\u0438\u043a\u0442\u043e\u0440\u043e\u0432\u0438\u0447",
    "rating": 1.0418049362751018
  },
  "40526": {
    "name": "\u0416\u0430\u0440\u0438\u043a \u041c\u0430\u0440\u0438\u043d\u0430 \u041d\u0438\u043a\u043e\u043b\u0430\u0435\u0432\u043d\u0430",
    "rating": 0.2213250925717728
  },
  "40527": {
    "name": "\u041d\u0443\u0440\u043c\u0430\u0433\u043e\u043c\u0435\u0434\u043e\u0432 \u0417\u0443\u0440\u0430\u0431 \u0418\u0441\u0430\u0435\u0432\u0438\u0447",
    "rating": 0.1650364909471998
  },
  "40528": {
    "name": "\u041a\u043e\u0441\u043c\u044b\u043d\u0438\u043d\u0430 \u042e\u043b\u0438\u044f \u0421\u0435\u0440\u0433\u0435\u0435\u0432\u043d\u0430",
    "rating": 0.014873948091713569
  },
  "40529": {
    "name": "\u0428\u0438\u0431\u0430\u0440\u043e\u0432 \u0414\u043c\u0438\u0442\u0440\u0438\u0439 \u041c\u0438\u0445\u0430\u0439\u043b\u043e\u0432\u0438\u0447",
    "rating": 0.02098749349905864
  },
  "40530": {
    "name": "\u0411\u043e\u043d\u0434\u0430\u0440\u0435\u043d\u043a\u043e \u0415\u043b\u0435\u043d\u0430 \u041d\u0438\u043a\u043e\u043b\u0430\u0435\u0432\u043d\u0430",
    "rating": 2.0089519655698793
  },
  "40531": {
    "name": "\u0411\u0435\u0434\u043d\u044f\u043a\u043e\u0432 \u0412\u0430\u0434\u0438\u043c \u0413\u0440\u0438\u0433\u043e\u0440\u044c\u0435\u0432\u0438\u0447",
    "rating": 0.018036855080398418
  },
  "40532": {
    "name": "\u0421\u0443\u0441\u043b\u043e\u0432 \u0414\u043c\u0438\u0442\u0440\u0438\u0439 \u041c\u0438\u0445\u0430\u0439\u043b\u043e\u0432\u0438\u0447",
    "rating": 0.31407897286601155
  },
  "40533": {
    "name": "\u041e\u0441\u0442\u0430\u043f\u0435\u043d\u043a\u043e \u0412\u0430\u0434\u0438\u043c \u0412\u0438\u043a\u0442\u043e\u0440\u043e\u0432\u0438\u0447",
    "rating": 0.009692992339930198
  },
  "40534": {
    "name": "\u0411\u0438\u043b\u0430\u0448\u0435\u043d\u043a\u043e \u041d\u0430\u0434\u0435\u0436\u0434\u0430 \u0410\u043b\u0435\u043a\u0441\u0435\u0435\u0432\u043d\u0430",
    "rating": 0.023186724311821245
  },
  "40535": {
    "name": "\u041b\u0438\u0442\u0432\u0438\u043d\u043e\u0432 \u0421\u0435\u0440\u0433\u0435\u0439 \u0412\u0430\u0441\u0438\u043b\u044c\u0435\u0432\u0438\u0447",
    "rating": 3.118686822797641
  },
  "40536": {
    "name": "\u0413\u0443\u043b\u0435\u0432\u0430 \u041d\u0430\u0442\u0430\u043b\u044c\u044f \u0410\u043b\u0435\u043a\u0441\u0435\u0435\u0432\u043d\u0430",
    "rating": 0.015878271860477338
  },
  "40537": {
    "name": "\u0414\u043e\u0441\u0443\u043c\u0431\u0435\u0442\u043e\u0432\u0430 \u0410\u043b\u0438\u044f \u041a\u0443\u0430\u043d\u0434\u043e\u043a\u043e\u0432\u043d\u0430",
    "rating": 0.016627943732548247
  },
  "40538": {
    "name": "\u0410\u0448\u0430\u0440\u0438\u043d \u0412\u0438\u043a\u0442\u043e\u0440 \u0412\u0430\u0441\u0438\u043b\u044c\u0435\u0432\u0438\u0447",
    "rating": 0.010994790510956738
  },
  "40539": {
    "name": "\u041c\u0430\u043b\u0430\u0448\u0435\u043d\u043a\u043e \u0410\u043b\u0435\u043a\u0441\u0430\u043d\u0434\u0440 \u0421\u0435\u0440\u0433\u0435\u0435\u0432\u0438\u0447",
    "rating": 1.0221177224762763
  },
  "40540": {
    "name": "\u041c\u0430\u043a\u0430\u0440\u043e\u0432\u0430 \u0410\u043d\u043d\u0430 \u0412\u0430\u043b\u0435\u0440\u044c\u0435\u0432\u043d\u0430",
    "rating": 0.04325503317027245
  },
  "40541": {
    "name": "\u0415\u0440\u0435\u043c\u0438\u043d \u0410\u043b\u0435\u043a\u0441\u0435\u0439 \u0418\u0433\u043e\u0440\u0435\u0432\u0438\u0447",
    "rating": 0.013419124050537395
  },
  "40542": {
    "name": "\u041f\u0435\u043b\u0435\u0432\u0438\u043d \u0415\u0432\u0433\u0435\u043d\u0438\u0439 \u0410\u043b\u0435\u043a\u0441\u0430\u043d\u0434\u0440\u043e\u0432\u0438\u0447",
    "rating": 0.015398979842002896
  },
  "40543": {
    "name": "\u041f\u044f\u0442\u0438\u043d \u0414\u043c\u0438\u0442\u0440\u0438\u0439 \u0412\u043b\u0430\u0434\u0438\u043c\u0438\u0440\u043e\u0432\u0438\u0447",
    "rating": 0.04541914737143903
  }
}