{
  "12878": {
    "name": "\u0410\u0434\u0443\u0447\u0438\u0435\u0432 \u0411\u0430\u0442\u043e\u0440 \u041a\u0430\u043d\u0443\u0440\u043e\u0432\u0438\u0447",
    "rating": 4.994275275704628
  },
  "12879": {
    "name": "\u0411\u0430\u0434\u043c\u0430\u0435\u0432 \u0421\u0435\u0440\u0433\u0435\u0439 \u041f\u0435\u0442\u0440\u043e\u0432\u0438\u0447",
    "rating": 3.5269948487406433
  },
  "12880": {
    "name": "\u0411\u0430\u043a\u0438\u043d\u043e\u0432\u0430 \u0421\u0430\u0433\u043b\u0430\u0440 \u0410\u043b\u0435\u043a\u0441\u0430\u043d\u0434\u0440\u043e\u0432\u043d\u0430",
    "rating": 1.2200872728914038
  },
  "12881": {
    "name": "\u0411\u0430\u043b\u0430\u043a\u043b\u0435\u0435\u0446 \u041b\u044e\u0434\u043c\u0438\u043b\u0430 \u0418\u0432\u0430\u043d\u043e\u0432\u043d\u0430",
    "rating": 4.994275275704628
  },
  "12882": {
    "name": "\u0411\u0430\u043b\u0434\u0430\u0448\u0438\u043d\u043e\u0432 \u0412\u043b\u0430\u0434\u0438\u043b\u0435\u043d \u041b\u044c\u0432\u043e\u0432\u0438\u0447",
    "rating": 1.1819541504762847
  },
  "12883": {
    "name": "\u0411\u0430\u043c\u0431\u044b\u0448\u0435\u0432 \u0418\u043b\u044c\u044f \u0410\u043d\u0442\u043e\u043d\u043e\u0432\u0438\u0447",
    "rating": 1.3476392960409536
  },
  "12884": {
    "name": "\u0411\u0430\u0441\u0430\u043d\u0433\u043e\u0432 \u0421\u0435\u0440\u0433\u0435\u0439 \u042e\u0440\u044c\u0435\u0432\u0438\u0447",
    "rating": 1.072817367699361
  },
  "12885": {
    "name": "\u0411\u043e\u043b\u0434\u044b\u0440\u0435\u0432 \u0412\u0430\u043b\u0435\u0440\u0438\u0439 \u0410\u0441\u0442\u0430\u0435\u0432\u0438\u0447",
    "rating": 4.994275275704628
  },
  "12886": {
    "name": "\u0412\u0430\u043d\u044c\u043a\u0430\u0435\u0432 \u0411\u0430\u0442\u0440 \u0411\u043e\u0440\u0438\u0441\u043e\u0432\u0438\u0447",
    "rating": 1.071198352627705
  },
  "12887": {
    "name": "\u0413\u0430\u0433\u0443\u0435\u0432 \u042d\u0440\u0434\u043d\u0438 \u0410\u0440\u043a\u0430\u0434\u044c\u0435\u0432\u0438\u0447",
    "rating": 2.4621873902133404
  },
  "12888": {
    "name": "\u0413\u043b\u0443\u0448\u043a\u043e \u0418\u0440\u0438\u043d\u0430 \u0410\u043b\u0435\u043a\u0441\u0435\u0435\u0432\u043d\u0430",
    "rating": 5.975044506473858
  },
  "12889": {
    "name": "\u0414\u0430\u0432\u0430\u043d\u043e\u0432 \u0413\u0435\u043d\u043d\u0430\u0434\u0438\u0439 \u0421\u0435\u0440\u0433\u0435\u0435\u0432\u0438\u0447",
    "rating": 4.994275275704628
  },
  "12890": {
    "name": "\u0418\u0433\u043d\u0430\u0442\u0435\u043d\u043a\u043e \u042d\u0434\u0443\u0430\u0440\u0434 \u0412\u043b\u0430\u0434\u0438\u043c\u0438\u0440\u043e\u0432\u0438\u0447",
    "rating": 5.975044506473858
  },
  "12891": {
    "name": "\u041a\u0438\u0440\u043f\u0438\u043b\u0435\u0432 \u041a\u043e\u043d\u0441\u0442\u0430\u043d\u0442\u0438\u043d \u0421\u0435\u0440\u0433\u0435\u0435\u0432\u0438\u0447",
    "rating": 2.4977343345268443
  },
  "12892": {
    "name": "\u041a\u043e\u0437\u0430\u0447\u043a\u043e \u0410\u043d\u0430\u0442\u043e\u043b\u0438\u0439 \u0412\u0430\u0441\u0438\u043b\u044c\u0435\u0432\u0438\u0447",
    "rating": 2.406967098444926
  },
  "12893": {
    "name": "\u041c\u0430\u043a\u0430\u0440\u0435\u043d\u043a\u043e \u0413\u0430\u043b\u0438\u043d\u0430 \u041c\u0438\u0445\u0430\u0439\u043b\u043e\u0432\u043d\u0430",
    "rating": 5.975044506473858
  },
  "12894": {
    "name": "\u041c\u0443\u0434\u0430\u0435\u0432 \u0412\u043b\u0430\u0434\u0438\u043c\u0438\u0440 \u041c\u0443\u0442\u043b\u044f\u0435\u0432\u0438\u0447",
    "rating": 3.0930273769691317
  },
  "12895": {
    "name": "\u041c\u0443\u0442\u0443\u043b\u043e\u0432 \u041c\u0438\u0445\u0430\u0438\u043b \u041d\u0438\u043a\u043e\u043b\u0430\u0435\u0432\u0438\u0447",
    "rating": 2.5283285429366926
  },
  "12896": {
    "name": "\u041d\u0443\u0440\u043e\u0432 \u041d\u0438\u043a\u043e\u043b\u0430\u0439 \u042d\u0440\u0434\u043d\u0435\u0435\u0432\u0438\u0447",
    "rating": 1.3508760213607354
  },
  "12897": {
    "name": "\u0420\u0443\u0434\u0435\u043d\u043a\u043e \u0422\u0430\u0442\u044c\u044f\u043d\u0430 \u0410\u043d\u0430\u0442\u043e\u043b\u044c\u0435\u0432\u043d\u0430",
    "rating": 2.2335479204402438
  },
  "12898": {
    "name": "\u0421\u0430\u043b\u0430\u0435\u0432 \u0411\u0430\u0434\u043c\u0430 \u041a\u0430\u0442\u0438\u043d\u043e\u0432\u0438\u0447",
    "rating": 1.2384924794357064
  },
  "12899": {
    "name": "\u0421\u0430\u043d\u0433\u0430\u0434\u0436\u0438\u0435\u0432 \u0414\u043c\u0438\u0442\u0440\u0438\u0439 \u041c\u0435\u043d\u0433\u0438\u044f\u043d\u043e\u0432\u0438\u0447",
    "rating": 4.013506044935397
  },
  "12900": {
    "name": "\u0421\u0430\u043d\u0433\u0430\u0434\u0436\u0438-\u0413\u043e\u0440\u044f\u0435\u0432 \u0421\u0435\u0440\u0433\u0435\u0439 \u0410\u043d\u0434\u0440\u0435\u0435\u0432\u0438\u0447",
    "rating": 2.0519675833969355
  },
  "12901": {
    "name": "\u0421\u0430\u043d\u0434\u0436\u0438\u0435\u0432\u0430 \u041b\u0438\u043b\u0438\u044f \u0412\u043b\u0430\u0434\u0438\u043c\u0438\u0440\u043e\u0432\u043d\u0430",
    "rating": 1.083580654122571
  },
  "12902": {
    "name": "\u0423\u043d\u043a\u043e\u0432\u0430 \u0422\u0430\u0442\u044c\u044f\u043d\u0430 \u0413\u0435\u043d\u0440\u0438\u0445\u043e\u0432\u043d\u0430",
    "rating": 3.757046187834649
  },
  "12903": {
    "name": "\u0428\u0430\u043b\u0445\u0430\u043d\u043e\u0432\u0430 \u0414\u0430\u043d\u0430\u0440\u0430 \u0411\u043e\u0440\u0438\u0441\u043e\u0432\u043d\u0430",
    "rating": 2.0714864052146127
  },
  "12904": {
    "name": "\u042d\u043b\u044c\u0431\u0438\u043a\u043e\u0432 \u0425\u043e\u043d\u0433\u043e\u0440 \u0411\u0430\u0434\u043c\u0430\u0435\u0432\u0438\u0447",
    "rating": 0.15452346595801986
  },
  "12905": {
    "name": "\u042d\u0440\u0435\u043d\u0436\u0435\u043d\u043e\u0432 \u0410\u043b\u0435\u043a\u0441\u0430\u043d\u0434\u0440 \u0411\u0443\u043b\u044c\u0447\u0430\u0435\u0432\u0438\u0447",
    "rating": 4.0
  },
  "22925": {
    "name": "\u0411\u043e\u0433\u0430\u0435\u0432 \u0412\u0430\u043b\u0435\u0440\u0438\u0439 \u0411\u043e\u0440\u0438\u0441\u043e\u0432\u0438\u0447",
    "rating": 2.580783333695372
  }
}