{
  "40817": {
    "name": "\u0410\u043d\u0438\u0441\u0438\u043c\u043e\u0432\u0430 \u041e\u043b\u044c\u0433\u0430 \u041c\u0438\u0445\u0430\u0439\u043b\u043e\u0432\u043d\u0430",
    "rating": 2.209461985284219
  },
  "40854": {
    "name": "\u0412\u0435\u0434\u0435\u0440\u043d\u0438\u043a\u043e\u0432\u0430 \u0410\u043d\u043d\u0430 \u041d\u0438\u043a\u043e\u043b\u0430\u0435\u0432\u043d\u0430",
    "rating": 1.85792089172501
  },
  "40855": {
    "name": "\u041d\u0430\u0439\u0434\u0435\u0448\u043a\u0438\u043d\u0430 \u041e\u043b\u044c\u0433\u0430 \u041b\u0430\u0432\u0440\u0435\u043d\u0442\u044c\u0435\u0432\u043d\u0430",
    "rating": 4.0
  }
}