{
  "12974": {
    "name": "\u0410\u043a\u0431\u0430\u0435\u0432 \u0420\u0435\u043d\u0430\u0442 \u0410\u043d\u0437\u043e\u0440\u043e\u0432\u0438\u0447",
    "rating": 5.970796123076508
  },
  "12975": {
    "name": "\u0411\u0438\u0434\u0436\u0435\u0432 \u0418\u0441\u043c\u0435\u043b\u044c \u0410\u0431\u0434\u0443\u043b-\u0413\u0430\u0437\u0438\u0437\u043e\u0432\u0438\u0447",
    "rating": 4.9985739008542875
  },
  "12976": {
    "name": "\u0411\u043e\u0440\u043e\u0434\u043a\u0438\u043d \u0412\u0438\u043a\u0442\u043e\u0440 \u041f\u0435\u0442\u0440\u043e\u0432\u0438\u0447",
    "rating": 2.119141387086308
  },
  "12977": {
    "name": "\u0412\u043b\u0430\u0441\u0435\u043d\u043a\u043e \u041d\u0430\u0442\u0430\u043b\u044c\u044f \u041d\u0438\u043a\u043e\u043b\u0430\u0435\u0432\u043d\u0430",
    "rating": 4.9985739008542875
  },
  "12978": {
    "name": "\u0413\u0435\u0440\u0431\u0435\u043a\u043e\u0432 \u0420\u0443\u0441\u043b\u0430\u043d \u0410\u0441\u043a\u0435\u0440\u0431\u0438\u0435\u0432\u0438\u0447",
    "rating": 1.5787644732555013
  },
  "12979": {
    "name": "\u0413\u043e\u0447\u0438\u044f\u0435\u0432 \u0410\u0434\u0430\u043c \u0425\u0430\u043c\u0437\u0430\u0442\u043e\u0432\u0438\u0447",
    "rating": 3.1732956644260697
  },
  "12980": {
    "name": "\u0414\u0437\u0443\u0433\u043e\u0432 \u0417\u0430\u0443\u0440 \u0413\u0443\u0437\u0435\u0440\u043e\u0432\u0438\u0447",
    "rating": 4.9985739008542875
  },
  "12981": {
    "name": "\u0416\u0435\u0434\u044f\u0435\u0432 \u041e\u043b\u0435\u0433 \u0415\u0432\u0433\u0435\u043d\u044c\u0435\u0432\u0438\u0447",
    "rating": 2.130322343484504
  },
  "12982": {
    "name": "\u0418\u0432\u0430\u043d\u043e\u0432 \u0410\u043b\u0435\u043a\u0441\u0430\u043d\u0434\u0440 \u0418\u0433\u043e\u0440\u0435\u0432\u0438\u0447",
    "rating": 3.8085881076412815
  },
  "12983": {
    "name": "\u041a\u0430\u0437\u0430\u043d\u043e\u043a\u043e\u0432 \u041a\u0440\u044b\u043c \u041e\u043b\u0438\u0435\u0432\u0438\u0447",
    "rating": 2.2590544449538354
  },
  "12984": {
    "name": "\u041a\u0430\u0437\u0438\u043d\u043e\u0432 \u0420\u0443\u0441\u043b\u0430\u043d \u0418\u0431\u0440\u0430\u0433\u0438\u043c\u043e\u0432\u0438\u0447",
    "rating": 4.0263516786320634
  },
  "12985": {
    "name": "\u041b\u0430\u0439\u043f\u0430\u043d\u043e\u0432 \u0423\u043c\u0430\u0440 \u041c\u0443\u0440\u0430\u0442\u0431\u0438\u0435\u0432\u0438\u0447",
    "rating": 2.437016114320917
  },
  "12986": {
    "name": "\u041b\u0430\u0441\u043a\u043e\u0432 \u0421\u0435\u0440\u0433\u0435\u0439 \u0424\u0438\u043b\u0438\u043f\u043f\u043e\u0432\u0438\u0447",
    "rating": 1.142088303399012
  },
  "12987": {
    "name": "\u041c\u0438\u043d\u0430\u0441\u043e\u0432 \u0410\u043b\u0435\u043a\u0441\u0430\u043d\u0434\u0440 \u0421\u0435\u0440\u0433\u0435\u0435\u0432\u0438\u0447",
    "rating": 1.6531233514980817
  },
  "12988": {
    "name": "\u0421\u043c\u0430\u043a\u0443\u0435\u0432 \u0414\u0430\u0433\u0438\u0440 \u0420\u0430\u043c\u0430\u0437\u0430\u043d\u043e\u0432\u0438\u0447",
    "rating": 1.6011458623212378
  },
  "12989": {
    "name": "\u0423\u043c\u0430\u043b\u0430\u0442\u043e\u0432 \u0412\u043b\u0430\u0434\u0438\u043c\u0438\u0440 \u0410\u043c\u0435\u0440\u0431\u0438\u0435\u0432\u0438\u0447",
    "rating": 2.735344317623825
  },
  "12990": {
    "name": "\u0425\u0430\u0431\u043e\u0432 \u0420\u0443\u0441\u043b\u0430\u043d \u0425\u0443\u0441\u0435\u0435\u0432\u0438\u0447",
    "rating": 2.9650489892425997
  },
  "12991": {
    "name": "\u0427\u0435\u0440\u0432\u043e\u043d\u043e\u0432\u0430 \u0415\u043b\u0435\u043d\u0430 \u0415\u0432\u0433\u0435\u043d\u044c\u0435\u0432\u043d\u0430",
    "rating": 4.9985739008542875
  },
  "12992": {
    "name": "\u042d\u0431\u0437\u0435\u0435\u0432 \u0410\u0445\u043c\u0430\u0442 \u0410\u0441\u043a\u0435\u0440\u0431\u0438\u0435\u0432\u0438\u0447",
    "rating": 1.2537554089239529
  },
  "22989": {
    "name": "\u0410\u0440\u0430\u0448\u0443\u043a\u043e\u0432 \u0420\u0430\u0443\u043b\u044c \u0422\u0443\u0440\u043a\u0431\u0438\u0435\u0432\u0438\u0447",
    "rating": 0.1921473763142888
  },
  "22990": {
    "name": "\u0411\u0430\u043b\u0435\u0433\u0430 \u042e\u0440\u0438\u0439 \u042e\u0440\u044c\u0435\u0432\u0438\u0447",
    "rating": 1.0706077039477808
  },
  "22991": {
    "name": "\u0411\u043e\u043b\u0443\u0440\u043e\u0432 \u041a\u0430\u0437\u0431\u0435\u043a \u0410\u043b\u0438\u043c\u0443\u0440\u0430\u0442\u043e\u0432\u0438\u0447",
    "rating": 4.0
  },
  "22992": {
    "name": "\u0411\u043e\u0442\u0430\u0448\u0435\u0432 \u0410\u043d\u0437\u043e\u0440 \u0410\u0437\u0440\u0435\u0442\u0430\u043b\u0438\u0435\u0432\u0438\u0447",
    "rating": 1.367183282105786
  },
  "22993": {
    "name": "\u0411\u043e\u0442\u0430\u0448\u0435\u0432 \u0420\u0430\u0441\u0443\u043b \u0411\u043e\u0440\u0438\u0441\u043e\u0432\u0438\u0447",
    "rating": 1.7985585803207451
  },
  "22994": {
    "name": "\u0413\u0430\u043d\u0448\u0438\u043d \u0410\u043b\u0435\u043a\u0441\u0435\u0439 \u0412\u0430\u0441\u0438\u043b\u044c\u0435\u0432\u0438\u0447",
    "rating": 4.0
  },
  "22995": {
    "name": "\u0414\u0435\u0441\u044e\u043d \u0421\u0435\u0440\u0433\u0435\u0439 \u0413\u0435\u043e\u0440\u0433\u0438\u0435\u0432\u0438\u0447",
    "rating": 1.3400228516674697
  },
  "22996": {
    "name": "\u0414\u0435\u0440\u0435\u0432 \u042d\u0434\u0443\u0430\u0440\u0434 \u0412\u044f\u0447\u0435\u0441\u043b\u0430\u0432\u043e\u0432\u0438\u0447",
    "rating": 3.0
  },
  "22997": {
    "name": "\u0414\u0436\u0443\u043c\u0430\u0435\u0432 \u0425\u0430\u043c\u0437\u0435\u0442 \u0414\u0430\u0432\u043b\u0435\u0442\u043e\u0432\u0438\u0447",
    "rating": 4.0
  },
  "22998": {
    "name": "\u0414\u0443\u0434\u043a\u0438\u043d\u0430 \u041c\u0430\u0440\u0438\u043d\u0430 \u0410\u043b\u0435\u043a\u0441\u0430\u043d\u0434\u0440\u043e\u0432\u043d\u0430",
    "rating": 0.2314329242671193
  },
  "22999": {
    "name": "\u041a\u0430\u0437\u0438\u0435\u0432\u0430 \u0421\u0432\u0435\u0442\u043b\u0430\u043d\u0430 \u0417\u0430\u0443\u0440\u043e\u0432\u043d\u0430",
    "rating": 0.012424842655072987
  },
  "23000": {
    "name": "\u041a\u0430\u0440\u0434\u0430\u043d\u043e\u0432 \u041c\u0443\u0440\u0430\u0434\u0438\u043d \u0421\u043e\u043b\u0442\u0430\u043d\u043e\u0432\u0438\u0447",
    "rating": 0.11811352608500182
  },
  "23001": {
    "name": "\u041a\u043e\u0434\u0436\u0430\u043a\u043e\u0432 \u041e\u043b\u0435\u0433 \u042e\u043d\u0443\u0441\u043e\u0432\u0438\u0447",
    "rating": 2.0604627736489496
  },
  "23002": {
    "name": "\u041a\u043e\u0440\u043a\u043c\u0430\u0437\u043e\u0432 \u0410\u0440\u0442\u0443\u0440 \u0410\u0431\u0440\u0435\u043a\u043e\u0432\u0438\u0447",
    "rating": 4.0
  },
  "23003": {
    "name": "\u041a\u0443\u043c\u0443\u043a\u043e\u0432 \u041c\u0430\u0440\u0430\u0442 \u0412\u043b\u0430\u0434\u0438\u043c\u0438\u0440\u043e\u0432\u0438\u0447",
    "rating": 0.18048878086757825
  },
  "23004": {
    "name": "\u041b\u0430\u0439\u043f\u0430\u043d\u043e\u0432 \u041c\u0443\u0440\u0430\u0434\u0438\u043d \u0425\u0443\u0441\u0435\u0435\u0432\u0438\u0447",
    "rating": 2.172441193034215
  },
  "23005": {
    "name": "\u041b\u044f\u0448\u043e\u0432\u0430 \u0415\u043b\u0435\u043d\u0430 \u0412\u043b\u0430\u0434\u0438\u043c\u0438\u0440\u043e\u0432\u043d\u0430",
    "rating": 1.0476298805311153
  },
  "23006": {
    "name": "\u041c\u0435\u0440\u0435\u043c\u043a\u0443\u043b\u043e\u0432 \u0410\u0431\u0438\u0434\u0438\u043d \u0412\u043b\u0430\u0434\u0438\u043c\u0438\u0440\u043e\u0432\u0438\u0447",
    "rating": 2.0
  },
  "23007": {
    "name": "\u041c\u0438\u0445\u0430\u0439\u043b\u043e\u0432\u0438\u0447 \u041c\u0443\u0440\u0430\u0442\u0445\u0430\u043d \u0410\u0434\u0436\u0438\u0433\u0435\u0440\u0435\u0435\u0432\u043d\u0430",
    "rating": 4.0
  },
  "23008": {
    "name": "\u041c\u0443\u0440\u0430\u0434\u043e\u0432 \u041d\u0438\u043a\u043e\u043b\u0430\u0439 \u042e\u0440\u044c\u0435\u0432\u0438\u0447",
    "rating": 0.9685738047260656
  },
  "23009": {
    "name": "\u041d\u0435\u0445\u043e\u0440\u043e\u0448\u0435\u0432\u0430 \u0418\u043d\u043d\u0430 \u0418\u0432\u0430\u043d\u043e\u0432\u043d\u0430",
    "rating": 1.7678376852539264
  },
  "23010": {
    "name": "\u0421\u0430\u0432\u0435\u043d\u043a\u043e \u0410\u043b\u0435\u043a\u0441\u0430\u043d\u0434\u0440 \u041d\u0438\u043a\u043e\u043b\u0430\u0435\u0432\u0438\u0447",
    "rating": 1.7224735728433844
  },
  "23011": {
    "name": "\u0421\u0430\u043b\u043f\u0430\u0433\u0430\u0440\u043e\u0432 \u0425\u0430\u0441\u0430\u043d \u041a\u044b\u043b\u044b\u0447\u0431\u0438\u0435\u0432\u0438\u0447",
    "rating": 4.0
  },
  "23012": {
    "name": "\u0421\u0438\u043b\u044e\u0442\u0438\u043d \u0421\u0435\u0440\u0433\u0435\u0439 \u0412\u043b\u0430\u0434\u0438\u043c\u0438\u0440\u043e\u0432\u0438\u0447",
    "rating": 0.3517203189042237
  },
  "23013": {
    "name": "\u0422\u0435\u043a\u0435\u0435\u0432 \u0418\u043b\u044c\u044f\u0441 \u0423\u043c\u0430\u0440\u043e\u0432\u0438\u0447",
    "rating": 0.02366482460533053
  },
  "23014": {
    "name": "\u0425\u0430\u043f\u0441\u0438\u0440\u043e\u043a\u043e\u0432 \u0410\u043b\u0438 \u0414\u0436\u0430\u043c\u0431\u043e\u0442\u043e\u0432\u0438\u0447",
    "rating": 3.0
  },
  "23015": {
    "name": "\u0425\u0430\u043f\u0447\u0430\u0435\u0432 \u0421\u0430\u043b\u044b\u0445 \u042e\u0441\u0443\u0444\u043e\u0432\u0438\u0447",
    "rating": 1.2748086831514482
  },
  "23016": {
    "name": "\u0425\u043e\u0445\u043b\u0430\u0447\u0435\u0432 \u0421\u0435\u0440\u0433\u0435\u0439 \u041d\u0438\u043a\u043e\u043b\u0430\u0435\u0432\u0438\u0447",
    "rating": 2.7272434832155428
  },
  "23017": {
    "name": "\u0425\u0443\u0431\u0438\u0435\u0432 \u0425\u0430\u0441\u0430\u043d \u041c\u0430\u0433\u043e\u043c\u0435\u0434\u043e\u0432\u0438\u0447",
    "rating": 5.0
  },
  "23018": {
    "name": "\u0427\u0435\u043a\u0443\u043d\u043e\u0432 \u0425\u0443\u0441\u0435\u0439 \u0422\u0430\u0443-\u0421\u0443\u043b\u0442\u0430\u043d\u043e\u0432\u0438\u0447",
    "rating": 4.0
  },
  "23019": {
    "name": "\u0427\u0435\u043a\u043a\u0443\u0435\u0432 \u0425\u044b\u0437\u044b\u0440 \u0423\u043c\u0430\u0440\u043e\u0432\u0438\u0447",
    "rating": 4.0
  },
  "23020": {
    "name": "\u0427\u043e\u0442\u0447\u0430\u0435\u0432\u0430 \u0420\u043e\u0437\u0430 \u0410\u0443\u0431\u0435\u043a\u0438\u0440\u043e\u0432\u043d\u0430",
    "rating": 4.0
  }
}