{
  "41038": {
    "name": "\u041f\u0440\u0443\u0434\u043d\u0438\u043a\u043e\u0432 \u0412\u0430\u043b\u0435\u0440\u0438\u0439 \u041b\u0435\u043e\u043d\u0438\u0434\u043e\u0432\u0438\u0447",
    "rating": 1.9591384589685523
  },
  "41039": {
    "name": "\u0413\u043b\u0430\u0437\u0443\u043d\u043e\u0432\u0430 \u0410\u043d\u043d\u0430 \u041f\u0430\u0432\u043b\u043e\u0432\u043d\u0430",
    "rating": 0.0035658349684064227
  },
  "41040": {
    "name": "\u041c\u0438\u043b\u043e\u0432\u0430\u043d\u043e\u0432 \u0410\u043d\u0434\u0440\u0435\u0439 \u0410\u043b\u0435\u043a\u0441\u0430\u043d\u0434\u0440\u043e\u0432\u0438\u0447",
    "rating": 1.091661450686828
  }
}