{
  "41053": {
    "name": "\u041a\u0443\u043b\u0438\u043a\u043e\u0432\u0430 \u041b\u044e\u0434\u043c\u0438\u043b\u0430 \u0410\u043b\u0435\u043a\u0441\u0430\u043d\u0434\u0440\u043e\u0432\u043d\u0430",
    "rating": 1.0167681911337825
  },
  "41054": {
    "name": "\u0411\u0440\u044f\u043d\u0446\u0435\u0432 \u0412\u0430\u043b\u0435\u0440\u0438\u0439 \u0418\u043b\u044c\u0438\u0447",
    "rating": 1.407825869201416
  }
}