{
  "41057": {
    "name": "\u041c\u043e\u0440\u0433\u0430\u0447\u0435\u0432 \u041c\u0438\u0445\u0430\u0438\u043b \u0412\u043b\u0430\u0434\u0438\u043c\u0438\u0440\u043e\u0432\u0438\u0447",
    "rating": 0.2138954936394992
  },
  "41058": {
    "name": "\u0428\u0430\u043b\u0430\u0435\u0432\u0441\u043a\u0430\u044f \u0421.\u0412. ",
    "rating": 0.04624521167984092
  },
  "41059": {
    "name": "\u041a\u0438\u043b\u0438\u043d \u042e\u0440\u0438\u0439 \u0410\u043b\u0435\u043a\u0441\u0435\u0435\u0432\u0438\u0447",
    "rating": 0.5129171724909115
  }
}