{
  "41067": {
    "name": "\u0421\u0435\u0440\u0435\u0434\u043d\u044f\u043a\u043e\u0432 \u0410\u043d\u0434\u0440\u0435\u0439 \u0413\u0435\u043d\u043d\u0430\u0434\u044c\u0435\u0432\u0438\u0447",
    "rating": 0.012359620095024313
  },
  "41068": {
    "name": "\u041d\u0438\u043c\u0433\u0438\u0440\u043e\u0432 \u0410\u0440\u0441\u043b\u0430\u043d \u0415\u0433\u043e\u0440\u043e\u0432\u0438\u0447",
    "rating": 0.02542079009572631
  }
}