{
  "41072": {
    "name": "\u041a\u043e\u0440\u043e\u043b\u0435\u0432 \u0412\u0430\u0434\u0438\u043c \u0412\u043b\u0430\u0434\u0438\u043c\u0438\u0440\u043e\u0432\u0438\u0447",
    "rating": 0.1316300003354315
  },
  "41073": {
    "name": "\u041e\u0441\u0438\u043d\u043e\u0432\u0430\u0442\u0438\u043a\u043e\u0432\u0430 \u041d\u0430\u0442\u0430\u043b\u0438\u044f \u041f\u0430\u0432\u043b\u043e\u0432\u043d\u0430",
    "rating": 0.05533341936136385
  }
}