{
  "41090": {
    "name": "\u0410\u0440\u0431\u0443\u0437\u043e\u0432 \u0418\u0433\u043e\u0440\u044c \u041b\u0435\u043e\u043d\u0438\u0434\u043e\u0432\u0438\u0447",
    "rating": 0.07634774023607906
  },
  "41091": {
    "name": "\u041f\u043e\u0445\u043e\u0436\u0430\u0435\u0432 \u041a\u0438\u0440\u0438\u043b\u043b \u041e\u043b\u0435\u0433\u043e\u0432\u0438\u0447",
    "rating": 0.04000196983271656
  }
}