{
  "41092": {
    "name": "\u0422\u0435\u043f\u043b\u043e\u0432\u0430 \u0422\u0430\u0442\u044c\u044f\u043d\u0430 \u0415\u0432\u0433\u0435\u043d\u044c\u0435\u0432\u043d\u0430",
    "rating": 0.08780091468649001
  },
  "41093": {
    "name": "\u0410\u0441\u0442\u0440\u0430\u0445\u0430\u043d\u043e\u0432 \u0414\u043c\u0438\u0442\u0440\u0438\u0439 \u042e\u0440\u044c\u0435\u0432\u0438\u0447",
    "rating": 1.087009413883145
  }
}