{
  "15273": {
    "name": "\u0410\u043b\u0435\u043a\u0441\u0430\u043d\u0434\u0440\u043e\u0432 \u0412\u044f\u0447\u0435\u0441\u043b\u0430\u0432 \u041d\u0438\u043a\u043e\u043b\u0430\u0435\u0432\u0438\u0447",
    "rating": 2.6928191498333787
  },
  "15274": {
    "name": "\u0410\u043d\u0434\u0440\u0435\u0435\u0432 \u0412\u0430\u043b\u0435\u0440\u0438\u0439 \u0412\u0438\u0442\u0430\u043b\u044c\u0435\u0432\u0438\u0447",
    "rating": 2.137332908575929
  },
  "15275": {
    "name": "\u0411\u0430\u0434\u0430\u0435\u0432\u0430 \u0415\u043b\u0435\u043d\u0430 \u0418\u0433\u043d\u0430\u0442\u044c\u0435\u0432\u043d\u0430",
    "rating": 1.049746618712755
  },
  "15276": {
    "name": "\u0412\u0430\u043d\u0435\u0440\u043a\u0438\u043d \u041d\u0438\u043a\u043e\u043b\u0430\u0439 \u0413\u0440\u0438\u0433\u043e\u0440\u044c\u0435\u0432\u0438\u0447",
    "rating": 3.9752057224160255
  },
  "15277": {
    "name": "\u0412\u0430\u0441\u0438\u043b\u044c\u0435\u0432 \u0413\u0435\u043d\u0440\u0438\u0445 \u0413\u0435\u043d\u043d\u0430\u0434\u044c\u0435\u0432\u0438\u0447",
    "rating": 5.9508154785135865
  },
  "15278": {
    "name": "\u0414\u0435\u043b\u044c\u043c\u0430\u043d \u041e\u043b\u0435\u0433 \u0410\u043b\u0435\u043a\u0441\u0430\u043d\u0434\u0440\u043e\u0432\u0438\u0447",
    "rating": 1.2039085079927343
  },
  "15279": {
    "name": "\u0415\u0432\u0441\u0435\u0435\u0432 \u0414\u043c\u0438\u0442\u0440\u0438\u0439 \u0411\u043e\u0440\u0438\u0441\u043e\u0432\u0438\u0447",
    "rating": 2.008625758693144
  },
  "15280": {
    "name": "\u0415\u0444\u0440\u0435\u043c\u043e\u0432 \u041d\u0438\u043a\u043e\u043b\u0430\u0439 \u041d\u0438\u043a\u043e\u043b\u0430\u0435\u0432\u0438\u0447",
    "rating": 4.6096776541241065
  },
  "15281": {
    "name": "\u0418\u0432\u0430\u043d\u043e\u0432 \u0412\u0430\u043b\u0435\u0440\u0438\u0439 \u041d\u0438\u043a\u043e\u043b\u0430\u0435\u0432\u0438\u0447",
    "rating": 4.579395714580783
  },
  "15282": {
    "name": "\u0418\u043b\u044c\u0438\u043d \u0412\u0438\u043a\u0442\u043e\u0440 \u0410\u043b\u0435\u043a\u0441\u0435\u0435\u0432\u0438\u0447",
    "rating": 3.121297946614056
  },
  "15283": {
    "name": "\u041a\u0438\u0441\u043b\u043e\u0432 \u042e\u0440\u0438\u0439 \u041c\u0438\u0445\u0430\u0439\u043b\u043e\u0432\u0438\u0447",
    "rating": 2.3544801988974573
  },
  "15284": {
    "name": "\u041a\u043d\u044f\u0437\u0435\u0432 \u0410\u043d\u0430\u0442\u043e\u043b\u0438\u0439 \u041f\u0430\u043d\u0442\u0435\u043b\u0435\u0439\u043c\u043e\u043d\u043e\u0432\u0438\u0447",
    "rating": 4.963010600464807
  },
  "15285": {
    "name": "\u041a\u043d\u044f\u0437\u044c\u043a\u0438\u043d \u041e\u043b\u0435\u0433 \u041d\u0438\u043a\u043e\u043b\u0430\u0435\u0432\u0438\u0447",
    "rating": 2.040696002998759
  },
  "15286": {
    "name": "\u041a\u0440\u0430\u0441\u043d\u043e\u0432 \u041f\u0435\u0442\u0440 \u0421\u0442\u0435\u043f\u0430\u043d\u043e\u0432\u0438\u0447",
    "rating": 4.963010600464807
  },
  "15287": {
    "name": "\u041a\u0443\u043b\u0430\u0433\u0438\u043d \u0410\u043d\u0434\u0440\u0435\u0439 \u0412\u0430\u0441\u0438\u043b\u044c\u0435\u0432\u0438\u0447",
    "rating": 1.1040587226878569
  },
  "15288": {
    "name": "\u041a\u0443\u0448\u0435\u0432 \u0418\u0433\u043e\u0440\u044c \u0410\u043d\u0430\u0442\u043e\u043b\u044c\u0435\u0432\u0438\u0447",
    "rating": 3.4786398418158284
  },
  "15289": {
    "name": "\u041b\u0443\u043a\u0438\u043d \u041b\u0435\u043e\u043d\u0438\u0434 \u0413\u0435\u043d\u043d\u0430\u0434\u044c\u0435\u0432\u0438\u0447",
    "rating": 1.0201249384145503
  },
  "15290": {
    "name": "\u041c\u0430\u043b\u043e\u0432 \u041d\u0438\u043a\u043e\u043b\u0430\u0439 \u0412\u043b\u0430\u0434\u0438\u043c\u0438\u0440\u043e\u0432\u0438\u0447",
    "rating": 4.963010600464807
  },
  "15291": {
    "name": "\u041c\u0435\u0448\u043a\u043e\u0432 \u041e\u043b\u0435\u0433 \u0412\u0430\u0434\u0438\u043c\u043e\u0432\u0438\u0447",
    "rating": 2.987400844367245
  },
  "15292": {
    "name": "\u041c\u0438\u0434\u0443\u043a\u043e\u0432 \u0412\u043b\u0430\u0434\u0438\u043c\u0438\u0440 \u041f\u0435\u0442\u0440\u043e\u0432\u0438\u0447",
    "rating": 1.1293448262541808
  },
  "15293": {
    "name": "\u041c\u0438\u0444\u0442\u0430\u0445\u0443\u0442\u0434\u0438\u043d\u043e\u0432 \u041a\u0438\u044f\u043c\u0435\u0442\u0434\u0438\u043d \u0421\u0430\u0434\u044b\u0440\u0442\u0434\u0438\u043d\u043e\u0432\u0438\u0447",
    "rating": 2.3172507279756616
  },
  "15294": {
    "name": "\u041c\u0438\u0445\u0430\u0439\u043b\u043e\u0432 \u0412\u043b\u0430\u0434\u0438\u043c\u0438\u0440 \u042e\u0440\u044c\u0435\u0432\u0438\u0447",
    "rating": 4.963010600464807
  },
  "15295": {
    "name": "\u041c\u0438\u0445\u0430\u0439\u043b\u043e\u0432\u0441\u043a\u0438\u0439 \u041c\u0438\u0445\u0430\u0438\u043b \u0410\u043b\u0435\u043a\u0441\u0435\u0435\u0432\u0438\u0447",
    "rating": 1.2758846649152142
  },
  "15296": {
    "name": "\u041c\u0438\u0445\u0435\u0435\u0432 \u0421\u0435\u0440\u0433\u0435\u0439 \u041f\u0435\u0442\u0440\u043e\u0432\u0438\u0447",
    "rating": 2.1391675236467758
  },
  "15297": {
    "name": "\u041c\u043e\u043b\u044f\u043a\u043e\u0432 \u0418\u0433\u043e\u0440\u044c \u042e\u0440\u044c\u0435\u0432\u0438\u0447",
    "rating": 2.7183150536530287
  },
  "15298": {
    "name": "\u041d\u0438\u043a\u0430\u043d\u043e\u0440\u043e\u0432 \u0410\u043b\u0435\u043a\u0441\u0430\u043d\u0434\u0440 \u041d\u0438\u043a\u043e\u043b\u0430\u0435\u0432\u0438\u0447",
    "rating": 1.0571463202595632
  },
  "15299": {
    "name": "\u041d\u0438\u043a\u0438\u0444\u043e\u0440\u043e\u0432 \u041f\u0435\u0442\u0440 \u041d\u0438\u043a\u043e\u043b\u0430\u0435\u0432\u0438\u0447",
    "rating": 4.963010600464807
  },
  "15300": {
    "name": "\u041d\u0438\u043a\u043e\u043b\u0430\u0435\u0432 \u0412\u0430\u0434\u0438\u043c \u0418\u0432\u0430\u043d\u043e\u0432\u0438\u0447",
    "rating": 3.8533274287859385
  },
  "15301": {
    "name": "\u041d\u0438\u043a\u043e\u043b\u0430\u0435\u0432 \u041d\u0438\u043a\u043e\u043b\u0430\u0439 \u0421\u0442\u0430\u043d\u0438\u0441\u043b\u0430\u0432\u043e\u0432\u0438\u0447",
    "rating": 2.129415189849249
  },
  "15302": {
    "name": "\u041d\u0438\u043a\u043e\u043b\u0430\u0435\u0432 \u041e\u043b\u0435\u0433 \u0410\u043b\u0435\u043a\u0441\u0435\u0435\u0432\u0438\u0447",
    "rating": 4.963010600464807
  },
  "15303": {
    "name": "\u041d\u0438\u043a\u043e\u043b\u0430\u0435\u0432\u0430 \u0415\u043b\u0435\u043d\u0430 \u041d\u0438\u043a\u043e\u043b\u0430\u0435\u0432\u043d\u0430",
    "rating": 4.963010600464807
  },
  "15304": {
    "name": "\u041f\u0430\u0432\u043b\u043e\u0432 \u0412\u0430\u043b\u0435\u0440\u0438\u0439 \u041c\u0438\u0445\u0430\u0439\u043b\u043e\u0432\u0438\u0447",
    "rating": 2.7179117826712496
  },
  "15305": {
    "name": "\u041f\u043e\u043f\u043e\u0432 \u042e\u0440\u0438\u0439 \u0410\u043b\u0435\u043a\u0441\u0435\u0435\u0432\u0438\u0447",
    "rating": 5.383611095661711
  },
  "15306": {
    "name": "\u0420\u0435\u0437\u043d\u0438\u043a\u043e\u0432 \u041c\u0438\u0445\u0430\u0438\u043b \u0421\u0435\u0440\u0433\u0435\u0435\u0432\u0438\u0447",
    "rating": 1.5256760457872018
  },
  "15307": {
    "name": "\u0421\u0432\u0435\u0448\u043d\u0438\u043a\u043e\u0432 \u0412\u043b\u0430\u0434\u0438\u043c\u0438\u0440 \u0412\u0430\u0441\u0438\u043b\u044c\u0435\u0432\u0438\u0447",
    "rating": 2.083084533321465
  },
  "15308": {
    "name": "\u0421\u0435\u043c\u0435\u043d\u043e\u0432 \u0421\u0435\u0440\u0433\u0435\u0439 \u041f\u0430\u0432\u043b\u043e\u0432\u0438\u0447",
    "rating": 2.4658225406768493
  },
  "15309": {
    "name": "\u0421\u0442\u0430\u0440\u0451\u0432\u0430 \u0422\u0430\u0442\u044c\u044f\u043d\u0430 \u0410\u043d\u0434\u0440\u0435\u0435\u0432\u043d\u0430",
    "rating": 1.9995959663184648
  },
  "15310": {
    "name": "\u0422\u0430\u043b\u0430\u043d\u043e\u0432 \u041e\u043b\u0435\u0433 \u0411\u043e\u0440\u0438\u0441\u043e\u0432\u0438\u0447",
    "rating": 1.5198933636963812
  },
  "15311": {
    "name": "\u0423\u0433\u0430\u0441\u043b\u043e\u0432 \u041d\u0438\u043a\u043e\u043b\u0430\u0439 \u0424\u0435\u0434\u043e\u0440\u043e\u0432\u0438\u0447",
    "rating": 4.394109976557491
  },
  "15312": {
    "name": "\u0423\u0433\u043b\u043e\u0432 \u0410\u043d\u0434\u0440\u0435\u0439 \u0410\u043b\u0435\u043a\u0441\u0430\u043d\u0434\u0440\u043e\u0432\u0438\u0447",
    "rating": 2.032436678054142
  },
  "15313": {
    "name": "\u0424\u0438\u043b\u0438\u043c\u043e\u043d\u043e\u0432 \u0412\u0430\u043b\u0435\u0440\u0438\u0439 \u041d\u0438\u043a\u043e\u043b\u0430\u0435\u0432\u0438\u0447",
    "rating": 1.3084168889929657
  },
  "15314": {
    "name": "\u0428\u0438\u0433\u0430\u0448\u0435\u0432 \u0412\u0430\u043b\u0435\u0440\u0438\u0439 \u0410\u043b\u0435\u043a\u0441\u0430\u043d\u0434\u0440\u043e\u0432\u0438\u0447",
    "rating": 3.9752057224160255
  },
  "15315": {
    "name": "\u0428\u043b\u0435\u043f\u043d\u0435\u0432 \u042e\u0440\u0438\u0439 \u0427\u043e\u043d\u0433\u0430\u0440\u043e\u0432\u0438\u0447",
    "rating": 3.6831228034779513
  },
  "15316": {
    "name": "\u0429\u0435\u0442\u043d\u0438\u043a\u043e\u0432 \u0421\u0435\u0440\u0433\u0435\u0439 \u041f\u0435\u0442\u0440\u043e\u0432\u0438\u0447",
    "rating": 0.05413710662869552
  },
  "23548": {
    "name": "\u0418\u0441\u0430\u0435\u0432 \u042e\u0440\u0438\u0439 \u041d\u0438\u043a\u043e\u043b\u0430\u0435\u0432\u0438\u0447",
    "rating": 1.2327496611619675
  }
}