{
  "26466": {
    "name": "\u0411\u0430\u0440\u043a\u0438\u043d\u0445\u043e\u0435\u0432 \u0414\u0436\u0430\u043c\u0430\u043b\u043b\u0435\u0439\u043b\u0438 \u041c\u0430\u043a\u0448\u0430\u0440\u0438\u043f\u043e\u0432\u0438\u0447",
    "rating": 0.09898856854682804
  }
}