{
  "1728": {
    "name": "\u0410\u043f\u0430\u0440\u0438\u043d \u0421\u0435\u0440\u0433\u0435\u0439 \u041d\u0438\u043a\u043e\u043b\u0430\u0435\u0432\u0438\u0447",
    "rating": 2.6237243762654137
  },
  "1729": {
    "name": "\u0411\u043e\u0431\u0440\u043e\u0432\u0441\u043a\u0430\u044f \u0418\u0440\u0438\u043d\u0430 \u0413\u0440\u0438\u0433\u043e\u0440\u044c\u0435\u0432\u043d\u0430",
    "rating": 0.009687070853922796
  },
  "4855": {
    "name": "\u0412\u043e\u043b\u0447\u0435\u043a \u0412\u043b\u0430\u0434\u0438\u043c\u0438\u0440 \u0410\u043b\u0435\u043a\u0441\u0435\u0435\u0432\u0438\u0447",
    "rating": 0.8300923533971755
  },
  "13043": {
    "name": "\u041a\u043e\u0441\u044f\u043d\u0435\u043d\u043a\u043e \u0415\u0432\u0433\u0435\u043d\u0438\u0439 \u0412\u0438\u043a\u0442\u043e\u0440\u043e\u0432\u0438\u0447",
    "rating": 0.7236076614113998
  },
  "13044": {
    "name": "\u0417\u0438\u043d\u043a\u0435\u0432\u0438\u0447 \u041d\u0438\u043d\u0430 \u0412\u0438\u043a\u0442\u043e\u0440\u043e\u0432\u043d\u0430",
    "rating": 0.666952511817844
  },
  "13045": {
    "name": "\u041a\u0430\u0448\u0438\u0440\u0441\u043a\u0438\u0445 \u0415\u0433\u043e\u0440 \u0412\u043b\u0430\u0434\u0438\u043c\u0438\u0440\u043e\u0432\u0438\u0447",
    "rating": 0.6895710222324123
  },
  "13046": {
    "name": "\u041a\u043e\u0441\u0442\u0438\u043a \u0418\u0440\u0438\u043d\u0430 \u0410\u043d\u0430\u0442\u043e\u043b\u044c\u0435\u0432\u043d\u0430",
    "rating": 0.6608597700662746
  },
  "13047": {
    "name": "\u041a\u043e\u0442\u043e\u0432 \u041c\u0438\u0445\u0430\u0438\u043b \u041c\u0438\u0445\u0430\u0439\u043b\u043e\u0432\u0438\u0447",
    "rating": 4.600468562311924
  },
  "13048": {
    "name": "\u041a\u0443\u043a\u0441\u043e\u0432 \u0414\u0435\u043d\u0438\u0441 \u0412\u0430\u043b\u0435\u043d\u0442\u0438\u043d\u043e\u0432\u0438\u0447",
    "rating": 0.9139420732235266
  },
  "13049": {
    "name": "\u041b\u0438\u0442\u0432\u0438\u043d \u041e\u043b\u0435\u0433 \u0418\u0432\u0430\u043d\u043e\u0432\u0438\u0447",
    "rating": 4.600468562311924
  },
  "13050": {
    "name": "\u0421\u0438\u043d\u0438\u0446\u044b\u043d\u0430 \u0418\u0440\u0438\u043d\u0430 \u041d\u0438\u043a\u043e\u043b\u0430\u0435\u0432\u043d\u0430",
    "rating": 0.6839655090827164
  },
  "13051": {
    "name": "\u0421\u043c\u043e\u043b\u0438\u043d \u0410\u043b\u0435\u043a\u0441\u0430\u043d\u0434\u0440 \u041d\u0438\u043a\u043e\u043b\u0430\u0435\u0432\u0438\u0447",
    "rating": 0.9578799679659044
  },
  "13052": {
    "name": "\u0410\u0440\u0431\u0430\u0447\u0430\u043a\u043e\u0432 \u042e\u0440\u0438\u0439 \u042f\u043a\u043e\u0432\u043b\u0435\u0432\u0438\u0447",
    "rating": 1.7468095534886894
  },
  "13053": {
    "name": "\u0412\u0430\u043d \u0412\u0430\u0439-\u0427\u0435\u043d ",
    "rating": 3.6120964692886695
  },
  "13054": {
    "name": "\u0413\u0435\u0440\u0448\u0433\u043e\u0440\u0438\u043d \u0412\u043b\u0430\u0434\u0438\u043c\u0438\u0440 \u0421\u0435\u043c\u0451\u043d\u043e\u0432\u0438\u0447",
    "rating": 1.1979838831699037
  },
  "13055": {
    "name": "\u0413\u043e\u0440\u043e\u0431\u0446\u043e\u0432 \u0411\u043e\u0440\u0438\u0441 \u0421\u0430\u043c\u0443\u0438\u043b\u043e\u0432\u0438\u0447",
    "rating": 0.7834316513652742
  },
  "13056": {
    "name": "\u0413\u0443\u0431\u0430\u0439\u0434\u0443\u043b\u0438\u043d\u0430 \u041e\u043b\u044c\u0433\u0430 \u0410\u043b\u0435\u043a\u0441\u0430\u043d\u0434\u0440\u043e\u0432\u043d\u0430",
    "rating": 3.61209646928867
  },
  "13057": {
    "name": "\u0416\u0438\u0433\u0443\u043b\u0438\u043d \u0410\u043d\u0434\u0440\u0435\u0439 \u0412\u043b\u0430\u0434\u0438\u043c\u0438\u0440\u043e\u0432\u0438\u0447",
    "rating": 0.6475533342709604
  },
  "13058": {
    "name": "\u0418\u0432\u0430\u043d\u0447\u0435\u043d\u043a\u043e \u0412\u0430\u043b\u0435\u043d\u0442\u0438\u043d\u0430 \u041b\u0430\u0439\u043c\u0443\u0442\u0438\u0441\u043e\u0432\u043d\u0430",
    "rating": 0.7576398799741414
  },
  "13059": {
    "name": "\u041a\u043e\u043b\u0431\u0430\u0441\u043a\u043e \u0410\u043d\u0430\u0442\u043e\u043b\u0438\u0439 \u0412\u043b\u0430\u0434\u0438\u043c\u0438\u0440\u043e\u0432\u0438\u0447",
    "rating": 1.6717787430724131
  },
  "13060": {
    "name": "\u041a\u043e\u0440\u0436\u0430\u0432\u0438\u043d \u0421\u0435\u0440\u0433\u0435\u0439 \u0418\u0432\u0430\u043d\u043e\u0432\u0438\u0447",
    "rating": 1.8212025062970019
  },
  "13061": {
    "name": "\u041a\u0443\u0440\u0443\u0447 \u041f\u0451\u0442\u0440 \u0418\u0432\u0430\u043d\u043e\u0432\u0438\u0447",
    "rating": 1.3775719598655192
  },
  "13062": {
    "name": "\u041b\u0435\u043e\u043d\u0442\u044c\u0435\u0432 \u0410\u043b\u0435\u043a\u0441\u0435\u0439 \u0412\u043b\u0430\u0434\u0438\u043c\u0438\u0440\u043e\u0432\u0438\u0447",
    "rating": 1.6489848374787646
  },
  "13063": {
    "name": "\u041c\u0430\u043a\u0441\u0438\u043c\u043a\u0438\u043d \u041d\u0438\u043a\u043e\u043b\u0430\u0439 \u0410\u043d\u0430\u0442\u043e\u043b\u044c\u0435\u0432\u0438\u0447",
    "rating": 0.6573082687327544
  },
  "13064": {
    "name": "\u041c\u0430\u043a\u0441\u0438\u043c\u043e\u0432 \u0410\u043b\u0435\u043a\u0441\u0430\u043d\u0434\u0440 \u0410\u043b\u0435\u043a\u0441\u0430\u043d\u0434\u0440\u043e\u0432\u0438\u0447",
    "rating": 5.1773183193102765
  },
  "13065": {
    "name": "\u041c\u0430\u043b\u044e\u0433\u0438\u043d\u0430 \u0410\u043d\u0430\u0441\u0442\u0430\u0441\u0438\u044f \u041f\u0430\u0432\u043b\u043e\u0432\u043d\u0430",
    "rating": 1.945214806371308
  },
  "13066": {
    "name": "\u041c\u0435\u043b\u044c\u043d\u0438\u043a \u0412\u043b\u0430\u0434\u0438\u043c\u0438\u0440 \u0418\u0432\u0430\u043d\u043e\u0432\u0438\u0447",
    "rating": 1.6965570138962356
  },
  "13067": {
    "name": "\u041c\u0438\u043a\u0440\u044e\u043a\u043e\u0432 \u0412\u043b\u0430\u0434\u0438\u043c\u0438\u0440 \u0420\u043e\u0434\u0438\u043e\u043d\u043e\u0432\u0438\u0447",
    "rating": 5.588840655335182
  },
  "13068": {
    "name": "\u041c\u0438\u0449\u0435\u043d\u043a\u043e \u0412\u043b\u0430\u0434\u0438\u0441\u043b\u0430\u0432 \u0412\u0438\u043a\u0442\u043e\u0440\u043e\u0432\u0438\u0447",
    "rating": 0.932994481277164
  },
  "13069": {
    "name": "\u041d\u0435\u0432\u043e\u0440\u043e\u0442\u043e\u0432\u0430 \u041d\u0438\u043d\u0430 \u041f\u0430\u0432\u043b\u043e\u0432\u043d\u0430",
    "rating": 2.1660382644092278
  },
  "13070": {
    "name": "\u041f\u0438\u043b\u0438\u043f\u0447\u0443\u043a \u041b\u044e\u0434\u043c\u0438\u043b\u0430 \u0412\u043b\u0430\u0434\u0438\u043c\u0438\u0440\u043e\u0432\u043d\u0430",
    "rating": 0.6788680604944763
  },
  "13071": {
    "name": "\u041f\u0435\u0442\u0440\u043e\u0432 \u0412\u044f\u0447\u0435\u0441\u043b\u0430\u0432 \u0410\u043d\u0430\u0442\u043e\u043b\u044c\u0435\u0432\u0438\u0447",
    "rating": 3.6120964692886695
  },
  "13072": {
    "name": "\u041f\u0440\u0438\u0435\u0437\u0436\u0435\u0432 \u041d\u0438\u043a\u043e\u043b\u0430\u0439 \u0421\u0435\u0440\u0433\u0435\u0435\u0432\u0438\u0447",
    "rating": 1.231147419796682
  },
  "13073": {
    "name": "\u041f\u0440\u0438\u0441\u0442\u0443\u043f\u0430 \u042e\u0440\u0438\u0439 \u0414\u043c\u0438\u0442\u0440\u0438\u0435\u0432\u0438\u0447",
    "rating": 1.169427498662155
  },
  "13074": {
    "name": "\u0421\u0438\u043d\u0438\u0446\u044b\u043d \u0410\u043b\u0435\u043a\u0441\u0435\u0439 \u0412\u043b\u0430\u0434\u0438\u043c\u0438\u0440\u043e\u0432\u0438\u0447",
    "rating": 1.8915157787491637
  },
  "13075": {
    "name": "\u0421\u043e\u043b\u043e\u0432\u044c\u0435\u0432\u0430 \u0413\u0430\u043b\u0438\u043d\u0430 \u041c\u0438\u0445\u0430\u0439\u043b\u043e\u0432\u043d\u0430",
    "rating": 3.5586417198971425
  },
  "13076": {
    "name": "\u0421\u043e\u0440\u043e\u043a\u0438\u043d \u0410\u043b\u0435\u043a\u0441\u0430\u043d\u0434\u0440 \u0412\u0430\u043b\u0435\u0440\u044c\u0435\u0432\u0438\u0447",
    "rating": 2.9141424615007185
  },
  "13077": {
    "name": "\u0423\u043a\u0440\u0430\u0438\u043d\u0446\u0435\u0432 \u0418\u0433\u043e\u0440\u044c \u0421\u0435\u0440\u0433\u0435\u0435\u0432\u0438\u0447",
    "rating": 1.6394530176908897
  },
  "13078": {
    "name": "\u0424\u0430\u0445\u0440\u0443\u0442\u0434\u0438\u043d\u043e\u0432\u0430 \u0420\u0430\u043c\u0437\u0438\u044f \u0424\u0430\u0438\u0437\u043e\u0432\u043d\u0430",
    "rating": 0.6517282255837386
  },
  "13079": {
    "name": "\u0424\u0438\u043b\u044e\u043a\u043e\u0432 \u0410\u043b\u0435\u043a\u0441\u0435\u0439 \u041b\u0435\u043e\u043d\u0438\u0434\u043e\u0432\u0438\u0447",
    "rating": 2.1790525853078746
  },
  "13080": {
    "name": "\u0427\u0435\u0440\u043d\u044b\u0448\u043e\u0432\u0430 \u041d\u0430\u0442\u0430\u043b\u044c\u044f \u0424\u0451\u0434\u043e\u0440\u043e\u0432\u043d\u0430",
    "rating": 0.6567064639822021
  },
  "13081": {
    "name": "\u0425\u0430\u0441\u0430\u043d\u043e\u0432 \u0422\u0438\u043c\u0443\u0440 \u0410\u043d\u0432\u0435\u0440\u043e\u0432\u0438\u0447",
    "rating": 2.6237243762654137
  },
  "13082": {
    "name": "\u0428\u0430\u043d-\u0421\u0438\u043d \u0412\u043b\u0430\u0434\u0438\u043c\u0438\u0440 \u041c\u0438\u0445\u0430\u0439\u043b\u043e\u0432\u0438\u0447",
    "rating": 1.3821559631525098
  },
  "13083": {
    "name": "\u0428\u0443\u0440\u044b\u0433\u0438\u043d \u041e\u043b\u0435\u0433 \u0418\u0432\u0430\u043d\u043e\u0432\u0438\u0447",
    "rating": 2.0101178278894904
  },
  "13084": {
    "name": "\u0428\u043c\u0430\u043a\u043e\u0432\u0430 \u0412\u0430\u043b\u0435\u043d\u0442\u0438\u043d\u0430 \u0418\u0432\u0430\u043d\u043e\u0432\u043d\u0430",
    "rating": 2.6260411130288204
  },
  "13085": {
    "name": "\u042d\u0439\u0440\u0438\u0445 \u0410\u043d\u0434\u0440\u0435\u0439 \u0410\u043b\u0435\u043a\u0441\u0430\u043d\u0434\u0440\u043e\u0432\u0438\u0447",
    "rating": 1.1219380814073308
  },
  "13086": {
    "name": "\u042f\u0446\u0443\u0445\u043d\u043e \u041f\u0451\u0442\u0440 \u041f\u0435\u0442\u0440\u043e\u0432\u0438\u0447",
    "rating": 0.039804273247927915
  },
  "23040": {
    "name": "\u041c\u0438\u043a\u0435\u043b\u044c\u0441\u043e\u043d \u0410\u043b\u0435\u043a\u0441\u0430\u043d\u0434\u0440 \u042e\u043b\u044c\u0435\u0432\u0438\u0447",
    "rating": 0.20301788081498376
  },
  "23041": {
    "name": "\u0427\u0435\u0440\u043d\u044f\u0435\u0432\u0430 \u0418\u0440\u0438\u043d\u0430 \u0410\u043b\u0435\u043a\u0441\u0430\u043d\u0434\u0440\u043e\u0432\u043d\u0430",
    "rating": 0.01613734440689877
  }
}