{
  "19886": {
    "name": "\u0421\u0430\u0432\u0440\u0443\u043d \u041d\u0438\u043a\u043e\u043b\u0430\u0439 \u0414\u0438\u043e\u043d\u0435\u0437\u043e\u0432\u0438\u0447",
    "rating": 0.5883635920633772
  },
  "21404": {
    "name": "\u0421\u043f\u0438\u0440\u0438\u0434\u043e\u043d\u043e\u0432 \u0410\u043d\u0430\u0441\u0442\u0430\u0441 \u041f\u0430\u0432\u043b\u043e\u0432\u0438\u0447",
    "rating": 0.5839143920214733
  },
  "21405": {
    "name": "\u0428\u0442\u0435\u0439\u043d\u0431\u0430\u0445 \u0412\u0438\u043a\u0442\u043e\u0440 \u0418\u0432\u0430\u043d\u043e\u0432\u0438\u0447",
    "rating": 0.5078658861310572
  },
  "21406": {
    "name": "\u0427\u0435\u0440\u043d\u044b\u0448\u0435\u0432 \u0418\u0432\u0430\u043d \u0418\u0432\u0430\u043d\u043e\u0432\u0438\u0447",
    "rating": 1.7456912523986468
  },
  "21407": {
    "name": "\u041b\u043e\u0440\u0435\u043d\u0446 \u0410\u043b\u0435\u043a\u0441\u0430\u043d\u0434\u0440 \u0410\u043b\u0435\u043a\u0441\u0430\u043d\u0434\u0440\u043e\u0432\u0438\u0447",
    "rating": 0.8916334408866001
  },
  "21408": {
    "name": "\u0428\u0435\u0432\u0447\u0435\u043d\u043a\u043e \u0412\u043b\u0430\u0434\u0438\u0441\u043b\u0430\u0432 \u0410\u043b\u0435\u043a\u0441\u0430\u043d\u0434\u0440\u043e\u0432\u0438\u0447",
    "rating": 0.4435921566483646
  },
  "21476": {
    "name": "\u041f\u043e\u043b\u0443\u0431\u043e\u044f\u0440\u043e\u0432 \u0410\u043b\u0435\u043a\u0441\u0435\u0439 \u0410\u043b\u0435\u043a\u0441\u0430\u043d\u0434\u0440\u043e\u0432\u0438\u0447",
    "rating": 0.079276728922001
  },
  "21477": {
    "name": "\u041a\u0430\u0440\u0442\u0430\u0432\u0446\u0435\u0432 \u0421\u0435\u0440\u0433\u0435\u0439 \u0410\u043b\u0435\u043a\u0441\u0430\u043d\u0434\u0440\u043e\u0432\u0438\u0447",
    "rating": 1.0323994448057323
  },
  "21478": {
    "name": "\u041d\u0430\u0437\u0430\u0440\u043e\u0432 \u0414\u043c\u0438\u0442\u0440\u0438\u0439 \u0410\u043b\u0435\u043a\u0441\u0430\u043d\u0434\u0440\u043e\u0432\u0438\u0447",
    "rating": 0.3099564133341437
  },
  "21479": {
    "name": "\u041a\u0443\u0440\u044f\u0445\u043e\u0432 \u0414\u0435\u043d\u0438\u0441 \u0412\u043b\u0430\u0434\u0438\u043c\u0438\u0440\u043e\u0432\u0438\u0447",
    "rating": 0.029596692946214517
  }
}