{
  "1782": {
    "name": "\u0410\u043b\u0435\u043a\u0441\u0430\u043d\u0434\u0440\u043e\u0432\u0430 \u041b\u0430\u0440\u0438\u0441\u0430 \u0421\u0435\u0440\u0433\u0435\u0435\u0432\u043d\u0430",
    "rating": 0.34441862448694394
  },
  "13646": {
    "name": "\u0410\u043b\u0435\u043a\u0441\u0435\u0435\u0432 \u041e\u043b\u0435\u0433 \u041d\u0438\u043a\u043e\u043b\u0430\u0435\u0432\u0438\u0447",
    "rating": 0.35356212239374785
  },
  "13647": {
    "name": "\u0410\u043b\u0435\u0448\u0438\u043d \u0412\u0438\u043a\u0442\u043e\u0440 \u0410\u043b\u0435\u043a\u0441\u0435\u0435\u0432\u0438\u0447",
    "rating": 0.7617388775529814
  },
  "13648": {
    "name": "\u0412\u0435\u0434\u0438\u0449\u0435\u0432\u0430 \u041d\u0430\u0442\u0430\u043b\u0438\u044f \u041d\u0438\u043a\u043e\u043b\u0430\u0435\u0432\u043d\u0430",
    "rating": 0.35624814402171945
  },
  "13649": {
    "name": "\u0414\u0443\u0431\u0430\u0448\u0438\u043d\u0441\u043a\u0438\u0439 \u0412\u043b\u0430\u0434\u0438\u043c\u0438\u0440 \u0412\u0438\u043a\u0442\u043e\u0440\u043e\u0432\u0438\u0447",
    "rating": 1.1710124759573188
  },
  "13650": {
    "name": "\u041a\u0440\u0443\u043f\u0430\u0434\u0435\u0440\u043e\u0432 \u0410\u043b\u0435\u043a\u0441\u0430\u043d\u0434\u0440 \u0414\u043c\u0438\u0442\u0440\u0438\u0435\u0432\u0438\u0447",
    "rating": 0.5191461798650469
  },
  "13651": {
    "name": "\u041c\u0430\u043a\u0441\u0438\u043c\u043e\u0432\u0430 \u041d\u0430\u0434\u0435\u0436\u0434\u0430 \u041f\u0435\u0442\u0440\u043e\u0432\u043d\u0430",
    "rating": 1.4719403314225985
  },
  "13652": {
    "name": "\u041b\u0443\u043a\u0438\u0447\u0435\u0432 \u041b\u0435\u043e\u043d\u0438\u0434 \u0410\u043d\u0430\u0442\u043e\u043b\u044c\u0435\u0432\u0438\u0447",
    "rating": 0.6894433782184737
  },
  "13653": {
    "name": "\u041c\u0438\u043d\u0438\u043d \u041e\u043b\u0435\u0433 \u0413\u0435\u043d\u043d\u0430\u0434\u044c\u0435\u0432\u0438\u0447",
    "rating": 0.4523785809024147
  },
  "13654": {
    "name": "\u041c\u0438\u0449\u0435\u043d\u043a\u043e \u0412\u043b\u0430\u0434\u0438\u043c\u0438\u0440 \u0412\u043b\u0430\u0434\u0438\u043c\u0438\u0440\u043e\u0432\u0438\u0447",
    "rating": 0.34822378532356857
  },
  "13655": {
    "name": "\u041d\u0430\u0439\u0434\u0435\u043d\u043e\u0432 \u0418\u0433\u043e\u0440\u044c \u041e\u043b\u0435\u0433\u043e\u0432\u0438\u0447",
    "rating": 0.4954777807091975
  },
  "13656": {
    "name": "\u041d\u0438\u043a\u043e\u0440\u0430 \u0415\u0432\u0433\u0435\u043d\u0438\u0439 \u0412\u0438\u043a\u0442\u043e\u0440\u043e\u0432\u0438\u0447",
    "rating": 1.5276560228193257
  },
  "13657": {
    "name": "\u041f\u0430\u044e\u0441\u043e\u0432 \u042e\u0440\u0438\u0439 \u0410\u043d\u0434\u0440\u0435\u0435\u0432\u0438\u0447",
    "rating": 0.6974124275334757
  },
  "13658": {
    "name": "\u041f\u0438\u0449\u0443\u043b\u0438\u043d \u0411\u043e\u0440\u0438\u0441 \u0412\u0430\u043b\u0435\u043d\u0442\u0438\u043d\u043e\u0432\u0438\u0447",
    "rating": 0.3791837449295504
  },
  "13659": {
    "name": "\u0421\u0430\u0436\u0438\u043d\u043e\u0432 \u041f\u0430\u0432\u0435\u043b \u0410\u043b\u0435\u043a\u0441\u0430\u043d\u0434\u0440\u043e\u0432\u0438\u0447",
    "rating": 1.6168539506818314
  },
  "13660": {
    "name": "\u0421\u0430\u0439\u0433\u0438\u043d \u0412\u0438\u043a\u0442\u043e\u0440 \u0412\u0430\u0441\u0438\u043b\u044c\u0435\u0432\u0438\u0447",
    "rating": 2.1994436140508213
  },
  "13661": {
    "name": "\u0427\u0435\u0440\u043d\u0435\u0432 \u0410\u043d\u0434\u0440\u0435\u0439 \u0412\u0430\u0441\u0438\u043b\u044c\u0435\u0432\u0438\u0447",
    "rating": 0.8902818444063714
  },
  "13662": {
    "name": "\u0428\u0430\u0434\u0440\u0438\u043d \u042e\u0440\u0438\u0439 \u0410\u043d\u0430\u0442\u043e\u043b\u044c\u0435\u0432\u0438\u0447",
    "rating": 0.4638080156547125
  },
  "13663": {
    "name": "\u041a\u0440\u0443\u0433\u043b\u043e\u0432\u0430 \u041b\u0430\u0440\u0438\u0441\u0430 \u041d\u0438\u043a\u043e\u043b\u0430\u0435\u0432\u043d\u0430",
    "rating": 0.5163587780094755
  },
  "13664": {
    "name": "\u041f\u043e\u043f\u043e\u0432 \u0412\u044f\u0447\u0435\u0441\u043b\u0430\u0432 \u0410\u043b\u0435\u043a\u0441\u0435\u0435\u0432\u0438\u0447",
    "rating": 3.247829217780147
  },
  "13665": {
    "name": "\u0418\u043b\u044c\u0438\u043d\u044b\u0445 \u041c\u0438\u0445\u0430\u0438\u043b \u0412\u0430\u0441\u0438\u043b\u044c\u0435\u0432\u0438\u0447",
    "rating": 0.3341318843853196
  },
  "13666": {
    "name": "\u041b\u044f\u0449\u0435\u043d\u043a\u043e \u0410\u043b\u0435\u043a\u0441\u0435\u0439 \u0412\u0430\u0434\u0438\u043c\u043e\u0432\u0438\u0447",
    "rating": 2.2892276218608614
  },
  "13667": {
    "name": "\u0428\u0430\u043c\u0431\u0438\u0440 \u0412\u0430\u0441\u0438\u043b\u0438\u0439 \u041d\u0438\u043a\u043e\u043b\u0430\u0435\u0432\u0438\u0447",
    "rating": 0.3203641080104105
  },
  "13668": {
    "name": "\u041d\u0438\u043a\u0430\u043d\u043e\u0440\u043e\u0432 \u0421\u0442\u0430\u043d\u0438\u0441\u043b\u0430\u0432 \u0412\u0430\u0441\u0438\u043b\u044c\u0435\u0432\u0438\u0447",
    "rating": 2.3836011078869097
  },
  "13669": {
    "name": "\u0421\u0430\u0431\u0443\u0440\u043e\u0432 \u0418\u0433\u043e\u0440\u044c \u0412\u044f\u0447\u0435\u0441\u043b\u0430\u0432\u043e\u0432\u0438\u0447",
    "rating": 2.2473367843333767
  },
  "13670": {
    "name": "\u0421\u0442\u0435\u043f\u0430\u0445\u043d\u043e \u0413\u0435\u043d\u043d\u0430\u0434\u0438\u0439 \u0412\u0430\u0441\u0438\u043b\u044c\u0435\u0432\u0438\u0447",
    "rating": 0.4178880613177705
  },
  "13671": {
    "name": "\u0410\u043d\u0442\u0440\u043e\u043f\u043e\u0432 \u041c\u0438\u0445\u0430\u0438\u043b \u0412\u0430\u0441\u0438\u043b\u044c\u0435\u0432\u0438\u0447",
    "rating": 1.4249361992601437
  },
  "13672": {
    "name": "\u041f\u0430\u043d\u0438\u043d\u0430 \u041e\u043b\u044c\u0433\u0430 \u0413\u0435\u043e\u0440\u0433\u0438\u0435\u0432\u043d\u0430",
    "rating": 0.3348789762724048
  },
  "13673": {
    "name": "\u0412\u0430\u0442\u0430\u043b\u0438\u043d \u042e\u0440\u0438\u0439 \u0412\u0438\u043a\u0442\u043e\u0440\u043e\u0432\u0438\u0447",
    "rating": 0.32572125360596305
  },
  "13674": {
    "name": "\u041c\u0430\u043a\u0430\u0440\u0435\u0432\u0438\u0447 \u0410\u043b\u0435\u043a\u0441\u0430\u043d\u0434\u0440 \u0413\u0435\u043d\u043d\u0430\u0434\u044c\u0435\u0432\u0438\u0447",
    "rating": 0.7954558236627459
  },
  "13675": {
    "name": "\u041b\u0435\u0449\u0438\u043d\u0441\u043a\u0430\u044f \u041d\u0430\u0442\u0430\u043b\u044c\u044f \u0412\u043b\u0430\u0434\u0438\u043c\u0438\u0440\u043e\u0432\u043d\u0430",
    "rating": 0.34818743033846977
  },
  "13676": {
    "name": "\u0410\u0445\u0440\u0430\u043c\u0435\u0439\u043a\u043e \u0412\u043b\u0430\u0434\u0438\u043c\u0438\u0440 \u041d\u0438\u043a\u043e\u043b\u0430\u0435\u0432\u0438\u0447",
    "rating": 0.3429704833705893
  },
  "13677": {
    "name": "\u0413\u0430\u0432\u0440\u0438\u043b\u043e\u0432 \u0414\u043c\u0438\u0442\u0440\u0438\u0439 \u0412\u0438\u043a\u0442\u043e\u0440\u043e\u0432\u0438\u0447",
    "rating": 1.3275869619715202
  },
  "13678": {
    "name": "\u0413\u0430\u0432\u0440\u0438\u043a\u043e\u0432 \u0414\u043c\u0438\u0442\u0440\u0438\u0439 \u0413\u0435\u043d\u043d\u0430\u0434\u044c\u0435\u0432\u0438\u0447",
    "rating": 0.32476895857442856
  },
  "13679": {
    "name": "\u0411\u0435\u0437\u0443\u0433\u043b\u044b\u0439 \u0412\u044f\u0447\u0435\u0441\u043b\u0430\u0432 \u0413\u0440\u0438\u0433\u043e\u0440\u044c\u0435\u0432\u0438\u0447",
    "rating": 0.34591340767325285
  },
  "13680": {
    "name": "\u041d\u0435\u0444\u0435\u0434\u043e\u0432 \u041c\u0430\u043a\u0441\u0438\u043c \u041b\u0435\u043e\u043d\u0438\u0434\u043e\u0432\u0438\u0447",
    "rating": 1.0
  }
}