{
  "1095": {
    "name": "\u0415\u0444\u0438\u043c\u043e\u0432\u0430 \u041e\u043b\u044c\u0433\u0430 \u0410\u043d\u0430\u0442\u043e\u043b\u044c\u0435\u0432\u043d\u0430",
    "rating": 4.780151966707535
  },
  "1784": {
    "name": "\u0410\u0444\u0430\u043d\u0430\u0441\u044c\u0435\u0432 \u0410\u043b\u0435\u043a\u0441\u0435\u0439 \u0412\u043b\u0430\u0434\u0438\u043c\u0438\u0440\u043e\u0432\u0438\u0447",
    "rating": 1.3370183075612037
  },
  "1785": {
    "name": "\u0411\u043e\u0439\u0446\u0435\u0432 \u0410\u043d\u0430\u0442\u043e\u043b\u0438\u0439 \u0410\u043b\u0435\u043a\u0441\u0430\u043d\u0434\u0440\u043e\u0432\u0438\u0447",
    "rating": 1.1561106861716202
  },
  "1856": {
    "name": "\u0411\u0443\u0441\u0443\u0440\u0438\u043d \u0421\u0435\u0440\u0433\u0435\u0439 \u0412\u043b\u0430\u0434\u0438\u043c\u0438\u0440\u043e\u0432\u0438\u0447",
    "rating": 0.929822023870212
  },
  "1857": {
    "name": "\u0412\u0435\u0431\u0435\u0440 \u0412\u0438\u043a\u0442\u043e\u0440 \u0420\u043e\u0431\u0435\u0440\u0442\u043e\u0432\u0438\u0447",
    "rating": 1.8848349435249163
  },
  "1859": {
    "name": "\u0413\u0430\u0439\u0434\u044b\u043c \u0412\u0430\u043b\u0435\u0440\u0438\u0439 \u0424\u0435\u0434\u043e\u0440\u043e\u0432\u0438\u0447",
    "rating": 3.4363677687077927
  },
  "1860": {
    "name": "\u0413\u0430\u043b\u044c\u0447\u0435\u043d\u043a\u043e \u041f\u0430\u0432\u0435\u043b \u0413\u0435\u043d\u043d\u0430\u0434\u044c\u0435\u0432\u0438\u0447",
    "rating": 2.249954905787674
  },
  "1862": {
    "name": "\u0414\u043e\u0440\u043e\u0448\u0435\u0432 \u041b\u0435\u043e\u043d\u0438\u0434 \u041a\u0443\u0437\u044c\u043c\u0438\u0447",
    "rating": 2.1406392649162744
  },
  "1864": {
    "name": "\u0418\u0433\u043d\u0430\u0442\u043e\u0432 \u0414\u043c\u0438\u0442\u0440\u0438\u0439 \u0421\u0435\u0440\u0433\u0435\u0435\u0432\u0438\u0447",
    "rating": 3.8023238597885363
  },
  "1865": {
    "name": "\u041a\u043e\u0437\u0438\u043d\u0430 \u0410\u043d\u043d\u0430 \u041c\u0438\u0445\u0430\u0439\u043b\u043e\u0432\u043d\u0430",
    "rating": 1.7407832187799714
  },
  "1866": {
    "name": "\u041a\u0432\u0438\u043a\u043b\u0438\u0441 \u0412\u0438\u043a\u0442\u043e\u0440 \u041b\u0435\u043e\u043d\u043e\u0432\u0438\u0447",
    "rating": 2.24090346608068
  },
  "1867": {
    "name": "\u041a\u0430\u0448\u0438\u0446\u044b\u043d \u0410\u043b\u0435\u043a\u0441\u0430\u043d\u0434\u0440 \u041f\u0430\u0432\u043b\u043e\u0432\u0438\u0447",
    "rating": 2.0196376661363917
  },
  "1868": {
    "name": "\u041a\u0438\u0440\u0438\u043b\u043b\u043e\u0432 \u0412\u0438\u0442\u0430\u043b\u0438\u0439 \u041f\u0435\u0442\u0440\u043e\u0432\u0438\u0447",
    "rating": 3.7992599125098128
  },
  "1869": {
    "name": "\u041c\u0443\u0440\u0430\u0448\u043e\u0432\u0430 \u041b\u044e\u0431\u043e\u0432\u044c \u0410\u043b\u0435\u043a\u0441\u0435\u0435\u0432\u043d\u0430",
    "rating": 0.8623238597885358
  },
  "1870": {
    "name": "\u041c\u0443\u0440\u0430\u0442\u043e\u0432 \u041b\u0435\u043e\u043d\u0438\u0434 \u0412\u0430\u0441\u0438\u043b\u044c\u0435\u0432\u0438\u0447",
    "rating": 4.303365711063159
  },
  "1871": {
    "name": "\u041c\u043e\u0436\u0436\u0435\u0440\u0438\u043d \u0412\u043b\u0430\u0434\u0438\u043c\u0438\u0440 \u0410\u043d\u0430\u0442\u043e\u043b\u044c\u0435\u0432\u0438\u0447",
    "rating": 2.773254020613058
  },
  "1872": {
    "name": "\u041d\u0438\u0441\u0430\u043d\u043e\u0432 \u0420\u043e\u043c\u0430\u043d \u0413\u0435\u043d\u043d\u0430\u0434\u044c\u0435\u0432\u0438\u0447",
    "rating": 0.939590630254468
  },
  "1873": {
    "name": "\u041f\u0438\u0441\u0430\u0440\u0435\u0432\u0430 \u0415\u043b\u0435\u043d\u0430 \u0412\u043b\u0430\u0434\u0438\u043c\u0438\u0440\u043e\u0432\u043d\u0430",
    "rating": 2.198642315012625
  },
  "1874": {
    "name": "\u0421\u0430\u0434\u0430\u043b\u044c\u0441\u043a\u0438\u0439 \u0421\u0442\u0430\u043d\u0438\u0441\u043b\u0430\u0432 \u0421\u0442\u0430\u043d\u0438\u0441\u043b\u0430\u0432\u043e\u0432\u0438\u0447",
    "rating": 1.3347199842426938
  },
  "1875": {
    "name": "\u0421\u0442\u0435\u043f\u0430\u043d\u043e\u0432 \u0412\u044f\u0447\u0435\u0441\u043b\u0430\u0432 \u0412\u0430\u0441\u0438\u043b\u044c\u0435\u0432\u0438\u0447",
    "rating": 2.7969384836846256
  },
  "1876": {
    "name": "\u0425\u043e\u0440\u043e\u0448\u0435\u0432\u0441\u043a\u0430\u044f \u0410\u043b\u043b\u0430 \u0418\u043b\u044c\u0438\u043d\u0438\u0447\u043d\u0430",
    "rating": 1.4647575333854244
  },
  "1877": {
    "name": "\u0427\u0438\u0441\u0442\u044f\u043a\u043e\u0432 \u0412\u043b\u0430\u0434\u0438\u043c\u0438\u0440 \u0412\u043b\u0430\u0434\u0438\u043c\u0438\u0440\u043e\u0432\u0438\u0447",
    "rating": 5.762323859788536
  },
  "1891": {
    "name": "\u041f\u0430\u043d\u043e\u0432 \u041c\u0438\u0445\u0430\u0438\u043b \u0410\u043b\u0435\u043a\u0441\u0430\u043d\u0434\u0440\u043e\u0432\u0438\u0447",
    "rating": 1.8288186385089256
  },
  "13716": {
    "name": "\u0413\u0430\u0432\u0440\u0438\u043a\u043e\u0432 \u0412\u043b\u0430\u0434\u0438\u043c\u0438\u0440 \u0412\u0438\u043a\u0442\u043e\u0440\u043e\u0432\u0438\u0447",
    "rating": 3.2762398160783537
  },
  "13717": {
    "name": "\u0413\u0430\u043b\u0430\u0445\u043e\u0432 \u041c\u0438\u0445\u0430\u0438\u043b \u0411\u043e\u0440\u0438\u0441\u043e\u0432\u0438\u0447",
    "rating": 3.571193186024204
  },
  "13718": {
    "name": "\u0417\u0435\u0440\u043d\u043e\u0432 \u042e\u0440\u0438\u0439 \u041d\u0438\u043a\u043e\u043b\u0430\u0435\u0432\u0438\u0447",
    "rating": 3.8609249345907353
  },
  "13719": {
    "name": "\u0424\u0435\u0434\u043e\u0442\u043e\u0432 \u0410\u043d\u0430\u0442\u043e\u043b\u0438\u0439 \u0410\u043b\u0435\u043a\u0441\u0430\u043d\u0434\u0440\u043e\u0432\u0438\u0447",
    "rating": 2.3183709191049484
  },
  "13720": {
    "name": "\u0425\u043e\u0434\u043e\u0441\u043e\u0432 \u0410\u043b\u0435\u043a\u0441\u0430\u043d\u0434\u0440 \u0418\u043e\u0441\u0438\u0444\u043e\u0432\u0438\u0447",
    "rating": 0.01724930449513198
  }
}