{
  "471": {
    "name": "\u041d\u0438\u043a\u0438\u0442\u0438\u043d \u0410\u043b\u0435\u043a\u0441\u0430\u043d\u0434\u0440 \u0412\u0430\u043b\u0435\u0440\u044c\u0435\u0432\u0438\u0447",
    "rating": 3.103578571209683
  },
  "14616": {
    "name": "\u0410\u043b\u0435\u0448\u043a\u0438\u043d \u0410\u043b\u0435\u043a\u0441\u0430\u043d\u0434\u0440 \u0421\u0442\u0435\u043f\u0430\u043d\u043e\u0432\u0438\u0447",
    "rating": 1.1867211190071731
  },
  "14617": {
    "name": "\u0410\u043b\u0435\u0448\u043a\u0438\u043d \u0421\u0435\u0440\u0433\u0435\u0439 \u0410\u043b\u0435\u043a\u0441\u0430\u043d\u0434\u0440\u043e\u0432\u0438\u0447",
    "rating": 2.187606334271276
  },
  "14618": {
    "name": "\u0411\u043e\u043b\u0434\u044b\u0440\u0435\u0432 \u041a\u043e\u043d\u0441\u0442\u0430\u043d\u0442\u0438\u043d \u0412\u043b\u0430\u0434\u0438\u043c\u0438\u0440\u043e\u0432\u0438\u0447",
    "rating": 1.0649771421705712
  },
  "14619": {
    "name": "\u0413\u0438\u043b\u044c\u0444\u0430\u043d\u043e\u0432 \u041c\u0430\u0440\u0430\u0442 \u0422\u0430\u043b\u0433\u0430\u0442\u043e\u0432\u0438\u0447",
    "rating": 1.616661018595449
  },
  "14620": {
    "name": "\u0413\u0440\u0435\u0431\u0435\u043d\u044e\u043a \u041b\u0435\u043e\u043d\u0438\u0434 \u0412\u043b\u0430\u0434\u0438\u043c\u0438\u0440\u043e\u0432\u0438\u0447",
    "rating": 1.8684206893906457
  },
  "14621": {
    "name": "\u0414\u0443\u0431\u0440\u043e\u0432\u0438\u043d \u0412\u0438\u043a\u0442\u043e\u0440 \u041d\u0438\u043a\u043e\u043b\u0430\u0435\u0432\u0438\u0447",
    "rating": 5.0184655142628785
  },
  "14622": {
    "name": "\u0415\u043b\u0438\u0441\u0435\u0435\u0432 \u042e\u0440\u0438\u0439 \u041f\u0435\u0442\u0440\u043e\u0432\u0438\u0447",
    "rating": 3.041721328216368
  },
  "14623": {
    "name": "\u0416\u0443\u043f\u0438\u043a\u043e\u0432 \u0410\u043b\u0435\u043a\u0441\u0430\u043d\u0434\u0440 \u0412\u043b\u0430\u0434\u0438\u043c\u0438\u0440\u043e\u0432\u0438\u0447",
    "rating": 4.0338093764418135
  },
  "14624": {
    "name": "\u041c\u0430\u043a\u0441\u0438\u043c\u043e\u0432 \u0421\u0435\u0440\u0433\u0435\u0439 \u0412\u0438\u043a\u0442\u043e\u0440\u043e\u0432\u0438\u0447",
    "rating": 7.983581793332647
  },
  "14625": {
    "name": "\u041c\u0443\u0440\u0430\u0442\u043e\u0432 \u041c\u0438\u0445\u0430\u0438\u043b \u0418\u0432\u0430\u043d\u043e\u0432\u0438\u0447",
    "rating": 5.0184655142628785
  },
  "14626": {
    "name": "\u0421\u043e\u043a\u043e\u043b\u043e\u0432 \u042e\u0440\u0438\u0439 \u042f\u043a\u043e\u0432\u043b\u0435\u0432\u0438\u0447",
    "rating": 2.339355449857861
  },
  "14627": {
    "name": "\u0421\u0442\u0440\u0430\u0448\u043d\u043e\u0432 \u041d\u0438\u043a\u043e\u043b\u0430\u0439 \u041c\u0438\u0445\u0430\u0439\u043b\u043e\u0432\u0438\u0447",
    "rating": 1.2709446435486047
  },
  "14628": {
    "name": "\u0421\u0442\u0440\u0443\u043a\u043e\u0432 \u0410\u043d\u0430\u0442\u043e\u043b\u0438\u0439 \u041d\u0438\u043a\u043e\u043b\u0430\u0435\u0432\u0438\u0447",
    "rating": 4.0
  },
  "14629": {
    "name": "\u0425\u0430\u0443\u0441\u0442\u043e\u0432 \u0421\u0435\u0440\u0433\u0435\u0439 \u0412\u0430\u043b\u0435\u0440\u0438\u0435\u0432\u0438\u0447",
    "rating": 4.030093421239624
  },
  "14630": {
    "name": "\u0426\u0435\u043d\u0438\u043d \u0410\u043d\u0434\u0440\u0435\u0439 \u0412\u0438\u043a\u0442\u043e\u0440\u043e\u0432\u0438\u0447",
    "rating": 2.7391035282110257
  },
  "14631": {
    "name": "\u0410\u043d\u0434\u0440\u0435\u0435\u0432 \u0410\u043d\u0434\u0440\u0435\u0439 \u0412\u043b\u0430\u0434\u0438\u043c\u0438\u0440\u043e\u0432\u0438\u0447",
    "rating": 4.420582653886644
  },
  "14632": {
    "name": "\u0410\u043d\u0434\u0440\u043e\u0441\u043e\u0432 \u0412\u043b\u0430\u0434\u0438\u043c\u0438\u0440 \u0412\u0438\u043a\u0442\u043e\u0440\u043e\u0432\u0438\u0447",
    "rating": 6.006837607286135
  },
  "14633": {
    "name": "\u0413\u0430\u0431\u0443\u0435\u0432 \u0422\u0430\u0439\u043c\u0443\u0440\u0430\u0437 \u0412\u043b\u0430\u0434\u0438\u043c\u0438\u0440\u043e\u0432\u0438\u0447",
    "rating": 1.5632683659522908
  },
  "14634": {
    "name": "\u0416\u0438\u0440\u043d\u043e\u0432 \u0410\u043b\u0435\u043a\u0441\u0435\u0439 \u0413\u0435\u043d\u043d\u0430\u0434\u044c\u0435\u0432\u0438\u0447",
    "rating": 3.4354763706923093
  },
  "14635": {
    "name": "\u041a\u0430\u0440\u0435\u0432 \u0412\u043b\u0430\u0434\u0438\u043c\u0438\u0440 \u041d\u0438\u043a\u043e\u043b\u0430\u0435\u0432\u0438\u0447",
    "rating": 3.1737653657873874
  },
  "14636": {
    "name": "\u041a\u043e\u043d\u043d\u043e\u0432 \u0421\u0435\u0440\u0433\u0435\u0439 \u0421\u0442\u0435\u043f\u0430\u043d\u043e\u0432\u0438\u0447",
    "rating": 1.3974424098286249
  },
  "14637": {
    "name": "\u041a\u043e\u043f\u044b\u043b\u043e\u0432 \u0411\u043e\u0440\u0438\u0441 \u0412\u0430\u0441\u0438\u043b\u044c\u0435\u0432\u0438\u0447",
    "rating": 4.248617546357962
  },
  "14638": {
    "name": "\u041a\u043e\u0440\u043e\u0441\u0442\u0435\u043b\u0451\u0432\u0430 \u0421\u0432\u0435\u0442\u043b\u0430\u043d\u0430 \u0412\u0430\u043b\u0435\u043d\u0442\u0438\u043d\u043e\u0432\u043d\u0430",
    "rating": 1.0747118879076332
  },
  "14639": {
    "name": "\u041a\u043e\u0447\u0435\u0442\u043a\u043e\u0432 \u0410\u043b\u0435\u043a\u0441\u0435\u0439 \u0412\u0438\u043a\u0442\u043e\u0440\u043e\u0432\u0438\u0447",
    "rating": 1.1572460863614256
  },
  "14640": {
    "name": "\u041a\u043e\u0440\u043d\u0435\u0432 \u041c\u0438\u0445\u0430\u0438\u043b \u041e\u043b\u0435\u0433\u043e\u0432\u0438\u0447",
    "rating": 1.1239521039964897
  },
  "14641": {
    "name": "\u041b\u0438\u0445\u0430\u0447\u0435\u0432 \u041d\u0438\u043a\u043e\u043b\u0430\u0439 \u0410\u043b\u0435\u043a\u0441\u0430\u043d\u0434\u0440\u043e\u0432\u0438\u0447",
    "rating": 1.334329593608436
  },
  "14642": {
    "name": "\u041b\u0443\u0442\u0446\u0435\u0432 \u0410\u043b\u0435\u043a\u0441\u0430\u043d\u0434\u0440 \u0411\u043e\u0440\u0438\u0441\u043e\u0432\u0438\u0447",
    "rating": 1.5898881107371237
  },
  "14643": {
    "name": "\u041c\u0430\u0442\u0443\u0448\u043a\u0438\u043d \u0415\u0432\u0433\u0435\u043d\u0438\u0439 \u0410\u043b\u0435\u043a\u0441\u0435\u0435\u0432\u0438\u0447",
    "rating": 1.9666164610961652
  },
  "14644": {
    "name": "\u041c\u0438\u043b\u043e\u0441\u0435\u0440\u0434\u043e\u0432\u0430 \u041b\u044e\u0431\u043e\u0432\u044c \u041f\u0430\u0432\u043b\u043e\u0432\u043d\u0430",
    "rating": 1.2434180692948458
  },
  "14645": {
    "name": "\u041f\u0438\u043b\u0438\u043f\u0435\u043d\u043a\u043e \u0410\u043d\u0434\u0440\u0435\u0439 \u0412\u043b\u0430\u0434\u0438\u043c\u0438\u0440\u043e\u0432\u0438\u0447",
    "rating": 1.5189801419250093
  },
  "14646": {
    "name": "\u041f\u043b\u0443\u0436\u043d\u0438\u043a\u043e\u0432 \u042e\u0440\u0438\u0439 \u0412\u043b\u0430\u0434\u0438\u043c\u0438\u0440\u043e\u0432\u0438\u0447",
    "rating": 3.041721328216368
  },
  "14647": {
    "name": "\u041f\u043b\u0443\u0442\u0430\u043b\u043e\u0432 \u0410\u043d\u0430\u0442\u043e\u043b\u0438\u0439 \u0422\u0438\u043c\u043e\u0444\u0435\u0435\u0432\u0438\u0447",
    "rating": 4.030093421239624
  },
  "14648": {
    "name": "\u041f\u043e\u043b\u0435\u0436\u0430\u0435\u0432 \u0412\u0438\u043a\u0442\u043e\u0440 \u0421\u0435\u043c\u0435\u043d\u043e\u0432\u0438\u0447",
    "rating": 1.4466611386726616
  },
  "14649": {
    "name": "\u041f\u043e\u043b\u044f\u043a\u043e\u0432 \u0410\u043b\u0435\u043a\u0441\u0430\u043d\u0434\u0440 \u0410\u043b\u0435\u043a\u0441\u0435\u0435\u0432\u0438\u0447",
    "rating": 6.011082103714541
  },
  "14650": {
    "name": "\u041f\u0435\u0442\u0440\u043e\u0432 \u0410\u043d\u0430\u0442\u043e\u043b\u0438\u0439 \u0418\u043b\u044c\u0438\u0447",
    "rating": 4.404613929852784
  },
  "14651": {
    "name": "\u041f\u043e\u043f\u043e\u0432 \u0411\u043e\u0440\u0438\u0441 \u0412\u0438\u043a\u0442\u043e\u0440\u043e\u0432\u0438\u0447",
    "rating": 2.6111468596980787
  },
  "14652": {
    "name": "\u041f\u043e\u043f\u043e\u0432 \u0410\u043d\u0434\u0440\u0435\u0439 \u0412\u0430\u0441\u0438\u043b\u044c\u0435\u0432\u0438\u0447",
    "rating": 4.030093421239624
  },
  "14653": {
    "name": "\u0420\u044b\u0436\u043e\u0432\u0430 \u0423\u043b\u044c\u044f\u043d\u0430 \u0410\u043b\u0435\u043a\u0441\u0430\u043d\u0434\u0440\u043e\u0432\u043d\u0430",
    "rating": 1.0858084889572532
  },
  "14654": {
    "name": "\u0421\u043a\u0440\u0438\u043f\u0446\u043e\u0432 \u0415\u0432\u0433\u0435\u043d\u0438\u0439 \u041d\u0438\u043a\u043e\u043b\u0430\u0435\u0432\u0438\u0447",
    "rating": 3.6860490562981654
  },
  "14655": {
    "name": "\u0421\u043e\u0441\u0435\u0434\u043e\u0432 \u0413\u0435\u043d\u043d\u0430\u0434\u0438\u0439 \u0410\u043d\u0430\u0442\u043e\u043b\u044c\u0435\u0432\u0438\u0447",
    "rating": 3.2991698991135303
  },
  "14656": {
    "name": "\u0421\u0442\u0440\u043e\u043c\u043e\u0432 \u0412\u043b\u0430\u0434\u0438\u043c\u0438\u0440 \u042e\u0440\u044c\u0435\u0432\u0438\u0447",
    "rating": 5.0184655142628785
  },
  "14657": {
    "name": "\u0422\u0430\u0440\u0430\u0431\u0440\u0438\u043d \u0412\u0438\u043a\u0442\u043e\u0440 \u041f\u0435\u0442\u0440\u043e\u0432\u0438\u0447",
    "rating": 5.0184655142628785
  },
  "14658": {
    "name": "\u0424\u0440\u043e\u043b\u043e\u0432\u0430 \u0422\u0430\u043c\u0430\u0440\u0430 \u0418\u0432\u0430\u043d\u043e\u0432\u043d\u0430",
    "rating": 2.3871909002719534
  },
  "14659": {
    "name": "\u0428\u043c\u044b\u0440\u0451\u0432 \u041d\u0438\u043a\u043e\u043b\u0430\u0439 \u041b\u0435\u043e\u043d\u0438\u0434\u043e\u0432\u0438\u0447",
    "rating": 5.0184655142628785
  },
  "14660": {
    "name": "\u0428\u0443\u0431\u0438\u043d \u041c\u0438\u0445\u0430\u0438\u043b \u0410\u043b\u0435\u043a\u0441\u0435\u0435\u0432\u0438\u0447",
    "rating": 5.0184655142628785
  },
  "14661": {
    "name": "\u042e\u0440\u044c\u0435\u0432 \u0412\u043b\u0430\u0434\u0438\u0441\u043b\u0430\u0432 \u041c\u0438\u0445\u0430\u0439\u043b\u043e\u0432\u0438\u0447",
    "rating": 4.0
  },
  "23436": {
    "name": "\u0412\u043e\u043b\u043a\u043e\u0432 \u0421\u0435\u0440\u0433\u0435\u0439 \u0410\u043b\u0435\u043a\u0441\u0430\u043d\u0434\u0440\u043e\u0432\u0438\u0447",
    "rating": 3.080430453090803
  },
  "23437": {
    "name": "\u0416\u0430\u043b\u043d\u0438\u043d \u0410\u043b\u0435\u043a\u0441\u0430\u043d\u0434\u0440 \u041a\u043e\u043d\u0441\u0442\u0430\u043d\u0442\u0438\u043d\u043e\u0432\u0438\u0447",
    "rating": 1.6024391181524271
  },
  "23438": {
    "name": "\u041a\u043b\u044e\u0447\u0435\u043d\u043e\u043a \u0412\u0430\u0441\u0438\u043b\u0438\u0439 \u0414\u043c\u0438\u0442\u0440\u0438\u0435\u0432\u0438\u0447",
    "rating": 0.40918211686501343
  },
  "23439": {
    "name": "\u041a\u0443\u043f\u0440\u0438\u044f\u043d\u043e\u0432 \u0410\u043b\u0435\u043a\u0441\u0430\u043d\u0434\u0440 \u0412\u0438\u043a\u0442\u043e\u0440\u043e\u0432\u0438\u0447",
    "rating": 4.0
  },
  "23440": {
    "name": "\u041e\u0432\u0441\u0435\u043f\u044f\u043d \u041c\u0430\u0440\u0438\u043d\u0430 \u0410\u043b\u0435\u043a\u0441\u0430\u043d\u0434\u0440\u043e\u0432\u043d\u0430",
    "rating": 0.02222234558409733
  },
  "23441": {
    "name": "\u0421\u0443\u0445\u0430\u0440\u0435\u0432 \u0410\u043b\u0435\u043a\u0441\u0430\u043d\u0434\u0440 \u0415\u0432\u0433\u0435\u043d\u044c\u0435\u0432\u0438\u0447",
    "rating": 0.026331780239542198
  }
}