{
  "35934": {
    "name": "\u0413\u043b\u0443\u043c\u043e\u0432 \u0418\u0432\u0430\u043d \u0424\u0435\u0434\u043e\u0440\u043e\u0432\u0438\u0447",
    "rating": 1.2518801600712934
  },
  "35943": {
    "name": "\u0413\u043e\u0440\u0448\u043a\u043e\u0432\u0430 \u0418\u0440\u0438\u043d\u0430 \u041d\u0438\u043a\u043e\u043b\u0430\u0435\u0432\u043d\u0430",
    "rating": 0.409616727017072
  },
  "35944": {
    "name": "\u041f\u0443\u0447\u043a\u043e\u0432 \u0418\u0432\u0430\u043d \u041d\u0438\u043a\u043e\u043b\u0430\u0435\u0432\u0438\u0447",
    "rating": 0.047371956788037066
  }
}