{
  "2895": {
    "name": "\u0411\u043e\u0440\u0438\u0441\u043e\u0432\u0435\u0446 \u042e\u0440\u0438\u0439 \u041b\u044c\u0432\u043e\u0432\u0438\u0447",
    "rating": 3.9175079185326007
  },
  "13968": {
    "name": "\u041c\u043e\u0442\u0440\u0438\u0447 \u0410\u043b\u0435\u043a\u0441\u0430\u043d\u0434\u0440 \u0418\u0432\u0430\u043d\u043e\u0432\u0438\u0447",
    "rating": 2.0084352879697858
  },
  "13969": {
    "name": "\u0414\u0430\u043d\u0438\u043b\u0438\u043d \u0412\u043b\u0430\u0434\u0438\u043c\u0438\u0440 \u041d\u0438\u043a\u043e\u043b\u0430\u0435\u0432\u0438\u0447",
    "rating": 1.5159633904141432
  },
  "13970": {
    "name": "\u0414\u0451\u043c\u043a\u0438\u043d \u041d\u0438\u043a\u043e\u043b\u0430\u0439 \u0418\u0432\u0430\u043d\u043e\u0432\u0438\u0447",
    "rating": 2.9262798483571624
  },
  "13971": {
    "name": "\u0416\u0443\u043a\u043e\u0432 \u0412\u043b\u0430\u0434\u0438\u043c\u0438\u0440 \u042e\u0440\u044c\u0435\u0432\u0438\u0447",
    "rating": 2.8677823460199594
  },
  "13972": {
    "name": "\u0411\u043e\u0433\u0443\u0441\u043b\u0430\u0432\u0441\u043a\u0438\u0439 \u0421\u0435\u0440\u0433\u0435\u0439 \u0421\u0442\u0430\u043d\u0438\u0441\u043b\u0430\u0432\u043e\u0432\u0438\u0447",
    "rating": 1.6934576947601234
  },
  "13973": {
    "name": "\u0428\u0438\u043b\u043e\u0432 \u0413\u0435\u043d\u043d\u0430\u0434\u0438\u0439 \u041c\u0438\u0445\u0430\u0439\u043b\u043e\u0432\u0438\u0447",
    "rating": 3.9175079185326007
  },
  "13974": {
    "name": "\u0411\u0443\u0440\u043d\u0430\u0448\u043e\u0432 \u0410\u043b\u0435\u043a\u0441\u0435\u0439 \u041b\u0435\u043e\u043d\u0438\u0434\u043e\u0432\u0438\u0447",
    "rating": 1.2440892512444006
  },
  "13975": {
    "name": "\u0421\u0442\u0430\u0440\u043a\u043e\u0432 \u0410\u043d\u0434\u0440\u0435\u0439 \u0412\u0430\u0434\u0438\u043c\u043e\u0432\u0438\u0447",
    "rating": 1.3697013507112568
  },
  "13976": {
    "name": "\u0411\u043e\u0439\u0447\u0435\u043d\u043a\u043e \u0410\u043b\u0435\u043a\u0441\u0430\u043d\u0434\u0440 \u042e\u0440\u044c\u0435\u0432\u0438\u0447",
    "rating": 1.3041308678251842
  },
  "13977": {
    "name": "\u0424\u043b\u0435\u0433\u0438\u043d\u0441\u043a\u0438\u0439 \u0410\u043b\u0435\u043a\u0441\u0430\u043d\u0434\u0440 \u0415\u0432\u0433\u0435\u043d\u044c\u0435\u0432\u0438\u0447",
    "rating": 2.9262798483571624
  },
  "13978": {
    "name": "\u0422\u0435\u043b\u0435\u043f\u043d\u0435\u0432 \u0410\u043b\u0435\u043a\u0441\u0430\u043d\u0434\u0440 \u0410\u043b\u0435\u043a\u0441\u0430\u043d\u0434\u0440\u043e\u0432\u0438\u0447",
    "rating": 3.610603230926976
  },
  "13979": {
    "name": "\u0411\u0430\u0440\u0430\u043d\u043e\u0432 \u0412\u0438\u043a\u0442\u043e\u0440 \u0418\u0432\u0430\u043d\u043e\u0432\u0438\u0447",
    "rating": 4.90873598870804
  },
  "13980": {
    "name": "\u0424\u0438\u0441\u044e\u043a \u042e\u0440\u0438\u0439 \u042e\u0440\u044c\u0435\u0432\u0438\u0447",
    "rating": 1.6410113805818596
  },
  "13981": {
    "name": "\u041f\u0430\u043f\u043a\u043e\u0432 \u0418\u0433\u043e\u0440\u044c \u0412\u0430\u043b\u0435\u043d\u0442\u0438\u043d\u043e\u0432\u0438\u0447",
    "rating": 4.90873598870804
  },
  "13982": {
    "name": "\u041a\u043e\u0432\u0430\u043b\u0435\u0432 \u041e\u043b\u0435\u0433 \u0410\u043b\u0435\u043a\u0441\u0435\u0435\u0432\u0438\u0447",
    "rating": 3.9175079185326007
  },
  "13983": {
    "name": "\u0414\u0430\u0443\u0442 \u0412\u043b\u0430\u0434\u0438\u043c\u0438\u0440 \u0410\u043b\u0435\u043a\u0441\u0430\u043d\u0434\u0440\u043e\u0432\u0438\u0447",
    "rating": 0.9980592505505348
  },
  "13984": {
    "name": "\u041a\u0430\u0440\u043f\u043e\u0432 \u0410\u043d\u0430\u0442\u043e\u043b\u0438\u0439 \u0410\u043b\u0435\u043a\u0441\u0430\u043d\u0434\u0440\u043e\u0432\u0438\u0447",
    "rating": 3.574043313649076
  },
  "13985": {
    "name": "\u041e\u0440\u043b\u043e\u0432 \u0414\u043c\u0438\u0442\u0440\u0438\u0439 \u0421\u0442\u0430\u043d\u0438\u0441\u043b\u0430\u0432\u043e\u0432\u0438\u0447",
    "rating": 2.9262798483571624
  },
  "13986": {
    "name": "\u0422\u0440\u0435\u0442\u044c\u044f\u043a\u043e\u0432 \u0410\u043b\u0435\u043a\u0441\u0430\u043d\u0434\u0440 \u0412\u043b\u0430\u0434\u0438\u043c\u0438\u0440\u043e\u0432\u0438\u0447",
    "rating": 1.2471707219312609
  },
  "13987": {
    "name": "\u0414\u0440\u0430\u043d\u0438\u0446\u044b\u043d \u0410\u043b\u0435\u043a\u0441\u0430\u043d\u0434\u0440 \u0410\u043d\u0430\u0442\u043e\u043b\u044c\u0435\u0432\u0438\u0447",
    "rating": 4.90873598870804
  },
  "13988": {
    "name": "\u041a\u043b\u0435\u043f\u0446\u0438\u043d \u0421\u0435\u0440\u0433\u0435\u0439 \u0412\u0438\u0442\u0430\u043b\u044c\u0435\u0432\u0438\u0447",
    "rating": 1.522701687485539
  },
  "13989": {
    "name": "\u0427\u0438\u0447\u0435\u043b\u043e\u0432 \u0412\u0438\u043a\u0442\u043e\u0440 \u0410\u043b\u0435\u043a\u0441\u0430\u043d\u0434\u0440\u043e\u0432\u0438\u0447",
    "rating": 2.9262798483571624
  },
  "13990": {
    "name": "\u0421\u0443\u0445\u0438\u0445 \u0412\u0430\u043b\u0435\u0440\u0438\u0439 \u0410\u043b\u0435\u043a\u0441\u0430\u043d\u0434\u0440\u043e\u0432\u0438\u0447",
    "rating": 2.9262798483571624
  },
  "13991": {
    "name": "\u0401\u043b\u043e\u0445\u043e\u0432 \u042e\u0440\u0438\u0439 \u0413\u0435\u043e\u0440\u0433\u0438\u0435\u0432\u0438\u0447",
    "rating": 0.8170918835143197
  },
  "13992": {
    "name": "\u0416\u0434\u0430\u043d\u043e\u0432 \u041e\u043b\u0435\u0433 \u041c\u0438\u0445\u0430\u0439\u043b\u043e\u0432\u0438\u0447",
    "rating": 3.9175079185326007
  },
  "13993": {
    "name": "\u041f\u043b\u044e\u0441\u043d\u0438\u043d \u0412\u0438\u043a\u0442\u043e\u0440 \u0411\u043e\u0440\u0438\u0441\u043e\u0432\u0438\u0447",
    "rating": 3.9175079185326007
  },
  "13994": {
    "name": "\u0421\u043a\u0440\u0438\u0432\u0430\u043d\u043e\u0432 \u0414\u043c\u0438\u0442\u0440\u0438\u0439 \u0421\u0442\u0430\u043d\u0438\u0441\u043b\u0430\u0432\u043e\u0432\u0438\u0447",
    "rating": 2.3359047119243543
  },
  "13995": {
    "name": "\u0420\u0430\u0437\u0443\u0442\u0434\u0438\u043d\u043e\u0432 \u0420\u0430\u0432\u043a\u0430\u0442 \u0417\u0438\u043d\u0443\u0440\u043e\u0432\u0438\u0447",
    "rating": 3.9175079185326007
  },
  "13996": {
    "name": "\u041f\u0435\u0442\u0440\u043e\u0432 \u0410\u043b\u0435\u043a\u0441\u0435\u0439 \u0410\u043b\u0435\u043a\u0441\u0435\u0435\u0432\u0438\u0447",
    "rating": 5.899964058883477
  },
  "13997": {
    "name": "\u0425\u043e\u0437\u044f\u0448\u0435\u0432 \u0412\u043b\u0430\u0434\u0438\u043c\u0438\u0440 \u0421\u0435\u043c\u0435\u043d\u043e\u0432\u0438\u0447",
    "rating": 3.7068631825996063
  },
  "13998": {
    "name": "\u0413\u0430\u043b\u0430\u0439\u0434\u0430 \u0417\u043e\u044f \u0418\u0432\u0430\u043d\u043e\u0432\u043d\u0430",
    "rating": 2.9747345931100786
  },
  "13999": {
    "name": "\u041a\u043e\u043b\u0435\u0441\u043d\u0438\u043a\u043e\u0432 \u0410\u043d\u0434\u0440\u0435\u0439 \u041a\u043e\u043d\u0441\u0442\u0430\u043d\u0442\u0438\u043d\u043e\u0432\u0438\u0447",
    "rating": 1.8276771234236848
  },
  "14000": {
    "name": "\u0427\u0443\u043b\u043e\u0448\u043d\u0438\u043a\u043e\u0432 \u0412\u043b\u0430\u0434\u0438\u043c\u0438\u0440 \u0412\u0435\u043d\u0438\u0430\u043c\u0438\u043d\u043e\u0432\u0438\u0447",
    "rating": 1.0052219857577591
  },
  "14001": {
    "name": "\u0413\u0430\u0440\u0441\u043b\u044f\u043d \u0410\u0440\u043c\u0435\u043d \u0413\u0430\u0439\u043e\u0441\u043e\u0432\u0438\u0447",
    "rating": 0.9745775903476794
  },
  "14002": {
    "name": "\u0428\u0443\u043b\u044c\u043a\u0438\u043d \u0418\u043b\u044c\u044f \u0413\u0440\u0438\u0433\u043e\u0440\u044c\u0435\u0432\u0438\u0447",
    "rating": 3.9175079185326007
  },
  "14003": {
    "name": "\u041a\u043e\u0440\u044e\u043a\u0438\u043d\u0430 \u0418\u0440\u0438\u043d\u0430 \u041f\u0435\u0442\u0440\u043e\u0432\u043d\u0430",
    "rating": 1.4733278118983637
  },
  "14004": {
    "name": "\u0428\u0430\u043b\u044b\u0433\u0438\u043d\u0430 \u0415\u043b\u0435\u043d\u0430 \u0410\u043d\u0434\u0440\u0435\u0435\u0432\u043d\u0430",
    "rating": 3.8546666824052647
  },
  "14005": {
    "name": "\u041b\u0435\u0439\u0444\u0440\u0438\u0434 \u0410\u043b\u0435\u043a\u0441\u0430\u043d\u0434\u0440 \u0412\u0438\u043a\u0442\u043e\u0440\u043e\u0432\u0438\u0447",
    "rating": 1.2522692224321943
  },
  "14006": {
    "name": "\u0413\u0438\u043b\u044f\u0437\u043e\u0432\u0430 \u0415\u043b\u0435\u043d\u0430 \u0415\u0444\u0438\u043c\u043e\u0432\u043d\u0430",
    "rating": 1.4372108860473538
  },
  "14007": {
    "name": "\u041a\u043e\u0431\u0435\u043b\u0435\u0432 \u0412\u0438\u043a\u0442\u043e\u0440 \u041d\u0438\u043a\u043e\u043b\u0430\u0435\u0432\u0438\u0447",
    "rating": 5.237248797199885
  },
  "14008": {
    "name": "\u0411\u043e\u0434\u0440\u043e\u0432 \u0410\u043b\u0435\u043a\u0441\u0435\u0439 \u0410\u043d\u0430\u0442\u043e\u043b\u044c\u0435\u0432\u0438\u0447",
    "rating": 1.5627506337012722
  },
  "14009": {
    "name": "\u0421\u0430\u0440\u043a\u0441\u044f\u043d \u0412\u0430\u0433\u0430\u0440\u0448\u0430\u043a \u0411\u043e\u0440\u0438\u0441\u043e\u0432\u0438\u0447",
    "rating": 2.9262798483571624
  },
  "14010": {
    "name": "\u0417\u044b\u0440\u044f\u043d\u043e\u0432\u0430 \u0415\u043b\u0435\u043d\u0430 \u0412\u043b\u0430\u0434\u0438\u043c\u0438\u0440\u043e\u0432\u043d\u0430",
    "rating": 2.7306491193065585
  },
  "14011": {
    "name": "\u0427\u0435\u0440\u0432\u043e\u043d\u043d\u044b\u0445 \u0410\u043b\u0435\u043a\u0441\u0435\u0439 \u0412\u043b\u0430\u0434\u0438\u043c\u0438\u0440\u043e\u0432\u0438\u0447",
    "rating": 1.0126885101400032
  },
  "14012": {
    "name": "\u041a\u043e\u0440\u0441\u0443\u043d \u0412\u043b\u0430\u0434\u0438\u043c\u0438\u0440 \u041a\u0443\u0437\u044c\u043c\u0438\u0447",
    "rating": 1.2938039393150382
  },
  "14013": {
    "name": "\u041a\u0443\u0437\u044c\u043c\u0438\u0446\u043a\u0438\u0439 \u0413\u0435\u043d\u043d\u0430\u0434\u0438\u0439 \u042d\u0434\u0443\u0430\u0440\u0434\u043e\u0432\u0438\u0447",
    "rating": 1.9767023513723387
  },
  "14014": {
    "name": "\u0427\u0435\u0431\u044b\u043a\u0438\u043d \u0412\u0430\u0434\u0438\u043c \u041b\u0435\u043e\u043d\u0438\u0434\u043e\u0432\u0438\u0447",
    "rating": 3.8791860882903455
  },
  "14015": {
    "name": "\u0416\u0435\u043b\u043e\u0431\u043e\u0432\u0438\u0447 \u0415\u0432\u0433\u0435\u043d\u0438\u0439 \u0420\u043e\u043c\u0430\u043d\u043e\u0432\u0438\u0447",
    "rating": 0.9596119892973703
  },
  "14016": {
    "name": "\u041c\u0430\u043a\u0430\u0440\u043e\u0432 \u041f\u0430\u0432\u0435\u043b \u0410\u0440\u043a\u0430\u0434\u044c\u0435\u0432\u0438\u0447",
    "rating": 1.0627844662223205
  },
  "14017": {
    "name": "\u0410\u0439\u0442\u0430\u043a\u043e\u0432\u0430 \u041a\u0441\u0435\u043d\u0438\u044f \u0410\u043b\u0435\u043a\u0441\u0435\u0435\u0432\u043d\u0430",
    "rating": 2.055231774458844
  },
  "14018": {
    "name": "\u041c\u0438\u0442\u0440\u043e\u0444\u0430\u043d\u043e\u0432 \u0421\u0435\u0440\u0433\u0435\u0439 \u0412\u0430\u043b\u0435\u0440\u044c\u0435\u0432\u0438\u0447",
    "rating": 0.07009922041100564
  },
  "14019": {
    "name": "\u0417\u043e\u043b\u043e\u0442\u0430\u0440\u0435\u0432 \u0410\u043b\u0435\u043a\u0441\u0435\u0439 \u0412\u043b\u0430\u0434\u0438\u043c\u0438\u0440\u043e\u0432\u0438\u0447",
    "rating": 4.90873598870804
  },
  "14020": {
    "name": "\u041f\u0440\u043e\u0445\u043e\u0440\u043e\u0432 \u0421\u0435\u0440\u0433\u0435\u0439 \u0418\u0432\u0430\u043d\u043e\u0432\u0438\u0447",
    "rating": 2.9262798483571624
  },
  "14021": {
    "name": "\u041f\u043e\u043b\u044f\u043a\u043e\u0432 \u041e\u043b\u0435\u0433 \u0411\u043e\u0440\u0438\u0441\u043e\u0432\u0438\u0447",
    "rating": 1.5549790174605882
  },
  "14022": {
    "name": "\u0420\u043e\u0433\u043e\u0436\u043d\u0438\u043a\u043e\u0432\u0430 \u041e\u043b\u044c\u0433\u0430 \u0410\u043d\u0434\u0440\u0435\u0435\u0432\u043d\u0430",
    "rating": 1.9438981961520525
  },
  "14023": {
    "name": "\u041b\u0443\u043a\u0430\u043d\u0438\u043d \u0410\u043b\u0435\u043a\u0441\u0435\u0439 \u0410\u043b\u0435\u043a\u0441\u0430\u043d\u0434\u0440\u043e\u0432\u0438\u0447",
    "rating": 2.9262798483571624
  },
  "14024": {
    "name": "\u041c\u0430\u0440\u043a\u043e\u0432 \u0410\u043d\u0434\u0440\u0435\u0439 \u0410\u043d\u0430\u0442\u043e\u043b\u044c\u0435\u0432\u0438\u0447",
    "rating": 3.221489272384498
  },
  "14025": {
    "name": "\u042d\u0439\u0441\u0444\u0435\u043b\u044c\u0434 \u0414\u0430\u0440\u044c\u044f \u0410\u043b\u0435\u043a\u0441\u0430\u043d\u0434\u0440\u043e\u0432\u043d\u0430",
    "rating": 3.5353500855032607
  },
  "14026": {
    "name": "\u0428\u0438\u0440\u044f\u0435\u0432\u0430 \u041b\u0438\u043b\u0438\u044f \u041d\u0438\u043a\u043e\u043b\u0430\u0435\u0432\u043d\u0430",
    "rating": 3.903707267676965
  },
  "14027": {
    "name": "\u0410\u043b\u0438\u0441\u0442\u0440\u0430\u0442\u043e\u0432 \u0412\u043b\u0430\u0434\u0438\u043c\u0438\u0440 \u041d\u0438\u043a\u043e\u043b\u0430\u0435\u0432\u0438\u0447",
    "rating": 4.0
  },
  "23379": {
    "name": "\u0412\u0435\u0442\u043e\u0448\u043a\u0438\u043d \u0421\u0435\u0440\u0433\u0435\u0439 \u0410\u043b\u0435\u043a\u0441\u0430\u043d\u0434\u0440\u043e\u0432\u0438\u0447",
    "rating": 0.1820455730937024
  },
  "23380": {
    "name": "\u0415\u043b\u043e\u0445\u043e\u0432 \u042e\u0440\u0438\u0439 \u0413\u0435\u043e\u0440\u0433\u0438\u0435\u0432\u0438\u0447",
    "rating": 1.833227206275989
  },
  "23381": {
    "name": "\u041a\u0430\u043c\u0435\u043d\u0441\u043a\u0438\u0445 \u0422\u0430\u0442\u044c\u044f\u043d\u0430 \u0412\u0438\u043a\u0442\u043e\u0440\u043e\u0432\u043d\u0430",
    "rating": 1.4461790476456975
  }
}