{
  "2567": {
    "name": "\u0410\u043d\u0442\u043e\u043d\u043e\u0432 \u0412\u0438\u043a\u0442\u043e\u0440 \u0412\u0430\u0441\u0438\u043b\u044c\u0435\u0432\u0438\u0447",
    "rating": 2.6446180517365687
  },
  "14069": {
    "name": "\u0411\u043e\u0433\u0430\u0447\u0435\u0432\u0430 \u0418\u0440\u0438\u043d\u0430 \u041c\u0438\u0445\u0430\u0439\u043b\u043e\u0432\u043d\u0430",
    "rating": 1.6878205696887052
  },
  "14071": {
    "name": "\u0411\u0440\u0430\u0442\u0447\u0438\u043a\u043e\u0432 \u0410\u043b\u0435\u043a\u0441\u0430\u043d\u0434\u0440 \u041d\u0438\u043a\u043e\u043b\u0430\u0435\u0432\u0438\u0447",
    "rating": 1.9017334424163996
  },
  "14072": {
    "name": "\u0411\u0440\u044f\u0447\u0430\u043a \u041e\u043b\u0435\u0433 \u041c\u0438\u0445\u0430\u0439\u043b\u043e\u0432\u0438\u0447",
    "rating": 2.1794509215860307
  },
  "14073": {
    "name": "\u0411\u0443\u0431\u043d\u043e\u0432 \u0413\u0435\u043d\u043d\u0430\u0434\u0438\u0439 \u041d\u0438\u043a\u043e\u043b\u0430\u0435\u0432\u0438\u0447",
    "rating": 1.2975074869978298
  },
  "14074": {
    "name": "\u0412\u0430\u0441\u0438\u043b\u0435\u0432\u0441\u043a\u0438\u0439 \u0410\u043b\u0435\u043a\u0441\u0430\u043d\u0434\u0440 \u0412\u0438\u043a\u0442\u043e\u0440\u043e\u0432\u0438\u0447",
    "rating": 2.2669564167657827
  },
  "14075": {
    "name": "\u0412\u0430\u0441\u0438\u043b\u0435\u0432\u0441\u043a\u0438\u0439 \u0412\u0430\u043b\u0435\u0440\u0438\u0439 \u041c\u0438\u0445\u0430\u0439\u043b\u043e\u0432\u0438\u0447",
    "rating": 2.244917449060125
  },
  "14076": {
    "name": "\u0412\u0430\u0441\u0438\u043b\u044c\u0435\u0432 \u0410\u043b\u0435\u043a\u0441\u0435\u0439 \u041d\u0438\u043a\u043e\u043b\u0430\u0435\u0432\u0438\u0447",
    "rating": 4.8545177536013915
  },
  "14077": {
    "name": "\u0412\u0430\u0441\u0438\u043b\u044c\u0435\u0432 \u0410\u0440\u043a\u0430\u0434\u0438\u0439 \u0412\u043b\u0430\u0434\u0438\u043c\u0438\u0440\u043e\u0432\u0438\u0447",
    "rating": 5.0912166583505964
  },
  "14078": {
    "name": "\u0414\u0438\u0442\u0440\u0438\u0445 \u0418\u0433\u043e\u0440\u044c \u0418\u0432\u0430\u043d\u043e\u0432\u0438\u0447",
    "rating": 3.9749342431075023
  },
  "14079": {
    "name": "\u0414\u0443\u043b\u044f \u0412\u0438\u043a\u0442\u043e\u0440 \u0424\u0451\u0434\u043e\u0440\u043e\u0432\u0438\u0447",
    "rating": 1.1493502132514521
  },
  "14080": {
    "name": "\u0415\u0433\u043e\u0440\u043e\u0432 \u041d\u0438\u043a\u043e\u043b\u0430\u0439 \u0412\u0430\u0441\u0438\u043b\u044c\u0435\u0432\u0438\u0447",
    "rating": 3.123320479250471
  },
  "14081": {
    "name": "\u0416\u0438\u043b\u044c\u0446\u043e\u0432\u0430 \u041b\u044e\u0431\u043e\u0432\u044c \u0412\u0430\u0441\u0438\u043b\u044c\u0435\u0432\u043d\u0430",
    "rating": 2.7967249187886742
  },
  "14082": {
    "name": "\u041a\u0430\u043b\u0435\u043d\u0441\u043a\u0438\u0439 \u0412\u0430\u043b\u0435\u043d\u0442\u0438\u043d \u0413\u0440\u0438\u0433\u043e\u0440\u044c\u0435\u0432\u0438\u0447",
    "rating": 3.123320479250471
  },
  "14083": {
    "name": "\u041a\u0430\u0440\u0430\u043a\u0430\u0435\u0432 \u0411\u043e\u0440\u0438\u0441 \u041d\u0438\u043a\u043e\u043b\u0430\u0435\u0432\u0438\u0447",
    "rating": 8.06518094436675
  },
  "14084": {
    "name": "\u041a\u043e\u0437\u043b\u043e\u0432 \u0410\u043d\u0434\u0440\u0435\u0439 \u0413\u0440\u0438\u0433\u043e\u0440\u044c\u0435\u0432\u0438\u0447",
    "rating": 1.156902356540337
  },
  "14085": {
    "name": "\u041a\u043e\u0437\u043b\u043e\u0432\u0441\u043a\u0438\u0439 \u0410\u043b\u0435\u043a\u0441\u0430\u043d\u0434\u0440 \u041d\u0438\u043a\u043e\u043b\u0430\u0435\u0432\u0438\u0447",
    "rating": 6.0884367583202375
  },
  "14086": {
    "name": "\u041a\u043e\u0437\u043b\u043e\u0432\u0441\u043a\u0438\u0439 \u0412\u0441\u0435\u0432\u043e\u043b\u043e\u0434 \u042e\u0440\u044c\u0435\u0432\u0438\u0447",
    "rating": 1.26817032030414
  },
  "14087": {
    "name": "\u041a\u043e\u0437\u044c\u044f\u043a\u043e\u0432\u0430 \u0414\u0430\u0440\u044c\u044f \u0412\u0438\u043a\u0442\u043e\u0440\u043e\u0432\u043d\u0430",
    "rating": 2.9096187802401983
  },
  "14088": {
    "name": "\u041a\u043e\u043f\u043e\u0441\u043e\u0432 \u0410\u043d\u0430\u0442\u043e\u043b\u0438\u0439 \u041f\u0435\u0442\u0440\u043e\u0432\u0438\u0447",
    "rating": 1.5701434823562872
  },
  "14089": {
    "name": "\u041a\u043e\u0442\u043e\u0432 \u0410\u043b\u0435\u043a\u0441\u0430\u043d\u0434\u0440 \u0410\u043b\u0435\u043a\u0441\u0435\u0435\u0432\u0438\u0447",
    "rating": 1.8517543119694173
  },
  "14090": {
    "name": "\u041b\u0435\u0431\u0435\u0434\u0435\u0432 \u0410\u043b\u0435\u043a\u0441\u0430\u043d\u0434\u0440 \u0410\u043d\u0430\u0442\u043e\u043b\u044c\u0435\u0432\u0438\u0447",
    "rating": 3.7175472654912984
  },
  "14091": {
    "name": "\u041b\u0443\u0437\u0438\u043d \u042f\u043d \u0412\u044f\u0447\u0435\u0441\u043b\u0430\u0432\u043e\u0432\u0438\u0447",
    "rating": 5.100064665296983
  },
  "14092": {
    "name": "\u041c\u0430\u043a\u0430\u0440\u0447\u0435\u043d\u043a\u043e \u0421\u0435\u0440\u0433\u0435\u0439 \u0412\u0438\u043a\u0442\u043e\u0440\u043e\u0432\u0438\u0447",
    "rating": 1.4873473079036286
  },
  "14093": {
    "name": "\u041c\u0438\u043d\u0430\u043a\u043e\u0432 \u0410\u043d\u0442\u043e\u043d \u0410\u043b\u0435\u043a\u0441\u0430\u043d\u0434\u0440\u043e\u0432\u0438\u0447",
    "rating": 1.1623645379721026
  },
  "14094": {
    "name": "\u041c\u0438\u0445\u0430\u0439\u043b\u043e\u0432 \u0414\u043c\u0438\u0442\u0440\u0438\u0439 \u042e\u0440\u044c\u0435\u0432\u0438\u0447",
    "rating": 2.1938049499533885
  },
  "14095": {
    "name": "\u041c\u0438\u0445\u0430\u0439\u043b\u043e\u0432\u0430 \u0423\u043b\u044c\u044f\u043d\u0430 \u0410\u043b\u0435\u043a\u0441\u0430\u043d\u0434\u0440\u043e\u0432\u043d\u0430",
    "rating": 4.240271687190748
  },
  "14096": {
    "name": "\u041c\u0443\u0440\u0430\u0448\u043a\u0438\u043d \u041c\u0438\u0445\u0430\u0438\u043b \u0424\u0435\u0434\u043e\u0440\u043e\u0432\u0438\u0447",
    "rating": 6.0884367583202375
  },
  "14097": {
    "name": "\u041c\u044b\u0448\u0438\u043d\u0441\u043a\u0430\u044f \u041c\u0430\u0440\u0438\u044f \u0410\u043b\u0435\u043a\u0441\u0430\u043d\u0434\u0440\u043e\u0432\u043d\u0430",
    "rating": 1.1481617700691489
  },
  "14098": {
    "name": "\u041d\u0438\u043a\u0438\u0444\u043e\u0440\u043e\u0432\u0430 \u041b\u0438\u043b\u0438\u044f \u0410\u043d\u0430\u0442\u043e\u043b\u044c\u0435\u0432\u043d\u0430",
    "rating": 1.5449743485513523
  },
  "14099": {
    "name": "\u041e\u0441\u0442\u0440\u0435\u043d\u043a\u043e \u0412\u0438\u043a\u0442\u043e\u0440 \u0412\u043b\u0430\u0434\u0438\u043c\u0438\u0440\u043e\u0432\u0438\u0447",
    "rating": 3.4820652263945417
  },
  "14100": {
    "name": "\u041f\u043e\u043b\u043e\u0437\u043e\u0432 \u0411\u043e\u0440\u0438\u0441 \u0413\u0435\u043d\u043d\u0430\u0434\u044c\u0435\u0432\u0438\u0447",
    "rating": 3.0111518902615977
  },
  "14101": {
    "name": "\u0420\u0430\u0443\u0434\u0441\u0438\u043a \u0415\u0432\u0433\u0435\u043d\u0438\u044f \u0410\u043b\u0435\u043a\u0441\u0435\u0435\u0432\u043d\u0430",
    "rating": 3.7013404914669055
  },
  "14102": {
    "name": "\u0420\u043e\u0433\u043e\u0432 \u0410\u043b\u0435\u043a\u0441\u0430\u043d\u0434\u0440 \u0410\u043d\u0430\u0442\u043e\u043b\u044c\u0435\u0432\u0438\u0447",
    "rating": 1.1996736651398878
  },
  "14103": {
    "name": "\u0421\u0430\u0432\u0435\u043b\u044c\u0435\u0432 \u041e\u043b\u0435\u0433 \u0414\u043c\u0438\u0442\u0440\u0438\u0435\u0432\u0438\u0447",
    "rating": 6.0884367583202375
  },
  "14104": {
    "name": "\u0421\u0430\u0432\u0438\u0446\u043a\u0438\u0439 \u0418\u0433\u043e\u0440\u044c \u041d\u0438\u043a\u043e\u043b\u0430\u0435\u0432\u0438\u0447",
    "rating": 4.111692572273727
  },
  "14105": {
    "name": "\u0421\u0430\u043b\u043e\u043f\u043e\u0432 \u0412\u0430\u0441\u0438\u043b\u0438\u0439 \u0412\u043b\u0430\u0434\u0438\u043c\u0438\u0440\u043e\u0432\u0438\u0447",
    "rating": 3.4164827188240907
  },
  "14106": {
    "name": "\u0421\u0435\u0432\u0430\u0441\u0442\u044c\u044f\u043d\u043e\u0432 \u0410\u043b\u0435\u043a\u0441\u0435\u0439 \u0410\u043d\u0430\u0442\u043e\u043b\u044c\u0435\u0432\u0438\u0447",
    "rating": 5.100064665296983
  },
  "14107": {
    "name": "\u0421\u043e\u0440\u043e\u043a\u0438\u043d \u042e\u0440\u0438\u0439 \u042e\u0440\u044c\u0435\u0432\u0438\u0447",
    "rating": 4.111692572273727
  },
  "14108": {
    "name": "\u0422\u0438\u0445\u0430\u043d\u043e\u0432 \u0410\u043d\u0430\u0442\u043e\u043b\u0438\u0439 \u0412\u043b\u0430\u0434\u0438\u043c\u0438\u0440\u043e\u0432\u0438\u0447",
    "rating": 6.0884367583202375
  },
  "14109": {
    "name": "\u0422\u0443\u0434\u0430\u043a\u043e\u0432\u0430 \u041d\u0430\u0442\u0430\u043b\u044c\u044f \u0412\u0438\u043a\u0442\u043e\u0440\u043e\u0432\u043d\u0430",
    "rating": 2.134948386227215
  },
  "14110": {
    "name": "\u0424\u0435\u0434\u043e\u0440\u043e\u0432 \u0410\u043b\u0435\u043a\u0441\u0435\u0439 \u0412\u043b\u0430\u0434\u0438\u043c\u0438\u0440\u043e\u0432\u0438\u0447",
    "rating": 8.06518094436675
  },
  "14111": {
    "name": "\u0424\u0435\u0434\u043e\u0440\u043e\u0432 \u0410\u043b\u0435\u043a\u0441\u0435\u0439 \u041d\u0438\u043a\u043e\u043b\u0430\u0435\u0432\u0438\u0447",
    "rating": 4.138095980086168
  },
  "14112": {
    "name": "\u042f\u043d\u0438\u043a\u043e\u0432 \u0412\u043b\u0430\u0434\u0438\u043c\u0438\u0440 \u041d\u0438\u043a\u043e\u043b\u0430\u0435\u0432\u0438\u0447",
    "rating": 4.0
  },
  "14113": {
    "name": "\u041c\u0443\u0440\u044b\u043b\u0435\u0432 \u0410\u0440\u043a\u0430\u0434\u0438\u0439 \u0410\u043d\u0430\u0442\u043e\u043b\u044c\u0435\u0432\u0438\u0447",
    "rating": 3.1845205504453333
  },
  "14114": {
    "name": "\u0428\u043b\u043e\u0441\u0431\u0435\u0440\u0433 \u041b\u0435\u0432 \u041c\u0430\u0440\u043a\u043e\u0432\u0438\u0447",
    "rating": 2.039480643229214
  }
}