{
  "48264": {
    "name": "\u0411\u044b\u043a\u043e\u0432 \u0412\u043b\u0430\u0434\u0438\u043c\u0438\u0440 \u0410\u043b\u0435\u043a\u0441\u0430\u043d\u0434\u0440\u043e\u0432\u0438\u0447",
    "rating": 1.5610842399809952
  },
  "48265": {
    "name": "\u0414\u0443\u0431\u0438\u043d\u0441\u043a\u0430\u0439\u0442\u0435 \u041e\u043a\u0441\u0430\u043d\u0430 \u0410\u043b\u044c\u0432\u0438\u0434\u0430\u0441\u043e\u0432\u043d\u0430",
    "rating": 1.4295108998340815
  },
  "48266": {
    "name": "\u0411\u043e\u0440\u0438\u0441\u0435\u043d\u043a\u043e \u042d\u043b\u044c\u0437\u0430 \u042f\u043a\u043e\u0432\u043b\u0435\u0432\u043d\u0430",
    "rating": 0.6475934814995361
  },
  "48267": {
    "name": "\u0428\u0440\u0430\u043c\u043e\u0432 \u0414\u043c\u0438\u0442\u0440\u0438\u0439 \u041c\u0438\u0445\u0430\u0439\u043b\u043e\u0432\u0438\u0447",
    "rating": 0.4006812604294337
  }
}