{
  "14264": {
    "name": "\u0410\u043b\u0435\u043a\u0441\u0435\u0435\u0432 \u041e\u043b\u0435\u0433 \u0410\u043b\u0435\u043a\u0441\u0430\u043d\u0434\u0440\u043e\u0432\u0438\u0447",
    "rating": 7.02613518500005
  },
  "14265": {
    "name": "\u0410\u0440\u0442\u0435\u043c\u043e\u0432 \u041f\u0430\u0432\u0435\u043b \u0410\u043b\u0435\u043a\u0441\u0430\u043d\u0434\u0440\u043e\u0432\u0438\u0447",
    "rating": 6.0374988213636875
  },
  "14266": {
    "name": "\u0410\u0440\u0445\u0438\u043f\u043e\u0432 \u0412\u043b\u0430\u0434\u0438\u043c\u0438\u0440 \u0413\u0440\u0438\u0433\u043e\u0440\u044c\u0435\u0432\u0438\u0447",
    "rating": 1.3760249284621688
  },
  "14267": {
    "name": "\u0410\u0444\u0430\u043d\u0430\u0441\u044c\u0435\u0432 \u0421\u0435\u0440\u0433\u0435\u0439 \u041d\u0438\u043a\u043e\u043b\u0430\u0435\u0432\u0438\u0447",
    "rating": 3.604932827884849
  },
  "14268": {
    "name": "\u0411\u0435\u043b\u0438\u043a\u043e\u0432 \u0410\u043d\u0434\u0440\u0435\u0439 \u041f\u0430\u0432\u043b\u043e\u0432\u0438\u0447",
    "rating": 4.060226094090959
  },
  "14269": {
    "name": "\u0411\u0443\u0448\u0443\u0435\u0432 \u041d\u0438\u043a\u043e\u043b\u0430\u0439 \u0410\u043b\u0435\u043a\u0441\u0430\u043d\u0434\u0440\u043e\u0432\u0438\u0447",
    "rating": 2.502570105921205
  },
  "14270": {
    "name": "\u0412\u043e\u043b\u043e\u0434\u0438\u043d \u0412\u0438\u043a\u0442\u043e\u0440 \u0412\u043b\u0430\u0434\u0438\u043c\u0438\u0440\u043e\u0432\u0438\u0447",
    "rating": 2.063530739452274
  },
  "14271": {
    "name": "\u0413\u0430\u0439\u0434\u0443\u043a \u0410\u043b\u0435\u043a\u0441\u0430\u043d\u0434\u0440 \u0410\u043b\u0435\u043a\u0441\u0430\u043d\u0434\u0440\u043e\u0432\u0438\u0447",
    "rating": 1.106936438521798
  },
  "14272": {
    "name": "\u0413\u043b\u043e\u0437\u043c\u0430\u043d \u0421\u0435\u043c\u0435\u043d \u041c\u043e\u0438\u0441\u0435\u0435\u0432\u0438\u0447",
    "rating": 3.0715897304545963
  },
  "14273": {
    "name": "\u0413\u043d\u0443\u0441\u0430\u0440\u0435\u0432 \u0421\u0435\u0440\u0433\u0435\u0439 \u0412\u0438\u043a\u0442\u043e\u0440\u043e\u0432\u0438\u0447",
    "rating": 2.1378579188235043
  },
  "14274": {
    "name": "\u0414\u0435\u0440\u044f\u0431\u0438\u043d \u0412\u043b\u0430\u0434\u0438\u043c\u0438\u0440 \u0410\u043d\u0430\u0442\u043e\u043b\u044c\u0435\u0432\u0438\u0447",
    "rating": 3.5698544589914643
  },
  "14275": {
    "name": "\u0415\u0440\u043e\u0445\u0438\u043d\u0430 \u0422\u0430\u0442\u044c\u044f\u043d\u0430 \u041f\u0435\u0442\u0440\u043e\u0432\u043d\u0430",
    "rating": 1.4333741823982653
  },
  "14276": {
    "name": "\u041a\u0430\u043f\u043a\u0430\u0435\u0432 \u0412\u043b\u0430\u0434\u0438\u043c\u0438\u0440 \u0412\u0430\u0441\u0438\u043b\u044c\u0435\u0432\u0438\u0447",
    "rating": 1.609427651192663
  },
  "14277": {
    "name": "\u041a\u043e\u043c\u043a\u043e\u0432\u0430 \u0413\u0430\u043b\u0438\u043d\u0430 \u041d\u0438\u043a\u043e\u043b\u0430\u0435\u0432\u043d\u0430",
    "rating": 1.3599780812046234
  },
  "14278": {
    "name": "\u041a\u043e\u043d\u0434\u0440\u0430\u0442\u044c\u0435\u0432 \u042e\u0440\u0438\u0439 \u0410\u043b\u0435\u043a\u0441\u0435\u0435\u0432\u0438\u0447",
    "rating": 5.048862457727323
  },
  "14279": {
    "name": "\u041a\u0443\u0437\u043d\u0435\u0446\u043e\u0432 \u041d\u0438\u043a\u043e\u043b\u0430\u0439 \u0418\u0432\u0430\u043d\u043e\u0432\u0438\u0447",
    "rating": 4.302936792544736
  },
  "14280": {
    "name": "\u041a\u0443\u0437\u043d\u0435\u0446\u043e\u0432 \u0421\u0435\u0440\u0433\u0435\u0439 \u042e\u0440\u044c\u0435\u0432\u0438\u0447",
    "rating": 4.225344282165077
  },
  "14281": {
    "name": "\u041a\u0443\u0440\u0438\u0445\u0438\u043d \u0421\u0435\u0440\u0433\u0435\u0439 \u0413\u0435\u043e\u0440\u0433\u0438\u0435\u0432\u0438\u0447",
    "rating": 4.060226094090959
  },
  "14282": {
    "name": "\u041b\u0438\u043f\u0447\u0430\u043d\u0441\u043a\u0430\u044f \u041c\u0430\u0440\u0438\u044f \u0410\u043b\u0435\u043a\u0441\u0430\u043d\u0434\u0440\u043e\u0432\u043d\u0430",
    "rating": 1.4037003702455573
  },
  "14283": {
    "name": "\u041b\u043e\u0441\u0438\u043d\u0430 \u0410\u043b\u0435\u0432\u0442\u0438\u043d\u0430 \u0412\u0430\u043b\u044c\u0442\u0435\u0440\u043e\u0432\u043d\u0430",
    "rating": 1.582731890351381
  },
  "14284": {
    "name": "\u041c\u0430\u0437\u0435\u043f\u043e\u0432 \u0410\u043b\u0435\u043a\u0441\u0435\u0439 \u0410\u043d\u0430\u0442\u043e\u043b\u044c\u0435\u0432\u0438\u0447",
    "rating": 1.3550769594231438
  },
  "14285": {
    "name": "\u041c\u0435\u0440\u0438\u043d\u043e\u0432\u0430 \u0415\u043b\u0435\u043d\u0430 \u042e\u0440\u044c\u0435\u0432\u043d\u0430",
    "rating": 1.1310232774723348
  },
  "14286": {
    "name": "\u041c\u0438\u0445\u0430\u0439\u043b\u043e\u0432 \u0421\u0435\u0440\u0433\u0435\u0439 \u0410\u043d\u0430\u0442\u043e\u043b\u044c\u0435\u0432\u0438\u0447",
    "rating": 5.506290892406019
  },
  "14287": {
    "name": "\u041d\u0435\u0441\u0442\u0435\u0440\u043e\u0432 \u0421\u0435\u0440\u0433\u0435\u0439 \u0410\u043d\u0430\u0442\u043e\u043b\u044c\u0435\u0432\u0438\u0447",
    "rating": 2.1327798467263763
  },
  "14288": {
    "name": "\u041f\u0438\u0441\u0430\u0440\u044e\u043a \u0412\u043b\u0430\u0434\u0438\u043c\u0438\u0440 \u0410\u043b\u0435\u043a\u0441\u0430\u043d\u0434\u0440\u043e\u0432\u0438\u0447",
    "rating": 1.1917388225959706
  },
  "14289": {
    "name": "\u041f\u0438\u0441\u043d\u043e\u0439 \u041b\u0435\u043e\u043d\u0438\u0434 \u0410\u043b\u0435\u043a\u0441\u0430\u043d\u0434\u0440\u043e\u0432\u0438\u0447",
    "rating": 3.0715897304545963
  },
  "14290": {
    "name": "\u041f\u043e\u0434\u0431\u043e\u0440\u043e\u043d\u043e\u0432 \u041e\u043b\u0435\u0433 \u041e\u043b\u0435\u0433\u043e\u0432\u0438\u0447",
    "rating": 6.0374988213636875
  },
  "14291": {
    "name": "\u0420\u043e\u043c\u0430\u043d\u043e\u0432 \u0410\u043b\u0435\u043a\u0441\u0430\u043d\u0434\u0440 \u0421\u0435\u0440\u0433\u0435\u0435\u0432\u0438\u0447",
    "rating": 4.480749918760421
  },
  "14292": {
    "name": "\u0421\u0430\u043c\u0441\u043e\u043d\u043e\u0432\u0430 \u0417\u0438\u043d\u0430\u0438\u0434\u0430 \u041c\u0438\u0445\u0430\u0439\u043b\u043e\u0432\u043d\u0430",
    "rating": 6.0374988213636875
  },
  "14293": {
    "name": "\u0421\u0435\u043c\u0435\u043d\u0435\u0446 \u041d\u0438\u043a\u043e\u043b\u0430\u0439 \u042f\u043a\u043e\u0432\u043b\u0435\u0432\u0438\u0447",
    "rating": 4.910915913238378
  },
  "14294": {
    "name": "\u0421\u0435\u0440\u0433\u0435\u0435\u0432 \u0410\u043b\u0435\u043a\u0441\u0435\u0439 \u041d\u0438\u043a\u043e\u043b\u0430\u0435\u0432\u0438\u0447",
    "rating": 6.0374988213636875
  },
  "14295": {
    "name": "\u0421\u0438\u0434\u043e\u0440\u0435\u043d\u043a\u043e \u0410\u043b\u0435\u043a\u0441\u0430\u043d\u0434\u0440 \u0414\u043c\u0438\u0442\u0440\u0438\u0435\u0432\u0438\u0447",
    "rating": 1.5949523387889235
  },
  "14296": {
    "name": "\u0421\u043e\u043b\u043e\u0432\u044c\u0435\u0432 \u0412\u043b\u0430\u0434\u0438\u043c\u0438\u0440 \u0410\u043b\u0435\u043a\u0441\u0430\u043d\u0434\u0440\u043e\u0432\u0438\u0447",
    "rating": 4.665844856144443
  },
  "14297": {
    "name": "\u0421\u0442\u0430\u0440\u0435\u043d\u043a\u043e \u0410\u043b\u044c\u0431\u0435\u0440\u0442 \u0412\u0430\u043b\u0435\u0440\u044c\u0435\u0432\u0438\u0447",
    "rating": 4.060226094090959
  },
  "14298": {
    "name": "\u0421\u0442\u0440\u0435\u043b\u044e\u0445\u0438\u043d \u0410\u043b\u0435\u043a\u0441\u0430\u043d\u0434\u0440 \u041c\u0438\u0445\u0430\u0439\u043b\u043e\u0432\u0438\u0447",
    "rating": 4.060226094090959
  },
  "14299": {
    "name": "\u0421\u0443\u043d\u0434\u0435\u0435\u0432 \u0410\u043b\u0435\u043a\u0441\u0430\u043d\u0434\u0440 \u0410\u043b\u0435\u043a\u0441\u0430\u043d\u0434\u0440\u043e\u0432\u0438\u0447",
    "rating": 1.4289230143703953
  },
  "14300": {
    "name": "\u0421\u0443\u0440\u043e\u0432\u043e\u0432 \u0421\u0435\u0440\u0433\u0435\u0439 \u0411\u043e\u0440\u0438\u0441\u043e\u0432\u0438\u0447",
    "rating": 1.8423981235429727
  },
  "14301": {
    "name": "\u0422\u0438\u0442\u0430\u0440\u0435\u043d\u043a\u043e \u0418\u0440\u0438\u043d\u0430 \u0412\u0438\u043a\u0442\u043e\u0440\u043e\u0432\u043d\u0430",
    "rating": 2.1175953248796304
  },
  "14302": {
    "name": "\u0422\u043a\u0430\u0447\u0435\u043d\u043a\u043e \u041c\u0438\u0445\u0430\u0438\u043b \u0412\u0438\u043a\u0442\u043e\u0440\u043e\u0432\u0438\u0447",
    "rating": 4.641505612778756
  },
  "14303": {
    "name": "\u0426\u0438\u043f\u044f\u0449\u0443\u043a \u0410\u043d\u0430\u0442\u043e\u043b\u0438\u0439 \u0424\u0435\u0434\u043e\u0440\u043e\u0432\u0438\u0447",
    "rating": 1.113595681383318
  },
  "14304": {
    "name": "\u0427\u0435\u0440\u043d\u043e\u0449\u0435\u043a\u043e\u0432 \u041b\u0435\u043e\u043d\u0438\u0434 \u041d\u0438\u043a\u043e\u043b\u0430\u0435\u0432\u0438\u0447",
    "rating": 1.7184538627521415
  },
  "14305": {
    "name": "\u0427\u0435\u0440\u043d\u044f\u0435\u0432 \u041e\u043b\u0435\u0433 \u0412\u0438\u043a\u0442\u043e\u0440\u043e\u0432\u0438\u0447",
    "rating": 1.4713823413778633
  },
  "14306": {
    "name": "\u0428\u043b\u044b\u0447\u043a\u043e\u0432 \u0415\u0432\u0433\u0435\u043d\u0438\u0439 \u0418\u0432\u0430\u043d\u043e\u0432\u0438\u0447",
    "rating": 3.0715897304545963
  },
  "14307": {
    "name": "\u0428\u043e\u043a\u0443\u0440\u043e\u0432 \u041e\u043b\u0435\u0433 \u041f\u0430\u0432\u043b\u043e\u0432\u0438\u0447",
    "rating": 4.060226094090959
  },
  "14308": {
    "name": "\u0429\u0435\u0440\u0431\u0430\u043a\u043e\u0432 \u0412\u0438\u043a\u0442\u043e\u0440 \u0412\u043b\u0430\u0434\u0438\u043c\u0438\u0440\u043e\u0432\u0438\u0447",
    "rating": 4.0
  }
}