{
  "18373": {
    "name": "\u041b\u0443\u0445\u043f\u0430\u043d\u043e\u0432\u0430 \u0421\u043b\u0443 \u0410\u0442\u0430\u0443\u043b\u043b\u043e\u0432\u043d\u0430",
    "rating": 0.4618793385237631
  },
  "18374": {
    "name": "\u0411\u0443\u043b\u044b\u0447\u0435\u0432 \u0421\u0442\u0430\u043d\u0438\u0441\u043b\u0430\u0432 \u042e\u0440\u044c\u0435\u0432\u0438\u0447",
    "rating": 0.3200174967895975
  },
  "18375": {
    "name": "\u041a\u043b\u043e\u043a\u043e\u0432 \u0414\u0435\u043d\u0438\u0441 \u0410\u043b\u0435\u043a\u0441\u0430\u043d\u0434\u0440\u043e\u0432\u0438\u0447",
    "rating": 0.033148281214997466
  },
  "18376": {
    "name": "\u0411\u0438\u0441\u0435\u043d\u043e\u0432 \u0420\u0443\u0441\u043b\u0430\u043d \u041a\u0443\u0431\u0430\u0439\u0434\u0443\u043b\u043b\u0430\u0435\u0432\u0438\u0447",
    "rating": 0.15216261047497878
  },
  "18377": {
    "name": "\u041f\u0435\u0440\u0435\u043f\u0435\u0447\u043a\u0438\u043d\u0430 \u0422\u0430\u0442\u044c\u044f\u043d\u0430 \u0415\u0432\u0433\u0435\u043d\u044c\u0435\u0432\u043d\u0430",
    "rating": 0.02925449642796108
  }
}