{
  "18429": {
    "name": "\u0416\u0430\u043b\u0441\u0430\u043f\u043e\u0432 \u0415\u043d\u0434\u043e\u043d \u0412\u0430\u043b\u0435\u0440\u044c\u0435\u0432\u0438\u0447",
    "rating": 0.06176934889451158
  },
  "18430": {
    "name": "\u041b\u0430\u043c\u0430\u0436\u0430\u043f\u043e\u0432\u0430 \u0418\u0440\u0438\u043d\u0430 \u0421\u0435\u0440\u0433\u0435\u0435\u0432\u043d\u0430",
    "rating": 0.15057744897351907
  },
  "18431": {
    "name": "\u0425\u0430\u043d\u0434\u0430\u0440\u0445\u0430\u0435\u0432 \u0421\u0435\u0440\u0433\u0435\u0439 \u041c\u0430\u0440\u043a\u043e\u0432\u0438\u0447",
    "rating": 1.0632902555656911
  },
  "18432": {
    "name": "\u0427\u0435\u0431\u043e\u0442\u0430\u0440\u044c \u0412\u0435\u0440\u0430 \u0410\u043b\u0435\u043a\u0441\u0435\u0435\u0432\u043d\u0430",
    "rating": 0.049071220749396426
  },
  "18433": {
    "name": "\u0417\u0430\u0433\u043e\u0440\u043e\u0434\u043d\u043e\u0432\u0430 \u0418\u0440\u0438\u043d\u0430 \u0418\u0432\u0430\u043d\u043e\u0432\u043d\u0430",
    "rating": 0.3331196523535572
  },
  "18434": {
    "name": "\u0411\u0430\u043b\u0434\u0430\u043d\u043e\u0432\u0430 \u041b\u044e\u0434\u043c\u0438\u043b\u0430 \u0418\u043b\u044c\u0438\u043d\u0438\u0447\u043d\u0430",
    "rating": 4.0
  }
}