{
  "18583": {
    "name": "\u0412\u043e\u043b\u043a\u0435\u0440\u043d\u044e\u043a \u041e\u043a\u0441\u0430\u043d\u0430 \u041d\u0438\u043a\u043e\u043b\u0430\u0435\u0432\u043d\u0430",
    "rating": 0.12258373072321956
  },
  "18585": {
    "name": "\u041e\u0441\u0438\u043f\u0447\u0443\u043a \u041e\u043b\u044c\u0433\u0430 \u0418\u0433\u043e\u0440\u0435\u0432\u043d\u0430",
    "rating": 0.1289882501715986
  },
  "18586": {
    "name": "\u041c\u0430\u043a\u0430\u0440\u043e\u0432\u0430 \u0415\u043b\u0435\u043d\u0430 \u0418\u0432\u0430\u043d\u043e\u0432\u043d\u0430",
    "rating": 1.0444596655976497
  }
}