{
  "18723": {
    "name": "\u0413\u043d\u0435\u0437\u0434\u0438\u043b\u043e\u0432\u0430 \u041e\u043b\u044c\u0433\u0430 \u0412\u043b\u0430\u0434\u0438\u043c\u0438\u0440\u043e\u0432\u043d\u0430",
    "rating": 0.05034406245441605
  },
  "18724": {
    "name": "\u0413\u0440\u0430\u0434\u0438\u043d\u0430\u0440 \u041e\u043b\u0435\u0433 \u0412\u0438\u043a\u0442\u043e\u0440\u043e\u0432\u0438\u0447",
    "rating": 1.6394723583938111
  },
  "18725": {
    "name": "\u041b\u0430\u043c\u0430\u043d\u043e\u0432\u0430 \u0421\u0432\u0435\u0442\u043b\u0430\u043d\u0430 \u0418\u0432\u0430\u043d\u043e\u0432\u043d\u0430",
    "rating": 1.4296489916615782
  },
  "18726": {
    "name": "\u0422\u044e\u043b\u044e\u043a\u0430\u043d\u043e\u0432\u0430 \u041b\u0430\u0440\u0438\u0441\u0430 \u041d\u0438\u043a\u043e\u043b\u0430\u0435\u0432\u043d\u0430",
    "rating": 1.6317623533694254
  },
  "18727": {
    "name": "\u0414\u043e\u0440\u043e\u0445\u043e\u0432\u0430 \u0418\u0440\u0438\u043d\u0430 \u0418\u0432\u0430\u043d\u043e\u0432\u043d\u0430",
    "rating": 0.015792355234637782
  },
  "18728": {
    "name": "\u0422\u0430\u0440\u0430\u0442\u0443\u0445\u0438\u043d\u0430 \u042d\u043b\u0435\u043e\u043d\u043e\u0440\u0430 \u041f\u0435\u0442\u0440\u043e\u0432\u043d\u0430",
    "rating": 1.6920309973796075
  },
  "18729": {
    "name": "\u0422\u0443\u043b\u044f\u0435\u0432\u0430 \u0415\u043b\u0435\u043d\u0430 \u041d\u0438\u043a\u043e\u043b\u0430\u0435\u0432\u043d\u0430",
    "rating": 1.477234875285235
  },
  "18730": {
    "name": "\u041a\u043e\u043d\u043e\u043f\u043b\u044f \u041d\u0438\u043d\u0430 \u0413\u0440\u0438\u0433\u043e\u0440\u044c\u0435\u0432\u043d\u0430",
    "rating": 1.866026245412705
  },
  "18731": {
    "name": "\u0421\u043e\u043b\u043e\u0432\u044c\u0435\u0432\u0430 \u0416\u0430\u043d\u043d\u0430 \u041d\u0438\u043a\u043e\u043b\u0430\u0435\u0432\u043d\u0430",
    "rating": 0.2156182598523476
  }
}