{
  "18993": {
    "name": "\u0413\u0430\u043d\u0438\u043d \u0410\u043b\u0435\u043a\u0441\u0430\u043d\u0434\u0440 \u0413\u0435\u043d\u043d\u0430\u0434\u044c\u0435\u0432\u0438\u0447",
    "rating": 0.22816754118225735
  },
  "18994": {
    "name": "\u0427\u0435\u0440\u043d\u044b\u0448\u043e\u0432 \u0410\u043b\u0435\u043a\u0441\u0430\u043d\u0434\u0440 \u041c\u0438\u0445\u0430\u0439\u043b\u043e\u0432\u0438\u0447",
    "rating": 2.470607051493314
  },
  "18995": {
    "name": "\u0428\u0443\u0433\u0443\u0440\u043e\u0432 \u0421\u0442\u0430\u043d\u0438\u0441\u043b\u0430\u0432 \u0410\u043b\u0435\u043a\u0441\u0430\u043d\u0434\u0440\u043e\u0432\u0438\u0447",
    "rating": 0.08275613153187064
  },
  "18996": {
    "name": "\u041a\u043e\u043b\u043e\u0442\u0438\u043b\u0438\u043d\u0430 \u041d\u0430\u0434\u0435\u0436\u0434\u0430 \u0412\u043b\u0430\u0434\u0438\u043c\u0438\u0440\u043e\u0432\u043d\u0430",
    "rating": 1.7845084528860524
  },
  "18997": {
    "name": "\u0422\u044e\u0440\u0438\u043d \u0414\u043c\u0438\u0442\u0440\u0438\u0439 \u0414\u043c\u0438\u0442\u0440\u0438\u0435\u0432\u0438\u0447",
    "rating": 0.0453937240223093
  },
  "18998": {
    "name": "\u0414\u043e\u043c\u0430\u0445\u0438\u043d\u0430 \u0413\u0430\u043b\u0438\u043d\u0430 \u0412\u0438\u043a\u0442\u043e\u0440\u043e\u0432\u043d\u0430",
    "rating": 0.30908129314022464
  },
  "18999": {
    "name": "\u041a\u0443\u0437\u043d\u0435\u0446\u043e\u0432 \u041d\u0438\u043a\u043e\u043b\u0430\u0439 \u0410\u043d\u0442\u043e\u043d\u043e\u0432\u0438\u0447",
    "rating": 1.3969315031425782
  },
  "19000": {
    "name": "\u0414\u0443\u0431\u0440\u043e\u0432\u0441\u043a\u0430\u044f \u0412\u0430\u043b\u0435\u043d\u0442\u0438\u043d\u0430 \u041f\u0435\u0442\u0440\u043e\u0432\u043d\u0430",
    "rating": 2.016606497518544
  },
  "19001": {
    "name": "\u0428\u0438\u0448\u043a\u0438\u043d\u0430 \u0421\u0432\u0435\u0442\u043b\u0430\u043d\u0430 \u0410\u043b\u0435\u043a\u0441\u0430\u043d\u0434\u0440\u043e\u0432\u043d\u0430",
    "rating": 1.042156446056895
  },
  "19002": {
    "name": "\u0411\u0430\u0439\u0433\u0438\u043d \u0410\u043d\u0434\u0440\u0435\u0439 \u0421\u044f\u0438\u0434\u044f\u043d\u043e\u0432\u0438\u0447",
    "rating": 0.02533778769683763
  },
  "19003": {
    "name": "\u0410\u043a\u0438\u043c\u043e\u0432\u0430 \u0422\u0430\u0442\u044c\u044f\u043d\u0430 \u041c\u0438\u0445\u0430\u0439\u043b\u043e\u0432\u043d\u0430",
    "rating": 0.12534422564557338
  }
}