{
  "5356": {
    "name": "\u0410\u043d\u0434\u0440\u0438\u0430\u043d\u043e\u0432\u0430 \u0418\u0440\u0438\u043d\u0430 \u0412\u0430\u043b\u0435\u043d\u0442\u0438\u043d\u043e\u0432\u043d\u0430",
    "rating": 2.308032845572813
  },
  "5357": {
    "name": "\u0410\u0440\u0442\u0430\u043c\u043e\u043d\u043e\u0432 \u0412\u043b\u0430\u0434\u0438\u043c\u0438\u0440 \u0421\u0435\u0440\u0433\u0435\u0435\u0432\u0438\u0447",
    "rating": 2.6687021691902078
  },
  "11702": {
    "name": "\u0428\u043b\u044f\u043a\u043e\u0432 \u0421\u0435\u0440\u0433\u0435\u0439 \u0410\u043d\u0430\u0442\u043e\u043b\u044c\u0435\u0432\u0438\u0447",
    "rating": 1.9404521153930632
  },
  "11703": {
    "name": "\u0411\u0435\u043b\u044f\u0435\u0432 \u041b\u0435\u043e\u043d\u0438\u0434 \u0410\u043d\u0430\u0442\u043e\u043b\u044c\u0435\u0432\u0438\u0447",
    "rating": 4.601054265372269
  },
  "11704": {
    "name": "\u0412\u043e\u0440\u043e\u043d\u043e\u0432 \u0421\u0435\u0440\u0433\u0435\u0439 \u0418\u0432\u0430\u043d\u043e\u0432\u0438\u0447",
    "rating": 2.461313365110829
  },
  "11705": {
    "name": "\u0421\u0442\u0435\u043f\u0430\u043d\u043e\u0432 \u0412\u043b\u0430\u0434\u0438\u043c\u0438\u0440 \u0412\u0438\u043a\u0442\u043e\u0440\u043e\u0432\u0438\u0447",
    "rating": 3.767995954149197
  },
  "11706": {
    "name": "\u0427\u0443\u043f\u0440\u0438\u044f\u043d \u0410\u043b\u0435\u043a\u0441\u0430\u043d\u0434\u0440 \u041f\u0435\u0442\u0440\u043e\u0432\u0438\u0447",
    "rating": 1.9924416014123467
  },
  "21109": {
    "name": "\u0411\u0430\u0440\u044b\u0448\u0435\u0432 \u041f\u0430\u0432\u0435\u043b \u0424\u0435\u0434\u043e\u0440\u043e\u0432\u0438\u0447",
    "rating": 1.5967205644512343
  },
  "23087": {
    "name": "\u0410\u043d\u0438\u043a\u0438\u043d \u0410\u043b\u0435\u043a\u0441\u0435\u0439 \u0413\u0435\u043d\u043d\u0430\u0434\u044c\u0435\u0432\u0438\u0447",
    "rating": 1.0805072740264172
  },
  "23361": {
    "name": "\u0413\u043e\u0440\u0431\u0430\u0442\u0435\u043d\u043a\u043e \u0418\u0433\u043e\u0440\u044c \u0412\u0438\u043b\u043e\u0440\u043e\u0432\u0438\u0447",
    "rating": 0.7936090409511053
  },
  "23362": {
    "name": "\u0414\u0430\u0433\u0438\u0440\u043e\u0432 \u0428\u0430\u043c\u0441\u0443\u0442\u0434\u0438\u043d \u0428\u0430\u0440\u0430\u0431\u0443\u0442\u0434\u0438\u043d\u043e\u0432\u0438\u0447",
    "rating": 0.7734764863513119
  },
  "23363": {
    "name": "\u0414\u0435\u0439\u043d\u0435\u043a\u0430 \u0415\u0432\u0433\u0435\u043d\u0438\u0439 \u0413\u0440\u0438\u0433\u043e\u0440\u044c\u0435\u0432\u0438\u0447",
    "rating": 1.3549917186134257
  },
  "23364": {
    "name": "\u041b\u0435\u0433\u0435\u043d\u044c\u043a\u0438\u0439 \u0414\u043c\u0438\u0442\u0440\u0438\u0439 \u042e\u0440\u044c\u0435\u0432\u0438\u0447",
    "rating": 1.1532855770608044
  },
  "23365": {
    "name": "\u041f\u0430\u043d\u0438\u043d \u0418\u0433\u043e\u0440\u044c \u0410\u043d\u0430\u0442\u043e\u043b\u044c\u0435\u0432\u0438\u0447",
    "rating": 4.008529537862324
  },
  "23366": {
    "name": "\u0411\u0438\u0440\u044e\u043a\u043e\u0432 \u041c\u0430\u043a\u0441\u0438\u043c \u0421\u0435\u0440\u0433\u0435\u0435\u0432\u0438\u0447",
    "rating": 0.8028386179327328
  },
  "23367": {
    "name": "\u0414\u0435\u043d\u0438\u0441\u043e\u0432 \u0418\u043b\u044c\u044f \u041f\u0430\u0432\u043b\u043e\u0432\u0438\u0447",
    "rating": 0.6884167255758287
  },
  "23370": {
    "name": "\u0411\u043e\u043d\u0434\u0430\u0440 \u0410\u043b\u0435\u043a\u0441\u0430\u043d\u0434\u0440 \u0418\u0432\u0430\u043d\u043e\u0432\u0438\u0447",
    "rating": 0.6655673670201825
  },
  "23371": {
    "name": "\u0413\u0430\u0432\u0440\u0438\u043b\u043e\u0432 \u0412\u0430\u043b\u0435\u0440\u0438\u0439 \u0421\u0435\u0440\u0433\u0435\u0435\u0432\u0438\u0447",
    "rating": 0.3977309706214152
  },
  "23372": {
    "name": "\u041a\u0443\u043b\u0438\u043a\u043e\u0432 \u0421\u0435\u0440\u0433\u0435\u0439 \u0412\u0438\u043a\u0442\u043e\u0440\u043e\u0432\u0438\u0447",
    "rating": 2.069519503680429
  },
  "39052": {
    "name": "\u0411\u0430\u0436\u0435\u043d\u043e\u0432 \u041e\u043b\u0435\u0433 \u0412\u0430\u043b\u0435\u0440\u044c\u0435\u0432\u0438\u0447",
    "rating": 0.7086097545841513
  },
  "39053": {
    "name": "\u041a\u0430\u0434\u0430\u0434\u043e\u0432 \u0421\u0435\u0440\u0433\u0435\u0439 \u0410\u043b\u0435\u043a\u0441\u0430\u043d\u0434\u0440\u043e\u0432\u0438\u0447",
    "rating": 0.10071212658729993
  },
  "39054": {
    "name": "\u041b\u0443\u0442\u043e\u0448\u043a\u0438\u043d \u0410\u043d\u0434\u0440\u0435\u0439 \u0412\u043b\u0430\u0434\u0438\u043c\u0438\u0440\u043e\u0432\u0438\u0447",
    "rating": 0.032759187402030064
  },
  "39055": {
    "name": "\u041c\u0430\u043d\u0443\u0439\u043b\u043e \u041e\u043b\u0435\u0433 \u041b\u0435\u043e\u043d\u0438\u0434\u043e\u0432\u0438\u0447",
    "rating": 0.11878725152323677
  },
  "39056": {
    "name": "\u0415\u043b\u0438\u0437\u0430\u0440\u043e\u0432 \u0410\u043d\u0430\u0442\u043e\u043b\u0438\u0439 \u0412\u043b\u0430\u0434\u0438\u043c\u0438\u0440\u043e\u0432\u0438\u0447",
    "rating": 0.10812444840941866
  },
  "39057": {
    "name": "\u041a\u043e\u0431\u0437\u0435\u0432 \u0418\u0433\u043e\u0440\u044c \u0418\u0432\u0430\u043d\u043e\u0432\u0438\u0447",
    "rating": 3.0
  },
  "39058": {
    "name": "\u0412\u043b\u0430\u0441\u043e\u0432 \u0421\u0435\u0440\u0433\u0435\u0439 \u0412\u0438\u0442\u0430\u043b\u044c\u0435\u0432\u0438\u0447",
    "rating": 2.6505979109081466
  },
  "39059": {
    "name": "\u041a\u043e\u0432\u0430\u043b\u0435\u0432 \u042e\u0440\u0438\u0439 \u041f\u0430\u0432\u043b\u043e\u0432\u0438\u0447",
    "rating": 0.6268586328408393
  },
  "39060": {
    "name": "\u041c\u0430\u043a\u0430\u0440\u043e\u0432 \u0410\u043b\u0435\u043a\u0441\u0430\u043d\u0434\u0440 \u0412\u043b\u0430\u0434\u0438\u043c\u0438\u0440\u043e\u0432\u0438\u0447",
    "rating": 2.1846463354451444
  },
  "39061": {
    "name": "\u041c\u0430\u043b\u044b\u0439 \u0418\u0433\u043e\u0440\u044c \u0410\u043b\u0435\u043a\u0441\u0430\u043d\u0434\u0440\u043e\u0432\u0438\u0447",
    "rating": 0.9942588837813032
  }
}