{
  "19535": {
    "name": "\u0411\u0430\u043b\u043e\u0432\u0430 \u041c\u0430\u0440\u0438\u043d\u0430 \u0415\u0432\u0433\u0435\u043d\u044c\u0435\u0432\u043d\u0430",
    "rating": 0.036993774312280264
  },
  "19537": {
    "name": "\u0413\u0435\u0440\u0430\u0441\u0438\u043c\u043e\u0432 \u0412\u043b\u0430\u0434\u0438\u0441\u043b\u0430\u0432 \u0413\u0435\u0440\u043c\u0430\u043d\u043e\u0432\u0438\u0447",
    "rating": 0.8884927061321204
  },
  "19543": {
    "name": "\u0422\u0438\u043c\u043e\u0444\u0435\u0435\u0432\u0430 \u0415\u043b\u0435\u043d\u0430 \u0410\u043d\u0430\u0442\u043e\u043b\u044c\u0435\u0432\u043d\u0430",
    "rating": 1.6757354525690855
  },
  "19546": {
    "name": "\u0422\u0438\u0445\u043e\u043c\u0438\u0440\u043e\u0432 \u0418\u0433\u043e\u0440\u044c \u041e\u043b\u0435\u0433\u043e\u0432\u0438\u0447",
    "rating": 0.04539666393723272
  },
  "19547": {
    "name": "\u0413\u0443\u0441\u0435\u0432 \u0415\u0432\u0433\u0435\u043d\u0438\u0439 \u0412\u0438\u043a\u0442\u043e\u0440\u043e\u0432\u0438\u0447",
    "rating": 1.1072861129421787
  },
  "19550": {
    "name": "\u0412\u043e\u0440\u0441\u0438\u043d\u0430 \u0415\u043b\u0435\u043d\u0430 \u0412\u0438\u043a\u0442\u043e\u0440\u043e\u0432\u043d\u0430",
    "rating": 2.280531939595652
  },
  "19553": {
    "name": "\u041a\u043e\u0440\u043e\u043b\u0435\u0432\u0430 \u0418\u0440\u0438\u043d\u0430 \u0412\u0430\u043b\u0435\u0440\u044c\u0435\u0432\u043d\u0430",
    "rating": 1.0785890700935965
  },
  "19555": {
    "name": "\u0424\u0438\u043b\u0438\u043f\u043f\u043e\u0432 \u0414\u043c\u0438\u0442\u0440\u0438\u0439 \u0412\u0438\u043a\u0442\u043e\u0440\u043e\u0432\u0438\u0447",
    "rating": 2.066710896175903
  },
  "19556": {
    "name": "\u0410\u0440\u0442\u0435\u043c\u044c\u0435\u0432\u0430 \u0410\u043d\u0442\u043e\u043d\u0438\u043d\u0430 \u041d\u0438\u043a\u043e\u043b\u0430\u0435\u0432\u043d\u0430",
    "rating": 0.025638532626406342
  },
  "19558": {
    "name": "\u041a\u0430\u0440\u043d\u0430\u0443\u0445\u043e\u0432\u0430 \u041d\u0430\u0442\u0430\u043b\u044c\u044f \u0412\u0438\u043a\u0442\u043e\u0440\u043e\u0432\u043d\u0430",
    "rating": 0.03286841152015993
  }
}