{
  "7717": {
    "name": "\u0427\u0435\u0440\u043d\u0438\u043a\u043e\u0432 \u0412\u043b\u0430\u0434\u0438\u043c\u0438\u0440 \u0412\u0430\u0441\u0438\u043b\u044c\u0435\u0432\u0438\u0447",
    "rating": 5.302229869865992
  },
  "8220": {
    "name": "\u041e\u043b\u0435\u0439\u043d\u0438\u043a \u0412\u0430\u0441\u0438\u043b\u0438\u0439 \u0412\u0430\u0441\u0438\u043b\u044c\u0435\u0432\u0438\u0447",
    "rating": 2.9291146068039757
  },
  "8222": {
    "name": "\u0414\u043e\u0431\u0440\u043e\u0440\u043e\u0434\u043d\u044b\u0439 \u0421\u0435\u0440\u0433\u0435\u0439 \u0412\u043b\u0430\u0434\u0438\u043c\u0438\u0440\u043e\u0432\u0438\u0447",
    "rating": 0.8548801908561573
  },
  "8223": {
    "name": "\u041a\u043e\u043d\u043e\u043d\u0435\u0446 \u0410\u043b\u0435\u043a\u0441\u0430\u043d\u0434\u0440 \u0421\u0435\u0440\u0433\u0435\u0435\u0432\u0438\u0447",
    "rating": 2.2050988503208035
  },
  "8224": {
    "name": "\u0411\u0438\u0440\u0438\u043d \u0410\u043b\u0435\u043a\u0441\u0430\u043d\u0434\u0440 \u042e\u0440\u044c\u0435\u0432\u0438\u0447",
    "rating": 0.7748798671380492
  },
  "8228": {
    "name": "\u041c\u0438\u0448\u0438\u043d\u0430 \u041d\u0430\u0442\u0430\u043b\u0438\u044f \u0412\u043b\u0430\u0434\u0438\u043c\u0438\u0440\u043e\u0432\u043d\u0430",
    "rating": 2.5293249588385978
  },
  "8231": {
    "name": "\u0424\u043e\u043c\u0438\u0447\u0435\u0432\u0430 \u0412\u0430\u043b\u0435\u043d\u0442\u0438\u043d\u0430 \u0410\u043b\u0435\u043a\u0441\u0430\u043d\u0434\u0440\u043e\u0432\u043d\u0430",
    "rating": 0.5046922691656265
  },
  "8234": {
    "name": "\u0412\u0438\u0440\u0438\u0447\u0435\u0432\u0430 \u0410.\u0412. ",
    "rating": 0.535785323178976
  },
  "8238": {
    "name": "\u041c\u0430\u0445\u0440\u043e\u0432 \u0412\u0430\u043b\u0435\u0440\u0438\u0439 \u0410\u043b\u0435\u043a\u0441\u0430\u043d\u0434\u0440\u043e\u0432\u0438\u0447",
    "rating": 0.6502441600734788
  },
  "8243": {
    "name": "\u0424\u043e\u043c\u0438\u043d \u041d.\u041d. ",
    "rating": 0.5416935474734856
  },
  "8244": {
    "name": "\u042e\u0448\u043a\u0435\u0432\u0438\u0447 \u041e\u043b\u044c\u0433\u0430 \u0410\u0441\u0438\u043b\u0431\u0435\u043a\u043e\u0432\u043d\u0430",
    "rating": 0.6536701371166134
  },
  "8245": {
    "name": "\u041a\u043e\u0441\u0430\u0440\u0435\u0432\u0438\u0447 \u0422\u0430\u0442\u044c\u044f\u043d\u0430 \u041b\u0435\u043e\u043d\u0438\u0434\u043e\u0432\u043d\u0430",
    "rating": 0.5336961787807083
  },
  "8246": {
    "name": "\u0421\u0435\u043c\u0435\u0440\u0434\u0430 \u0412\u043b\u0430\u0434\u0438\u043c\u0438\u0440 \u0418\u0432\u0430\u043d\u043e\u0432\u0438\u0447",
    "rating": 0.7647853327563159
  },
  "8247": {
    "name": "\u0421\u043f\u0438\u0440\u0438\u0434\u043e\u043d\u043e\u0432 \u0410\u043b\u0435\u043a\u0441\u0435\u0439 \u0412\u0438\u0442\u0430\u043b\u044c\u0435\u0432\u0438\u0447",
    "rating": 0.012825353040493549
  },
  "45571": {
    "name": "\u0428\u0438\u0432\u0435\u0440\u0441\u043a\u0438\u0445 \u0410\u043d\u0430\u0442\u043e\u043b\u0438\u0439 \u0410\u043d\u0430\u0442\u043e\u043b\u044c\u0435\u0432\u0438\u0447",
    "rating": 0.07607181063951626
  },
  "45572": {
    "name": "\u041c\u043e\u043a\u0440\u0435\u0446\u043e\u0432 \u0412\u043b\u0430\u0434\u0438\u043c\u0438\u0440 \u042e\u0440\u044c\u0435\u0432\u0438\u0447",
    "rating": 1.9820171669719624
  },
  "45573": {
    "name": "\u0412\u043e\u043b\u043a\u043e\u0432 \u0410\u043b\u0435\u043a\u0441\u0430\u043d\u0434\u0440 \u0415\u0432\u0433\u0435\u043d\u044c\u0435\u0432\u0438\u0447",
    "rating": 3.74903038120974
  },
  "45574": {
    "name": "\u0415\u0440\u043c\u043e\u043b\u0430\u0435\u0432 \u0412\u0438\u043a\u0442\u043e\u0440 \u0410\u043d\u0430\u0442\u043e\u043b\u044c\u0435\u0432\u0438\u0447",
    "rating": 0.011589645003582059
  },
  "45575": {
    "name": "\u041b\u043e\u043f\u0430\u0440\u0435\u0432 \u0412\u043b\u0430\u0434\u0438\u043c\u0438\u0440 \u0410\u043d\u0430\u0442\u043e\u043b\u044c\u0435\u0432\u0438\u0447",
    "rating": 0.2511851609346265
  },
  "45576": {
    "name": "\u041c\u043e\u0436\u0430\u0440\u043e\u0432 \u0412\u0430\u043b\u0435\u0440\u0438\u0439 \u0412\u0438\u043a\u0442\u043e\u0440\u043e\u0432\u0438\u0447",
    "rating": 1.5266195355704524
  },
  "45577": {
    "name": "\u041f\u0435\u0440\u0432\u0443\u0448\u0438\u043d\u0430 \u041b\u0430\u0440\u0438\u0441\u0430 \u0410\u043b\u0435\u043a\u0441\u0435\u0435\u0432\u043d\u0430",
    "rating": 1.6917063905474048
  },
  "45578": {
    "name": "\u0428\u0430\u0440\u043e\u0432 \u0410\u043b\u0435\u043a\u0441\u0430\u043d\u0434\u0440 \u0412\u0438\u043a\u0442\u043e\u0440\u043e\u0432\u0438\u0447",
    "rating": 0.20163539952216591
  },
  "45579": {
    "name": "\u0413\u043e\u0432\u0435\u0434\u0430\u0440\u043e\u0432\u0430 \u0415.\u041f. ",
    "rating": 0.0127056875991167
  },
  "45580": {
    "name": "\u041c\u0443\u043c\u0440\u0435\u043d\u043a\u043e\u0432 \u0410.\u041e. ",
    "rating": 0.007422243478403754
  },
  "45581": {
    "name": "\u0421\u0443\u043a\u0430\u0447 \u0415\u043a\u0430\u0442\u0435\u0440\u0438\u043d\u0430 \u0412\u0438\u043a\u0442\u043e\u0440\u043e\u0432\u043d\u0430",
    "rating": 0.06971180600002867
  },
  "45582": {
    "name": "\u0424\u0430\u0434\u044e\u0448\u0438\u043d \u041d\u0438\u043a\u043e\u043b\u0430\u0439 \u041d\u0438\u043a\u043e\u043b\u0430\u0435\u0432\u0438\u0447",
    "rating": 1.4479943357991
  },
  "45583": {
    "name": "\u0425\u0430\u043b\u0430\u0442\u044f\u043d \u0410\u0440\u0430\u043c \u0412\u0430\u0447\u0430\u0433\u0430\u043d\u043e\u0432\u0438\u0447",
    "rating": 1.0705941018824685
  },
  "45584": {
    "name": "\u0411\u0435\u043a\u0435\u0442\u043e\u0432 \u0412\u0430\u043b\u0435\u0440\u0438\u0439 \u0418\u0432\u0430\u043d\u043e\u0432\u0438\u0447",
    "rating": 0.5441990370845893
  }
}