{
  "633": {
    "name": "\u041e\u0433\u043e\u0440\u043e\u0434\u043e\u0432\u0430 \u041b\u044e\u0434\u043c\u0438\u043b\u0430 \u041c\u0438\u0445\u0430\u0439\u043b\u043e\u0432\u043d\u0430",
    "rating": 0.8497132711642724
  },
  "890": {
    "name": "\u041a\u0430\u043b\u0438\u043d\u0430 \u0418\u0441\u0430\u0430\u043a \u0418\u043e\u0441\u0438\u0444\u043e\u0432\u0438\u0447",
    "rating": 0.7454179767101125
  },
  "1424": {
    "name": "\u041c\u0438\u043a\u043b\u0443\u0448\u0435\u0432\u0441\u043a\u0438\u0439 \u0412\u043b\u0430\u0434\u0438\u043c\u0438\u0440 \u0412\u043b\u0430\u0434\u0438\u043c\u0438\u0440\u043e\u0432\u0438\u0447",
    "rating": 3.0
  },
  "2715": {
    "name": "\u041f\u043e\u043f\u043e\u0432 \u041c\u0438\u0445\u0430\u0438\u043b \u0421\u0435\u0440\u0433\u0435\u0435\u0432\u0438\u0447",
    "rating": 3.210000158169543
  },
  "5358": {
    "name": "\u0410\u043a\u0438\u043c\u043e\u0432\u0430 \u041b\u044e\u0431\u043e\u0432\u044c \u0410\u043d\u0430\u0442\u043e\u043b\u044c\u0435\u0432\u043d\u0430",
    "rating": 0.4536190001655414
  },
  "5372": {
    "name": "\u0421\u0435\u043d\u0442\u044e\u0440\u0438\u043d \u042e\u0440\u0438\u0439 \u041f\u0435\u0442\u0440\u043e\u0432\u0438\u0447",
    "rating": 2.21993234999062
  },
  "5455": {
    "name": "\u041f\u043e\u0432\u0430\u043b\u043a\u043e \u0410\u043b\u0435\u043a\u0441\u0430\u043d\u0434\u0440 \u0411\u043e\u0440\u0438\u0441\u043e\u0432\u0438\u0447",
    "rating": 0.7012046721620434
  },
  "8938": {
    "name": "\u0411\u0438\u043b\u0435\u043d\u043a\u0438\u043d\u0430 \u0418\u043d\u043d\u0430 \u041f\u0435\u0442\u0440\u043e\u0432\u043d\u0430",
    "rating": 1.38514184127011
  },
  "11538": {
    "name": "\u0422\u0440\u0435\u0442\u044c\u044f\u043a \u041d\u0430\u0442\u0430\u043b\u044c\u044f \u0412\u043b\u0430\u0434\u0438\u043c\u0438\u0440\u043e\u0432\u043d\u0430",
    "rating": 0.5502217208983886
  },
  "11604": {
    "name": "\u041a\u0430\u0433\u0430\u043d\u043e\u0432 \u0412\u0435\u043d\u0438\u0430\u043c\u0438\u043d \u0428\u0430\u0435\u0432\u0438\u0447",
    "rating": 2.025825642139673
  },
  "11605": {
    "name": "\u041a\u043b\u0438\u043c\u043e\u0432 \u0410\u043b\u0435\u043a\u0441\u0430\u043d\u0434\u0440 \u0410\u043b\u0435\u043a\u0441\u0435\u0435\u0432\u0438\u0447",
    "rating": 2.513011399243983
  },
  "11606": {
    "name": "\u0422\u043e\u043b\u0441\u0442\u0438\u043a\u043e\u0432\u0430 \u0415\u043a\u0430\u0442\u0435\u0440\u0438\u043d\u0430 \u0410\u043d\u0434\u0440\u0435\u0435\u0432\u043d\u0430",
    "rating": 0.03871110311532215
  },
  "11720": {
    "name": "\u0418\u0432\u0430\u043d\u0435\u0446 \u0421\u0435\u0440\u0433\u0435\u0439 \u0412\u043b\u0430\u0434\u0438\u043c\u0438\u0440\u043e\u0432\u0438\u0447",
    "rating": 1.0780150859403093
  },
  "13198": {
    "name": "\u0414\u0436\u0435\u0443\u0441 \u0410\u043b\u0435\u043a\u0441\u0430\u043d\u0434\u0440 \u0412\u0430\u0441\u0438\u043b\u044c\u0435\u0432\u0438\u0447",
    "rating": 6.077138610132418
  },
  "13869": {
    "name": "\u041c\u0430\u0437\u0443\u0440\u0435\u043d\u043a\u043e \u0421\u0435\u0440\u0433\u0435\u0439 \u041d\u0438\u043a\u043e\u043b\u0430\u0435\u0432\u0438\u0447",
    "rating": 3.195736761924623
  },
  "13870": {
    "name": "\u0424\u0440\u0438\u0434\u043b\u044f\u043d\u043e\u0432 \u0412\u043b\u0430\u0434\u0438\u043c\u0438\u0440 \u041d\u0438\u043a\u043e\u043b\u0430\u0435\u0432\u0438\u0447",
    "rating": 0.4443739168618859
  },
  "14031": {
    "name": "\u0414\u0443\u043b\u0438\u043d\u043e\u0432 \u041c\u0430\u043a\u0441\u0438\u043c \u0412\u0438\u043a\u0442\u043e\u0440\u043e\u0432\u0438\u0447",
    "rating": 0.465497558337786
  },
  "14070": {
    "name": "\u041a\u0430\u043c\u0431\u043e\u043b\u043e\u0432 \u041c\u0430\u0440\u0430\u0442 \u0410\u0440\u043a\u0430\u0434\u044c\u0435\u0432\u0438\u0447",
    "rating": 1.0201576157433905
  },
  "17604": {
    "name": "\u0410\u0440\u0438\u0441\u0442\u0435\u0440 \u041d\u0438\u043a\u043e\u043b\u0430\u0439 \u0418\u0432\u0430\u043d\u043e\u0432\u0438\u0447",
    "rating": 0.019064830506287725
  },
  "18630": {
    "name": "\u0425\u0430\u043c\u0430\u0440\u0434\u044e\u043a \u0410\u043d\u043d\u0430 \u0412\u043b\u0430\u0434\u0438\u043c\u0438\u0440\u043e\u0432\u043d\u0430",
    "rating": 0.016948890066579778
  },
  "18632": {
    "name": "\u0420\u0435\u043c\u043e\u0440\u0435\u043d\u043a\u043e \u0418\u0433\u043e\u0440\u044c \u041c\u0438\u0445\u0430\u0439\u043b\u043e\u0432\u0438\u0447",
    "rating": 0.2723476204865294
  },
  "18633": {
    "name": "\u041f\u043e\u043d\u043e\u043c\u0430\u0440\u0435\u0432 \u0410\u043b\u0435\u043a\u0441\u0435\u0439 \u041a\u043e\u043d\u0441\u0442\u0430\u043d\u0442\u0438\u043d\u043e\u0432\u0438\u0447",
    "rating": 0.6030846141116627
  },
  "18732": {
    "name": "\u0411\u0430\u0440\u043e\u0432\u0430 \u041c\u0430\u0440\u0438\u044f \u0410\u043b\u0435\u043a\u0441\u0430\u043d\u0434\u0440\u043e\u0432\u043d\u0430",
    "rating": 0.021878821419466614
  },
  "18733": {
    "name": "\u041d\u0435\u0432\u043c\u044f\u043d\u043e\u0432\u0430 \u0418\u043d\u0434\u0438\u0440\u0430 \u0412\u043b\u0430\u0434\u0438\u043c\u0438\u0440\u043e\u0432\u043d\u0430",
    "rating": 0.09962929829317403
  },
  "18734": {
    "name": "\u0421\u0430\u043d\u0442\u0438\u043c\u0438\u0440\u043e\u0432\u0430 \u041c\u0430\u0438\u044f \u042e\u0440\u044c\u0435\u0432\u043d\u0430",
    "rating": 0.01202936076622735
  },
  "18735": {
    "name": "\u0410\u043a\u0438\u043c\u043e\u0432 \u0410\u043d\u0430\u0442\u043e\u043b\u0438\u0439 \u041d\u0438\u043a\u043e\u043b\u0430\u0435\u0432\u0438\u0447",
    "rating": 0.1780481570714736
  },
  "18736": {
    "name": "\u0420\u0443\u0441\u0430\u043a\u043e\u0432 \u0418\u0433\u043e\u0440\u044c \u0411\u043e\u0440\u0438\u0441\u043e\u0432\u0438\u0447",
    "rating": 0.05052644305593567
  },
  "19113": {
    "name": "\u0421\u0438\u043b\u044c\u044f\u043d\u043e\u0432 \u0415\u0432\u0433\u0435\u043d\u0438\u0439 \u0410\u043b\u0435\u043a\u0441\u0430\u043d\u0434\u0440\u043e\u0432\u0438\u0447",
    "rating": 0.06893817867801215
  },
  "19183": {
    "name": "\u041f\u0430\u0445\u043e\u043c\u043e\u0432 \u0421\u0435\u0440\u0433\u0435\u0439 \u0418\u0432\u0430\u043d\u043e\u0432\u0438\u0447",
    "rating": 2.0
  },
  "19190": {
    "name": "\u0413\u0430\u043d\u044c\u0448\u0438\u043d \u0418\u0433\u043e\u0440\u044c \u041d\u0438\u043a\u043e\u043b\u0430\u0435\u0432\u0438\u0447",
    "rating": 0.14097078313725295
  },
  "19284": {
    "name": "\u041c\u0430\u0442\u0432\u0435\u0435\u0432 \u0421\u0435\u0440\u0433\u0435\u0439 \u042e\u0440\u044c\u0435\u0432\u0438\u0447",
    "rating": 1.6368292220949148
  },
  "19305": {
    "name": "\u0417\u0430\u0440\u0443\u0431\u0438\u043d \u0410\u043d\u0434\u0440\u0435\u0439 \u0412\u043b\u0430\u0434\u0438\u043c\u0438\u0440\u043e\u0432\u0438\u0447",
    "rating": 0.13845889717194307
  },
  "19312": {
    "name": "\u0425\u043b\u043e\u043f\u043e\u0442\u043d\u044b\u0445 \u041c\u0430\u0440\u0438\u044f \u0411\u043e\u0440\u0438\u0441\u043e\u0432\u043d\u0430",
    "rating": 0.1214728688031606
  },
  "19348": {
    "name": "\u0410\u043d\u0442\u043e\u043d\u043e\u0432\u0430 \u0422\u0430\u0442\u044c\u044f\u043d\u0430 \u0412\u0438\u043a\u0442\u043e\u0440\u043e\u0432\u043d\u0430",
    "rating": 2.128517905969932
  },
  "19443": {
    "name": "\u0421\u043e\u0431\u043e\u043b\u0435\u0432 \u0410\u043b\u0435\u043a\u0441\u0430\u043d\u0434\u0440 \u0411\u043e\u0440\u0438\u0441\u043e\u0432\u0438\u0447",
    "rating": 0.7731235801706098
  },
  "19491": {
    "name": "\u0427\u0435\u0440\u043d\u043e\u0441\u043a\u0443\u0442\u043e\u0432\u0430 \u0418\u043d\u043d\u0430 \u0410\u043d\u0430\u0442\u043e\u043b\u044c\u0435\u0432\u043d\u0430",
    "rating": 0.025818604062140208
  },
  "21382": {
    "name": "\u041c\u043e\u0440\u044f\u043a\u043e\u0432\u0430 \u041c\u0430\u0440\u0438\u044f \u0410\u043b\u0435\u043a\u0441\u0430\u043d\u0434\u0440\u043e\u0432\u043d\u0430",
    "rating": 0.0101589764864564
  },
  "26752": {
    "name": "\u0411\u043b\u0430\u043d\u043a \u0412\u043b\u0430\u0434\u0438\u043c\u0438\u0440 \u0414\u0430\u0432\u044b\u0434\u043e\u0432\u0438\u0447",
    "rating": 2.9396499599355144
  },
  "39045": {
    "name": "\u041a\u0443\u0437\u043d\u0435\u0446\u043e\u0432\u0430 \u0418\u0440\u0438\u043d\u0430 \u0412\u043b\u0430\u0434\u0438\u043c\u0438\u0440\u043e\u0432\u043d\u0430",
    "rating": 3.4851135181665565
  },
  "39046": {
    "name": "\u041d\u0443\u0436\u0434\u0438\u043d\u0430 \u0421\u0432\u0435\u0442\u043b\u0430\u043d\u0430 \u0410\u043d\u0430\u0442\u043e\u043b\u044c\u0435\u0432\u043d\u0430",
    "rating": 0.0213583370007084
  },
  "39047": {
    "name": "\u0411\u0430\u043a\u0443\u0442\u0438\u043d \u041c\u0438\u0445\u0430\u0438\u043b \u0412\u0430\u0441\u0438\u043b\u044c\u0435\u0432\u0438\u0447",
    "rating": 2.1390729952918104
  },
  "39048": {
    "name": "\u041f\u0435\u0440\u0435\u0432\u0435\u0440\u0437\u0435\u0432\u0430 \u0412\u0430\u043b\u0435\u043d\u0442\u0438\u043d\u0430 \u0412\u0438\u043a\u0442\u043e\u0440\u043e\u0432\u043d\u0430",
    "rating": 0.23567932852136575
  },
  "39049": {
    "name": "\u041c\u0438\u0445\u0435\u0435\u0432 \u0418\u0433\u043e\u0440\u044c \u0410\u043d\u0430\u0442\u043e\u043b\u044c\u0435\u0432\u0438\u0447",
    "rating": 0.1851835292778693
  },
  "39050": {
    "name": "\u0415\u043c\u0435\u043b\u044c\u044f\u043d\u043e\u0432 \u0410\u043d\u0434\u0440\u0435\u0439 \u0410\u043d\u0434\u0440\u0435\u0435\u0432\u0438\u0447",
    "rating": 0.02352291429678819
  },
  "39051": {
    "name": "\u041a\u0440\u0430\u0432\u0447\u0443\u043a \u0412\u0435\u0440\u043e\u043d\u0438\u043a\u0430 \u0412\u043b\u0430\u0434\u0438\u043c\u0438\u0440\u043e\u0432\u043d\u0430",
    "rating": 0.023019924473517188
  },
  "47763": {
    "name": "\u0410\u0433\u0435\u0435\u0432\u0430 \u041b\u0438\u0434\u0438\u044f \u041d\u0438\u043a\u043e\u043b\u0430\u0435\u0432\u043d\u0430",
    "rating": 1.4913083984844788
  },
  "47794": {
    "name": "\u0410\u0440\u0442\u0435\u043c\u043e\u0432\u0430 \u0422\u0430\u043c\u0430\u0440\u0430 \u0414\u043c\u0438\u0442\u0440\u0438\u0435\u0432\u043d\u0430",
    "rating": 0.16381694738976305
  },
  "47795": {
    "name": "\u0410\u043d\u0442\u043e\u043d\u044e\u043a \u0412\u0430\u043b\u0435\u0440\u0438\u0439 \u041f\u0435\u0442\u0440\u043e\u0432\u0438\u0447",
    "rating": 0.28771147197343405
  },
  "47796": {
    "name": "\u0410\u0441\u0435\u0435\u0432 \u0412\u043b\u0430\u0434\u0438\u043c\u0438\u0440 \u041d\u0438\u043a\u043e\u043b\u0430\u0435\u0432\u0438\u0447",
    "rating": 0.02309288346157668
  },
  "47806": {
    "name": "\u0411\u0430\u0437\u0438\u043b\u0435\u0432\u0441\u043a\u0438\u0439 \u0410\u043d\u0434\u0440\u0435\u0439 \u0410\u043b\u0435\u043a\u0441\u0430\u043d\u0434\u0440\u043e\u0432\u0438\u0447",
    "rating": 0.08704519735640133
  },
  "47811": {
    "name": "\u0411\u0430\u0442\u043e\u0432\u0430 \u0418\u0440\u0438\u043d\u0430 \u0413\u0435\u043d\u043d\u0430\u0434\u044c\u0435\u0432\u043d\u0430",
    "rating": 0.14123439839893676
  },
  "47813": {
    "name": "\u0411\u0430\u0445\u0430\u0440\u043e\u0432\u0430 \u0418\u0440\u0438\u043d\u0430 \u0410\u0440\u043a\u0430\u0434\u044c\u0435\u0432\u043d\u0430",
    "rating": 0.04477221439448766
  },
  "47814": {
    "name": "\u0411\u0430\u0445\u0442\u0443\u0440\u0438\u043d \u0413\u0435\u043d\u043d\u0430\u0434\u0438\u0439 \u0418\u0432\u0430\u043d\u043e\u0432\u0438\u0447",
    "rating": 1.8495515101732396
  },
  "47818": {
    "name": "\u0411\u0435\u0437\u0440\u0443\u043a\u0438\u0445 \u041c\u0430\u0440\u044c\u044f\u043c \u041c\u043e\u0438\u0441\u0435\u0435\u0432\u043d\u0430",
    "rating": 0.1521901272416681
  },
  "47823": {
    "name": "\u0411\u0435\u043b\u044c\u0433\u0435\u0441\u043e\u0432 \u0421\u0435\u0440\u0433\u0435\u0439 \u041d\u0438\u043a\u043e\u043b\u0430\u0435\u0432\u0438\u0447",
    "rating": 1.3058710923402574
  },
  "47824": {
    "name": "\u0411\u0435\u043b\u044c\u0441\u043a\u0438\u0439 \u0410\u043d\u0430\u0442\u043e\u043b\u0438\u0439 \u0410\u043b\u0435\u043a\u0441\u0435\u0435\u0432\u0438\u0447",
    "rating": 0.1677477456188033
  },
  "47906": {
    "name": "\u0411\u0435\u0440\u0435\u0437\u044b\u043d\u0435\u0446 \u041b\u044e\u0434\u043c\u0438\u043b\u0430 \u0413\u0435\u043e\u0440\u0433\u0438\u0435\u0432\u043d\u0430",
    "rating": 0.03885514740515038
  },
  "47913": {
    "name": "\u0411\u043e\u043a\u043e\u0432 \u0414\u0435\u043d\u0438\u0441 \u042e\u0440\u044c\u0435\u0432\u0438\u0447",
    "rating": 0.07559444580465148
  },
  "47918": {
    "name": "\u0411\u043e\u043d\u0434\u0430\u0440\u0447\u0443\u043a \u0412\u043b\u0430\u0434\u0438\u0441\u043b\u0430\u0432 \u0421\u0442\u0435\u043f\u0430\u043d\u043e\u0432\u0438\u0447",
    "rating": 0.03622482449775228
  },
  "47919": {
    "name": "\u0411\u043e\u043d\u0434\u0443\u0440 \u0412\u0430\u043b\u0435\u0440\u0438\u0439 \u0413\u0440\u0438\u0433\u043e\u0440\u044c\u0435\u0432\u0438\u0447",
    "rating": 0.08635530252948073
  },
  "47922": {
    "name": "\u0411\u043e\u0440\u0438\u0441\u043e\u0432\u0430 \u0421\u0432\u0435\u0442\u043b\u0430\u043d\u0430 \u0421\u0435\u0440\u0433\u0435\u0435\u0432\u043d\u0430",
    "rating": 1.0141857931071627
  },
  "48094": {
    "name": "\u0411\u0443\u043d\u0438\u043d\u0430 \u0415\u043b\u0435\u043d\u0430 \u0412\u0430\u043b\u0435\u0440\u0438\u0435\u0432\u043d\u0430",
    "rating": 0.0
  },
  "48098": {
    "name": "\u0411\u0443\u044f\u043d\u043e\u0432\u0430 \u0421\u0432\u0435\u0442\u043b\u0430\u043d\u0430 \u0412\u0438\u043a\u0442\u043e\u0440\u043e\u0432\u043d\u0430",
    "rating": 0.05586922739677641
  },
  "48103": {
    "name": "\u0412\u0430\u0441\u0435\u043d\u0435\u0432\u0430 \u041b\u044e\u0434\u043c\u0438\u043b\u0430 \u041f\u0430\u0432\u043b\u043e\u0432\u043d\u0430",
    "rating": 0.23884140581672786
  },
  "48408": {
    "name": "\u0412\u0438\u043b\u0435\u0441\u043e\u0432\u0430 \u041c\u0430\u0440\u0433\u0430\u0440\u0438\u0442\u0430 \u0412\u0438\u043a\u0442\u043e\u0440\u043e\u0432\u043d\u0430",
    "rating": 0.09082794108740487
  },
  "48414": {
    "name": "\u0412\u043b\u0430\u0441\u0435\u043d\u043a\u043e \u041d\u0430\u0434\u0435\u0436\u0434\u0430 \u0421\u0435\u0440\u0433\u0435\u0435\u0432\u043d\u0430",
    "rating": 0.3024168880022755
  },
  "48415": {
    "name": "\u0412\u043b\u0430\u0441\u043e\u0432\u0430 \u0415\u043b\u0435\u043d\u0430 \u041f\u0430\u0432\u043b\u043e\u0432\u043d\u0430",
    "rating": 1.0232650244289525
  },
  "48417": {
    "name": "\u0412\u043e\u043b\u043e\u0434\u0438\u043d \u0410\u043b\u0435\u043a\u0441\u0430\u043d\u0434\u0440 \u0418\u0432\u0430\u043d\u043e\u0432\u0438\u0447",
    "rating": 2.01602253560518
  },
  "48418": {
    "name": "\u0412\u043e\u043b\u043e\u0434\u0438\u043d \u0410\u043d\u0430\u0442\u043e\u043b\u0438\u0439 \u0418\u0432\u0430\u043d\u043e\u0432\u0438\u0447",
    "rating": 1.0640202102960783
  },
  "48426": {
    "name": "\u0413\u0430\u0432\u0432\u0430 \u0420\u0443\u0441\u043b\u0430\u043d \u0412\u0438\u0442\u0430\u043b\u044c\u0435\u0432\u0438\u0447",
    "rating": 0.1634911200814954
  },
  "48441": {
    "name": "\u0413\u043e\u0432\u043e\u0440\u0438\u043d\u0430 \u0413\u0430\u043b\u0438\u043d\u0430 \u0412\u0438\u043a\u0442\u043e\u0440\u043e\u0432\u043d\u0430",
    "rating": 0.1390180819090362
  },
  "48442": {
    "name": "\u0413\u043e\u043b\u043c\u0430\u043d\u043e\u0432\u0430 \u0418\u0440\u0438\u043d\u0430 \u042f\u043a\u043e\u0432\u043b\u0435\u0432\u043d\u0430",
    "rating": 0.009964324958339635
  },
  "48445": {
    "name": "\u0413\u043e\u043d\u0447\u0430\u0440\u043e\u0432\u0430 \u0415\u043b\u0435\u043d\u0430 \u042e\u0440\u044c\u0435\u0432\u043d\u0430",
    "rating": 1.0428657167105382
  },
  "48447": {
    "name": "\u0413\u043e\u043d\u0447\u0430\u0440\u043e\u0432\u0430 \u041e\u043a\u0441\u0430\u043d\u0430 \u0412\u0430\u043b\u0435\u0440\u044c\u0435\u0432\u043d\u0430",
    "rating": 2.2333841014730598
  },
  "48718": {
    "name": "\u0413\u0440\u0438\u0433\u043e\u0440\u044f\u043d \u0413\u0430\u043b\u0438\u043d\u0430 \u0412\u0438\u043a\u0442\u043e\u0440\u043e\u0432\u043d\u0430",
    "rating": 0.015673102946343782
  },
  "48723": {
    "name": "\u0413\u0443\u043b\u044f\u0435\u0432\u0430 \u041e\u043a\u0441\u0430\u043d\u0430 \u0410\u043b\u0435\u043a\u0441\u0435\u0435\u0432\u043d\u0430",
    "rating": 0.02174484344760615
  },
  "48728": {
    "name": "\u0413\u0443\u0441\u0435\u0432 \u0410\u043b\u0435\u043a\u0441\u0430\u043d\u0434\u0440 \u0411\u043e\u0440\u0438\u0441\u043e\u0432\u0438\u0447",
    "rating": 0.10901310238500776
  },
  "48757": {
    "name": "\u0413\u0443\u0441\u0435\u0432 \u0420\u043e\u043c\u0430\u043d \u0413\u0435\u043d\u043d\u0430\u0434\u044c\u0435\u0432\u0438\u0447",
    "rating": 0.0474299354244167
  },
  "48817": {
    "name": "\u0414\u0436\u0438\u0430\u0434\u0437\u0435 \u0422\u0430\u0442\u044c\u044f\u043d\u0430 \u0410\u043b\u0435\u043a\u0441\u0430\u043d\u0434\u0440\u043e\u0432\u043d\u0430",
    "rating": 0.01916067607484076
  },
  "48857": {
    "name": "\u0414\u044c\u044f\u0447\u0435\u043d\u043a\u043e \u041b\u044e\u0431\u043e\u0432\u044c \u041e\u043a\u0442\u044f\u0431\u0440\u0438\u0435\u0432\u043d\u0430",
    "rating": 0.010430568236489446
  },
  "49558": {
    "name": "\u0415\u0433\u043e\u0440\u043e\u0432\u0430 \u0422\u0430\u0442\u044c\u044f\u043d\u0430 \u0421\u0435\u0440\u0433\u0435\u0435\u0432\u043d\u0430",
    "rating": 1.0189143239439475
  },
  "49593": {
    "name": "\u0417\u0430\u0431\u0435\u0434\u043d\u043e\u0432 \u041f\u0430\u0432\u0435\u043b \u0412\u043b\u0430\u0434\u0438\u043c\u0438\u0440\u043e\u0432\u0438\u0447",
    "rating": 2.1826650805764602
  },
  "50195": {
    "name": "\u0417\u0430\u0440\u0435\u0446\u043a\u0438\u0439 \u0412\u043b\u0430\u0434\u0438\u043c\u0438\u0440 \u0412\u0430\u043b\u0435\u043d\u0442\u0438\u043d\u043e\u0432\u0438\u0447",
    "rating": 1.0211068128886842
  },
  "50199": {
    "name": "\u0417\u0430\u0445\u0430\u0440\u0438\u043a\u043e\u0432\u0430 \u0415\u043b\u0435\u043d\u0430 \u0410\u043b\u0435\u043a\u0441\u0430\u043d\u0434\u0440\u043e\u0432\u043d\u0430",
    "rating": 1.0099127536489507
  },
  "50758": {
    "name": "\u0418\u0432\u0430\u043d\u043e\u0432\u0430 \u0421\u0432\u0435\u0442\u043b\u0430\u043d\u0430 \u0412\u0435\u043d\u0438\u0430\u043c\u0438\u043d\u043e\u0432\u043d\u0430",
    "rating": 5.0
  },
  "50766": {
    "name": "\u041a\u0430\u0437\u043c\u0438\u043d\u0430 \u0416\u0430\u043d\u043d\u0430 \u0412\u0438\u043a\u0442\u043e\u0440\u043e\u0432\u043d\u0430",
    "rating": 0.06677102573650405
  },
  "52360": {
    "name": "\u041a\u0430\u0441\u043f\u0440\u0436\u0430\u043a \u0410\u043b\u0435\u043a\u0441\u0435\u0439 \u0410\u043d\u0430\u0442\u043e\u043b\u044c\u0435\u0432\u0438\u0447",
    "rating": 1.5017255558143583
  },
  "52378": {
    "name": "\u041a\u0438\u0441\u0438\u043b\u044c \u041d\u0430\u0434\u0435\u0436\u0434\u0430 \u041f\u0435\u0442\u0440\u043e\u0432\u043d\u0430",
    "rating": 0.015586852522650688
  }
}