{
  "16643": {
    "name": "\u041a\u043e\u0441\u0442\u0438\u043d \u0421\u0435\u0440\u0433\u0435\u0439 \u0412\u0430\u0441\u0438\u043b\u044c\u0435\u0432\u0438\u0447",
    "rating": 2.2569498794842158
  },
  "46763": {
    "name": "\u041a\u043d\u044f\u0436\u0435\u0432\u0441\u043a\u0430\u044f \u042e\u043b\u0438\u0430\u043d\u0430 \u0412\u043b\u0430\u0434\u0438\u043c\u0438\u0440\u043e\u0432\u043d\u0430",
    "rating": 2.5127408241737426
  },
  "46764": {
    "name": "\u041a\u0443\u0437\u043d\u0435\u0446\u043e\u0432 \u0421\u0435\u0440\u0433\u0435\u0439 \u041e\u043b\u0435\u0433\u043e\u0432\u0438\u0447",
    "rating": 4.0
  },
  "46765": {
    "name": "\u0413\u0443\u043a \u0422\u0430\u0442\u044c\u044f\u043d\u0430 \u041d\u0438\u043a\u043e\u043b\u0430\u0435\u0432\u043d\u0430",
    "rating": 0.4992219021856312
  },
  "46766": {
    "name": "\u0411\u0435\u043b\u043e\u0432\u0430 \u041b\u0430\u0440\u0438\u0441\u0430 \u041d\u0438\u043a\u043e\u043b\u0430\u0435\u0432\u043d\u0430",
    "rating": 0.07184642944142026
  },
  "46767": {
    "name": "\u0421\u0443\u0445\u043e\u0432 \u0410\u043d\u0434\u0440\u0435\u0439 \u042e\u0440\u044c\u0435\u0432\u0438\u0447",
    "rating": 0.09376438839949686
  },
  "46768": {
    "name": "\u0421\u043e\u0440\u043e\u043a\u0438\u043d \u0410\u043b\u0435\u043a\u0441\u0430\u043d\u0434\u0440 \u0410\u043b\u0435\u043a\u0441\u0430\u043d\u0434\u0440\u043e\u0432\u0438\u0447",
    "rating": 3.619009199800451
  }
}