{
  "1423": {
    "name": "\u0414\u0430\u0440\u044c\u043a\u0438\u043d \u0421\u0435\u0440\u0433\u0435\u0439 \u041c\u0438\u0445\u0430\u0439\u043b\u043e\u0432\u0438\u0447",
    "rating": 2.0
  },
  "1429": {
    "name": "\u0413\u0430\u0435\u0432\u0441\u043a\u0438\u0439 \u0412\u0430\u043b\u0435\u0440\u0438\u0439 \u0412\u0435\u043d\u0438\u0430\u043c\u0438\u043d\u043e\u0432\u0438\u0447",
    "rating": 1.4682694053049397
  },
  "2876": {
    "name": "\u041a\u043e\u043f\u044b\u043b\u043e\u0432 \u0412\u0430\u0441\u0438\u043b\u0438\u0439 \u0412\u0430\u0441\u0438\u043b\u044c\u0435\u0432\u0438\u0447",
    "rating": 0.26959539550157785
  },
  "5363": {
    "name": "\u0412\u0438\u043a\u0442\u043e\u0440\u043e\u0432 \u0410\u043b\u0435\u043a\u0441\u0430\u043d\u0434\u0440 \u041f\u0430\u0432\u043b\u043e\u0432\u0438\u0447",
    "rating": 0.5646332471850956
  },
  "11678": {
    "name": "\u0414\u0435\u0434\u044e\u0445\u0438\u043d \u0412\u043b\u0430\u0434\u0438\u043c\u0438\u0440 \u0410\u043d\u0430\u0442\u043e\u043b\u044c\u0435\u0432\u0438\u0447",
    "rating": 2.0
  },
  "11679": {
    "name": "\u041a\u0440\u0443\u043a \u041c\u0438\u0445\u0430\u0438\u043b \u0414\u0430\u0432\u0438\u0434\u043e\u0432\u0438\u0447",
    "rating": 2.4365836074303777
  },
  "11680": {
    "name": "\u041d\u0430\u0437\u0430\u0440\u043e\u0432 \u0421\u0435\u0440\u0433\u0435\u0439 \u041c\u0430\u043a\u0430\u0440\u043e\u0432\u0438\u0447",
    "rating": 3.2345365314605337
  },
  "11681": {
    "name": "\u041f\u0430\u043d\u043e\u0432 \u0420\u043e\u043c\u0430\u043d \u042e\u0440\u044c\u0435\u0432\u0438\u0447",
    "rating": 1.0
  },
  "11682": {
    "name": "\u0418\u0432\u0430\u043d\u043e\u0432\u0430 \u0421\u0432\u0435\u0442\u043b\u0430\u043d\u0430 \u0412\u043b\u0430\u0434\u0438\u043c\u0438\u0440\u043e\u0432\u043d\u0430",
    "rating": 4.117523818427709
  }
}