{
  "19179": {
    "name": "\u0428\u0438\u0448\u043a\u0430\u043d\u043e\u0432\u0430 \u0418\u043d\u0435\u0441\u0441\u0430 \u0410\u043b\u0435\u043a\u0441\u0435\u0435\u0432\u043d\u0430",
    "rating": 0.057370856485359084
  },
  "19180": {
    "name": "\u0413\u0430\u0439\u0434\u0443\u043a \u0412\u043b\u0430\u0434\u0438\u043c\u0438\u0440 \u0412\u043b\u0430\u0434\u0438\u043c\u0438\u0440\u043e\u0432\u0438\u0447",
    "rating": 0.03582987050476191
  },
  "19181": {
    "name": "\u041d\u0430\u0440\u0443\u0442\u0442\u043e \u0421\u0432\u0435\u0442\u043b\u0430\u043d\u0430 \u0412\u0430\u0441\u0438\u043b\u044c\u0435\u0432\u043d\u0430",
    "rating": 1.1820212164866988
  },
  "19183": {
    "name": "\u041f\u0430\u0445\u043e\u043c\u043e\u0432 \u0421\u0435\u0440\u0433\u0435\u0439 \u0418\u0432\u0430\u043d\u043e\u0432\u0438\u0447",
    "rating": 2.0
  },
  "19199": {
    "name": "\u0414\u043e\u0432\u043c\u0430\u0442 \u0411\u043e\u0440\u0438\u0441 \u0412\u043b\u0430\u0434\u0438\u043c\u0438\u0440\u043e\u0432\u0438\u0447",
    "rating": 0.5265864315783816
  },
  "19201": {
    "name": "\u041c\u043e\u043b\u0447\u0430\u043d\u043e\u0432 \u042e\u0440\u0438\u0439 \u042f\u043a\u043e\u0432\u043b\u0435\u0432\u0438\u0447",
    "rating": 1.020047021022186
  },
  "19202": {
    "name": "\u0410\u043b\u0435\u043a\u0441\u0435\u0435\u0432\u0430 \u0421\u0432\u0435\u0442\u043b\u0430\u043d\u0430 \u042e\u0440\u044c\u0435\u0432\u043d\u0430",
    "rating": 2.035113693564769
  },
  "19206": {
    "name": "\u0418\u0432\u0430\u043d\u043e\u0432 \u0412\u0430\u043b\u0435\u0440\u0438\u0439 \u0412\u0430\u043b\u0435\u0440\u044c\u0435\u0432\u0438\u0447",
    "rating": 1.0264284545586315
  },
  "19207": {
    "name": "\u041a\u0440\u044b\u043b\u043e\u0432 \u0412\u0438\u0442\u0430\u043b\u0438\u0439 \u041f\u0435\u0442\u0440\u043e\u0432\u0438\u0447",
    "rating": 0.014159892964895459
  },
  "19208": {
    "name": "\u041a\u0443\u0437\u044c\u043c\u0438\u043d\u0430 \u0415\u043b\u0435\u043d\u0430 \u0410\u043d\u0430\u0442\u043e\u043b\u044c\u0435\u0432\u043d\u0430",
    "rating": 1.0279391868786159
  },
  "19209": {
    "name": "\u041c\u0430\u0439\u043e\u0440\u043e\u0432\u0430 \u041e\u043b\u044c\u0433\u0430 \u0410\u043b\u0435\u043a\u0441\u0435\u0435\u0432\u043d\u0430",
    "rating": 1.043266194640991
  }
}