{
  "19113": {
    "name": "\u0421\u0438\u043b\u044c\u044f\u043d\u043e\u0432 \u0415\u0432\u0433\u0435\u043d\u0438\u0439 \u0410\u043b\u0435\u043a\u0441\u0430\u043d\u0434\u0440\u043e\u0432\u0438\u0447",
    "rating": 0.06893817867801215
  },
  "19115": {
    "name": "\u041a\u0430\u0431\u0430\u043d\u043e\u0432 \u0412\u043b\u0430\u0434\u0438\u043c\u0438\u0440 \u041b\u044c\u0432\u043e\u0432\u0438\u0447",
    "rating": 0.19223305034693808
  },
  "19116": {
    "name": "\u0420\u043e\u043c\u0430\u043d\u043e\u0432\u0430 \u0418\u0440\u0438\u043d\u0430 \u0418\u0433\u043e\u0440\u0435\u0432\u043d\u0430",
    "rating": 0.022813149461851173
  },
  "19118": {
    "name": "\u0422\u0435\u0440\u0435\u0445\u0438\u043d\u0430 \u0418\u0440\u0438\u043d\u0430 \u041e\u043b\u0435\u0433\u043e\u0432\u043d\u0430",
    "rating": 0.1056309684460135
  },
  "19121": {
    "name": "\u0415\u0432\u0441\u0435\u0435\u0432 \u0410\u043d\u0434\u0440\u0435\u0439 \u0418\u0432\u0430\u043d\u043e\u0432\u0438\u0447",
    "rating": 0.020323566013333842
  },
  "19123": {
    "name": "\u041b\u0430\u0448\u043a\u0443\u043b \u041c\u0430\u0440\u0438\u043d\u0430 \u0412\u0430\u043b\u0435\u0440\u044c\u0435\u0432\u043d\u0430",
    "rating": 0.13584767619961968
  },
  "19125": {
    "name": "\u041f\u043e\u043d\u043e\u043c\u0430\u0440\u0435\u0432 \u041f\u0430\u0432\u0435\u043b \u0412\u0438\u043a\u0442\u043e\u0440\u043e\u0432\u0438\u0447",
    "rating": 0.044540937867039485
  },
  "19127": {
    "name": "\u0424\u0430\u043b\u044c\u043a\u043e\u0432\u0441\u043a\u0430\u044f \u041b\u0430\u0440\u0438\u0441\u0430 \u041f\u0430\u0432\u043b\u043e\u0432\u043d\u0430",
    "rating": 0.19274393448698834
  },
  "19129": {
    "name": "\u0412\u0430\u043a\u043e\u0440\u0438\u043d\u0430 \u041b\u044e\u0434\u043c\u0438\u043b\u0430 \u042e\u0440\u044c\u0435\u0432\u043d\u0430",
    "rating": 0.006097080482956407
  },
  "19130": {
    "name": "\u0414\u043c\u0438\u0442\u0440\u0438\u0435\u0432\u0430 \u041e\u043b\u044c\u0433\u0430 \u0412\u0430\u043b\u0435\u0440\u0438\u0435\u0432\u043d\u0430",
    "rating": 0.00285840414094038
  },
  "19132": {
    "name": "\u041a\u043e\u0440\u043d\u0435\u0435\u0432\u0430 \u0415\u0432\u0433\u0435\u043d\u0438\u044f \u0421\u0435\u0440\u0433\u0435\u0435\u0432\u043d\u0430",
    "rating": 0.024846854545391355
  },
  "19133": {
    "name": "\u0429\u0435\u043f\u0435\u0442\u043a\u043e\u0432\u0430 \u0410\u043d\u043d\u0430 \u041d\u0438\u043a\u043e\u043b\u0430\u0435\u0432\u043d\u0430",
    "rating": 4.0
  },
  "19134": {
    "name": "\u0412\u0435\u0442\u0440\u0435\u043d\u043a\u043e \u041e\u043b\u044c\u0433\u0430 \u0410\u043b\u0435\u043a\u0441\u0430\u043d\u0434\u0440\u043e\u0432\u043d\u0430",
    "rating": 0.02551101532369589
  },
  "19135": {
    "name": "\u0420\u044b\u0431\u043d\u0438\u043a\u043e\u0432\u0430 \u041d\u0430\u0434\u0435\u0436\u0434\u0430 \u0412\u0438\u043a\u0442\u043e\u0440\u043e\u0432\u043d\u0430",
    "rating": 3.731883400073579
  },
  "19136": {
    "name": "\u0410\u043d\u0442\u043e\u043d\u043e\u0432\u0430 \u0421\u043e\u0444\u044c\u044f \u0411\u043e\u0440\u0438\u0441\u043e\u0432\u043d\u0430",
    "rating": 1.0101812234688312
  },
  "19137": {
    "name": "\u0413\u0440\u0430\u0431\u043b\u0435\u0432\u0430 \u0421\u0432\u0435\u0442\u043b\u0430\u043d\u0430 \u0421\u0435\u0440\u0433\u0435\u0435\u0432\u043d\u0430",
    "rating": 1.021500552310977
  },
  "19138": {
    "name": "\u0413\u0443\u0441\u0430\u0440\u043e\u0432\u0430 \u0410\u043d\u043d\u0430 \u0415\u0432\u0433\u0435\u043d\u044c\u0435\u0432\u043d\u0430",
    "rating": 0.016014957018618794
  },
  "19140": {
    "name": "\u041a\u0443\u0446 \u0410\u043b\u0435\u043a\u0441\u0430\u043d\u0434\u0440\u0430 \u0411\u043e\u0440\u0438\u0441\u043e\u0432\u043d\u0430",
    "rating": 0.0
  }
}