{
  "4701": {
    "name": "\u0410\u0431\u0434\u0443\u043b\u0430\u0435\u0432 \u041c\u0430\u0433\u043e\u043c\u0435\u0434 \u0418\u043c\u0440\u0430\u043d\u043e\u0432\u0438\u0447",
    "rating": 0.6610700812590474
  },
  "21319": {
    "name": "\u0413\u0430\u0441\u0430\u043d\u043e\u0432\u0430 \u041c\u0430\u0440\u044c\u044f\u043c \u0414\u0430\u0432\u0443\u0434\u043e\u0432\u043d\u0430",
    "rating": 8.272198026381608e-13
  }
}