{
  "11761": {
    "name": "\u0411\u043e\u0433\u0434\u0430\u043d\u043e\u0432 \u0421\u0435\u0440\u0433\u0435\u0439 \u0418\u0433\u043e\u0440\u0435\u0432\u0438\u0447",
    "rating": 2.0
  },
  "21339": {
    "name": "\u0421\u043e\u043b\u043e\u043c\u0438\u043d \u0412\u0430\u043b\u0435\u0440\u0438\u0439 \u041f\u0430\u0432\u043b\u043e\u0432\u0438\u0447",
    "rating": 0.04588907283636109
  },
  "47920": {
    "name": "\u0411\u043e\u0440\u0434\u043e\u0432\u0441\u043a\u0438\u0439 \u0413\u0435\u043d\u043d\u0430\u0434\u0438\u0439 \u0410\u043b\u0435\u043a\u0441\u0435\u0435\u0432\u0438\u0447",
    "rating": 1.313493022590779
  }
}