{
  "21345": {
    "name": "\u041a\u0438\u0440\u043d\u0438\u0447\u043d\u044b\u0439 \u0412\u043b\u0430\u0434\u0438\u043c\u0438\u0440 \u042e\u0440\u044c\u0435\u0432\u0438\u0447",
    "rating": 0.09286433934366482
  },
  "48100": {
    "name": "\u0412\u0438\u043b\u0438\u0441\u043e\u0432\u0430 \u0413\u0430\u043b\u0438\u043d\u0430 \u0418\u0432\u0430\u043d\u043e\u0432\u043d\u0430",
    "rating": 0.15850489255860514
  },
  "49577": {
    "name": "\u0416\u0438\u0433\u0430\u0434\u043b\u043e \u0410\u043b\u0435\u043a\u0441\u0430\u043d\u0434\u0440 \u041f\u0435\u0442\u0440\u043e\u0432\u0438\u0447",
    "rating": 4.0
  },
  "49578": {
    "name": "\u0416\u0438\u0433\u0430\u0434\u043b\u043e \u0410\u043b\u0435\u043a\u0441\u0430\u043d\u0434\u0440 \u041f\u0435\u0442\u0440\u043e\u0432\u0438\u0447",
    "rating": 4.0
  }
}