{
  "21361": {
    "name": "\u0427\u0438\u0433\u043e\u0432\u0441\u043a\u0430\u044f-\u041d\u0430\u0437\u0430\u0440\u043e\u0432\u0430 \u042f\u043d\u0438\u043d\u0430 \u0410\u043b\u0435\u043a\u0441\u0430\u043d\u0434\u0440\u043e\u0432\u043d\u0430",
    "rating": 0.09594338396598363
  },
  "50775": {
    "name": "\u041a\u0430\u0440\u0430\u043a\u0443\u043b\u043e\u0432\u0430 \u041b\u044e\u0431\u043e\u0432\u044c \u0410\u0444\u0430\u043d\u0430\u0441\u044c\u0435\u0432\u043d\u0430",
    "rating": 0.3008841835884689
  }
}