{
  "1857": {
    "name": "\u0412\u0435\u0431\u0435\u0440 \u0412\u0438\u043a\u0442\u043e\u0440 \u0420\u043e\u0431\u0435\u0440\u0442\u043e\u0432\u0438\u0447",
    "rating": 1.8848349435249163
  },
  "47771": {
    "name": "\u0410\u043b\u0435\u043a\u0441\u0435\u0435\u0432\u0430 \u041c\u0430\u0440\u0438\u043d\u0430 \u0410\u043d\u0430\u0442\u043e\u043b\u044c\u0435\u0432\u043d\u0430",
    "rating": 0.02649070099957013
  },
  "48427": {
    "name": "\u0413\u0430\u0432\u0440\u0438\u043a\u043e\u0432 \u0410\u043d\u0430\u0442\u043e\u043b\u0438\u0439 \u041b\u0435\u043e\u043d\u0438\u0434\u043e\u0432\u0438\u0447",
    "rating": 0.8710833545161061
  }
}