{
  "21390": {
    "name": "\u041a\u043e\u0441\u0430\u0440\u0435\u0432 \u041d\u0438\u043a\u043e\u043b\u0430\u0439 \u041f\u0435\u0442\u0440\u043e\u0432\u0438\u0447",
    "rating": 2.2657969436393
  }
}