{
  "21391": {
    "name": "\u041c\u0435\u0445\u0440\u0435\u043d\u0446\u0435\u0432 \u0410\u043d\u0434\u0440\u0435\u0439 \u0412\u0435\u043d\u0438\u0430\u043c\u0438\u043d\u043e\u0432\u0438\u0447",
    "rating": 3.099560620949424
  }
}