{
  "21397": {
    "name": "\u0424\u0438\u043b\u043e\u043d\u0435\u043d\u043a\u043e \u0421\u0435\u0440\u0433\u0435\u0439 \u0418\u0432\u0430\u043d\u043e\u0432\u0438\u0447",
    "rating": 1.4345220022924712
  }
}