{
  "4732": {
    "name": "\u0411\u043e\u0440\u0438\u0441\u043e\u0432 \u042e\u0440\u0438\u0439 \u041c\u0438\u0445\u0430\u0439\u043b\u043e\u0432\u0438\u0447",
    "rating": 1.1015064614525445
  },
  "21401": {
    "name": "\u041a\u043e\u043b\u043e\u0434\u044f\u0436\u043d\u044b\u0439 \u0421\u0435\u0440\u0433\u0435\u0439 \u0410\u043b\u0435\u043a\u0441\u0430\u043d\u0434\u0440\u043e\u0432\u0438\u0447",
    "rating": 0.3908287305593047
  }
}