{
  "4735": {
    "name": "\u0411\u0443\u0433\u0430\u043a\u043e\u0432 \u0412\u043b\u0430\u0434\u0438\u043c\u0438\u0440 \u041c\u0438\u0445\u0430\u0439\u043b\u043e\u0432\u0438\u0447",
    "rating": 0.0747542924942871
  },
  "47816": {
    "name": "\u0411\u0430\u0448\u043a\u0430\u0440\u0434\u0438\u043d\u0430 \u0415\u0432\u0433\u0435\u043d\u0438\u044f \u0410\u043b\u0435\u043a\u0441\u0430\u043d\u0434\u0440\u043e\u0432\u043d\u0430",
    "rating": 1.3504497385841523
  },
  "48837": {
    "name": "\u0414\u0440\u0430\u043f\u0430\u043b\u044e\u043a \u041c\u0438\u0445\u0430\u0438\u043b \u0412\u0430\u043b\u0435\u043d\u0442\u0438\u043d\u043e\u0432\u0438\u0447",
    "rating": 0.09758965838164146
  }
}