{
  "21464": {
    "name": "\u041f\u043b\u0435\u0441\u043e\u0432\u0441\u043a\u0438\u0445 \u042e\u0440\u0438\u0439 \u0413\u0435\u0440\u0442\u0443\u0440\u043e\u0432\u0438\u0447",
    "rating": 1.0101501462216176
  }
}