{
  "21528": {
    "name": "\u0421\u0430\u0434\u044b\u0440\u0438\u043d \u0412\u043b\u0430\u0434\u0438\u043c\u0438\u0440 \u0412\u0438\u0442\u0430\u043b\u044c\u0435\u0432\u0438\u0447",
    "rating": 0.08299004641290039
  }
}