{
  "4728": {
    "name": "\u0411\u0435\u043b\u043e\u043a\u043e\u0431\u044b\u043b\u044c\u0441\u043a\u0438\u0439 \u0421\u0435\u0440\u0433\u0435\u0439 \u0412\u043b\u0430\u0434\u0438\u043c\u0438\u0440\u043e\u0432\u0438\u0447",
    "rating": 3.609651124532963
  },
  "52367": {
    "name": "\u041a\u0430\u0448\u0443\u0431\u0430 \u0412\u043b\u0430\u0434\u0438\u043c\u0438\u0440 \u0411\u043e\u0433\u0434\u0430\u043d\u043e\u0432\u0438\u0447",
    "rating": 0.030739383434208494
  }
}