{
  "21581": {
    "name": "\u041a\u043e\u043b\u0435\u0441\u043d\u0438\u043a\u043e\u0432 \u0412\u043b\u0430\u0434\u0438\u043c\u0438\u0440 \u0410\u043b\u0435\u043a\u0441\u0430\u043d\u0434\u0440\u043e\u0432\u0438\u0447",
    "rating": 3.687118321100212
  },
  "47911": {
    "name": "\u0411\u043e\u0431\u043a\u043e\u0432\u0430 \u0415\u043b\u0435\u043d\u0430 \u0412\u0438\u043a\u0442\u043e\u0440\u043e\u0432\u043d\u0430",
    "rating": 2.3415589727514066
  },
  "50219": {
    "name": "\u0417\u0435\u043c\u043b\u044f\u043a\u043e\u0432 \u042e\u0440\u0438\u0439 \u0414\u043c\u0438\u0442\u0440\u0438\u0435\u0432\u0438\u0447",
    "rating": 4.0
  }
}