{
  "21597": {
    "name": "\u0427\u0430\u043f\u043b\u044b\u0433\u0438\u043d \u042e\u0440\u0438\u0439 \u0410\u043b\u0435\u043a\u0441\u0430\u043d\u0434\u0440\u043e\u0432\u0438\u0447",
    "rating": 0.7780122999486465
  },
  "47819": {
    "name": "\u0411\u0435\u043b\u0435\u043d\u043a\u043e\u0432\u0430 \u041d\u0438\u043d\u0430 \u0410\u0440\u0442\u0435\u043c\u043e\u0432\u043d\u0430",
    "rating": 0.2759396670367264
  },
  "47909": {
    "name": "\u0411\u0435\u0441\u043f\u0430\u043b\u043e\u0432 \u0412\u043b\u0430\u0434\u0438\u043c\u0438\u0440 \u0410\u043b\u0435\u043a\u0441\u0430\u043d\u0434\u0440\u043e\u0432\u0438\u0447",
    "rating": 5.0
  }
}