{
  "21605": {
    "name": "\u0421\u0430\u0440\u0430\u043b\u0438\u0434\u0437\u0435 \u0410\u043d\u0437\u043e\u0440 \u041c\u0438\u0445\u0430\u0439\u043b\u043e\u0432\u0438\u0447",
    "rating": 0.7502463498400704
  },
  "48429": {
    "name": "\u0413\u0430\u0432\u0440\u0438\u043b\u043e\u0432\u0430 \u0412\u0435\u0440\u0430 \u0410\u043b\u0435\u043a\u0441\u0435\u0435\u0432\u043d\u0430",
    "rating": 1.6913727141332893
  }
}