{
  "21629": {
    "name": "\u0421\u043e\u0437\u0430\u043d\u043e\u0432 \u0412\u0430\u043b\u0435\u0440\u0438\u0439 \u0413\u0430\u0432\u0440\u0438\u043b\u043e\u0432\u0438\u0447",
    "rating": 2.494255531450944
  },
  "52358": {
    "name": "\u041a\u0430\u0441\u0430\u0431\u0438\u0435\u0432\u0430 \u041a\u0438\u043c\u0430 \u0410\u0445\u0441\u0430\u0440\u043e\u0432\u043d\u0430",
    "rating": 0.01571967340415526
  }
}