{
  "4724": {
    "name": "\u0411\u0430\u043a\u0430\u0435\u0432 \u0410\u043d\u0430\u0442\u043e\u043b\u0438\u0439 \u0410\u043b\u0435\u043a\u0441\u0430\u043d\u0434\u0440\u043e\u0432\u0438\u0447",
    "rating": 2.750646426918177
  },
  "48811": {
    "name": "\u0414\u0435\u0432\u044f\u0442\u043a\u0438\u043d\u0430 \u0422\u0430\u043c\u0430\u0440\u0430 \u0412\u043b\u0430\u0434\u0438\u043c\u0438\u0440\u043e\u0432\u043d\u0430",
    "rating": 0.9816342694990652
  }
}