{
  "4865": {
    "name": "\u0413\u0438\u043b\u044c\u043c\u0443\u0442\u0434\u0438\u043d\u043e\u0432 \u0410\u043b\u044c\u0431\u0435\u0440\u0442 \u0425\u0430\u0440\u0438\u0441\u043e\u0432\u0438\u0447",
    "rating": 0.3453884836489532
  },
  "48435": {
    "name": "\u0413\u0430\u0444\u0438\u044f\u0442\u043e\u0432 \u0418\u043b\u044c\u0433\u0438\u0437 \u0417\u0438\u043d\u0438\u044f\u0442\u0443\u043b\u043b\u043e\u0432\u0438\u0447",
    "rating": 0.22249919489291048
  },
  "48714": {
    "name": "\u0413\u043e\u0440\u0442\u044b\u0448\u043e\u0432 \u042e\u0440\u0438\u0439 \u0424\u0435\u0434\u043e\u0440\u043e\u0432\u0438\u0447",
    "rating": 3.0
  },
  "49561": {
    "name": "\u0415\u043b\u0438\u0437\u0430\u0440\u043e\u0432 \u0412\u0438\u0442\u0430\u043b\u0438\u0439 \u0412\u0438\u043a\u0442\u043e\u0440\u043e\u0432\u0438\u0447",
    "rating": 0.11040694931644104
  },
  "50764": {
    "name": "\u041a\u0430\u0434\u044b\u0440\u043e\u0432\u0430 \u0425\u0430\u043d\u0438\u044f \u0420\u0430\u0441\u044b\u0445\u043e\u0432\u043d\u0430",
    "rating": 0.020227420781163987
  }
}