{
  "4866": {
    "name": "\u0413\u043b\u0430\u0433\u043e\u043b\u0435\u0432 \u0421\u0435\u0440\u0433\u0435\u0439 \u041d\u0438\u043a\u043e\u043b\u0430\u0435\u0432\u0438\u0447",
    "rating": 3.0
  },
  "48719": {
    "name": "\u0413\u0440\u0438\u0434\u0447\u0438\u043d \u0410\u043d\u0430\u0442\u043e\u043b\u0438\u0439 \u041c\u0438\u0442\u0440\u043e\u0444\u0430\u043d\u043e\u0432\u0438\u0447",
    "rating": 3.0
  },
  "50773": {
    "name": "\u041a\u0430\u043f\u0443\u0441\u0442\u0438\u043d\u0430 \u0414\u0438\u043d\u0430 \u0424\u0435\u0434\u043e\u0440\u043e\u0432\u043d\u0430",
    "rating": 1.862996550766652
  }
}