{
  "4880": {
    "name": "\u0413\u0440\u0438\u043d\u043a\u0440\u0443\u0433 \u041b\u0435\u0432 \u0421\u043e\u043b\u043e\u043c\u043e\u043d\u043e\u0432\u0438\u0447",
    "rating": 0.011901432806936427
  },
  "22122": {
    "name": "\u0411\u0430\u0436\u0435\u043d\u043e\u0432\u0430 \u041d\u0430\u0442\u0430\u043b\u044c\u044f \u0413\u0435\u043d\u043d\u0430\u0434\u044c\u0435\u0432\u043d\u0430",
    "rating": 0.056344632456166326
  }
}