{
  "22102": {
    "name": "\u0410\u043d\u0442\u043e\u0445\u0438\u043d\u0430 \u042e\u043b\u0438\u044f \u0410\u043d\u0430\u0442\u043e\u043b\u044c\u0435\u0432\u043d\u0430",
    "rating": 3.0
  },
  "48860": {
    "name": "\u0415\u0432\u0448\u0438\u043d \u0410\u043b\u0435\u043a\u0441\u0430\u043d\u0434\u0440 \u0413\u0435\u043e\u0440\u0433\u0438\u0435\u0432\u0438\u0447",
    "rating": 0.03670287333170227
  }
}