{
  "22120": {
    "name": "\u041f\u043b\u0443\u0442\u0435\u043d\u043a\u043e \u0410\u043d\u0434\u0440\u0435\u0439 \u0414\u043e\u043b\u0438\u0435\u0432\u0438\u0447",
    "rating": 0.6446713233939247
  },
  "48107": {
    "name": "\u0412\u0430\u0441\u0438\u043b\u044c\u0435\u0432\u0430 \u0418\u043d\u043d\u0430 \u0412\u043b\u0430\u0434\u0438\u043c\u0438\u0440\u043e\u0432\u043d\u0430",
    "rating": 1.078072417503111
  }
}