{
  "22126": {
    "name": "\u041f\u0443\u0433\u0430\u0447 \u0412\u0430\u043b\u0435\u043d\u0442\u0438\u043d \u041d\u0438\u043a\u043e\u043b\u0430\u0435\u0432\u0438\u0447",
    "rating": 5.0
  },
  "47801": {
    "name": "\u0410\u0445\u043c\u0435\u0442\u0437\u044f\u043d\u043e\u0432\u0430 \u0410\u043b\u044c\u0444\u0438\u0440\u0430 \u0413\u0430\u043f\u0442\u0440\u0430\u0448\u0438\u0442\u043e\u0432\u043d\u0430",
    "rating": 0.05228059305941133
  },
  "49567": {
    "name": "\u0415\u0440\u0448\u043e\u0432\u0430 \u041e\u043b\u044c\u0433\u0430 \u0410\u043d\u0430\u0442\u043e\u043b\u044c\u0435\u0432\u043d\u0430",
    "rating": 0.4926442105459448
  }
}