{
  "22134": {
    "name": "\u0426\u0445\u0430\u0434\u0430\u044f \u041d\u0438\u043a\u043e\u043b\u0430\u0439 \u0414\u0435\u043d\u0438\u0441\u043e\u0432\u0438\u0447",
    "rating": 1.2187795611135763
  }
}