{
  "22140": {
    "name": "\u0424\u0430\u043b\u044c\u043a\u043e\u0432 \u0412\u0430\u043b\u0435\u0440\u0438\u0439 \u041d\u0438\u043a\u043e\u043b\u0430\u0435\u0432\u0438\u0447",
    "rating": 1.073670490055539
  },
  "48818": {
    "name": "\u0414\u0437\u0438\u0434\u0430 \u0413\u0430\u043b\u0438\u043d\u0430 \u0410\u043d\u0434\u0440\u0435\u0435\u0432\u043d\u0430",
    "rating": 0.08813501806708307
  },
  "48846": {
    "name": "\u0414\u0443\u0431\u0438\u0446\u043a\u0438\u0439 \u0412\u0430\u043b\u0435\u0440\u0438\u0439 \u0412\u0430\u0441\u0438\u043b\u044c\u0435\u0432\u0438\u0447",
    "rating": 0.050794699266025665
  },
  "49582": {
    "name": "\u0416\u0443\u043a\u043e\u0432\u0430 \u0418\u0440\u0438\u043d\u0430 \u0421\u0435\u0440\u0433\u0435\u0435\u0432\u043d\u0430",
    "rating": 2.0082421440750977
  },
  "50230": {
    "name": "\u0417\u0443\u0431\u0430\u0440\u0435\u0432\u0430 \u0418\u0440\u0438\u043d\u0430 \u0410\u043d\u0430\u0442\u043e\u043b\u044c\u0435\u0432\u043d\u0430",
    "rating": 0.004651670171321449
  }
}