{
  "36003": {
    "name": "\u041b\u043e\u0431\u043a\u043e\u0432 \u0412\u044f\u0447\u0435\u0441\u043b\u0430\u0432 \u042e\u0440\u044c\u0435\u0432\u0438\u0447",
    "rating": 1.3225298210130612
  },
  "36004": {
    "name": "\u0428\u0443\u0432\u0430\u043b\u043e\u0432\u0430 \u041b\u044e\u0434\u043c\u0438\u043b\u0430 \u0410\u043b\u0435\u043a\u0441\u0430\u043d\u0434\u0440\u043e\u0432\u043d\u0430",
    "rating": 1.9656797273806592
  },
  "36005": {
    "name": "\u041c\u043e\u0440\u043e\u0437\u043e\u0432 \u0412\u0430\u0434\u0438\u043c \u0412\u043b\u0430\u0434\u0438\u043c\u0438\u0440\u043e\u0432\u0438\u0447",
    "rating": 1.066441690836462
  },
  "45650": {
    "name": "\u0412\u043e\u0440\u043e\u043d\u043e\u0432\u0430 \u041b\u044e\u0434\u043c\u0438\u043b\u0430 \u0412\u0438\u043a\u0442\u043e\u0440\u043e\u0432\u043d\u0430",
    "rating": 1.40868308230939
  },
  "45651": {
    "name": "\u0421\u0443\u0445\u043e\u0432\u0441\u043a\u0430\u044f \u0410\u043d\u043d\u0430 \u041c\u0438\u0445\u0430\u0439\u043b\u043e\u0432\u043d\u0430",
    "rating": 1.8912988585251584
  },
  "45652": {
    "name": "\u0428\u0438\u043d\u0430\u043a\u043e\u0432 \u0412\u0430\u043b\u0435\u0440\u0438\u0439 \u0418\u0432\u0430\u043d\u043e\u0432\u0438\u0447",
    "rating": 0.03537813095779256
  },
  "45653": {
    "name": "\u041a\u043e\u0440\u043a\u0438\u043d \u0410. \u041d.",
    "rating": 1.5225289452826591
  }
}