{
  "28751": {
    "name": "\u041c\u0430\u0440\u043a\u0438\u043d \u0421\u0435\u0440\u0433\u0435\u0439 \u0424\u0435\u0434\u043e\u0440\u043e\u0432\u0438\u0447",
    "rating": 0.9165273498884547
  },
  "28755": {
    "name": "\u041a\u0435\u0437\u0438\u043a \u0422\u0430\u0442\u044c\u044f\u043d\u0430 \u0412\u0430\u0441\u0438\u043b\u044c\u0435\u0432\u043d\u0430",
    "rating": 0.04382532683202963
  },
  "28756": {
    "name": "\u0410\u043b\u0435\u043a\u0441\u0430\u043d\u0434\u0440\u043e\u0432\u0438\u0447 \u0415\u043b\u0435\u043d\u0430 \u041e\u043b\u0435\u0433\u043e\u0432\u043d\u0430",
    "rating": 0.014447278164499696
  },
  "28757": {
    "name": "\u0411\u043e\u0433\u0434\u0430\u043d\u043e\u0432\u0430 \u041e\u043b\u044c\u0433\u0430 \u0412\u0438\u043a\u0442\u043e\u0440\u043e\u0432\u043d\u0430",
    "rating": 0.06157036298547505
  },
  "28771": {
    "name": "\u0411\u043e\u0440\u0443\u043d\u043e\u0432 \u0418\u0433\u043e\u0440\u044c \u041d\u0438\u043a\u043e\u043b\u0430\u0435\u0432\u0438\u0447",
    "rating": 0.034744159288190815
  },
  "28772": {
    "name": "\u0411\u0443\u0433\u0430 \u041d\u0430\u0434\u0435\u0436\u0434\u0430 \u0413\u0435\u043d\u043d\u0430\u0434\u044c\u0435\u0432\u043d\u0430",
    "rating": 0.8837400718717121
  },
  "28807": {
    "name": "\u0412\u0430\u0441\u0438\u043b\u044c\u0435\u0432\u0430 \u041b\u044e\u0431\u043e\u0432\u044c \u0410\u043b\u0435\u043a\u0441\u0430\u043d\u0434\u0440\u043e\u0432\u043d\u0430",
    "rating": 1.0495381742399836
  },
  "28808": {
    "name": "\u0413\u0430\u0440\u0438\u0441\u0442 \u0421\u0432\u0435\u0442\u043b\u0430\u043d\u0430 \u041d\u0438\u043a\u043e\u043b\u0430\u0435\u0432\u043d\u0430",
    "rating": 0.1590752279781965
  },
  "28809": {
    "name": "\u0414\u0435\u0434\u043a\u043e\u0432\u0430 \u041b\u044e\u0434\u043c\u0438\u043b\u0430 \u0410\u0434\u0435\u043b\u044c\u0435\u0432\u043d\u0430",
    "rating": 0.014689232437302437
  },
  "28810": {
    "name": "\u0414\u0440\u0443\u0436\u0438\u043d\u0438\u043d\u0430 \u0421\u0432\u0435\u0442\u043b\u0430\u043d\u0430 \u0418\u0432\u0430\u043d\u043e\u0432\u043d\u0430",
    "rating": 0.022020025452039297
  },
  "28811": {
    "name": "\u0414\u0435\u043c\u0435\u043d\u0442\u044c\u0435\u0432\u0430 \u0410\u043b\u0435\u043a\u0441\u0430\u043d\u0434\u0440\u0430 \u0412\u043b\u0430\u0434\u0438\u043c\u0438\u0440\u043e\u0432\u043d\u0430",
    "rating": 0.07656955427835427
  },
  "28812": {
    "name": "\u0418\u043b\u044c\u044e\u0449\u0435\u043d\u043a\u043e \u041e\u043b\u044c\u0433\u0430 \u0412\u043b\u0430\u0434\u0438\u043c\u0438\u0440\u043e\u0432\u043d\u0430",
    "rating": 3.0
  },
  "28813": {
    "name": "\u041a\u043e\u043b\u0435\u0441\u043e\u0432\u0430 \u041d\u0430\u0442\u0430\u043b\u044c\u044f \u0421\u0435\u0440\u0433\u0435\u0435\u0432\u043d\u0430",
    "rating": 1.062032226053586
  },
  "28814": {
    "name": "\u041a\u0440\u0438\u0448\u0442\u0430\u043b\u044c \u041d\u0430\u0442\u0430\u043b\u044c\u044f \u0410\u043b\u0435\u043a\u0441\u0430\u043d\u0434\u0440\u043e\u0432\u043d\u0430",
    "rating": 0.02658192423902887
  },
  "28815": {
    "name": "\u041b\u0430\u0437\u0430\u0440\u0435\u0432 \u0410\u043b\u0435\u043a\u0441\u0435\u0439 \u042e\u0440\u044c\u0435\u0432\u0438\u0447",
    "rating": 0.1607165470693976
  },
  "28816": {
    "name": "\u041b\u0430\u0439\u0442\u0438\u043d\u0435\u043d \u0412\u0438\u043a\u0442\u043e\u0440\u0438\u044f \u042d\u0434\u0443\u0430\u0440\u0434\u043e\u0432\u043d\u0430",
    "rating": 0.933659860098333
  },
  "28817": {
    "name": "\u041b\u0435\u0432\u0438\u0447\u0435\u0432\u0430 \u0415\u043b\u0435\u043d\u0430 \u0418\u0432\u0430\u043d\u043e\u0432\u043d\u0430",
    "rating": 0.0332619030739502
  },
  "28818": {
    "name": "\u041c\u0438\u0445\u0430\u0439\u043b\u043e\u0432\u0430 \u0410\u043b\u0435\u043a\u0441\u0430\u043d\u0434\u0440\u0430 \u0412\u0438\u043a\u0442\u043e\u0440\u043e\u0432\u043d\u0430",
    "rating": 0.19788649479110146
  },
  "28819": {
    "name": "\u041c\u043e\u0441\u043a\u0430\u043b\u0435\u0432\u0430 \u0415\u043b\u0435\u043d\u0430 \u0418\u0432\u0430\u043d\u043e\u0432\u043d\u0430",
    "rating": 0.21016089881664266
  },
  "28820": {
    "name": "\u041c\u0438\u0448\u043a\u0438\u043d\u0430 \u0410\u0439\u043b\u0438 \u0412\u0438\u043a\u0442\u043e\u0440\u043e\u0432\u043d\u0430",
    "rating": 0.015226754903943263
  },
  "28821": {
    "name": "\u041f\u0430\u0441\u0430\u043c\u0430\u043d\u0438\u043a \u041d\u0430\u0434\u0435\u0436\u0434\u0430 \u041c\u0438\u0445\u0430\u0439\u043b\u043e\u0432\u043d\u0430",
    "rating": 0.046999426095110666
  },
  "28822": {
    "name": "\u041f\u043e\u0433\u043e\u0440\u0435\u043b\u043e\u0432 \u0412\u0438\u043a\u0442\u043e\u0440 \u0410\u043b\u0435\u043a\u0441\u0435\u0435\u0432\u0438\u0447",
    "rating": 0.08056568691352242
  },
  "28823": {
    "name": "\u041f\u043e\u0433\u043e\u0441\u044f\u043d \u0410\u043d\u043d\u0430 \u0410\u0448\u043e\u0442\u043e\u0432\u043d\u0430",
    "rating": 0.07394427985039884
  },
  "28824": {
    "name": "\u041f\u043e\u0434\u043a\u043e\u043f\u0430\u0435\u0432 \u0410\u043b\u0435\u043a\u0441\u0430\u043d\u0434\u0440 \u0412\u0430\u0434\u0438\u043c\u043e\u0432\u0438\u0447",
    "rating": 0.510659945170046
  },
  "28825": {
    "name": "\u0421\u0442\u0430\u0440\u043e\u0432\u043e\u0439\u0442\u043e\u0432\u0430 \u0418\u0440\u0438\u043d\u0430 \u0412\u0438\u043a\u0442\u043e\u0440\u043e\u0432\u043d\u0430",
    "rating": 1.266331402770532
  },
  "28826": {
    "name": "\u0421\u0432\u0438\u0434\u0441\u043a\u0430\u044f \u0410\u043d\u0438\u0442\u0430 \u0421\u0435\u0440\u0433\u0435\u0435\u0432\u043d\u0430",
    "rating": 0.0566539798319804
  },
  "28827": {
    "name": "\u0422\u0430\u0440\u0430\u0442\u0443\u043d\u0438\u043d \u0420\u043e\u043c\u0430\u043d \u0411\u043e\u0440\u0438\u0441\u043e\u0432\u0438\u0447",
    "rating": 0.18315877311767675
  },
  "28828": {
    "name": "\u0422\u0443\u043b\u0443\u0431\u0435\u043d\u0441\u043a\u0430\u044f \u0410\u043b\u0435\u043a\u0441\u0430\u043d\u0434\u0440\u0430 \u0412\u043b\u0430\u0434\u0438\u043c\u0438\u0440\u043e\u0432\u043d\u0430",
    "rating": 0.028510448809212996
  },
  "28829": {
    "name": "\u0426\u0432\u0435\u0442\u043a\u043e\u0432\u0430 \u0415\u043a\u0430\u0442\u0435\u0440\u0438\u043d\u0430 \u041b\u0435\u043e\u043d\u0438\u0434\u043e\u0432\u043d\u0430",
    "rating": 0.6499123094548691
  },
  "28830": {
    "name": "\u0426\u044b\u0431\u0430 \u0418\u0440\u0438\u043d\u0430 \u0421\u0435\u0440\u0433\u0435\u0435\u0432\u043d\u0430",
    "rating": 0.04483824028632719
  },
  "28831": {
    "name": "\u0428\u0430\u043b\u0430\u043f\u0430\u0435\u0432\u0430 \u0418\u0440\u0438\u043d\u0430 \u0412\u0438\u043a\u0442\u043e\u0440\u043e\u0432\u043d\u0430",
    "rating": 0.047269249693668434
  }
}