{
  "43036": {
    "name": "\u041a\u0443\u0445\u0430\u0440\u0435\u0432 \u041e\u043b\u0435\u0433 \u041d\u0438\u043a\u043e\u043b\u0430\u0435\u0432\u0438\u0447",
    "rating": 1.9477549909667915
  },
  "43037": {
    "name": "\u0428\u0430\u0442\u043e\u0432\u0430 \u0410\u043d\u0442\u043e\u043d\u0438\u043d\u0430 \u0412\u0438\u043a\u0442\u043e\u0440\u043e\u0432\u043d\u0430",
    "rating": 0.8314669487254279
  },
  "43038": {
    "name": "\u041a\u0440\u0430\u0441\u043d\u043e\u0432\u0430 \u0415\u043b\u0435\u043d\u0430 \u0412\u0430\u0441\u0438\u043b\u044c\u0435\u0432\u043d\u0430",
    "rating": 1.0729491732918703
  },
  "46265": {
    "name": "\u0413\u0440\u0438\u0448\u0438\u043d \u0413\u0435\u043d\u043d\u0430\u0434\u0438\u0439 \u0415\u0432\u0433\u0435\u043d\u044c\u0435\u0432\u0438\u0447",
    "rating": 0.056747653016573626
  }
}