{
  "48159": {
    "name": "\u041a\u0438\u0441\u0435\u043b\u0435\u0432 \u041c\u0438\u0445\u0430\u0438\u043b \u0412\u0430\u043b\u0435\u043d\u0442\u0438\u043d\u043e\u0432\u0438\u0447",
    "rating": 0.3012867925722489
  },
  "48160": {
    "name": "\u0410\u043d\u0442\u043e\u043d\u043e\u0432 \u0410\u043d\u0442\u043e\u043d \u0413\u0435\u043d\u043d\u0430\u0434\u044c\u0435\u0432\u0438\u0447",
    "rating": 0.14577051948390654
  },
  "48161": {
    "name": "\u0411\u0443\u0445\u043e\u0432 \u041d\u0438\u043a\u043e\u043b\u0430\u0439 \u0412\u0430\u0441\u0438\u043b\u044c\u0435\u0432\u0438\u0447",
    "rating": 1.5945608235864437
  },
  "48162": {
    "name": "\u0422\u0443\u043c\u0430\u043d\u043e\u0432 \u0410\u043b\u0435\u043a\u0441\u0435\u0439 \u0411\u043e\u0440\u0438\u0441\u043e\u0432\u0438\u0447",
    "rating": 1.1662403441463651
  },
  "48163": {
    "name": "\u0427\u0438\u0440\u0438\u043a\u043e\u0432 \u0410\u043d\u0430\u0442\u043e\u043b\u0438\u0439 \u0413\u0435\u043d\u043d\u0430\u0434\u044c\u0435\u0432\u0438\u0447",
    "rating": 0.16042489022522094
  }
}