{
  "48164": {
    "name": "\u0420\u043e\u043c\u0430\u0448\u043e\u0432 \u0420\u043e\u043c\u0430\u043d \u0410\u043d\u0430\u0442\u043e\u043b\u044c\u0435\u0432\u0438\u0447",
    "rating": 0.2837829389120109
  },
  "48165": {
    "name": "\u0422\u0430\u043b\u0430\u043a\u0438\u043d \u041a\u043e\u043d\u0441\u0442\u0430\u043d\u0442\u0438\u043d \u0412\u0438\u043a\u0442\u043e\u0440\u043e\u0432\u0438\u0447",
    "rating": 2.0811086759978257
  },
  "48166": {
    "name": "\u0410\u0433\u0435\u0435\u0432 \u0421\u0435\u0440\u0433\u0435\u0439 \u0412\u043b\u0430\u0434\u0438\u043c\u0438\u0440\u043e\u0432\u0438\u0447",
    "rating": 0.01028534655024442
  },
  "48167": {
    "name": "\u041b\u043e\u0433\u0438\u043d\u043e\u0432 \u0421\u0435\u0440\u0433\u0435\u0439 \u041d\u0438\u043a\u043e\u043b\u0430\u0435\u0432\u0438\u0447",
    "rating": 2.0269462341302464
  },
  "48168": {
    "name": "\u0422\u0438\u043c\u043e\u0444\u0435\u0435\u0432\u0430 \u0415\u043b\u0435\u043d\u0430 \u0410\u043b\u0435\u043a\u0441\u0430\u043d\u0434\u0440\u043e\u0432\u043d\u0430",
    "rating": 3.9855685297987633
  }
}