{
  "13576": {
    "name": "\u041a\u0430\u0434\u0430\u043a\u0438\u043d \u0412\u0430\u0441\u0438\u043b\u0438\u0439 \u0412\u0430\u0441\u0438\u043b\u044c\u0435\u0432\u0438\u0447",
    "rating": 2.1582189703557377
  }
}