{
  "4601": {
    "name": "\u041f\u043e\u043d\u043e\u043c\u0430\u0440\u0435\u0432 \u042e\u0440\u0438\u0439 \u0410\u043b\u0435\u043a\u0441\u0430\u043d\u0434\u0440\u043e\u0432\u0438\u0447",
    "rating": 1.4716949811396387
  },
  "19779": {
    "name": "\u041e\u0445\u043b\u043e\u043f\u043a\u043e\u0432 \u0421\u0435\u0440\u0433\u0435\u0439 \u0410\u043b\u0435\u043a\u0441\u0435\u0435\u0432\u0438\u0447",
    "rating": 0.4109772195075077
  },
  "19962": {
    "name": "\u041c\u0430\u043b\u0435\u043d\u044c\u043a\u0438\u0445 \u0412\u043b\u0430\u0434\u0438\u043c\u0438\u0440 \u041c\u0438\u0445\u0430\u0439\u043b\u043e\u0432\u0438\u0447",
    "rating": 0.7172072511298508
  },
  "19963": {
    "name": "\u0427\u0443\u043b\u0438\u0447\u043a\u043e\u0432 \u0414\u043c\u0438\u0442\u0440\u0438\u0439 \u0412\u043b\u0430\u0434\u0438\u043c\u0438\u0440\u043e\u0432\u0438\u0447",
    "rating": 0.3717459539723306
  },
  "19970": {
    "name": "\u0427\u0435\u0440\u043d\u044b\u0448\u0435\u0432 \u0410\u043b\u0435\u043a\u0441\u0430\u043d\u0434\u0440 \u042e\u0440\u044c\u0435\u0432\u0438\u0447",
    "rating": 1.283390611555116
  },
  "19976": {
    "name": "\u0427\u0443\u043a\u0440\u0435\u0435\u0432 \u0412\u0430\u0434\u0438\u043c \u0410\u043d\u0434\u0440\u0435\u0435\u0432\u0438\u0447",
    "rating": 0.5780240159888025
  },
  "20022": {
    "name": "\u0424\u0438\u043b\u0438\u043f\u0435\u043d\u043a\u043e \u0421\u0435\u0440\u0433\u0435\u0439 \u0412\u043b\u0430\u0434\u0438\u043c\u0438\u0440\u043e\u0432\u0438\u0447",
    "rating": 0.6201103937283484
  },
  "20066": {
    "name": "\u041f\u0435\u0442\u0440\u043e\u0432 \u0412\u044f\u0447\u0435\u0441\u043b\u0430\u0432 \u0412\u0438\u0442\u0430\u043b\u044c\u0435\u0432\u0438\u0447",
    "rating": 1.0859433067853317
  }
}