{
  "21686": {
    "name": "\u041b\u0438\u0445\u0430\u0447\u0435\u0432 \u041c\u0430\u043a\u0441\u0438\u043c \u0412\u0438\u043a\u0442\u043e\u0440\u043e\u0432\u0438\u0447",
    "rating": 0.9157058244597652
  },
  "21687": {
    "name": "\u041c\u0438\u0440\u043e\u043d\u043e\u0432\u0430 \u0418\u0440\u0438\u043d\u0430 \u041f\u0430\u043d\u0442\u0435\u043b\u0435\u0439\u043c\u043e\u043d\u043e\u0432\u043d\u0430",
    "rating": 0.3908414125972692
  },
  "21688": {
    "name": "\u041d\u0430\u0434\u0435\u0436\u043a\u0438\u043d\u0430 \u041e\u043b\u044c\u0433\u0430 \u0411\u043e\u0440\u0438\u0441\u043e\u0432\u043d\u0430",
    "rating": 0.35116946902663626
  },
  "21689": {
    "name": "\u041d\u0430\u0443\u043c\u043e\u0432\u0430 \u0422\u0430\u0442\u044c\u044f\u043d\u0430 \u0410\u043b\u0435\u043a\u0441\u0435\u0435\u0432\u043d\u0430",
    "rating": 1.6065688592773382
  },
  "21690": {
    "name": "\u041d\u0438\u0447\u0435\u0433\u043e\u0440\u044f\u0435\u0432\u0430 \u041e\u043b\u044c\u0433\u0430 \u041d\u0438\u043a\u043e\u043b\u0430\u0435\u0432\u043d\u0430",
    "rating": 0.4596625376504711
  },
  "21691": {
    "name": "\u041e\u0441\u0442\u0440\u043e\u0443\u043c\u043e\u0432 \u0411\u043e\u0440\u0438\u0441 \u0411\u043e\u0440\u0438\u0441\u043e\u0432\u0438\u0447",
    "rating": 2.082358465058329
  },
  "21692": {
    "name": "\u041f\u0430\u0432\u043b\u044e\u0447\u0438\u043a \u041d\u0430\u0442\u0430\u043b\u044c\u044f \u0410\u043b\u0435\u043a\u0441\u0435\u0435\u0432\u043d\u0430",
    "rating": 0.5380483227369875
  },
  "21693": {
    "name": "\u041f\u0438\u0447\u0443\u0433\u0438\u043d \u0410\u043b\u0435\u043a\u0441\u0430\u043d\u0434\u0440 \u0415\u0432\u0433\u0435\u043d\u044c\u0435\u0432\u0438\u0447",
    "rating": 1.496547343592168
  },
  "21694": {
    "name": "\u041f\u043e\u043b\u044f\u043a\u043e\u0432\u0430 \u0412\u0430\u0441\u0438\u043b\u0438\u043d\u0430 \u0410\u043b\u044c\u0431\u0435\u0440\u0442\u043e\u0432\u043d\u0430",
    "rating": 0.3167277099718607
  },
  "21695": {
    "name": "\u0421\u043e\u0440\u043e\u043a\u0438\u043d\u0430 \u0415\u043a\u0430\u0442\u0435\u0440\u0438\u043d\u0430 \u0410\u043d\u0430\u0442\u043e\u043b\u044c\u0435\u0432\u043d\u0430",
    "rating": 1.3441690906752042
  },
  "21696": {
    "name": "\u0422\u0430\u0440\u0430\u0441\u043e\u0432\u0430 \u0421\u0432\u0435\u0442\u043b\u0430\u043d\u0430 \u0412\u043b\u0430\u0434\u0438\u043c\u0438\u0440\u043e\u0432\u043d\u0430",
    "rating": 2.2923732588279373
  },
  "21697": {
    "name": "\u0425\u043b\u043e\u043f\u043e\u0432\u0430 \u0410\u043d\u043d\u0430 \u0413\u0440\u0438\u0433\u043e\u0440\u044c\u0435\u0432\u043d\u0430",
    "rating": 0.2601381888573938
  },
  "21698": {
    "name": "\u0425\u043e\u0440\u043e\u0448\u0438\u043b\u043e\u0432 \u0410\u043b\u0435\u043a\u0441\u0435\u0439 \u0412\u0430\u0441\u0438\u043b\u044c\u0435\u0432\u0438\u0447",
    "rating": 0.4595896328817718
  },
  "21699": {
    "name": "\u0425\u0443\u0434\u044f\u043a\u043e\u0432 \u0412\u0438\u043a\u0442\u043e\u0440 \u042f\u043a\u043e\u0432\u043b\u0435\u0432\u0438\u0447",
    "rating": 0.5967029794279081
  },
  "21700": {
    "name": "\u0410\u043f\u0430\u0440\u0438\u043d \u042e\u0440\u0438\u0439 \u041c\u0438\u0445\u0430\u0439\u043b\u043e\u0432\u0438\u0447",
    "rating": 1.5835881495008486
  },
  "21701": {
    "name": "\u0411\u0443\u043b\u0430\u0445\u043e\u0432\u0430 \u0415\u043b\u0435\u043d\u0430 \u0418\u0432\u0430\u043d\u043e\u0432\u043d\u0430",
    "rating": 0.6819107166425218
  },
  "21702": {
    "name": "\u0413\u0435\u0440\u0430\u0441\u0438\u043c\u043e\u0432\u0430 \u041e\u043b\u044c\u0433\u0430 \u041b\u0435\u043e\u043d\u0442\u044c\u0435\u0432\u043d\u0430",
    "rating": 0.29088348999196023
  },
  "21703": {
    "name": "\u0413\u043e\u043b\u0443\u0431\u0435\u0432\u0430 \u042e\u043b\u0438\u044f \u041d\u0438\u043a\u043e\u043b\u0430\u0435\u0432\u043d\u0430",
    "rating": 0.578113192505862
  },
  "21704": {
    "name": "\u0413\u0440\u0435\u0431\u0435\u043d\u044e\u043a \u0414\u0438\u0430\u043d\u0430 \u0412\u0430\u043b\u0435\u0440\u044c\u0435\u0432\u043d\u0430",
    "rating": 0.01853575643659646
  },
  "21705": {
    "name": "\u0417\u044e\u0437\u0438\u043d \u0421\u0435\u0440\u0433\u0435\u0439 \u0413\u0435\u043d\u043d\u0430\u0434\u044c\u0435\u0432\u0438\u0447",
    "rating": 0.4846682860876038
  },
  "21706": {
    "name": "\u041a\u043e\u0437\u043b\u043e\u0432\u0430 \u0415\u043b\u0435\u043d\u0430 \u041f\u0435\u0442\u0440\u043e\u0432\u043d\u0430",
    "rating": 0.5129754870232324
  },
  "21707": {
    "name": "\u041a\u043e\u0449\u0435\u0435\u0432 \u041a\u043e\u043d\u0441\u0442\u0430\u043d\u0442\u0438\u043d \u041b\u0435\u043e\u043d\u0438\u0434\u043e\u0432\u0438\u0447",
    "rating": 0.41052811985061577
  },
  "21708": {
    "name": "\u0414\u043c\u0438\u0442\u0440\u0438\u0435\u0432\u0430 \u041e\u043b\u044c\u0433\u0430 \u041d\u0438\u043a\u043e\u043b\u0430\u0435\u0432\u043d\u0430",
    "rating": 1.866589339982708
  },
  "21725": {
    "name": "\u0411\u0440\u043e\u0434\u0441\u043a\u0430\u044f \u041c\u0430\u0440\u0438\u043d\u0430 \u0412\u0430\u043b\u0435\u0440\u044c\u0435\u0432\u043d\u0430",
    "rating": 0.036439131537736716
  },
  "21726": {
    "name": "\u0417\u044e\u043a\u043e\u0432 \u0412\u0430\u0441\u0438\u043b\u0438\u0439 \u0410\u043b\u0435\u043a\u0441\u0435\u0435\u0432\u0438\u0447",
    "rating": 0.4213079439060603
  },
  "21727": {
    "name": "\u041c\u0430\u043b\u044c\u0446\u0435\u0432 \u0421\u0435\u0440\u0433\u0435\u0439 \u0414\u043c\u0438\u0442\u0440\u0438\u0435\u0432\u0438\u0447",
    "rating": 0.3914798944748672
  },
  "21728": {
    "name": "\u041f\u043e\u043f\u043e\u0432\u0430 \u0418\u0440\u0438\u043d\u0430 \u0412\u0430\u043b\u0435\u0440\u044c\u0435\u0432\u043d\u0430",
    "rating": 1.3227321653128374
  },
  "21729": {
    "name": "\u041d\u0435\u0444\u0435\u0434\u0447\u0435\u043d\u043a\u043e \u0418\u0440\u0438\u043d\u0430 \u0412\u0430\u0441\u0438\u043b\u044c\u0435\u0432\u043d\u0430",
    "rating": 0.2763234375070578
  },
  "21730": {
    "name": "\u041a\u0440\u0430\u0441\u043d\u0438\u043a\u043e\u0432\u0430 \u0422\u0430\u0442\u044c\u044f\u043d\u0430 \u0415\u0432\u0433\u0435\u043d\u044c\u0435\u0432\u043d\u0430",
    "rating": 0.06677922992404939
  },
  "21731": {
    "name": "\u042e\u0448\u0438\u043d\u0430 \u0412\u0435\u0440\u0430 \u041d\u0438\u043a\u043e\u043b\u0430\u0435\u0432\u043d\u0430",
    "rating": 0.5910853239342225
  }
}