{
  "27662": {
    "name": "\u041a\u0438\u0447\u043a\u043e \u0410\u043b\u0435\u043a\u0441\u0430\u043d\u0434\u0440 \u0418\u0432\u0430\u043d\u043e\u0432\u0438\u0447",
    "rating": 0.7295166305249685
  },
  "27671": {
    "name": "\u041a\u0430\u043f\u0443\u043d\u043a\u0438\u043d \u042e\u0440\u0438\u0439 \u0411\u043e\u0440\u0438\u0441\u043e\u0432\u0438\u0447",
    "rating": 0.17401651215136954
  },
  "27676": {
    "name": "\u041b\u044b\u0441\u0435\u043d\u043a\u043e \u041b\u0430\u0440\u0438\u0441\u0430 \u0410\u043d\u0430\u0442\u043e\u043b\u044c\u0435\u0432\u043d\u0430",
    "rating": 0.043842719348619406
  }
}