{
  "1882": {
    "name": "\u0420\u043e\u043c\u043e\u0434\u0430\u043d\u043e\u0432\u0441\u043a\u0438\u0439 \u041a\u043e\u043d\u0441\u0442\u0430\u043d\u0442\u0438\u043d \u041e\u043b\u0435\u0433\u043e\u0432\u0438\u0447",
    "rating": 0.6711455482093922
  },
  "11854": {
    "name": "\u0415\u0433\u043e\u0440\u043e\u0432\u0430 \u0415\u043a\u0430\u0442\u0435\u0440\u0438\u043d\u0430 \u042e\u0440\u044c\u0435\u0432\u043d\u0430",
    "rating": 0.023400422410698327
  },
  "11855": {
    "name": "\u041a\u0430\u043b\u044e\u0436\u043d\u044b\u0439 \u0421\u0435\u0440\u0433\u0435\u0439 \u041f\u0435\u0442\u0440\u043e\u0432\u0438\u0447",
    "rating": 0.013062037601170813
  },
  "11856": {
    "name": "\u041a\u0443\u0437\u043d\u0435\u0446\u043e\u0432 \u0410\u043d\u0430\u0442\u043e\u043b\u0438\u0439 \u0415\u0432\u0433\u0435\u043d\u044c\u0435\u0432\u0438\u0447",
    "rating": 0.3428195253181843
  },
  "11857": {
    "name": "\u041b\u044f\u043d\u043d\u043e\u0439 \u0412\u043b\u0430\u0434\u0438\u043c\u0438\u0440 \u0410\u043d\u0430\u0442\u043e\u043b\u044c\u0435\u0432\u0438\u0447",
    "rating": 0.6159703430363129
  },
  "11858": {
    "name": "\u0420\u0430\u0434\u043e\u0447\u0438\u043d\u0430 \u0415\u043b\u0435\u043d\u0430 \u0410\u043d\u0430\u0442\u043e\u043b\u044c\u0435\u0432\u043d\u0430",
    "rating": 0.02682184306561835
  },
  "11859": {
    "name": "\u0421\u043c\u043e\u0440\u043e\u0434\u0438\u043d \u041d\u0438\u043a\u043e\u043b\u0430\u0439 \u041c\u0430\u0442\u0432\u0435\u0435\u0432\u0438\u0447",
    "rating": 0.2741948039869843
  },
  "11860": {
    "name": "\u0424\u043e\u043c\u0435\u043d\u043a\u043e \u0410\u043d\u0430\u0442\u043e\u043b\u0438\u0439 \u0410\u043d\u0430\u0442\u043e\u043b\u044c\u0435\u0432\u0438\u0447",
    "rating": 0.9638190394784354
  },
  "11861": {
    "name": "\u042f\u043a\u043e\u0432\u0435\u043d\u043a\u043e \u0412\u0430\u0434\u0438\u043c \u0412\u043b\u0430\u0434\u0438\u043c\u0438\u0440\u043e\u0432\u0438\u0447",
    "rating": 0.057268059913814374
  },
  "19701": {
    "name": "\u041a\u0438\u0440\u0438\u043b\u043b\u043e\u0432\u0430 \u041e\u043b\u044c\u0433\u0430 \u0415\u0432\u0433\u0435\u043d\u044c\u0435\u0432\u043d\u0430",
    "rating": 0.5241542148941867
  }
}