{
  "21910": {
    "name": "\u0411\u043e\u0432\u0430 \u041b\u044e\u0431\u043e\u0432\u044c \u0412\u043b\u0430\u0434\u0438\u043c\u0438\u0440\u043e\u0432\u043d\u0430",
    "rating": 0.3761856867970517
  },
  "21911": {
    "name": "\u0426\u0438\u043f\u043b\u044f\u043a\u043e\u0432 \u0412\u0430\u043b\u0435\u0440\u0438\u0439 \u0412\u043b\u0430\u0434\u0438\u043c\u0438\u0440\u043e\u0432\u0438\u0447",
    "rating": 0.4523224905580772
  },
  "21912": {
    "name": "\u0424\u0435\u0434\u0443\u043b\u043a\u0438\u043d\u0430 \u0410\u043b\u044c\u0431\u0438\u043d\u0430 \u0410\u043b\u0435\u043a\u0441\u0435\u0435\u0432\u043d\u0430",
    "rating": 0.34909753219208745
  },
  "21913": {
    "name": "\u0413\u0438\u0433\u0435\u043b\u044c \u041d\u0430\u0442\u0430\u043b\u044c\u044f \u0412\u0438\u043a\u0442\u043e\u0440\u043e\u0432\u043d\u0430",
    "rating": 0.66119868765046
  },
  "21914": {
    "name": "\u0425\u0430\u0431\u0438\u0431\u0443\u043b\u0438\u043d\u0430 \u042e\u043b\u0438\u044f \u0412\u043b\u0430\u0434\u0438\u043c\u0438\u0440\u043e\u0432\u043d\u0430",
    "rating": 0.20624937356247675
  },
  "21915": {
    "name": "\u0418\u0448\u044c \u041d\u0430\u0442\u0430\u043b\u044c\u044f \u042e\u0440\u044c\u0435\u0432\u043d\u0430",
    "rating": 1.8600046686104683
  },
  "21916": {
    "name": "\u0418\u0449\u0435\u043d\u043a\u043e \u0415\u043b\u0435\u043d\u0430 \u0412\u0430\u0441\u0438\u043b\u044c\u0435\u0432\u043d\u0430",
    "rating": 0.24171520714933376
  },
  "21917": {
    "name": "\u041a\u0430\u0441\u043f\u0438\u0440\u043e\u0432\u0438\u0447 \u0415\u043b\u0435\u043d\u0430 \u0412\u043b\u0430\u0434\u0438\u043c\u0438\u0440\u043e\u0432\u043d\u0430",
    "rating": 0.2263997592332668
  },
  "21918": {
    "name": "\u041a\u0438\u0440\u0438\u043b\u043b\u043e\u0432\u0430 \u041d\u0430\u0442\u0430\u043b\u044c\u044f \u041f\u0435\u0442\u0440\u043e\u0432\u043d\u0430",
    "rating": 0.1832666149710372
  },
  "21919": {
    "name": "\u041a\u043e\u0436\u0443\u0440\u0430-\u041a\u043e\u0431\u044b\u043b\u044f\u0446\u043a\u0430\u044f \u041d\u0430\u0442\u0430\u043b\u044c\u044f \u041d\u0438\u043a\u043e\u043b\u0430\u0435\u0432\u043d\u0430",
    "rating": 0.18607504633666
  },
  "21920": {
    "name": "\u041a\u043e\u043d\u043a\u0438\u043d\u0430 \u0418\u0440\u0438\u043d\u0430 \u0418\u0432\u0430\u043d\u043e\u0432\u043d\u0430",
    "rating": 0.5772525079859054
  },
  "21921": {
    "name": "\u041a\u043e\u0440\u0448\u0443\u043d\u043e\u0432\u0430 \u0422\u0430\u0442\u044c\u044f\u043d\u0430 \u0413\u0430\u0432\u0440\u0438\u0438\u043b\u043e\u0432\u043d\u0430",
    "rating": 0.825741783502375
  },
  "21922": {
    "name": "\u041a\u0443\u0440\u043e\u0447\u043a\u0438\u043d\u0430 \u0418\u0440\u0438\u043d\u0430 \u0410\u043b\u0435\u043a\u0441\u0430\u043d\u0434\u0440\u043e\u0432\u043d\u0430",
    "rating": 0.18035552488509335
  },
  "21923": {
    "name": "\u041b\u0430\u043c\u0430\u043d\u0441\u043a\u0438\u0439 \u0412\u0438\u043a\u0442\u043e\u0440 \u0410\u043b\u0435\u043a\u0441\u0430\u043d\u0434\u0440\u043e\u0432\u0438\u0447",
    "rating": 0.5733765831415758
  },
  "21924": {
    "name": "\u041b\u0438\u0445\u043e\u0434\u0438\u0435\u043d\u043a\u043e \u0410\u043b\u0435\u043a\u0441\u0435\u0439 \u0412\u0435\u043d\u0438\u0430\u043c\u0438\u043d\u043e\u0432\u0438\u0447",
    "rating": 0.4821187591638575
  },
  "21925": {
    "name": "\u041c\u0435\u043b\u044c\u043d\u0438\u043a \u041b\u0438\u043b\u0438\u044f \u0418\u0432\u0430\u043d\u043e\u0432\u043d\u0430",
    "rating": 0.2270913184460499
  },
  "21926": {
    "name": "\u041f\u0430\u0440\u0444\u0435\u043d\u0442\u044c\u0435\u0432\u0430 \u041e\u043b\u044c\u0433\u0430 \u042e\u0440\u044c\u0435\u0432\u043d\u0430",
    "rating": 0.4127851757367246
  },
  "21927": {
    "name": "\u0428\u0443\u043c\u0441\u043a\u0438\u0439 \u0410\u043b\u0435\u043a\u0441\u0435\u0439 \u0412\u0430\u0441\u0438\u043b\u044c\u0435\u0432\u0438\u0447",
    "rating": 0.37460129331838976
  },
  "21928": {
    "name": "\u0421\u0442\u0440\u0443\u043a\u043e\u0432\u0430 \u0413\u0430\u043b\u0438\u043d\u0430 \u0418\u0432\u0430\u043d\u043e\u0432\u043d\u0430",
    "rating": 0.6259693495711879
  },
  "21929": {
    "name": "\u0422\u0440\u043e\u043f\u0438\u043d\u0430 \u0421\u0432\u0435\u0442\u043b\u0430\u043d\u0430 \u041c\u0438\u0445\u0430\u0439\u043b\u043e\u0432\u043d\u0430",
    "rating": 0.5461965341285587
  },
  "21930": {
    "name": "\u0422\u0443\u0442\u0430\u0440\u043a\u043e\u0432\u0430 \u0418\u044f \u0412\u043b\u0430\u0434\u0438\u043c\u0438\u0440\u043e\u0432\u043d\u0430",
    "rating": 0.2133148657340754
  },
  "21931": {
    "name": "\u0417\u0443\u0435\u0432\u0430 \u041c\u0430\u0440\u0438\u043d\u0430 \u0412\u0438\u0442\u0430\u043b\u044c\u0435\u0432\u043d\u0430",
    "rating": 0.4112372609647777
  },
  "33704": {
    "name": "\u0417\u0430\u0439\u0446\u0435\u0432\u0430 \u041d\u0430\u0442\u0430\u043b\u044c\u044f \u041c\u0438\u0445\u0430\u0439\u043b\u043e\u0432\u043d\u0430",
    "rating": 0.017259181350699336
  },
  "33713": {
    "name": "\u0427\u0443\u043c\u0430\u0447\u0435\u043d\u043a\u043e \u0422\u0430\u0442\u044c\u044f\u043d\u0430 \u0412\u043b\u0430\u0434\u0438\u043c\u0438\u0440\u043e\u0432\u043d\u0430",
    "rating": 0.01612669066728613
  }
}