{
  "25380": {
    "name": "\u0427\u0435\u0440\u043d\u043e\u0432 \u0410\u043b\u0435\u043a\u0441\u0430\u043d\u0434\u0440 \u0414\u043c\u0438\u0442\u0440\u0438\u0435\u0432\u0438\u0447",
    "rating": 2.0341729314071157
  },
  "25381": {
    "name": "\u041a\u0440\u043e\u0442\u043e\u0432 \u0421\u0435\u0440\u0433\u0435\u0439 \u0415\u0432\u0433\u0435\u043d\u044c\u0435\u0432\u0438\u0447",
    "rating": 0.2262097958893948
  },
  "25382": {
    "name": "\u041d\u0438\u043a\u043e\u043b\u0430\u0439\u0447\u0443\u043a \u0418\u0433\u043e\u0440\u044c \u0410\u043d\u0430\u0442\u043e\u043b\u044c\u0435\u0432\u0438\u0447",
    "rating": 0.011961180148368772
  },
  "25383": {
    "name": "\u041f\u044f\u0442\u0438\u0433\u043e\u0440\u0430 \u0410\u043b\u0435\u043a\u0441\u0430\u043d\u0434\u0440 \u0418\u0432\u0430\u043d\u043e\u0432\u0438\u0447",
    "rating": 1.791496240675061
  },
  "25384": {
    "name": "\u0421\u0432\u0430\u0448\u0435\u043d\u043a\u043e \u0421\u0435\u0440\u0433\u0435\u0439 \u041d\u0438\u043a\u043e\u043b\u0430\u0435\u0432\u0438\u0447",
    "rating": 0.8353212009862074
  },
  "25385": {
    "name": "\u0413\u043e\u043b\u0443\u0431\u0438\u0446\u043a\u0430\u044f \u0415.\u0410. ",
    "rating": 1.0810606075900342
  },
  "25414": {
    "name": "\u0413\u0443\u0441\u0430\u043a\u043e\u0432 \u042f.\u0415. ",
    "rating": 0.007066015639916486
  },
  "25415": {
    "name": "\u0413\u0440\u0435\u043a\u043e\u0432\u0430 \u0421.\u0410. ",
    "rating": 1.2079386473895346
  },
  "25416": {
    "name": "\u041d\u0430\u0433\u0430\u0439\u0446\u0435\u0432\u0430 \u0412.\u041d. ",
    "rating": 1.1199854064924146
  },
  "25417": {
    "name": "\u041f\u0435\u0434\u0430\u043d \u0413.\u0413. ",
    "rating": 0.011503548521125487
  },
  "25418": {
    "name": "\u041f\u0448\u0435\u043d\u0438\u0447\u043d\u044b\u0439 \u0410.\u0410. ",
    "rating": 0.2169131784043784
  },
  "25419": {
    "name": "\u0420\u044f\u0431\u0447\u0438\u043a\u043e\u0432\u0430 \u0418.\u0412. ",
    "rating": 0.0032015686802865607
  },
  "25420": {
    "name": "\u0413\u0430\u0440\u044c\u043a\u0430\u0432\u0435\u043d\u043a\u043e \u0410.\u0410. ",
    "rating": 0.014858402741235791
  },
  "25421": {
    "name": "\u0422\u0435\u043b\u0435\u0435\u0432\u0430 \u041e.\u0413. ",
    "rating": 0.001384113447410968
  },
  "25537": {
    "name": "\u0425\u0430\u0445\u0430\u043b\u0435\u0432\u0430 \u0415\u043b\u0435\u043d\u0430 \u0412\u043b\u0430\u0434\u0438\u043c\u0438\u0440\u043e\u0432\u043d\u0430",
    "rating": 0.2445758051227112
  },
  "25538": {
    "name": "\u0410\u0433\u0438\u0431\u0430\u043b\u043e\u0432\u0430 \u0412\u0438\u043a\u0442\u043e\u0440\u0438\u044f \u041e\u043b\u0435\u0433\u043e\u0432\u043d\u0430",
    "rating": 0.0
  },
  "25539": {
    "name": "\u0410\u043b\u0431\u043e\u0440\u0433 \u0410\u043d\u0430\u0441\u0442\u0430\u0441\u0438\u044f \u0410\u043d\u0430\u0442\u043e\u043b\u044c\u0435\u0432\u043d\u0430",
    "rating": 1.0033363417460357
  },
  "25540": {
    "name": "\u0410\u043c\u0431\u0430\u0440\u043e\u0432 \u041c\u0438\u0445\u0430\u0438\u043b \u0412\u043b\u0430\u0434\u0438\u043c\u0438\u0440\u043e\u0432\u0438\u0447",
    "rating": 0.27222284643354755
  },
  "25541": {
    "name": "\u0411\u0430\u0433\u0440\u0438\u0439 \u041b\u044e\u0434\u043c\u0438\u043b\u0430 \u0411\u043e\u0440\u0438\u0441\u043e\u0432\u043d\u0430",
    "rating": 0.9787380963890931
  },
  "25640": {
    "name": "\u0413\u043e\u0440\u0434\u0435\u0435\u0432 \u0415.\u0412. ",
    "rating": 1.1077588687540243
  },
  "25641": {
    "name": "\u0412\u044c\u044e\u0433\u0438\u043d\u0430 \u0418.\u0410. ",
    "rating": 1.0
  },
  "25730": {
    "name": "\u0411\u0430\u0434\u0430\u043b\u043e\u0432\u0430 \u0410\u043d\u0430\u0441\u0442\u0430\u0441\u0438\u044f \u0410\u043b\u0435\u043a\u0441\u0430\u043d\u0434\u0440\u043e\u0432\u043d\u0430",
    "rating": 0.08291485459788618
  },
  "25731": {
    "name": "\u0411\u0430\u043a\u043b\u0430\u043d\u043e\u0432 \u0412\u043b\u0430\u0434\u0438\u043c\u0438\u0440 \u041f\u0435\u0442\u0440\u043e\u0432\u0438\u0447",
    "rating": 1.058842844079567
  },
  "25732": {
    "name": "\u0411\u0430\u0441\u043e\u0432 \u0418\u0433\u043e\u0440\u044c \u0415\u0432\u0433\u0435\u043d\u044c\u0435\u0432\u0438\u0447",
    "rating": 2.0
  },
  "25733": {
    "name": "\u0411\u0430\u0448\u0438\u043d\u0441\u043a\u0438\u0439 \u0414\u043c\u0438\u0442\u0440\u0438\u0439 \u0410\u0430\u043d\u0430\u0442\u043e\u043b\u044c\u0435\u0432\u0438\u0447",
    "rating": 0.0
  },
  "25734": {
    "name": "\u0411\u0435\u043d\u0434\u044e\u043a \u0410\u043b\u0435\u043a\u0441\u0435\u0439 \u041a\u043e\u043d\u0441\u0442\u0430\u043d\u0442\u0438\u043d\u043e\u0432\u0438\u0447",
    "rating": 0.0
  },
  "25735": {
    "name": "\u0411\u043b\u0438\u0437\u043d\u0435\u0446\u043e\u0432 \u0412\u0438\u043a\u0442\u043e\u0440 \u0415\u0432\u0433\u0435\u043d\u044c\u0435\u0432\u0438\u0447",
    "rating": 0.0
  },
  "25736": {
    "name": "\u0411\u0435\u043a\u0435\u0442\u043e\u0432\u0430 \u0412\u0438\u043a\u0442\u043e\u0440\u0438\u044f \u0412\u043b\u0430\u0434\u0438\u043c\u0438\u0440\u043e\u0432\u043d\u0430",
    "rating": 0.3096244602370483
  },
  "25737": {
    "name": "\u0412\u043d\u0443\u043a\u043e\u0432 \u0414\u0435\u043d\u0438\u0441 \u0412\u0430\u0441\u0438\u043b\u044c\u0435\u0432\u0438\u0447",
    "rating": 0.0
  },
  "25738": {
    "name": "\u0412\u043e\u0440\u043e\u0431\u044c\u0435\u0432\u0430 \u0418\u0440\u0438\u043d\u0430 \u0413\u0435\u043e\u0440\u0433\u0438\u0435\u0432\u043d\u0430",
    "rating": 0.0
  },
  "25739": {
    "name": "\u0413\u043e\u043b\u044b\u0448\u0435\u0432\u0430 \u041d\u0430\u0442\u0430\u043b\u044c\u044f \u0412\u0438\u043a\u0442\u043e\u0440\u043e\u0432\u043d\u0430",
    "rating": 0.0
  },
  "25740": {
    "name": "\u0414\u0435\u043d\u0438\u0441\u0435\u043d\u043a\u043e \u0412\u043b\u0430\u0434\u0438\u043c\u0438\u0440 \u0413\u0435\u043e\u0440\u0433\u0438\u0435\u0432\u0438\u0447",
    "rating": 1.0
  },
  "25741": {
    "name": "\u0414\u043e\u0440\u043e\u0448\u0435\u043d\u043a\u043e \u0410\u043b\u0435\u043a\u0441\u0430\u043d\u0434\u0440 \u041c\u0438\u0445\u0430\u0439\u043b\u043e\u0432\u0438\u0447",
    "rating": 0.0
  },
  "25742": {
    "name": "\u041a\u0430\u0437\u0430\u043a\u043e\u0432 \u0414\u043c\u0438\u0442\u0440\u0438\u0439 \u0410\u043b\u0435\u043a\u0441\u0435\u0435\u0432\u0438\u0447",
    "rating": 0.0
  },
  "25743": {
    "name": "\u0418\u0432\u0430\u043d\u043e\u0432 \u0410\u043b\u0435\u043a\u0441\u0435\u0439 \u0410\u043b\u0435\u043a\u0441\u0430\u043d\u0434\u0440\u043e\u0432\u0438\u0447",
    "rating": 2.0
  },
  "25744": {
    "name": "\u041a\u0430\u0440\u044f\u043d\u043e\u0432\u0430 \u0415\u043b\u0435\u043d\u0430 \u0412\u043b\u0430\u0434\u0438\u043c\u0438\u0440\u043e\u0432\u043d\u0430",
    "rating": 0.0
  },
  "25745": {
    "name": "\u041a\u043e\u0441\u0442\u0435\u0446\u043a\u0430\u044f \u042e\u043b\u0438\u044f \u0412\u0438\u043a\u0442\u043e\u0440\u043e\u0432\u043d\u0430",
    "rating": 0.0
  },
  "25746": {
    "name": "\u041a\u0443\u043b\u044c\u043a\u043e\u0432 \u0412\u043b\u0430\u0434\u0438\u043c\u0438\u0440 \u0418\u0432\u0430\u043d\u043e\u0432\u0438\u0447",
    "rating": 0.0
  },
  "25747": {
    "name": "\u041b\u0430\u0437\u043e\u0432\u0441\u043a\u0438\u0439 \u0412\u043b\u0430\u0434\u0438\u043c\u0438\u0440 \u041f\u0430\u0432\u043b\u043e\u0432\u0438\u0447",
    "rating": 0.0
  },
  "25748": {
    "name": "\u041b\u043e\u043f\u0443\u0448\u0430\u043d\u0441\u043a\u0430\u044f \u0412\u043b\u0430\u0434\u0438\u0441\u043b\u0430\u0432\u0430 \u041c\u0438\u0445\u0430\u0439\u043b\u043e\u0432\u043d\u0430",
    "rating": 0.0
  },
  "25749": {
    "name": "\u041c\u0435\u0442\u043e\u0432 \u041e\u043b\u0435\u0433 \u0410\u043d\u0430\u0442\u043e\u043b\u044c\u0435\u0432\u0438\u0447",
    "rating": 0.0
  },
  "25750": {
    "name": "\u0421\u0430\u043b\u0438\u043a\u043e\u0432 \u0421\u0435\u0440\u0433\u0435\u0439 \u041b\u0435\u043e\u043d\u0438\u0434\u043e\u0432\u0438\u0447",
    "rating": 0.0
  },
  "25751": {
    "name": "\u0421\u043c\u0438\u0440\u043d\u043e\u0432 \u0415\u0432\u0433\u0435\u043d\u0438\u0439 \u0410\u043b\u0435\u043a\u0441\u0430\u043d\u0434\u0440\u043e\u0432\u0438\u0447",
    "rating": 2.0
  },
  "25752": {
    "name": "\u0421\u0442\u0440\u044b\u0433\u0438\u043d\u0430 \u0421\u0432\u0435\u0442\u043b\u0430\u043d\u0430 \u0421\u0442\u0435\u043f\u0430\u043d\u043e\u0432\u043d\u0430",
    "rating": 0.0
  },
  "25753": {
    "name": "\u0426\u0435\u0445\u043e\u043c\u0441\u043a\u0430\u044f \u0415\u043b\u0435\u043d\u0430 \u0412\u0438\u043a\u0442\u043e\u0440\u043e\u0432\u043d\u0430",
    "rating": 0.0
  },
  "25845": {
    "name": "\u0411\u043b\u0438\u043d\u043d\u0438\u043a\u043e\u0432 \u041b\u0435\u043e\u043d\u0438\u0434 \u0410\u043b\u0435\u043a\u0441\u0435\u0435\u0432\u0438\u0447",
    "rating": 0.4718594704514734
  },
  "25846": {
    "name": "\u0411\u043e\u0440\u0438\u0441\u0438\u0445\u0438\u043d\u0430 \u0421\u0432\u0435\u0442\u043b\u0430\u043d\u0430 \u0410\u043b\u0435\u043a\u0441\u0430\u043d\u0434\u0440\u043e\u0432\u043d\u0430",
    "rating": 2.02274921266764
  },
  "25847": {
    "name": "\u0411\u043e\u0440\u0441 \u0425\u0430\u0440\u0435\u0442 \u0417\u0430\u0443\u0440\u043e\u0432\u043d\u0430",
    "rating": 0.029386568507393573
  },
  "25848": {
    "name": "\u0411\u0443\u0433\u043b\u0430\u043a \u042e\u043b\u0438\u044f \u0410\u043d\u0430\u0442\u043e\u043b\u044c\u0435\u0432\u043d\u0430",
    "rating": 0.014082959771325803
  },
  "25849": {
    "name": "\u0411\u0443\u0437\u044c\u043a\u043e \u041d\u0438\u043a\u043e\u043b\u0430\u0439 \u041c\u0438\u0445\u0430\u0439\u043b\u043e\u0432\u0438\u0447",
    "rating": 0.6542628500459796
  },
  "25850": {
    "name": "\u0411\u0443\u043b\u0430\u0442 \u0410\u043b\u0435\u043a\u0441\u0430\u043d\u0434\u0440 \u0412\u043b\u0430\u0434\u0438\u043c\u0438\u0440\u043e\u0432\u0438\u0447",
    "rating": 0.9008666780431616
  },
  "25934": {
    "name": "\u0411\u0443\u043c\u0430\u0433\u0438\u043d\u0430 \u041e\u043b\u044c\u0433\u0430 \u0412\u043b\u0430\u0434\u0438\u043c\u0438\u0440\u043e\u0432\u043d\u0430",
    "rating": 0.6521699049206493
  },
  "25935": {
    "name": "\u0411\u044b\u0441\u0442\u0440\u043e\u0432 \u0410\u043d\u0434\u0440\u0435\u0439 \u041d\u0438\u043a\u043e\u043b\u0430\u0435\u0432\u0438\u0447",
    "rating": 0.5868232823022079
  },
  "25936": {
    "name": "\u0412\u043e\u043b\u043e\u0448\u0438\u043d\u0430 \u0421\u0432\u0435\u0442\u043b\u0430\u043d\u0430 \u0413\u0440\u0438\u0433\u043e\u0440\u044c\u0435\u0432\u043d\u0430",
    "rating": 0.21622290559756246
  },
  "25937": {
    "name": "\u0413\u0430\u043b\u043a\u0438\u043d \u0418\u0433\u043e\u0440\u044c \u041d\u0438\u043a\u043e\u043b\u0430\u0435\u0432\u0438\u0447",
    "rating": 2.611314371089075
  },
  "25938": {
    "name": "\u0413\u043e\u043d\u0447\u0430\u0440\u043e\u0432\u0430 \u0421\u0432\u0435\u0442\u043b\u0430\u043d\u0430 \u042e\u0440\u044c\u0435\u0432\u043d\u0430",
    "rating": 2.522325270182375
  },
  "25939": {
    "name": "\u0413\u043e\u043d\u0447\u0430\u0440\u043e\u0432 \u0414\u043c\u0438\u0442\u0440\u0438\u0439 \u0421\u0435\u0440\u0433\u0435\u0435\u0432\u0438\u0447",
    "rating": 0.21325054736947088
  },
  "25940": {
    "name": "\u0413\u043e\u0440\u0431\u0430\u043d\u044c \u0412\u043b\u0430\u0434\u0438\u043c\u0438\u0440 \u0412\u0430\u0441\u0438\u043b\u044c\u0435\u0432\u0438\u0447",
    "rating": 0.25146391732042955
  },
  "25941": {
    "name": "\u0413\u043e\u0440\u0434\u0435\u0439\u0447\u0443\u043a \u0415\u043b\u0435\u043d\u0430 \u0411\u043e\u0440\u0438\u0441\u043e\u0432\u043d\u0430",
    "rating": 0.17739246447618262
  },
  "25942": {
    "name": "\u0413\u0440\u0438\u0446\u0435\u043d\u043a\u043e \u0418\u0433\u043e\u0440\u044c \u0412\u043b\u0430\u0434\u0438\u043c\u0438\u0440\u043e\u0432\u0438\u0447",
    "rating": 0.4940884894540014
  },
  "25943": {
    "name": "\u0413\u0443\u0431\u0441\u043a\u0430\u044f \u041b\u0430\u0440\u0438\u0441\u0430 \u041f\u0435\u0442\u0440\u043e\u0432\u043d\u0430",
    "rating": 0.4096645680333031
  },
  "25944": {
    "name": "\u0413\u0443\u0431\u0430\u0440\u0435\u0432\u0430 \u0410\u043d\u0436\u0435\u043b\u0430 \u0410\u043d\u0430\u0442\u043e\u043b\u044c\u0435\u0432\u043d\u0430",
    "rating": 0.02398505326375534
  },
  "25945": {
    "name": "\u0414\u0437\u044e\u0431\u0435\u043d\u043a\u043e \u0412\u043b\u0430\u0434\u0438\u043c\u0438\u0440 \u0418\u0432\u0430\u043d\u043e\u0432\u0438\u0447",
    "rating": 0.6482131382416981
  },
  "25946": {
    "name": "\u0414\u0438\u0434\u0435\u043d\u043a\u043e \u0418\u0440\u0438\u043d\u0430 \u0410\u043d\u0430\u0442\u043e\u043b\u044c\u0435\u0432\u043d\u0430",
    "rating": 3.4047034118805586
  },
  "25955": {
    "name": "\u0414\u0438\u044f\u043d\u043e\u0432 \u0421\u0435\u0440\u0433\u0435\u0439 \u041f\u0430\u0432\u043b\u043e\u0432\u0438\u0447",
    "rating": 0.06538780799912125
  },
  "25956": {
    "name": "\u0414\u043e\u0440\u043e\u0432\u0441\u043a\u0438\u0445 \u041b\u044e\u0434\u043c\u0438\u043b\u0430 \u0418\u0432\u0430\u043d\u043e\u0432\u043d\u0430",
    "rating": 0.144219249415775
  },
  "25957": {
    "name": "\u0414\u0443\u043d\u044e\u0448\u043a\u0438\u043d\u0430 \u041d\u0430\u0442\u0430\u043b\u044c\u044f \u0412\u0430\u0441\u0438\u043b\u044c\u0435\u0432\u043d\u0430",
    "rating": 0.5469652478610879
  },
  "25958": {
    "name": "\u0414\u0443\u0448\u0435\u0439\u043a\u043e \u0421\u0432\u0435\u0442\u043b\u0430\u043d\u0430 \u0410\u043d\u0430\u0442\u043e\u043b\u044c\u0435\u0432\u043d\u0430",
    "rating": 1.0272899280888514
  },
  "25959": {
    "name": "\u0415\u0432\u0441\u0435\u0435\u0432 \u0421\u0435\u0440\u0433\u0435\u0439 \u0412\u0430\u043b\u0435\u043d\u0442\u0438\u043d\u043e\u0432\u0438\u0447",
    "rating": 0.4232648514986934
  },
  "25960": {
    "name": "\u0415\u043f\u0438\u0444\u0430\u043d\u043e\u0432 \u0412\u043b\u0430\u0434\u0438\u043c\u0438\u0440 \u041c\u0438\u0445\u0430\u0439\u043b\u043e\u0432\u0438\u0447",
    "rating": 0.9341254893144728
  },
  "25961": {
    "name": "\u0415\u0440\u0435\u043c\u0435\u0435\u0432\u0430 \u0410\u043b\u043b\u0430 \u0413\u0443\u0447\u0438\u043f\u0441\u043e\u0432\u043d\u0430",
    "rating": 0.3739236004084721
  },
  "26192": {
    "name": "\u0415\u0444\u0438\u043c\u0435\u043d\u043a\u043e \u0415\u043b\u0435\u043d\u0430 \u0412\u0438\u043a\u0442\u043e\u0440\u043e\u0432\u043d\u0430",
    "rating": 0.12257221856938764
  },
  "26193": {
    "name": "\u0416\u0434\u0430\u043d\u043e\u0432\u0430 \u041e\u043b\u044c\u0433\u0430 \u0418\u0433\u043e\u0440\u0435\u0432\u043d\u0430",
    "rating": 2.736356225095367
  },
  "26194": {
    "name": "\u0416\u0434\u0430\u043d\u043e\u0432\u0430 \u0422\u0430\u0442\u044c\u044f\u043d\u0430 \u0412\u0438\u043a\u0442\u043e\u0440\u043e\u0432\u043d\u0430",
    "rating": 1.0218871913986194
  },
  "26195": {
    "name": "\u0416\u0435\u043b\u0442\u0443\u0448\u043a\u043e \u0422\u0430\u0442\u044c\u044f\u043d\u0430 \u042f\u043a\u043e\u0432\u043b\u0435\u0432\u043d\u0430",
    "rating": 0.04446726498582671
  },
  "26196": {
    "name": "\u0416\u0443\u043a\u043e\u0432 \u0410\u043b\u0435\u043a\u0441\u0430\u043d\u0434\u0440 \u0410\u043b\u0435\u043a\u0441\u0430\u043d\u0434\u0440\u043e\u0432\u0438\u0447",
    "rating": 1.4780276091352584
  },
  "26197": {
    "name": "\u0417\u0430\u043b\u0438\u0432\u0430\u0434\u043d\u044f\u044f \u0415\u043b\u0435\u043d\u0430 \u041a\u043e\u043d\u0441\u0442\u0430\u043d\u0442\u0438\u043d\u043e\u0432\u043d\u0430",
    "rating": 0.22463826324973288
  },
  "26198": {
    "name": "\u0417\u0430\u0445\u0430\u0440\u043e\u0432\u0430 \u0415\u043b\u0435\u043d\u0430 \u042e\u0440\u044c\u0435\u0432\u043d\u0430",
    "rating": 2.0445270747115813
  },
  "26199": {
    "name": "\u0417\u0430\u0445\u0430\u0440\u0447\u0435\u0432\u0441\u043a\u0438\u0439 \u042e\u0440\u0438\u0439 \u0412\u0438\u0442\u0430\u043b\u044c\u0435\u0432\u0438\u0447",
    "rating": 0.9221922025311023
  },
  "26200": {
    "name": "\u0417\u0435\u043b\u0435\u043d\u0441\u043a\u0438\u0439 \u0414\u043c\u0438\u0442\u0440\u0438\u0439 \u0412\u043b\u0430\u0434\u0438\u043c\u0438\u0440\u043e\u0432\u0438\u0447",
    "rating": 4.0
  },
  "26202": {
    "name": "\u0417\u0435\u043d\u0438\u043d \u0412\u0430\u0434\u0438\u043c \u0410\u043d\u0430\u0442\u043e\u043b\u044c\u0435\u0432\u0438\u0447",
    "rating": 0.6414916335953527
  },
  "26204": {
    "name": "\u0417\u0438\u0431\u043e\u0440\u043e\u0432\u0430 \u0422\u0430\u0442\u044c\u044f\u043d\u0430 \u0412\u044f\u0447\u0435\u0441\u043b\u0430\u0432\u043e\u0432\u043d\u0430",
    "rating": 0.03830712896314065
  },
  "26206": {
    "name": "\u0418\u0432\u0430\u043d\u0435\u043d\u043a\u043e \u0415\u0433\u043e\u0440 \u0421\u0435\u0440\u0433\u0435\u0435\u0432\u0438\u0447",
    "rating": 2.559534227619915
  },
  "26209": {
    "name": "\u041a\u0430\u043b\u0430\u0448\u043d\u0438\u043a\u043e\u0432 \u042e\u0440\u0438\u0439 \u0412\u0430\u043b\u0435\u043d\u0442\u0438\u043d\u043e\u0432\u0438\u0447",
    "rating": 1.8096697680234557
  },
  "26210": {
    "name": "\u041a\u0430\u043b\u0438\u043d\u0438\u043d\u0430 \u0418\u043d\u043d\u0430 \u0410\u043d\u0430\u0442\u043e\u043b\u044c\u0435\u0432\u043d\u0430",
    "rating": 0.3210621515012289
  },
  "26211": {
    "name": "\u041a\u0430\u043c\u0438\u043d\u0441\u043a\u0430\u044f \u0415\u043a\u0430\u0442\u0435\u0440\u0438\u043d\u0430 \u0415\u0432\u0433\u0435\u043d\u044c\u0435\u0432\u043d\u0430",
    "rating": 0.008055979628995876
  },
  "26212": {
    "name": "\u041a\u0430\u0440\u043f\u0435\u043d\u043a\u043e \u041d\u0438\u043a\u043e\u043b\u0430\u0439 \u0410\u043b\u0435\u043a\u0441\u0430\u043d\u0434\u0440\u043e\u0432\u0438\u0447",
    "rating": 0.9229033323834775
  },
  "26362": {
    "name": "\u041a\u043d\u044f\u0448\u043a\u043e \u041b\u044e\u0434\u043c\u0438\u043b\u0430 \u0412\u0438\u043a\u0442\u043e\u0440\u043e\u0432\u043d\u0430",
    "rating": 0.0
  },
  "26496": {
    "name": "\u041a\u0438\u0441\u043b\u044f\u043a \u0412\u043b\u0430\u0434\u0438\u043c\u0438\u0440 \u0424\u0435\u0434\u043e\u0440\u043e\u0432\u0438\u0447",
    "rating": 0.16276037311242
  },
  "26498": {
    "name": "\u041a\u043b\u0438\u0435\u043d\u043a\u043e \u041b\u044e\u0431\u043e\u0432\u044c \u0410\u043b\u0435\u043a\u0441\u0435\u0435\u0432\u043d\u0430",
    "rating": 0.01817257753257053
  },
  "26500": {
    "name": "\u041a\u043b\u0438\u043c\u043e\u0432 \u0412\u044f\u0447\u0435\u0441\u043b\u0430\u0432 \u041d\u0438\u043a\u043e\u043b\u0430\u0435\u0432\u0438\u0447",
    "rating": 0.3363615230638574
  },
  "26501": {
    "name": "\u041a\u043e\u0431\u0437\u0435\u0432 \u0412\u043b\u0430\u0434\u0438\u043c\u0438\u0440 \u0418\u0432\u0430\u043d\u043e\u0432\u0438\u0447",
    "rating": 0.2434450216869292
  },
  "26502": {
    "name": "\u041a\u043e\u0432\u0435\u0448\u043d\u0438\u043a\u043e\u0432 \u0418\u0432\u0430\u043d \u0412\u0438\u043a\u0442\u043e\u0440\u043e\u0432\u0438\u0447",
    "rating": 0.5761644466775334
  },
  "26504": {
    "name": "\u041a\u043e\u043c\u0431\u0430\u0440\u043e\u0432\u0430 \u0418\u0440\u0438\u043d\u0430 \u0412\u043b\u0430\u0434\u0438\u043c\u0438\u0440\u043e\u0432\u043d\u0430",
    "rating": 0.7341700715320705
  },
  "26506": {
    "name": "\u041a\u043e\u043d\u043d\u043e\u0432 \u0410\u043d\u0434\u0440\u0435\u0439 \u0410\u043d\u0430\u0442\u043e\u043b\u044c\u0435\u0432\u0438\u0447",
    "rating": 0.7945439816101613
  },
  "26662": {
    "name": "\u041a\u043e\u043d\u043e\u0444\u044c\u0435\u0432\u0430 \u0412\u0438\u043a\u0442\u043e\u0440\u0438\u044f \u041c\u0438\u0445\u0430\u0439\u043b\u043e\u0432\u043d\u0430",
    "rating": 0.05106772409791386
  },
  "26663": {
    "name": "\u041a\u043e\u0440\u043d\u044b\u043b\u044c\u0435\u0432\u0430 \u0418\u0440\u0438\u043d\u0430 \u0413\u0435\u043d\u043d\u0430\u0434\u044c\u0435\u0432\u043d\u0430",
    "rating": 0.031920599329481436
  },
  "26664": {
    "name": "\u041a\u0440\u0430\u0439\u043d\u0438\u043a \u0418\u0433\u043e\u0440\u044c \u042e\u0440\u044c\u0435\u0432\u0438\u0447",
    "rating": 0.04849609833101985
  },
  "27557": {
    "name": "\u041a\u0440\u0438\u0432\u0446\u043e\u0432 \u0410\u043d\u0430\u0442\u043e\u043b\u0438\u0439 \u0421\u0435\u0440\u0433\u0435\u0435\u0432\u0438\u0447",
    "rating": 0.036876348400111315
  },
  "27558": {
    "name": "\u041a\u0440\u0438\u0448\u0442\u0430\u043b\u044e\u043a \u0414\u043c\u0438\u0442\u0440\u0438\u0439 \u0412\u0438\u043a\u0442\u043e\u0440\u043e\u0432\u0438\u0447",
    "rating": 2.2140107949912773
  },
  "27559": {
    "name": "\u041a\u0443\u0434\u0438\u043d\u043e\u0432 \u0410\u043d\u0434\u0440\u0435\u0439 \u0412\u0438\u043a\u0442\u043e\u0440\u043e\u0432\u0438\u0447",
    "rating": 4.64887478129695
  },
  "27560": {
    "name": "\u041a\u0443\u0434\u0440\u044f\u0432\u0446\u0435\u0432\u0430 \u0415\u043b\u0435\u043d\u0430 \u041d\u0438\u043a\u043e\u043b\u0430\u0435\u0432\u043d\u0430",
    "rating": 4.722982218649324
  },
  "27561": {
    "name": "\u041a\u0443\u0437\u043d\u0435\u0446\u043e\u0432\u0430 \u042e\u043b\u0438\u044f \u041c\u0438\u0445\u0430\u0439\u043b\u043e\u0432\u043d\u0430",
    "rating": 2.201186439514464
  },
  "27562": {
    "name": "\u041a\u0443\u0437\u044c\u043c\u0438\u043d\u0430 \u0410\u043b\u0435\u0432\u0442\u0438\u043d\u0430 \u0412\u0438\u043a\u0442\u043e\u0440\u043e\u0432\u043d\u0430",
    "rating": 0.5962215771498998
  },
  "27563": {
    "name": "\u041a\u0443\u043f\u0440\u0438\u044f\u043d\u043e\u0432 \u0410\u043b\u0435\u043a\u0441\u0435\u0439 \u041f\u0435\u0442\u0440\u043e\u0432\u0438\u0447",
    "rating": 0.3644338961649812
  },
  "27956": {
    "name": "\u041a\u0443\u0440\u0434\u0430\u043a\u043e\u0432 \u0413\u0435\u043d\u043d\u0430\u0434\u0438\u0439 \u041b\u0435\u043e\u043d\u0438\u0434\u043e\u0432\u0438\u0447",
    "rating": 0.6822675449711021
  },
  "27957": {
    "name": "\u041a\u0443\u0440\u0438\u043b\u0435\u043d\u043a\u043e \u0418\u0440\u0438\u043d\u0430 \u0410\u043b\u0435\u043a\u0441\u0430\u043d\u0434\u0440\u043e\u0432\u043d\u0430",
    "rating": 0.7648511598629562
  },
  "27958": {
    "name": "\u041a\u0443\u043a\u0441\u0430 \u0412\u0430\u0434\u0438\u043c \u041c\u0438\u0445\u0430\u0439\u043b\u043e\u0432\u0438\u0447",
    "rating": 2.0431223091546125
  },
  "27959": {
    "name": "\u041b\u0435\u0433\u0430\u043d\u043e\u0432 \u0410\u043d\u0434\u0440\u0435\u0439 \u0412\u0438\u043a\u0442\u043e\u0440\u043e\u0432\u0438\u0447",
    "rating": 0.5317600295031286
  },
  "27960": {
    "name": "\u041b\u0438\u043c\u0430\u0435\u0432\u0430 \u041b\u0438\u0434\u0438\u044f \u041c\u0438\u0445\u0430\u0439\u043b\u043e\u0432\u043d\u0430",
    "rating": 0.9198972351269932
  },
  "27961": {
    "name": "\u041b\u043e\u0431\u043e\u0434\u0430 \u0412\u0430\u0441\u0438\u043b\u0438\u0439 \u041f\u0430\u0432\u043b\u043e\u0432\u0438\u0447",
    "rating": 0.6864158964594129
  },
  "27962": {
    "name": "\u041b\u043e\u0431\u043e\u0434\u0435\u043d\u043a\u043e \u0413\u0430\u043b\u0438\u043d\u0430 \u0418\u0432\u0430\u043d\u043e\u0432\u043d\u0430",
    "rating": 0.4645124965146009
  },
  "27963": {
    "name": "\u041b\u043e\u0431\u043e\u0434\u0435\u043d\u043a\u043e \u041a\u043e\u043d\u0441\u0442\u0430\u043d\u0442\u0438\u043d \u0412\u043b\u0430\u0434\u0438\u043c\u0438\u0440\u043e\u0432\u0438\u0447",
    "rating": 2.9228554357439203
  },
  "27964": {
    "name": "\u041b\u043e\u043f\u0430\u0442\u043a\u0438\u043d\u0430 \u041d\u0438\u043d\u0430 \u0410\u043d\u0430\u0442\u043e\u043b\u044c\u0435\u0432\u043d\u0430",
    "rating": 0.21873143746553725
  },
  "27965": {
    "name": "\u041b\u0443\u043d\u0435\u0432\u0430 \u041a\u0438\u0440\u0430 \u0410\u043d\u0430\u0442\u043e\u043b\u044c\u0435\u0432\u043d\u0430",
    "rating": 0.3162673657574168
  },
  "27966": {
    "name": "\u041c\u0430\u0439\u043e\u0440\u043e\u0432 \u0410\u043d\u0434\u0440\u0435\u0439 \u041f\u0430\u0432\u043b\u043e\u0432\u0438\u0447",
    "rating": 0.2935561805452051
  },
  "27967": {
    "name": "\u041c\u0430\u043a\u0430\u0440\u043e\u0432\u0430 \u0415\u043b\u0435\u043d\u0430 \u0418\u0433\u043e\u0440\u0435\u0432\u043d\u0430",
    "rating": 0.04435565748702423
  },
  "27968": {
    "name": "\u041c\u0430\u043a\u043e\u0432\u0435\u0439 \u041d\u0430\u0442\u0430\u043b\u0438\u044f \u0414\u043c\u0438\u0442\u0440\u0438\u0435\u0432\u043d\u0430",
    "rating": 0.0
  },
  "27969": {
    "name": "\u041c\u0430\u043a\u043e\u0432\u0435\u0439 \u041d\u0430\u0442\u0430\u043b\u0438\u044f \u0414\u043c\u0438\u0442\u0440\u0438\u0435\u0432\u043d\u0430",
    "rating": 0.7280224579616335
  },
  "27970": {
    "name": "\u041c\u0430\u043b\u0430\u0435\u0432\u0430 \u0412\u0438\u043a\u0442\u043e\u0440\u0438\u044f \u0413\u0440\u0438\u0433\u043e\u0440\u044c\u0435\u0432\u043d\u0430",
    "rating": 0.06086914722123326
  },
  "27971": {
    "name": "\u041c\u0430\u043b\u0430\u0445\u0430\u0439 \u0413\u0430\u043b\u0438\u043d\u0430 \u0410\u043b\u0435\u043a\u0441\u0435\u0435\u0432\u043d\u0430",
    "rating": 0.014532541005841037
  },
  "27972": {
    "name": "\u041c\u0430\u043d\u0442\u0443\u043b \u041d\u0430\u0442\u0430\u043b\u044c\u044f \u041c\u0438\u0445\u0430\u0439\u043b\u043e\u0432\u043d\u0430",
    "rating": 0.29072452346540545
  },
  "27973": {
    "name": "\u041c\u0430\u043d\u044f\u043a \u041d\u0438\u043a\u043e\u043b\u0430\u0439 \u0418\u0432\u0430\u043d\u043e\u0432\u0438\u0447",
    "rating": 0.3774144441599446
  },
  "27974": {
    "name": "\u041c\u0430\u0441\u043b\u043e\u0432 \u041a\u043e\u043d\u0441\u0442\u0430\u043d\u0442\u0438\u043d \u0413\u043b\u0435\u0431\u043e\u0432\u0438\u0447",
    "rating": 0.8271453342037202
  },
  "27975": {
    "name": "\u041c\u0430\u0446\u043a\u043e \u0418\u0433\u043e\u0440\u044c \u0412\u0438\u043a\u0442\u043e\u0440\u043e\u0432\u0438\u0447",
    "rating": 0.4094527639687565
  },
  "27976": {
    "name": "\u041c\u043e\u0438\u0441\u0435\u0435\u0432\u0430 \u041e\u043b\u044c\u0433\u0430 \u041c\u0438\u0445\u0430\u0439\u043b\u043e\u0432\u043d\u0430",
    "rating": 1.066687444786135
  },
  "27977": {
    "name": "\u041c\u043e\u0441\u0438\u043d \u0410\u043d\u0434\u0440\u0435\u0439 \u0412\u043b\u0430\u0434\u0438\u043c\u0438\u0440\u043e\u0432\u0438\u0447",
    "rating": 0.7688284714195894
  },
  "27978": {
    "name": "\u041c\u043e\u0440\u043e\u0437\u043e\u0432\u0430 \u041d\u0430\u0442\u0430\u043b\u0438\u044f \u0410\u043d\u0430\u0442\u043e\u043b\u044c\u0435\u0432\u043d\u0430",
    "rating": 0.03003699746144755
  },
  "27979": {
    "name": "\u041d\u0430\u0437\u0430\u0440\u0435\u043d\u043a\u043e \u041e\u043b\u044c\u0433\u0430 \u041d\u0438\u043a\u043e\u043b\u0430\u0435\u0432\u043d\u0430",
    "rating": 0.4167161352046407
  },
  "27980": {
    "name": "\u041d\u0430\u0437\u0430\u0440\u043e\u0432 \u0412\u043b\u0430\u0434\u0438\u043c\u0438\u0440 \u0412\u0438\u043a\u0442\u043e\u0440\u043e\u0432\u0438\u0447",
    "rating": 1.1560332372364217
  },
  "27981": {
    "name": "\u041d\u0435\u043a\u0430\u0437\u0430\u043a\u043e\u0432 \u0412\u043b\u0430\u0434\u0438\u043c\u0438\u0440 \u042f\u043a\u043e\u0432\u043b\u0435\u0432\u0438\u0447",
    "rating": 0.7159308635726048
  },
  "27982": {
    "name": "\u041d\u0435\u0442\u0438\u0448\u0438\u043d\u0441\u043a\u0438\u0439 \u0412\u0430\u043b\u0435\u0440\u0438\u0439 \u0421\u0442\u0435\u043f\u0430\u043d\u043e\u0432\u0438\u0447",
    "rating": 0.14895642338381312
  },
  "27983": {
    "name": "\u041d\u0438\u043a\u043e\u043b\u044c\u0441\u043a\u0430\u044f \u041e\u043b\u044c\u0433\u0430 \u041b\u044c\u0432\u043e\u0432\u043d\u0430",
    "rating": 0.1093159788666266
  },
  "27984": {
    "name": "\u041d\u043e\u0432\u0438\u043a\u043e\u0432\u0430 \u042e\u043b\u0438\u044f \u0412\u043b\u0430\u0434\u0438\u043c\u0438\u0440\u043e\u0432\u043d\u0430",
    "rating": 4.039802562512845
  },
  "27985": {
    "name": "\u041e\u0434\u0438\u043d\u0446\u043e\u0432 \u0412\u0438\u0442\u0430\u043b\u0438\u0439 \u0412\u0430\u0441\u0438\u043b\u044c\u0435\u0432\u0438\u0447",
    "rating": 3.0
  },
  "27986": {
    "name": "\u041e\u043b\u044c\u043a\u043e\u0432 \u0410\u043d\u0434\u0440\u0435\u0439 \u0412\u043b\u0430\u0434\u0438\u043c\u0438\u0440\u043e\u0432\u0438\u0447",
    "rating": 0.023242634754273243
  },
  "27987": {
    "name": "\u041e\u043d\u043e\u0445\u043e\u0432 \u042e\u0440\u0438\u0439 \u0412\u043b\u0430\u0434\u0438\u043c\u0438\u0440\u043e\u0432\u0438\u0447",
    "rating": 0.3919519083389759
  },
  "28422": {
    "name": "\u041f\u0430\u0432\u043b\u044b\u0447\u0435\u0432 \u041c\u0438\u0445\u0430\u0438\u043b \u041c\u0438\u0445\u0430\u0439\u043b\u043e\u0432\u0438\u0447",
    "rating": 0.062301522472448516
  },
  "28423": {
    "name": "\u041f\u0430\u0440\u0445\u043e\u043c\u0435\u043d\u043a\u043e \u0413\u0430\u043b\u0438\u043d\u0430 \u0412\u0438\u0442\u043e\u0441\u043b\u0430\u0432\u043e\u0432\u043d\u0430",
    "rating": 0.02461640703831357
  },
  "28424": {
    "name": "\u041f\u0430\u043b\u044f\u043d\u0447\u0443\u043a \u0422\u0430\u0442\u044c\u044f\u043d\u0430 \u0410\u043d\u0430\u0442\u043e\u043b\u044c\u0435\u0432\u043d\u0430",
    "rating": 0.022103850445032536
  },
  "28425": {
    "name": "\u041f\u0435\u0433\u0443\u0448\u0438\u043d \u0412\u043b\u0430\u0434\u0438\u043c\u0438\u0440 \u0413\u0440\u0438\u0433\u043e\u0440\u044c\u0435\u0432\u0438\u0447",
    "rating": 0.06499497985294815
  },
  "28426": {
    "name": "\u041f\u0435\u0440\u043e\u0432\u0430 \u041c\u0438\u043b\u0430 \u0412\u0438\u043a\u0442\u043e\u0440\u043e\u0432\u043d\u0430",
    "rating": 0.0401111638004099
  },
  "28427": {
    "name": "\u041f\u0435\u0440\u0444\u0438\u043b\u043e\u0432\u0430 \u041b\u044e\u0431\u043e\u0432\u044c \u041c\u0438\u0445\u0430\u0439\u043b\u043e\u0432\u043d\u0430",
    "rating": 4.0
  },
  "28428": {
    "name": "\u041f\u0435\u0440\u0448\u0438\u043d\u0430 \u041d\u0430\u0442\u0430\u043b\u044c\u044f \u0412\u0438\u043a\u0442\u043e\u0440\u043e\u0432\u043d\u0430",
    "rating": 0.040628095301873
  },
  "28429": {
    "name": "\u041f\u0435\u0441\u0435\u0446\u043a\u0430\u044f \u0421\u0432\u0435\u0442\u043b\u0430\u043d\u0430 \u0412\u0438\u043a\u0442\u043e\u0440\u043e\u0432\u043d\u0430",
    "rating": 0.4026970695709489
  },
  "28430": {
    "name": "\u041f\u043e\u0434\u0434\u0443\u0431\u043d\u044b\u0439 \u0413\u0435\u043e\u0440\u0433\u0438\u0439 \u0421\u0435\u0440\u0433\u0435\u0435\u0432\u0438\u0447",
    "rating": 0.03638215906845438
  },
  "28431": {
    "name": "\u041f\u043e\u043d\u043e\u043c\u0430\u0440\u0435\u0432\u0430 \u041b\u044e\u0431\u043e\u0432\u044c \u0415\u0432\u0433\u0435\u043d\u044c\u0435\u0432\u043d\u0430",
    "rating": 0.022784472176395718
  },
  "28432": {
    "name": "\u041f\u043e\u043f\u043e\u0432\u0430 \u0415\u043a\u0430\u0442\u0435\u0440\u0438\u043d\u0430 \u0418\u0432\u0430\u043d\u043e\u0432\u043d\u0430",
    "rating": 0.029837161318459225
  },
  "28433": {
    "name": "\u041f\u043e\u043f\u043e\u0432\u0430 \u0421\u0432\u0435\u0442\u043b\u0430\u043d\u0430 \u041a\u043e\u0440\u043d\u0435\u043b\u044c\u0435\u0432\u043d\u0430",
    "rating": 0.20685716838190932
  },
  "28434": {
    "name": "\u041f\u043e\u043f\u043e\u0432\u0430 \u0421\u043e\u0444\u044c\u044f \u0413\u0435\u043d\u043d\u0430\u0434\u044c\u0435\u0432\u043d\u0430",
    "rating": 0.4927872786955833
  },
  "28435": {
    "name": "\u041f\u0448\u0435\u043d\u0438\u0447\u043d\u0438\u043a\u043e\u0432\u0430 \u0421\u0432\u0435\u0442\u043b\u0430\u043d\u0430 \u0412\u0438\u043a\u0442\u043e\u0440\u043e\u0432\u043d\u0430",
    "rating": 0.10343045688404573
  },
  "28436": {
    "name": "\u0420\u0435\u0434\u0447\u0435\u043d\u043a\u043e \u0412\u043b\u0430\u0434\u0438\u043c\u0438\u0440 \u0413\u0435\u043d\u043d\u0430\u0434\u044c\u0435\u0432\u0438\u0447",
    "rating": 0.5618256258971718
  },
  "28437": {
    "name": "\u0420\u043e\u0433\u043e\u0432\u0430 \u0421\u0432\u0435\u0442\u043b\u0430\u043d\u0430 \u0412\u043b\u0430\u0434\u0438\u043c\u0438\u0440\u043e\u0432\u043d\u0430",
    "rating": 0.07058761059711711
  },
  "28438": {
    "name": "\u0420\u0443\u0431\u0430\u043d \u0412\u043b\u0430\u0434\u0438\u043c\u0438\u0440 \u0412\u0430\u0441\u0438\u043b\u044c\u0435\u0432\u0438\u0447",
    "rating": 0.0760475112300181
  },
  "28439": {
    "name": "\u042f\u043a\u0443\u0431\u043e\u0432\u0441\u043a\u0430\u044f \u0415\u043a\u0430\u0442\u0435\u0440\u0438\u043d\u0430 \u0412\u0438\u043a\u0442\u043e\u0440\u043e\u0432\u043d\u0430",
    "rating": 0.02526087855069166
  },
  "28440": {
    "name": "\u042e\u0440\u0447\u0435\u0432\u0441\u043a\u0430\u044f \u0413\u0430\u043b\u0438\u043d\u0430 \u0413\u0430\u0432\u0440\u0438\u0438\u043b\u043e\u0432\u043d\u0430",
    "rating": 0.02792226334617197
  },
  "28441": {
    "name": "\u0428\u0443\u043b\u0438\u043a\u043e \u041e\u043a\u0441\u0430\u043d\u0430 \u0413\u0435\u043e\u0440\u0433\u0438\u0435\u0432\u043d\u0430",
    "rating": 0.01894021989737816
  },
  "28442": {
    "name": "\u0420\u0443\u0441\u0430\u043a\u043e\u0432 \u0410\u043b\u0435\u043a\u0441\u0430\u043d\u0434\u0440 \u0415\u0432\u0433\u0435\u043d\u044c\u0435\u0432\u0438\u0447",
    "rating": 2.122095624832212
  },
  "28443": {
    "name": "\u0420\u0443\u0434\u044c \u041c\u0430\u0440\u0438\u043d\u0430 \u042e\u0440\u044c\u0435\u0432\u043d\u0430",
    "rating": 3.0
  },
  "28444": {
    "name": "\u0420\u044b\u0431\u0438\u043d\u0430 \u0410\u043d\u0436\u0435\u043b\u0438\u043a\u0430 \u0412\u043b\u0430\u0434\u0438\u043c\u0438\u0440\u043e\u0432\u043d\u0430",
    "rating": 0.02899284703657935
  }
}