{
  "22541": {
    "name": "\u0424\u0443\u0433\u0430 \u041d\u0438\u043a\u043e\u043b\u0430\u0439 \u0412\u0438\u043a\u0442\u043e\u0440\u043e\u0432\u0438\u0447",
    "rating": 1.1146716830432324
  },
  "27632": {
    "name": "\u041a\u0443\u043b\u044f\u0431\u043e\u0432 \u0410\u043d\u0434\u0440\u0435\u0439 \u0410\u043d\u0430\u0442\u043e\u043b\u044c\u0435\u0432\u0438\u0447",
    "rating": 0.17441020821243666
  },
  "27635": {
    "name": "\u0411\u044b\u0441\u0442\u0440\u043e\u0432\u0430 \u041c\u0430\u0440\u0433\u0430\u0440\u0438\u0442\u0430 \u0413\u0435\u043d\u0440\u0438\u0445\u043e\u0432\u043d\u0430",
    "rating": 0.05902054282103127
  },
  "27639": {
    "name": "\u0412\u043e\u0439\u0442\u0430 \u0418\u0433\u043e\u0440\u044c \u0412\u0430\u0441\u0438\u043b\u044c\u0435\u0432\u0438\u0447",
    "rating": 1.1671948091305346
  },
  "27644": {
    "name": "\u0413\u0440\u0438\u0433\u043e\u0440\u044c\u0435\u0432\u0430 \u042e\u043b\u0438\u044f \u0410\u043d\u0430\u0442\u043e\u043b\u044c\u0435\u0432\u043d\u0430",
    "rating": 1.2095020191181567
  },
  "27649": {
    "name": "\u0414\u0443\u0431\u044b\u043d\u0438\u043d\u0430 \u041d\u0430\u0442\u0430\u043b\u044c\u044f \u0410\u043b\u0435\u043a\u0441\u0430\u043d\u0434\u0440\u043e\u0432\u043d\u0430",
    "rating": 0.02393112851923297
  },
  "27652": {
    "name": "\u0417\u043e\u043b\u043e\u0442\u043e\u0439 \u0412\u044f\u0447\u0435\u0441\u043b\u0430\u0432 \u0412\u0438\u043a\u0442\u043e\u0440\u043e\u0432\u0438\u0447",
    "rating": 0.060255258423697826
  },
  "27656": {
    "name": "\u041c\u0430\u043b\u0430\u0448\u0435\u043d\u043a\u043e\u0432 \u0415\u0432\u0433\u0435\u043d\u0438\u0439 \u0412\u0430\u043b\u0435\u0440\u044c\u0435\u0432\u0438\u0447",
    "rating": 0.3397748466350599
  },
  "27660": {
    "name": "\u041f\u043e\u0441\u044b\u0441\u043e\u0435\u0432\u0430 \u0422\u0430\u0442\u044c\u044f\u043d\u0430 \u041d\u0438\u043a\u043e\u043b\u0430\u0435\u0432\u043d\u0430",
    "rating": 2.0
  },
  "27661": {
    "name": "\u041f\u0443\u0440\u0441\u0430\u043a\u043e\u0432 \u041c\u0438\u0445\u0430\u0438\u043b \u042e\u0440\u044c\u0435\u0432\u0438\u0447",
    "rating": 0.2975728756216869
  },
  "27664": {
    "name": "\u041f\u0442\u0430\u0448\u043d\u0438\u043a \u0418\u0433\u043e\u0440\u044c \u041f\u0430\u0432\u043b\u043e\u0432\u0438\u0447",
    "rating": 0.04652026049005879
  },
  "27666": {
    "name": "\u0421\u0438\u043c\u0430\u0448\u043a\u0435\u0432\u0438\u0447 \u0421\u0432\u0435\u0442\u043b\u0430\u043d\u0430 \u0412\u043b\u0430\u0434\u0438\u043c\u0438\u0440\u043e\u0432\u043d\u0430",
    "rating": 0.3151071354669499
  },
  "27670": {
    "name": "\u0421\u043a\u043b\u0430\u0434\u0430\u043d \u041c\u0430\u0440\u0438\u043d\u0430 \u0412\u043b\u0430\u0434\u0438\u043c\u0438\u0440\u043e\u0432\u043d\u0430",
    "rating": 0.2111074309567376
  },
  "27672": {
    "name": "\u042f\u0449\u0438\u043a \u0412\u0438\u043a\u0442\u043e\u0440 \u0412\u0430\u0441\u0438\u043b\u044c\u0435\u0432\u0438\u0447",
    "rating": 0.026166529431707
  },
  "27674": {
    "name": "\u0429\u0438\u043f\u0430\u043d\u043e\u0432 \u0410\u043b\u0435\u043a\u0441\u0435\u0439 \u041b\u044c\u0432\u043e\u0432\u0438\u0447",
    "rating": 0.4930881689525639
  },
  "27675": {
    "name": "\u0425\u043e\u0445\u043b\u043e\u0432 \u041c\u0438\u0445\u0430\u0438\u043b \u041d\u0438\u043a\u043e\u043b\u0430\u0435\u0432\u0438\u0447",
    "rating": 1.4360254693563368
  },
  "27677": {
    "name": "\u0422\u043e\u043b\u043a\u0430\u0447\u0435\u0432 \u0410\u043d\u0434\u0440\u0435\u0439 \u0412\u0430\u0441\u0438\u043b\u044c\u0435\u0432\u0438\u0447",
    "rating": 0.1889635149655282
  },
  "27680": {
    "name": "\u0421\u0443\u0440\u043d\u0430\u0447\u0435\u0432\u0430 \u0418\u0440\u0438\u043d\u0430 \u041f\u0435\u0442\u0440\u043e\u0432\u043d\u0430",
    "rating": 0.1130198828865584
  }
}