{
  "19943": {
    "name": "\u041a\u043e\u043d\u0434\u0440\u0430\u0442\u044c\u0435\u0432 \u0410\u043b\u0435\u043a\u0441\u0430\u043d\u0434\u0440 \u0424\u0438\u043b\u0438\u043f\u043f\u043e\u0432\u0438\u0447",
    "rating": 0.538143933555682
  },
  "19948": {
    "name": "\u0412\u043e\u0439\u0442\u043e\u0432\u0438\u0447 \u0410\u043b\u0435\u043a\u0441\u0430\u043d\u0434\u0440 \u041f\u0435\u0442\u0440\u043e\u0432\u0438\u0447",
    "rating": 0.8089105490529391
  },
  "19951": {
    "name": "\u041c\u043e\u0436\u0438\u043d \u0412\u043b\u0430\u0434\u0438\u043c\u0438\u0440 \u0410\u043b\u0435\u043a\u0441\u0435\u0435\u0432\u0438\u0447",
    "rating": 0.9753619919927464
  },
  "19960": {
    "name": "\u041b\u043e\u043f\u0438\u043d \u0412\u0438\u0442\u0430\u043b\u0438\u0439 \u0410\u043d\u0430\u0442\u043e\u043b\u044c\u0435\u0432\u0438\u0447",
    "rating": 2.1749093326699027
  },
  "19967": {
    "name": "\u0421\u0430\u043b\u043e\u043c\u0430\u0442\u043e\u0432 \u0415\u0432\u0433\u0435\u043d\u0438\u0439 \u041d\u0438\u043a\u043e\u043b\u0430\u0435\u0432\u0438\u0447",
    "rating": 0.5869906685058728
  },
  "19977": {
    "name": "\u041f\u043e\u0442\u0430\u043f\u043e\u0432 \u0410\u043d\u0434\u0440\u0435\u0439 \u0410\u043b\u0435\u043a\u0441\u0430\u043d\u0434\u0440\u043e\u0432\u0438\u0447",
    "rating": 0.010800173695081102
  }
}