{
  "21732": {
    "name": "\u041a\u0443\u0437\u044c\u043c\u0435\u043d\u043a\u043e\u0432 \u0410\u043b\u0435\u043a\u0441\u0430\u043d\u0434\u0440 \u0412\u0438\u043a\u0442\u043e\u0440\u043e\u0432\u0438\u0447",
    "rating": 0.4624019329044483
  },
  "21733": {
    "name": "\u041f\u043e\u043b\u044f\u043d\u0441\u043a\u0438\u0445 \u0422\u0430\u043c\u0430\u0440\u0430 \u0421\u0435\u0440\u0433\u0435\u0435\u0432\u043d\u0430",
    "rating": 0.38873477381012395
  },
  "21734": {
    "name": "\u041f\u0430\u0432\u043b\u043e\u0432\u0430 \u0422\u0430\u0442\u044c\u044f\u043d\u0430 \u0412\u0435\u043d\u0438\u0430\u043c\u0438\u043d\u043e\u0432\u043d\u0430",
    "rating": 0.4555468512755293
  },
  "21735": {
    "name": "\u041a\u043e\u0432\u0430\u043b\u0435\u043d\u043a\u043e \u0412\u043b\u0430\u0434\u0438\u043c\u0438\u0440 \u0412\u043b\u0430\u0434\u0438\u043c\u0438\u0440\u043e\u0432\u0438\u0447",
    "rating": 3.348754385497436
  },
  "21736": {
    "name": "\u0422\u0440\u043e\u0444\u0438\u043c\u043e\u0432\u0430 \u0422\u0430\u0442\u044c\u044f\u043d\u0430 \u041c\u0438\u0445\u0430\u0439\u043b\u043e\u0432\u043d\u0430",
    "rating": 2.291148849667644
  },
  "21737": {
    "name": "\u0423\u0441\u0442\u0438\u043d\u043e\u0432 \u041e\u043b\u0435\u0433 \u0418\u043b\u044c\u0438\u0447",
    "rating": 0.4405264380466488
  },
  "21739": {
    "name": "\u0421\u043b\u044f\u0434\u043d\u0435\u0432\u0430 \u0418\u0440\u0438\u043d\u0430 \u0412\u044f\u0447\u0435\u0441\u043b\u0430\u0432\u043e\u0432\u043d\u0430",
    "rating": 0.4715624423368744
  },
  "21740": {
    "name": "\u0412\u0435\u0433\u0435\u043b\u0438\u043d\u0430 \u0415\u043b\u0435\u043d\u0430 \u041f\u0435\u0442\u0440\u043e\u0432\u043d\u0430",
    "rating": 0.303369943700223
  },
  "21741": {
    "name": "\u0421\u0438\u0442\u043d\u0438\u043a\u043e\u0432\u0430 \u041b\u044e\u0434\u043c\u0438\u043b\u0430 \u041c\u0438\u0445\u0430\u0439\u043b\u043e\u0432\u043d\u0430",
    "rating": 0.4339590392847039
  },
  "21742": {
    "name": "\u0414\u0443\u043b\u044c\u0437\u043e\u043d \u0418\u043e\u0441\u0438\u0444 \u0418\u043e\u0441\u0438\u0444\u043e\u0432\u0438\u0447",
    "rating": 0.012065503862524295
  },
  "21743": {
    "name": "\u0421\u0430\u0432\u0435\u043b\u044c\u0435\u0432\u0430 \u041c\u0430\u0440\u0438\u043d\u0430 \u0410\u043d\u0430\u0442\u043e\u043b\u044c\u0435\u0432\u043d\u0430",
    "rating": 0.488784341259385
  },
  "21744": {
    "name": "\u0417\u0443\u0435\u0432\u0430 \u0421\u0432\u0435\u0442\u043b\u0430\u043d\u0430 \u041c\u0438\u0445\u0430\u0439\u043b\u043e\u0432\u043d\u0430",
    "rating": 0.3046637606117752
  },
  "21745": {
    "name": "\u042e\u0434\u0438\u043d\u0446\u0435\u0432 \u0410\u043b\u0435\u043a\u0441\u0430\u043d\u0434\u0440 \u0412\u0438\u043a\u0442\u043e\u0440\u043e\u0432\u0438\u0447",
    "rating": 0.5249800832211711
  },
  "21746": {
    "name": "\u0414\u0440\u043e\u043d\u044c \u042e\u0440\u0438\u0439 \u0418\u0432\u0430\u043d\u043e\u0432\u0438\u0447",
    "rating": 0.6863844575379451
  },
  "21747": {
    "name": "\u0411\u044b\u043a\u043e\u0432\u0430 \u0412\u0438\u043a\u0442\u043e\u0440\u0438\u044f \u0411\u043e\u0440\u0438\u0441\u043e\u0432\u043d\u0430",
    "rating": 0.6287668080354869
  },
  "21748": {
    "name": "\u041d\u0435\u0434\u043e\u0441\u0442\u0443\u043f \u0422\u0430\u0442\u044c\u044f\u043d\u0430 \u0412\u0430\u0441\u0438\u043b\u044c\u0435\u0432\u043d\u0430",
    "rating": 0.5834254685701826
  },
  "21749": {
    "name": "\u0412\u0435\u043b\u0438\u0447\u043a\u043e \u0415\u043b\u0435\u043d\u0430 \u0422\u0430\u0433\u0438\u0440\u043e\u0432\u043d\u0430",
    "rating": 0.03510987396104651
  },
  "21750": {
    "name": "\u0411\u0435\u043b\u0438\u043a \u041d\u0430\u0442\u0430\u043b\u044c\u044f \u0412\u043b\u0430\u0434\u0438\u043c\u0438\u0440\u043e\u0432\u043d\u0430",
    "rating": 0.3126078797283142
  },
  "21751": {
    "name": "\u041f\u0435\u0447\u043a\u043e \u0410\u043d\u0430\u0442\u043e\u043b\u0438\u0439 \u0412\u0430\u0441\u0438\u043b\u044c\u0435\u0432\u0438\u0447",
    "rating": 1.2119907515783408
  },
  "21752": {
    "name": "\u041f\u0430\u0449\u0435\u043d\u043a\u043e \u0415\u043a\u0430\u0442\u0435\u0440\u0438\u043d\u0430 \u0412\u0430\u0441\u0438\u043b\u044c\u0435\u0432\u043d\u0430",
    "rating": 1.2119907515783408
  },
  "21753": {
    "name": "\u0420\u0430\u0437\u0443\u0432\u0430\u0435\u0432\u0430 \u0410\u043b\u0435\u043d\u0430 \u041b\u0435\u043e\u043d\u0438\u0434\u043e\u0432\u043d\u0430",
    "rating": 0.918483212582389
  },
  "21754": {
    "name": "\u0421\u0432\u0438\u043d\u0442\u0438\u0446\u043a\u0430\u044f \u0413\u0430\u043b\u0438\u044f \u042f\u0440\u043c\u0443\u0445\u0430\u043d\u0435\u0434\u043e\u0432\u043d\u0430",
    "rating": 0.4884133233963579
  },
  "21755": {
    "name": "\u0415\u0444\u0438\u043c\u043e\u0432 \u041e\u043b\u0435\u0433 \u041d\u0438\u043a\u043e\u043b\u0430\u0435\u0432\u0438\u0447",
    "rating": 0.31082173188339346
  },
  "21756": {
    "name": "\u0412\u043b\u0430\u0441\u043a\u0438\u043d\u0430 \u0415\u043b\u0435\u043d\u0430 \u0421\u0442\u0430\u043d\u0438\u0441\u043b\u0430\u0432\u043e\u0432\u043d\u0430",
    "rating": 0.5081420293689589
  },
  "21757": {
    "name": "\u0427\u0443\u0431 \u041b\u0430\u0440\u0438\u0441\u0430 \u041f\u0435\u0442\u0440\u043e\u0432\u043d\u0430",
    "rating": 0.4148992868998359
  },
  "21758": {
    "name": "\u041a\u0440\u0435\u0439\u0441 \u0412\u043b\u0430\u0434\u0438\u043c\u0438\u0440 \u0420\u0435\u0439\u043d\u0433\u043e\u043b\u0434\u043e\u0432\u0438\u0447",
    "rating": 0.3144114673005326
  },
  "21759": {
    "name": "\u041f\u043b\u043e\u0442\u043d\u0438\u043a\u043e\u0432\u0430 \u0415\u043b\u0435\u043d\u0430 \u0410\u043d\u0430\u0442\u043e\u043b\u044c\u0435\u0432\u043d\u0430",
    "rating": 2.2954289628987032
  },
  "21760": {
    "name": "\u0422\u0443\u0440\u0447\u0435\u043d\u043a\u043e \u0410\u043d\u043d\u0430 \u0412\u0438\u043a\u0442\u043e\u0440\u043e\u0432\u043d\u0430",
    "rating": 0.2993540350758188
  },
  "21761": {
    "name": "\u0411\u0430\u0442\u0435\u043d\u0435\u0432\u0430 \u041d\u0430\u0442\u0430\u043b\u044c\u044f \u0410\u043b\u0435\u043a\u0441\u0435\u0435\u0432\u043d\u0430",
    "rating": 0.943827351850436
  },
  "21762": {
    "name": "\u0420\u043e\u0433\u0430\u043d\u043e\u0432 \u0412\u043b\u0430\u0434\u0438\u043c\u0438\u0440 \u042e\u0440\u044c\u0435\u0432\u0438\u0447",
    "rating": 0.3039022767227225
  },
  "21763": {
    "name": "\u0413\u0430\u043d\u0438\u043d\u0430 \u041c\u0430\u0440\u0438\u043d\u0430 \u0410\u043b\u0435\u043a\u0441\u0430\u043d\u0434\u0440\u043e\u0432\u043d\u0430",
    "rating": 0.5853433641915284
  },
  "21764": {
    "name": "\u041f\u043b\u043e\u0442\u043d\u0438\u043a\u043e\u0432\u0430 \u041c\u0438\u0440\u0430 \u0412\u0430\u0441\u0438\u043b\u044c\u0435\u0432\u043d\u0430",
    "rating": 0.5854918707849206
  },
  "21765": {
    "name": "\u0425\u043e\u043c\u0435\u043d\u043a\u043e \u0421\u0432\u0435\u0442\u043b\u0430\u043d\u0430 \u0411\u043e\u0440\u0438\u0441\u043e\u0432\u043d\u0430",
    "rating": 1.5012341945634016
  },
  "21766": {
    "name": "\u0424\u0438\u043b\u0430\u0442\u043e\u0432\u0430 \u0410\u043b\u043b\u0430 \u0410\u043b\u0435\u043a\u0441\u0430\u043d\u0434\u0440\u043e\u0432\u043d\u0430",
    "rating": 0.7533268072736955
  },
  "21767": {
    "name": "\u0422\u0438\u0434\u0432\u0438 \u041b\u0438\u043b\u0438\u044f \u0410\u043b\u0435\u043a\u0441\u0430\u043d\u0434\u0440\u043e\u0432\u043d\u0430",
    "rating": 0.31047804068874385
  },
  "21768": {
    "name": "\u041f\u043b\u0443\u0436\u043d\u0438\u043a\u043e\u0432 \u041d\u0438\u043a\u043e\u043b\u0430\u0439 \u041f\u0435\u0442\u0440\u043e\u0432\u0438\u0447",
    "rating": 0.7875786502939037
  },
  "21769": {
    "name": "\u0413\u0438\u043b\u043c\u0442\u0434\u0438\u043d\u043e\u0432\u0430 \u041e\u043b\u044c\u0433\u0430 \u041c\u0438\u0445\u0430\u0439\u043b\u043e\u0432\u043d\u0430",
    "rating": 0.474096684882158
  },
  "21770": {
    "name": "\u041a\u0430\u0440\u043b\u043e\u0432\u0430 \u0418\u0440\u0438\u043d\u0430 \u0411\u043e\u0440\u0438\u0441\u043e\u0432\u043d\u0430",
    "rating": 0.29472251354328194
  },
  "21771": {
    "name": "\u0412\u043e\u0440\u043e\u043d\u043e\u0432\u0430 \u041d\u0430\u0442\u0430\u043b\u044c\u044f \u0418\u0432\u0430\u043d\u043e\u0432\u043d\u0430",
    "rating": 0.43426538891124733
  },
  "21772": {
    "name": "\u041a\u0438\u043c \u0421\u0432\u0435\u0442\u043b\u0430\u043d\u0430 \u041d\u0438\u043a\u043e\u043b\u0430\u0435\u0432\u043d\u0430",
    "rating": 0.014044684324290305
  },
  "21773": {
    "name": "\u041f\u0435\u0442\u0440\u0443\u043d\u0438\u043d\u0430 \u0418\u043d\u043d\u0430 \u041d\u0438\u043a\u043e\u043b\u0430\u0435\u0432\u043d\u0430",
    "rating": 2.1611092794283198
  },
  "21774": {
    "name": "\u0411\u043e\u043d\u0434\u0430\u0440\u0435\u043d\u043a\u043e \u0415\u043b\u0435\u043d\u0430 \u0412\u043b\u0430\u0434\u0438\u043c\u0438\u0440\u043e\u0432\u043d\u0430",
    "rating": 3.3987354856409047
  },
  "21775": {
    "name": "\u0420\u0435\u0448\u0435\u0442\u043d\u0438\u043a\u043e\u0432\u0430 \u0422\u0430\u0442\u044c\u044f\u043d\u0430 \u041c\u0438\u0445\u0430\u0439\u043b\u043e\u0432\u043d\u0430",
    "rating": 0.465716856244387
  },
  "21776": {
    "name": "\u041a\u043e\u0437\u0435\u0435\u0432\u0430 \u0415\u043b\u0435\u043d\u0430 \u0412\u0430\u0441\u0438\u043b\u044c\u0435\u0432\u043d\u0430",
    "rating": 0.4994640069921433
  },
  "21777": {
    "name": "\u0410\u043b\u0435\u0448\u0438\u043d\u0430 \u041b\u0438\u0434\u0438\u044f \u0418\u0432\u0430\u043d\u043e\u0432\u043d\u0430",
    "rating": 0.5364645926558099
  },
  "21778": {
    "name": "\u041a\u043e\u0449\u0435\u0435\u0432\u0430 \u041d\u0430\u0442\u0430\u043b\u044c\u044f \u0410\u043d\u0430\u0442\u043e\u043b\u044c\u0435\u0432\u043d\u0430",
    "rating": 0.3765875037064533
  },
  "21779": {
    "name": "\u0413\u0430\u043b\u0430\u0435\u0432\u0430 \u041b\u044e\u0431\u043e\u0432\u044c \u041d\u0438\u043a\u043e\u043b\u0430\u0435\u0432\u043d\u0430",
    "rating": 0.7848723016429184
  },
  "21780": {
    "name": "\u0411\u0440\u0430\u0442\u0447\u0438\u043a\u043e\u0432\u0430 \u041b\u0438\u043b\u0438\u044f \u0413\u0435\u043d\u043d\u0430\u0434\u044c\u0435\u0432\u043d\u0430",
    "rating": 0.3117370108333513
  },
  "21781": {
    "name": "\u0414\u0430\u0432\u044b\u0434\u043e\u0432\u0430 \u0418\u043d\u0435\u0441\u0441\u0430 \u0412\u0435\u043d\u0438\u0430\u043c\u0438\u043d\u043e\u0432\u043d\u0430",
    "rating": 2.552144555189713
  },
  "21782": {
    "name": "\u041f\u0440\u0438\u0432\u0430\u043b\u043e\u0432\u0430 \u0422\u0430\u0442\u044c\u044f\u043d\u0430 \u0418\u0433\u043d\u0430\u0442\u044c\u0435\u0432\u043d\u0430",
    "rating": 0.4460736831189781
  },
  "21783": {
    "name": "\u041a\u0443\u0437\u044c\u043c\u0435\u043d\u043e\u043a \u0410\u043b\u0435\u043a\u0441\u0430\u043d\u0434\u0440 \u0412\u0430\u0441\u0438\u043b\u044c\u0435\u0432\u0438\u0447",
    "rating": 0.905939216171738
  },
  "21784": {
    "name": "\u0417\u044b\u043a\u0438\u043d \u0421\u0435\u0440\u0433\u0435\u0439 \u0412\u043b\u0430\u0434\u0438\u043c\u0438\u0440\u043e\u0432\u0438\u0447",
    "rating": 3.256083394520808
  },
  "21785": {
    "name": "\u0413\u0438\u0440\u0447\u0435\u043d\u043a\u043e \u0410\u043b\u0435\u043a\u0441\u0430\u043d\u0434\u0440 \u0412\u0438\u043a\u0442\u043e\u0440\u043e\u0432\u0438\u0447",
    "rating": 0.2898960951653788
  },
  "21786": {
    "name": "\u0413\u043e\u0440\u0435\u0442\u0430\u044f \u041b\u0430\u0440\u0438\u0441\u0430 \u041f\u0435\u0442\u0440\u043e\u0432\u043d\u0430",
    "rating": 0.33911848722165905
  },
  "21787": {
    "name": "\u041b\u0438\u043c\u0430\u043d\u043e\u0432\u0430 \u041d\u0430\u0442\u0430\u043b\u044c\u044f \u041f\u0435\u0442\u0440\u043e\u0432\u043d\u0430",
    "rating": 0.6049486250307194
  },
  "21788": {
    "name": "\u041f\u0430\u0440\u0448\u0443\u043a\u043e\u0432\u0430 \u0415\u043b\u0435\u043d\u0430 \u0412\u0430\u043b\u0435\u0440\u044c\u0435\u0432\u043d\u0430",
    "rating": 0.42266932639493615
  },
  "21789": {
    "name": "\u0417\u0438\u043d\u043e\u0432\u044c\u0435\u0432\u0430 \u0415\u043b\u0435\u043d\u0430 \u042e\u0440\u044c\u0435\u0432\u043d\u0430",
    "rating": 0.4925472332310536
  },
  "21790": {
    "name": "\u0411\u0438\u043b\u044e\u043a\u043e\u0432\u0430 \u041b\u044e\u0434\u043c\u0438\u043b\u0430 \u0420\u043e\u0434\u0438\u043e\u043d\u043e\u0432\u043d\u0430",
    "rating": 0.3906228061631378
  },
  "21791": {
    "name": "\u0417\u043e\u043b\u043e\u0442\u0430\u0440\u0435\u0432\u0430 \u0421\u0432\u0435\u0442\u043b\u0430\u043d\u0430 \u0412\u043b\u0430\u0434\u0438\u043c\u0438\u0440\u043e\u0432\u043d\u0430",
    "rating": 0.2890821513386238
  },
  "21792": {
    "name": "\u041b\u0435\u0432\u0448\u0430\u043a\u043e\u0432\u0430 \u0422\u0430\u043c\u0430\u0440\u0430 \u0414\u043c\u0438\u0442\u0440\u0438\u0435\u0432\u043d\u0430",
    "rating": 0.9872310391202714
  },
  "21793": {
    "name": "\u041e\u0441\u0442\u0440\u043e\u0443\u043c\u043e\u0432 \u0410\u043d\u0442\u043e\u043d \u0411\u043e\u0440\u0438\u0441\u043e\u0432\u0438\u0447",
    "rating": 0.3244498066103549
  },
  "21794": {
    "name": "\u041d\u0438\u043a\u0438\u0442\u0438\u043d\u0430 \u0413\u0430\u043b\u0438\u043d\u0430 \u041d\u0438\u043a\u043e\u043b\u0430\u0435\u0432\u043d\u0430",
    "rating": 1.2821910681798914
  },
  "21795": {
    "name": "\u041f\u0430\u043f\u0443\u0448\u0438\u043d\u0430 \u041d\u0430\u0442\u0430\u043b\u044c\u044f \u042e\u0440\u044c\u0435\u0432\u043d\u0430",
    "rating": 0.4783216386986888
  },
  "21796": {
    "name": "\u0412\u043e\u043b\u043e\u0441\u0441\u043a\u0430\u044f \u0418\u0440\u0438\u043d\u0430 \u0418\u0432\u0430\u043d\u043e\u0432\u043d\u0430",
    "rating": 1.4178354704519822
  },
  "21797": {
    "name": "\u0416\u0435\u0433\u0430\u043b\u043e\u0432 \u0415\u0432\u0433\u0435\u043d\u0438\u0439 \u0410\u043b\u0435\u043a\u0441\u0430\u043d\u0434\u0440\u043e\u0432\u0438\u0447",
    "rating": 0.04761789169336808
  },
  "21798": {
    "name": "\u0413\u043e\u043b\u043e\u0432\u043a\u0438\u043d\u0430 \u041d\u0430\u0434\u0435\u0436\u0434\u0430 \u041d\u0438\u043a\u043e\u043b\u0430\u0435\u0432\u043d\u0430",
    "rating": 0.6066184950590562
  },
  "21799": {
    "name": "\u0421\u0435\u0440\u0433\u0435\u0435\u0432\u0430 \u0415\u043b\u0435\u043d\u0430 \u0410\u043d\u0430\u0442\u043e\u043b\u044c\u0435\u0432\u043d\u0430",
    "rating": 2.2795942204845554
  },
  "21800": {
    "name": "\u0414\u043c\u0438\u0442\u0440\u0438\u0435\u0432\u0430 \u041b\u0430\u0440\u0438\u0441\u0430 \u0410\u043b\u0435\u043a\u0441\u0430\u043d\u0434\u0440\u043e\u0432\u043d\u0430",
    "rating": 1.2766116172131918
  },
  "21801": {
    "name": "\u041a\u043e\u043b\u0435\u0441\u043d\u0438\u043a \u0413\u0430\u043b\u0438\u043d\u0430 \u0418\u0432\u0430\u043d\u043e\u0432\u043d\u0430",
    "rating": 0.39892720364125867
  },
  "21802": {
    "name": "\u0428\u0430\u0445\u043e\u0432\u0430 \u0422\u0430\u0442\u044c\u044f\u043d\u0430 \u041d\u0438\u043a\u043e\u043b\u0430\u0435\u0432\u043d\u0430",
    "rating": 0.4864808480214678
  },
  "21803": {
    "name": "\u041a\u0430\u0440\u0431\u043e\u043b\u0438\u043d\u0430 \u0412\u0435\u0440\u0430 \u0410\u043b\u0435\u043a\u0441\u0430\u043d\u0434\u0440\u043e\u0432\u043d\u0430",
    "rating": 0.730766375267807
  },
  "21804": {
    "name": "\u0410\u0440\u0442\u0435\u043c\u0435\u043d\u043a\u043e \u0410\u043b\u0435\u043a\u0441\u0430\u043d\u0434\u0440 \u0412\u0438\u043a\u0442\u043e\u0440\u043e\u0432\u0438\u0447",
    "rating": 0.5554284692467124
  },
  "21805": {
    "name": "\u0428\u043e\u0441\u0442\u0430\u043a \u0413\u0430\u043b\u0438\u043d\u0430 \u041f\u0430\u0432\u043b\u043e\u0432\u043d\u0430",
    "rating": 0.490783808460513
  },
  "21806": {
    "name": "\u041c\u0435\u0442\u0435\u043b\u044c\u0441\u043a\u0438\u0439 \u041f\u0430\u0432\u0435\u043b \u0421\u0435\u0440\u0433\u0435\u0435\u0432\u0438\u0447",
    "rating": 0.29072229371546504
  },
  "21807": {
    "name": "\u0416\u0435\u0433\u0430\u043b\u043e\u0432 \u0415\u0432\u0433\u0435\u043d\u0438\u0439 \u0410\u043b\u0435\u043a\u0441\u0430\u043d\u0434\u0440\u043e\u0432\u0438\u0447",
    "rating": 0.3157793750074044
  },
  "21808": {
    "name": "\u0413\u043b\u0430\u0434\u044b\u0448\u0435\u0432\u0430 \u0418\u0440\u0438\u043d\u0430 \u0412\u043b\u0430\u0434\u0438\u043c\u0438\u0440\u043e\u0432\u043d\u0430",
    "rating": 0.3293906550579237
  },
  "21809": {
    "name": "\u041f\u0440\u043e\u043a\u043e\u043f\u043e\u0432\u0430 \u0415\u043b\u0435\u043d\u0430 \u0410\u043d\u0430\u0442\u043e\u043b\u044c\u0435\u0432\u043d\u0430",
    "rating": 0.3115186644171669
  },
  "21810": {
    "name": "\u0413\u043e\u043b\u0443\u0431\u0447\u0435\u043d\u043a\u043e \u0414\u043c\u0438\u0442\u0440\u0438\u0439 \u0418\u0432\u0430\u043d\u043e\u0432\u0438\u0447",
    "rating": 0.9308373373524244
  },
  "21811": {
    "name": "\u041f\u0443\u0434\u043e\u0432\u043a\u0438\u043d\u0430 \u0413\u0430\u043b\u0438\u043d\u0430 \u041f\u0435\u0442\u0440\u043e\u0432\u043d\u0430",
    "rating": 0.7829440283864335
  },
  "21812": {
    "name": "\u0422\u0438\u0448\u0438\u043d\u0430 \u0418\u0440\u0438\u043d\u0430 \u0412\u0430\u043b\u0435\u0440\u044c\u0435\u0432\u043d\u0430",
    "rating": 0.6862187746931667
  },
  "21813": {
    "name": "\u041f\u0438\u043b\u0438\u043f\u0435\u043d\u043a\u043e \u0415\u043b\u0435\u043d\u0430 \u0410\u043b\u0435\u043a\u0441\u0430\u043d\u0434\u0440\u043e\u0432\u043d\u0430",
    "rating": 1.2802678174770503
  },
  "21814": {
    "name": "\u041f\u0440\u0438\u0431\u044b\u043b\u043e\u0432\u0430 \u0415\u043b\u0435\u043d\u0430 \u0410\u043b\u0435\u043a\u0441\u0430\u043d\u0434\u0440\u043e\u0432\u043d\u0430",
    "rating": 0.3957877953427266
  },
  "21815": {
    "name": "\u0413\u043e\u0440\u0431\u0443\u043d\u043e\u0432 \u0414\u043c\u0438\u0442\u0440\u0438\u0439 \u0415\u0432\u0433\u0435\u043d\u044c\u043d\u0432\u0438\u0447",
    "rating": 0.40216742920376
  },
  "21816": {
    "name": "\u0427\u0435\u0440\u043d\u044b\u0445 \u0421\u0432\u0435\u0442\u043b\u0430\u043d\u0430 \u0412\u0430\u0441\u0438\u043b\u044c\u0435\u0432\u043d\u0430",
    "rating": 0.3172813384457819
  },
  "21817": {
    "name": "\u0411\u044b\u043a\u043e\u0432\u0430 \u0418\u0440\u0438\u043d\u0430 \u0412\u043b\u0430\u0434\u0438\u043c\u0438\u0440\u043e\u0432\u043d\u0430",
    "rating": 1.315225238847357
  },
  "21818": {
    "name": "\u041f\u043e\u043f\u043e\u0432\u0430 \u0418\u0440\u0438\u043d\u0430 \u041c\u0438\u0445\u0430\u0439\u043b\u043e\u0432\u043d\u0430",
    "rating": 3.4355001312630256
  },
  "21819": {
    "name": "\u041a\u043e\u043c\u043b\u0435\u0432\u0430 \u041d\u0430\u0442\u0430\u043b\u044c\u044f \u0413\u0435\u043d\u043d\u0430\u0434\u044c\u0435\u0432\u043d\u0430",
    "rating": 0.03059476378523992
  },
  "21820": {
    "name": "\u0417\u0432\u0435\u0440\u0438\u043d\u0441\u043a\u0430\u044f \u0410\u043d\u0430\u0441\u0442\u0430\u0441\u0438\u044f \u041a\u043e\u043d\u0441\u0442\u0430\u043d\u0442\u0438\u043d\u043e\u0432\u043d\u0430",
    "rating": 0.3534669712204995
  },
  "21821": {
    "name": "\u0411\u0443\u0444\u0438\u043d\u0430 \u0421\u043e\u0444\u044c\u044f \u0412\u043b\u0430\u0434\u0438\u043c\u0438\u0440\u043e\u0432\u043d\u0430",
    "rating": 0.07388104924803507
  },
  "21822": {
    "name": "\u0417\u044b\u043a\u043e\u0432\u0430 \u0422\u0430\u0442\u044c\u044f\u043d\u0430 \u0412\u0438\u0442\u0430\u043b\u044c\u0435\u0432\u043d\u0430",
    "rating": 0.3420784378977751
  },
  "21824": {
    "name": "\u042f\u043a\u043e\u0432\u0438\u043d\u043e\u0432 \u041f\u0430\u0432\u0435\u043b \u0412\u0430\u043b\u0435\u0440\u044c\u0435\u0432\u0438\u0447",
    "rating": 0.3577879133875725
  },
  "21825": {
    "name": "\u0421\u043e\u0441\u043d\u0438\u043d\u0430 \u0415\u043b\u0435\u043d\u0430 \u0412\u043b\u0430\u0434\u0438\u043c\u0438\u0440\u043e\u0432\u043d\u0430",
    "rating": 0.7166274956120868
  },
  "21826": {
    "name": "\u0428\u0430\u0439\u0444\u043b\u0435\u0440 \u0418\u0432\u0430\u043d \u0410\u043d\u0442\u043e\u043d\u043e\u0432\u0438\u0447",
    "rating": 0.3146510253107273
  },
  "21827": {
    "name": "\u041c\u0443\u043b\u044f\u0440\u0447\u0438\u043a \u0410\u043d\u0434\u0440\u0435\u0439 \u0418\u0432\u0430\u043d\u043e\u0432\u0438\u0447",
    "rating": 0.9748898433600082
  },
  "21828": {
    "name": "\u041a\u0430\u0440\u043c\u0430\u043d\u043e\u0432\u0430 \u0421\u0432\u0435\u0442\u043b\u0430\u043d\u0430 \u0410\u043d\u0430\u0442\u043e\u043b\u044c\u0435\u0432\u043d\u0430",
    "rating": 0.604805174803009
  },
  "21829": {
    "name": "\u041f\u0443\u0434\u043b\u0438\u043d\u0430 \u0410\u043b\u043b\u0430 \u041e\u043b\u0435\u0433\u043e\u0432\u043d\u0430",
    "rating": 0.3473264615044692
  },
  "21830": {
    "name": "\u0428\u0430\u0442\u043e\u0432\u043a\u0438\u043d\u0430 \u0420\u0438\u043c\u043c\u0430 \u0412\u0438\u043a\u0442\u043e\u0440\u043e\u0432\u043d\u0430",
    "rating": 1.8509988511925608
  },
  "21831": {
    "name": "\u0414\u043e\u043b\u0436\u0435\u043d\u043a\u043e\u0432\u0430 \u041d\u0430\u0442\u0430\u043b\u044c\u044f \u0413\u0435\u043d\u043d\u0430\u0434\u044c\u0435\u0432\u043d\u0430",
    "rating": 0.6352361089742751
  },
  "21832": {
    "name": "\u0411\u0443\u0442\u0438\u043d\u0430 \u0421\u043e\u0444\u044c\u044f \u0412\u043b\u0430\u0434\u0438\u043c\u0438\u0440\u043e\u0432\u043d\u0430",
    "rating": 0.3790839916394844
  },
  "21833": {
    "name": "\u0422\u0438\u0448\u0435\u0447\u043a\u043e \u041c\u0430\u0440\u0438\u043d\u0430 \u041e\u043b\u0435\u0433\u043e\u0432\u043d\u0430",
    "rating": 0.337413189404126
  },
  "21834": {
    "name": "\u0421\u0430\u0436\u043d\u0435\u0432\u0430 \u0421\u0432\u0435\u0442\u043b\u0430\u043d\u0430 \u0412\u043b\u0430\u0434\u0438\u043c\u0438\u0440\u043e\u0432\u043d\u0430",
    "rating": 0.7848687714733114
  },
  "21835": {
    "name": "\u0420\u044b\u0442\u0438\u043a\u043e\u0432\u0430 \u0422\u0430\u0442\u044c\u044f\u043d\u0430 \u0410\u043b\u044c\u0431\u0438\u043d\u043e\u0432\u043d\u0430",
    "rating": 0.3629046202589065
  },
  "21836": {
    "name": "\u041a\u0443\u0440\u0430\u043d\u043e\u0432\u0430 \u041b\u044e\u0431\u043e\u0432\u044c \u0410\u0434\u043e\u043b\u044c\u0444\u043e\u0432\u043d\u0430",
    "rating": 1.1851935392734974
  },
  "21837": {
    "name": "\u0413\u0440\u0438\u0431\u0430\u043d\u043e\u0432 \u042e\u0440\u0438\u0439 \u042e\u0440\u044c\u0435\u0432\u0438\u0447",
    "rating": 2.2448219978049915
  },
  "21838": {
    "name": "\u0413\u0430\u043b\u0438\u043d\u0430 \u0412\u0435\u0440\u0430 \u0410\u043d\u0430\u0442\u043e\u043b\u044c\u0435\u0432\u043d\u0430",
    "rating": 0.3338061437593381
  },
  "21846": {
    "name": "\u0411\u0430\u0448\u0430\u0440\u043e\u0432\u0430 \u042e\u043b\u0438\u044f \u0420\u0430\u0448\u0438\u0434\u043e\u0432\u043d\u0430",
    "rating": 0.2800746236743196
  },
  "21847": {
    "name": "\u041a\u043e\u0448\u0435\u043b\u0435\u0432\u0430 \u0410\u043d\u0436\u0435\u043b\u0430 \u041f\u0435\u0442\u0440\u043e\u0432\u043d\u0430",
    "rating": 0.6445657625361234
  },
  "21848": {
    "name": "\u041a\u0430\u043b\u0438\u043d\u0438\u0447\u0435\u043d\u043a\u043e \u041c\u0430\u0440\u0438\u043d\u0430 \u0410\u043b\u0435\u043a\u0441\u0430\u043d\u0434\u0440\u043e\u0432\u043d\u0430",
    "rating": 0.5314755275578552
  },
  "21849": {
    "name": "\u041e\u043f\u0430\u043d\u0430\u0441\u0435\u043d\u043a\u043e \u0412\u0438\u043a\u0442\u043e\u0440\u0438\u044f \u041d\u0438\u043a\u043e\u043b\u0430\u0435\u0432\u043d\u0430",
    "rating": 0.0358275705577935
  },
  "21850": {
    "name": "\u041f\u0430\u0432\u043b\u043e\u0432\u0430 \u0418\u0440\u0438\u043d\u0430 \u0412\u0430\u043b\u0435\u0440\u044c\u0435\u0432\u043d\u0430",
    "rating": 1.3751595960954464
  },
  "21851": {
    "name": "\u0422\u0438\u0442\u043e\u0432\u0430 \u0422\u0430\u0442\u044c\u044f\u043d\u0430 \u0412\u0438\u043a\u0442\u043e\u0440\u043e\u0432\u043d\u0430",
    "rating": 1.0335166391786674
  },
  "34589": {
    "name": "\u041c\u0430\u0449\u0435\u043d\u043a\u043e \u0415\u043b\u0435\u043d\u0430 \u0412\u043b\u0430\u0434\u0438\u043c\u0438\u0440\u043e\u0432\u043d\u0430",
    "rating": 0.010403355556970134
  }
}