{
  "27631": {
    "name": "\u0415\u043c\u0435\u043b\u044c\u044f\u043d\u043e\u0432 \u0412\u0438\u043a\u0442\u043e\u0440 \u0410\u043b\u0435\u043a\u0441\u0430\u043d\u0434\u0440\u043e\u0432\u0438\u0447",
    "rating": 3.0
  }
}