{
  "1778": {
    "name": "\u0421\u0430\u0432\u0447\u0438\u043d \u041c\u0438\u0445\u0430\u0438\u043b \u041c\u0438\u0445\u0430\u0439\u043b\u043e\u0432\u0438\u0447",
    "rating": 0.4745795738839
  },
  "1779": {
    "name": "\u0410\u0431\u0434\u0443\u043b-\u041a\u0430\u0434\u044b\u0440\u043e\u0432  \u0428\u0430\u0440\u043f\u0443\u0434\u0434\u0438  \u041c\u0443\u0430\u0439\u0434\u043e\u0432\u0438\u0447",
    "rating": 1.2677584221931668
  },
  "19953": {
    "name": "\u0425\u0430\u0431\u0430\u0440\u043e\u0432 \u041d\u0438\u043a\u043e\u043b\u0430\u0439 \u0410\u043b\u0435\u043a\u0441\u0435\u0435\u0432\u0438\u0447",
    "rating": 1.785615583225851
  },
  "19956": {
    "name": "\u0414\u0436\u0430\u043d\u0445\u043e\u0442\u043e\u0432 \u0417\u0430\u0443\u0440\u0431\u0435\u043a \u041c\u0430\u0433\u043e\u043c\u0435\u0442\u043e\u0432\u0438\u0447",
    "rating": 1.3100443300453837
  },
  "19958": {
    "name": "\u041c\u0435\u043b\u044c\u043d\u0438\u043a \u041f\u0430\u0432\u0435\u043b \u041f\u0430\u0432\u043b\u043e\u0432\u0438\u0447",
    "rating": 2.9480943910377846
  },
  "19965": {
    "name": "\u0421\u0442\u0435\u043f\u0430\u043d\u043e\u0432 \u0412\u0430\u0434\u0438\u043c \u0410\u043b\u0435\u043a\u0441\u0430\u043d\u0434\u0440\u043e\u0432\u0438\u0447",
    "rating": 5.0
  },
  "22846": {
    "name": "\u0421\u043e\u0442\u0447\u0435\u043d\u043a\u043e \u0421\u0435\u0440\u0433\u0435\u0439 \u0414\u043c\u0438\u0442\u0440\u0438\u0435\u0432\u0438\u0447",
    "rating": 1.0698440480973512
  },
  "22897": {
    "name": "\u0428\u0430\u0432\u043a\u0443\u0442\u0430 \u0421\u0435\u0440\u0433\u0435\u0439 \u0412\u0430\u0441\u0438\u043b\u044c\u0435\u0432\u0438\u0447",
    "rating": 0.11636818672569313
  }
}