{
  "16954": {
    "name": "\u0417\u043e\u043b\u043e\u0442\u0443\u0445\u0438\u043d \u0410\u043b\u0435\u043a\u0441\u0430\u043d\u0434\u0440 \u0412\u0430\u043b\u0435\u0440\u044c\u0435\u0432\u0438\u0447",
    "rating": 2.670637997178165
  },
  "19959": {
    "name": "\u0414\u044c\u044f\u043a\u043e\u043d\u043e\u0432\u0430 \u041b\u0438\u0434\u0438\u044f \u0412\u0430\u043b\u0435\u043d\u0442\u0438\u043d\u043e\u0432\u043d\u0430",
    "rating": 0.15383924617326272
  },
  "19968": {
    "name": "\u0412\u0430\u0441\u0438\u043b\u044c\u0435\u0432 \u0410\u043d\u0430\u0442\u043e\u043b\u0438\u0439 \u041d\u0438\u043a\u043e\u043b\u0430\u0435\u0432\u0438\u0447",
    "rating": 2.207430797412872
  },
  "20400": {
    "name": "\u041a\u043e\u043b\u0435\u0441\u043d\u0438\u043a\u043e\u0432 \u0410\u043d\u0434\u0440\u0435\u0439 \u0412\u0430\u0441\u0438\u043b\u044c\u0435\u0432\u0438\u0447",
    "rating": 0.6992050806153627
  },
  "20401": {
    "name": "\u0422\u0438\u0442\u043e\u0432 \u0410\u043b\u0435\u043a\u0441\u0430\u043d\u0434\u0440 \u0410\u043b\u0435\u043a\u0441\u0430\u043d\u0434\u0440\u043e\u0432\u0438\u0447",
    "rating": 1.147177869300263
  },
  "20403": {
    "name": "\u0427\u0443\u0440\u0438\u043b\u0438\u043d\u0430 \u0410\u043d\u0442\u043e\u043d\u0438\u043d\u0430 \u0410.",
    "rating": 0.03755739069744713
  }
}