{
  "5806": {
    "name": "\u0415\u043b\u0438\u0437\u0430\u0440\u043e\u0432 \u0412\u0438\u043a\u0442\u043e\u0440 \u0410\u043b\u0435\u043a\u0441\u0430\u043d\u0434\u0440\u043e\u0432\u0438\u0447",
    "rating": 1.5192179173277829
  },
  "7201": {
    "name": "\u0413\u0440\u0435\u0431\u0435\u043d\u0449\u0438\u043a\u043e\u0432\u0430 \u0412\u0438\u043a\u0442\u043e\u0440\u0438\u044f \u0410\u043d\u0430\u0442\u043e\u043b\u044c\u0435\u0432\u043d\u0430",
    "rating": 0.364339987247896
  },
  "7202": {
    "name": "\u0411\u0440\u0430\u0433\u0438\u043d\u0430 \u0422\u0430\u0442\u044c\u044f\u043d\u0430 \u0413\u0435\u043d\u043d\u0430\u0434\u044c\u0435\u0432\u043d\u0430",
    "rating": 0.3857874358072002
  },
  "7203": {
    "name": "\u041a\u0440\u0435\u0441\u0441 \u0412\u044f\u0447\u0435\u0441\u043b\u0430\u0432 \u0412\u0438\u043a\u0442\u043e\u0440\u043e\u0432\u0438\u0447",
    "rating": 1.9830444667548452
  },
  "7204": {
    "name": "\u041b\u043e\u0433\u0432\u0438\u043d\u0435\u043d\u043a\u043e \u0421\u0435\u0440\u0433\u0435\u0439 \u0410\u043b\u0435\u043a\u0441\u0435\u0435\u0432\u0438\u0447",
    "rating": 0.03968763388708043
  }
}