{
  "7205": {
    "name": "\u0410\u043b\u0435\u043a\u0441\u0435\u0435\u0432\u0430 \u041d\u0430\u0442\u0430\u043b\u044c\u044f \u0410\u043b\u0435\u043a\u0441\u0430\u043d\u0434\u0440\u043e\u0432\u043d\u0430",
    "rating": 5.49283038531721
  },
  "7206": {
    "name": "\u0418\u0432\u0430\u043d\u043e\u0432 \u0412\u043b\u0430\u0434\u0438\u0441\u043b\u0430\u0432 \u0410\u043d\u0430\u0442\u043e\u043b\u044c\u0435\u0432\u0438\u0447",
    "rating": 3.905647623528118
  },
  "7207": {
    "name": "\u0424\u0438\u043d\u044c\u043a\u043e \u041e\u043b\u0435\u0433 \u0418\u0432\u0430\u043d\u043e\u0432\u0438\u0447",
    "rating": 1.6823859548969076
  },
  "7208": {
    "name": "\u0422\u0440\u0438\u043b\u044c \u0410\u043b\u0435\u043a\u0441\u0430\u043d\u0434\u0440 \u0412\u0430\u0441\u0438\u043b\u044c\u0435\u0432\u0438\u0447",
    "rating": 0.19718042937925007
  }
}