{
  "21709": {
    "name": "\u0420\u044f\u0431\u043e\u0432 \u041d\u0438\u043a\u043e\u043b\u0430\u0439 \u0410\u043b\u0435\u043a\u0441\u0430\u043d\u0434\u0440\u043e\u0432\u0438\u0447",
    "rating": 0.42162569103882025
  },
  "21710": {
    "name": "\u041c\u0438\u043d\u0438\u0433\u043e\u0440\u0430\u0435\u0432 \u0412\u043b\u0430\u0434\u0438\u043c\u0438\u0440 \u041c\u0443\u043d\u0438\u0440\u043e\u0432\u0438\u0447",
    "rating": 0.1108028282743605
  },
  "21711": {
    "name": "\u0413\u0435\u0440\u043c\u0430\u043d \u0410\u043d\u0442\u043e\u043d \u0410\u043d\u0434\u0440\u0435\u0435\u0432\u0438\u0447",
    "rating": 0.11502422908862996
  },
  "21712": {
    "name": "\u0414\u0430\u043d\u0438\u043b\u044c\u0447\u0435\u043d\u043a\u043e \u041e\u043b\u0435\u0433 \u0412\u0438\u0442\u0430\u043b\u044c\u0435\u0432\u0438\u0447",
    "rating": 0.15581197914979328
  },
  "21713": {
    "name": "\u0415\u0440\u0437\u0438\u043a\u043e\u0432 \u0410\u043b\u0435\u043a\u0441\u0430\u043d\u0434\u0440 \u0410\u043b\u0435\u043a\u0441\u0430\u043d\u0434\u0440\u043e\u0432\u0438\u0447",
    "rating": 0.043254813375945216
  },
  "22565": {
    "name": "\u0411\u0435\u0441\u0441\u0447\u0430\u0441\u043d\u044b\u0439 \u0421\u0435\u0440\u0433\u0435\u0439 \u0410\u043b\u0435\u043a\u0441\u0435\u0435\u0432\u0438\u0447",
    "rating": 0.6986357174238843
  },
  "22738": {
    "name": "\u041a\u043e\u043d\u044e\u0448\u0435\u043d\u043a\u043e \u041a\u043e\u043d\u0441\u0442\u0430\u043d\u0442\u0438\u043d \u0412\u0438\u043b\u044c\u044f\u043c\u043e\u0432\u0438\u0447",
    "rating": 0.13304044545908694
  },
  "23277": {
    "name": "\u0428\u043c\u0435\u043b\u0435\u0432 \u0410\u043b\u0435\u043a\u0441\u0430\u043d\u0434\u0440 \u0418\u0432\u0430\u043d\u043e\u0432\u0438\u0447",
    "rating": 0.10785736360524356
  },
  "23278": {
    "name": "\u0411\u043e\u0433\u0430\u0434\u0435\u043b\u044c\u0449\u0438\u043a\u043e\u0432 \u0414\u0438\u043c\u0438\u0442\u0440\u0438\u0439 \u0412\u0430\u0434\u0438\u043c\u043e\u0432\u0438\u0447",
    "rating": 0.08358817241659608
  }
}