{
  "7175": {
    "name": "\u0424\u0435\u0434\u0438\u043d\u0430 \u0413\u0430\u043b\u0438\u043d\u0430 \u0410\u043b\u0435\u043a\u0441\u0430\u043d\u0434\u0440\u043e\u0432\u043d\u0430",
    "rating": 0.6256594434806709
  },
  "7176": {
    "name": "\u0420\u0443\u043c\u044f\u043d\u0446\u0435\u0432 \u0410\u043b\u0435\u043a\u0441\u0430\u043d\u0434\u0440 \u0410\u043b\u0435\u043a\u0441\u0430\u043d\u0434\u0440\u043e\u0432\u0438\u0447",
    "rating": 0.29945809482944685
  },
  "7177": {
    "name": "\u0411\u043e\u044f\u0440\u0448\u0438\u043d\u043e\u0432\u0430 \u0415\u043b\u0435\u043d\u0430 \u0412\u0438\u043d\u0435\u0440\u043e\u0432\u043d\u0430",
    "rating": 0.06819208522915596
  }
}