{
  "9164": {
    "name": "\u0422\u0438\u043c\u043e\u0444\u0435\u0435\u0432 \u0418\u0433\u043e\u0440\u044c \u0412\u043b\u0430\u0434\u0438\u043c\u0438\u0440\u043e\u0432\u0438\u0447",
    "rating": 2.2281997882051443
  },
  "22007": {
    "name": "\u0413\u0443\u0446\u0430\u043d \u041d\u0430\u0442\u0430\u043b\u044c\u044f \u0424\u0435\u0434\u043e\u0440\u043e\u0432\u043d\u0430",
    "rating": 2.018295172590676
  },
  "22012": {
    "name": "\u0413\u0435\u0440\u0430\u0441\u0438\u043d\u0430 \u041e\u043b\u044c\u0433\u0430 \u0412\u044f\u0447\u0435\u0441\u043b\u0430\u0432\u043e\u0432\u043d\u0430",
    "rating": 1.841956163038868
  },
  "22017": {
    "name": "\u0428\u0435\u0432\u0447\u0435\u043d\u043a\u043e \u0410\u043d\u0442\u043e\u043d\u0438\u043d\u0430 \u0412\u0438\u043a\u0442\u043e\u0440\u043e\u0432\u043d\u0430",
    "rating": 2.574553184739228
  },
  "22024": {
    "name": "\u041c\u0430\u0442\u0432\u0435\u0435\u0432\u0430 \u041c\u0430\u0440\u0438\u043d\u0430 \u0410\u043d\u0430\u0442\u043e\u043b\u044c\u0435\u0432\u043d\u0430",
    "rating": 1.1656033823055825
  },
  "23330": {
    "name": "\u041f\u0435\u0442\u0440\u043e\u0432 \u041c\u0438\u0445\u0430\u0438\u043b \u0412\u0438\u043a\u0442\u043e\u0440\u043e\u0432\u0438\u0447",
    "rating": 1.0329329703413934
  }
}