{
  "4728": {
    "name": "\u0411\u0435\u043b\u043e\u043a\u043e\u0431\u044b\u043b\u044c\u0441\u043a\u0438\u0439 \u0421\u0435\u0440\u0433\u0435\u0439 \u0412\u043b\u0430\u0434\u0438\u043c\u0438\u0440\u043e\u0432\u0438\u0447",
    "rating": 3.609651124532963
  },
  "12761": {
    "name": "\u0410\u043b\u0434\u0430\u0440\u043e\u0432 \u041a\u0443\u0437\u044c\u043c\u0430 \u0420\u043e\u043c\u0430\u043d\u043e\u0432\u0438\u0447",
    "rating": 1.0995583815925851
  },
  "12762": {
    "name": "\u0410\u043b\u0435\u043a\u0441\u0435\u0435\u0432 \u0411\u043e\u0440\u0438\u0441 \u0413\u0440\u0438\u0433\u043e\u0440\u044c\u0435\u0432\u0438\u0447",
    "rating": 1.8028780342741888
  },
  "12763": {
    "name": "\u0411\u0430\u0431\u043a\u0438\u043d \u0421\u0435\u0440\u0433\u0435\u0439 \u0418\u0432\u0430\u043d\u043e\u0432\u0438\u0447",
    "rating": 3.367605507374168
  },
  "12764": {
    "name": "\u0411\u0430\u0439\u043c\u0430\u0448\u0435\u0432 \u0414\u043c\u0438\u0442\u0440\u0438\u0439 \u0417\u0430\u043a\u0430\u0440\u044c\u0435\u0432\u0438\u0447",
    "rating": 4.597746362628201
  },
  "12765": {
    "name": "\u0411\u0430\u043b\u0430\u0431\u0430\u043d\u043e\u0432 \u0410\u043b\u0435\u043a\u0441\u0430\u043d\u0434\u0440 \u0410\u0440\u043a\u0430\u0434\u044c\u0435\u0432\u0438\u0447",
    "rating": 0.91994111835852
  },
  "12766": {
    "name": "\u0411\u0435\u0440\u043b\u0438\u043d\u0430 \u041b\u044e\u0434\u043c\u0438\u043b\u0430 \u041c\u0438\u0445\u0430\u0439\u043b\u043e\u0432\u043d\u0430",
    "rating": 0.1744587473415277
  },
  "12767": {
    "name": "\u0411\u0438\u0442\u0430\u0440\u043e\u0432 \u0410\u043b\u0435\u043a\u0441\u0430\u043d\u0434\u0440 \u0421\u0435\u043c\u0435\u043d\u043e\u0432\u0438\u0447",
    "rating": 0.0597623834466394
  },
  "12771": {
    "name": "\u0411\u0440\u0435\u043d\u044e\u043a \u0421\u0435\u0440\u0433\u0435\u0439 \u0410\u043b\u0435\u043a\u0441\u0435\u0435\u0432\u0438\u0447",
    "rating": 0.6510124099933439
  },
  "12772": {
    "name": "\u0411\u0440\u0438\u043b\u043a\u0430 \u0421\u0435\u0440\u0433\u0435\u0439 \u0424\u0430\u0442\u0435\u0435\u0432\u0438\u0447",
    "rating": 1.2154904945339506
  },
  "12773": {
    "name": "\u0412\u0435\u043f\u0440\u0435\u0432 \u0410\u043b\u0435\u043a\u0441\u0430\u043d\u0434\u0440 \u0410\u043b\u0435\u043a\u0441\u0435\u0435\u0432\u0438\u0447",
    "rating": 2.097105998063973
  },
  "12774": {
    "name": "\u0413\u0430\u0431\u043e\u0432 \u0420\u043e\u043c\u0430\u043d \u0424\u0435\u0434\u043e\u0440\u043e\u0432\u0438\u0447",
    "rating": 0.8904285473682314
  },
  "12775": {
    "name": "\u0413\u0440\u0438\u043d\u0431\u0435\u0440\u0433 \u0418\u0433\u043e\u0440\u044c \u0421\u0430\u043c\u0441\u043e\u043d\u043e\u0432\u0438\u0447",
    "rating": 2.6215558864377253
  },
  "12776": {
    "name": "\u0414\u0438\u043a\u0443\u043d\u043e\u0432 \u042d\u0434\u0443\u0430\u0440\u0434 \u0415\u0432\u0433\u0435\u043d\u044c\u0435\u0432\u0438\u0447",
    "rating": 0.6854567749866135
  },
  "12777": {
    "name": "\u0414\u0443\u0431\u0430\u0441 \u0410\u043d\u0430\u0442\u043e\u043b\u0438\u0439 \u0410\u043d\u0430\u0442\u043e\u043b\u044c\u0435\u0432\u0438\u0447",
    "rating": 1.3758620626543994
  },
  "12778": {
    "name": "\u0415\u0433\u043e\u0440\u043e\u0432\u0430 \u0410\u043d\u0430\u0441\u0442\u0430\u0441\u0438\u044f \u041e\u043b\u0435\u0433\u043e\u0432\u043d\u0430",
    "rating": 1.633460648342956
  },
  "12779": {
    "name": "\u0415\u0440\u0448\u043e\u0432 \u0414\u043c\u0438\u0442\u0440\u0438\u0439 \u041c\u0438\u0445\u0430\u0439\u043b\u043e\u0432\u0438\u0447",
    "rating": 4.597746362628201
  },
  "12780": {
    "name": "\u0418\u0432\u0430\u043d\u043e\u0432 \u0410\u043f\u043e\u043b\u043b\u043e\u043d \u041d\u0438\u043a\u043e\u043b\u0430\u0435\u0432\u0438\u0447",
    "rating": 4.597746362628201
  },
  "12781": {
    "name": "\u0418\u0441\u0442\u043e\u043c\u0438\u043d \u0413\u0435\u043d\u043d\u0430\u0434\u0438\u0439 \u0412\u0430\u0441\u0438\u043b\u044c\u0435\u0432\u0438\u0447",
    "rating": 2.2013915265378112
  },
  "12782": {
    "name": "\u041a\u043e\u0437\u044e\u0440\u0430 \u0410\u043b\u0435\u043a\u0441\u0435\u0439 \u0412\u0438\u043a\u0442\u043e\u0440\u043e\u0432\u0438\u0447",
    "rating": 0.8680503719675139
  },
  "12783": {
    "name": "\u041a\u0440\u0430\u0441\u043d\u043e\u0448\u0442\u0430\u043d\u043e\u0432 \u0410\u043b\u0435\u043a\u0441\u0435\u0439 \u041d\u0438\u043a\u043e\u043b\u0430\u0435\u0432\u0438\u0447",
    "rating": 2.016280210056956
  },
  "12784": {
    "name": "\u041a\u0440\u0443\u0433\u043b\u043e\u0432 \u0412\u0438\u043a\u0442\u043e\u0440 \u041a\u0443\u0437\u044c\u043c\u0438\u0447",
    "rating": 2.0
  },
  "12785": {
    "name": "\u041a\u0443\u0437\u043d\u0435\u0446\u043e\u0432 \u041e\u043b\u0435\u0433 \u041d\u0438\u043a\u043e\u043b\u0430\u0435\u0432\u0438\u0447",
    "rating": 4.349673106373047
  },
  "12786": {
    "name": "\u041b\u0430\u0431\u044b\u0433\u0438\u043d \u0410\u043d\u0434\u0440\u0435\u0439 \u041d\u0438\u043a\u043e\u043b\u0430\u0435\u0432\u0438\u0447",
    "rating": 1.057524959920261
  },
  "12787": {
    "name": "\u041b\u043e\u0431\u0430\u043d\u043e\u0432 \u0410\u043b\u0435\u043a\u0441\u0430\u043d\u0434\u0440 \u042e\u0440\u044c\u0435\u0432\u0438\u0447",
    "rating": 0.9066270947459548
  },
  "12788": {
    "name": "\u041b\u044e\u0431\u0435\u043d\u043a\u043e\u0432 \u0413\u0435\u043e\u0440\u0433\u0438\u0439 \u0410\u043b\u0435\u043a\u0441\u0430\u043d\u0434\u0440\u043e\u0432\u0438\u0447",
    "rating": 0.9937802685456572
  },
  "12789": {
    "name": "\u041c\u0430\u0433\u0434\u0430\u043b\u0438\u043d\u043e\u0432 \u0421\u0435\u0440\u0433\u0435\u0439 \u042e\u0440\u044c\u0435\u0432\u0438\u0447",
    "rating": 1.967112985096808
  },
  "12790": {
    "name": "\u041c\u0430\u0442\u0438\u0435\u043d\u043a\u043e \u0412\u043b\u0430\u0434\u0438\u043c\u0438\u0440 \u0410\u043b\u0435\u043a\u0441\u0430\u043d\u0434\u0440\u043e\u0432\u0438\u0447",
    "rating": 1.6221757763641458
  },
  "12791": {
    "name": "\u041c\u0438\u043a\u0443\u043b\u044f\u043a \u0410\u043d\u0434\u0440\u0435\u0439 \u0421\u0442\u0435\u043f\u0430\u043d\u043e\u0432\u0438\u0447",
    "rating": 0.832081683323268
  },
  "12792": {
    "name": "\u041c\u0438\u043b\u043e\u0441\u0442\u043d\u044b\u0445 \u0418\u0433\u043e\u0440\u044c \u0412\u0430\u0441\u0438\u043b\u044c\u0435\u0432\u0438\u0447",
    "rating": 0.6632863545416376
  },
  "12793": {
    "name": "\u041d\u0435\u0441\u0442\u0435\u0440\u043e\u0432\u0438\u0447 \u0413\u0435\u043d\u043d\u0430\u0434\u0438\u0439 \u041d\u0438\u043a\u043e\u043b\u0430\u0435\u0432\u0438\u0447",
    "rating": 3.609651124532963
  },
  "12794": {
    "name": "\u041d\u043e\u0441\u0435\u043d\u043a\u043e \u041e\u043b\u044c\u0433\u0430 \u041d\u0438\u043a\u043e\u043b\u0430\u0435\u0432\u043d\u0430",
    "rating": 0.6576498919314063
  },
  "12795": {
    "name": "\u0421\u0430\u0433\u0434\u0435\u0435\u0432 \u0422\u0438\u043c\u0443\u0440 \u0420\u0438\u043d\u0430\u0442\u043e\u0432\u0438\u0447",
    "rating": 1.8868650612417917
  },
  "12796": {
    "name": "\u0421\u0435\u0434\u044b\u0445 \u041c\u0430\u0440\u0438\u043d\u0430 \u0412\u043b\u0430\u0434\u0438\u043c\u0438\u0440\u043e\u0432\u043d\u0430",
    "rating": 2.6215558864377253
  },
  "12797": {
    "name": "\u0421\u0438\u043d\u0446\u043e\u0432\u0430 \u0418\u0440\u0438\u043d\u0430 \u0410\u043b\u0435\u043a\u0441\u0430\u043d\u0434\u0440\u043e\u0432\u043d\u0430",
    "rating": 0.9457826199559666
  },
  "12798": {
    "name": "\u0421\u0443\u043c\u0430\u0440\u043e\u043a\u043e\u0432 \u0418\u043b\u044c\u044f \u0410\u043b\u0435\u043a\u0441\u0435\u0435\u0432\u0438\u0447",
    "rating": 1.1880508996140244
  },
  "12799": {
    "name": "\u0421\u0443\u043c\u0430\u0440\u043e\u043a\u043e\u0432 \u041f\u0430\u0432\u0435\u043b \u0418\u043b\u044c\u0438\u0447",
    "rating": 1.4572270640930975
  },
  "12800": {
    "name": "\u0422\u0440\u0443\u0444\u0430\u043d\u043e\u0432 \u041d\u0438\u043a\u043e\u043b\u0430\u0439 \u0421\u0442\u0435\u043f\u0430\u043d\u043e\u0432\u0438\u0447",
    "rating": 1.828273510618088
  },
  "12801": {
    "name": "\u0422\u044e\u043c\u0435\u043d\u0435\u0432 \u041e\u043b\u0435\u0433 \u041d\u0438\u043a\u043e\u043b\u0430\u0435\u0432\u0438\u0447",
    "rating": 0.9526080294996406
  },
  "12802": {
    "name": "\u0427\u0435\u0431\u043e\u0442\u0430\u0440\u0435\u0432 \u0412\u043b\u0430\u0434\u0438\u043c\u0438\u0440 \u041f\u0430\u0432\u043b\u043e\u0432\u0438\u0447",
    "rating": 1.4713211050435295
  },
  "12803": {
    "name": "\u0427\u0435\u043a\u043e\u0442\u043e\u0432\u0430 \u041d\u0438\u043d\u0430 \u0410\u043b\u0435\u043a\u0441\u0430\u043d\u0434\u0440\u043e\u0432\u043d\u0430",
    "rating": 3.6260062803100688
  },
  "12804": {
    "name": "\u0427\u0435\u0440\u043d\u044b\u0448\u0435\u0432 \u0410\u043d\u0434\u0440\u0435\u0439 \u0412\u043b\u0430\u0434\u0438\u043c\u0438\u0440\u043e\u0432\u0438\u0447",
    "rating": 2.6385062803100685
  },
  "12805": {
    "name": "\u0428\u043e\u043f\u0435\u043d \u0412\u0438\u043a\u0442\u043e\u0440 \u041f\u0430\u043d\u0442\u0435\u043b\u0435\u0439\u043c\u043e\u043d\u043e\u0432\u0438\u0447",
    "rating": 2.0986260098485774
  },
  "12806": {
    "name": "\u0429\u0430\u043f\u043e\u0432 \u041c\u0438\u0445\u0430\u0438\u043b \u0412\u0438\u043a\u0442\u043e\u0440\u043e\u0432\u0438\u0447",
    "rating": 0.09157509842209442
  },
  "22902": {
    "name": "\u0414\u0438\u043a\u0443\u0441\u0430\u0440\u043e\u0432\u0430 \u041d\u0430\u0442\u0430\u043b\u044c\u044f \u0418\u0433\u043e\u0440\u0435\u0432\u043d\u0430",
    "rating": 0.6653146308929014
  },
  "22907": {
    "name": "\u041b\u043e\u0431\u043a\u043e\u0432 \u0410\u0440\u0442\u0435\u043c \u0412\u0430\u043b\u0435\u043d\u0442\u0438\u043d\u043e\u0432\u0438\u0447",
    "rating": 1.0926628328181942
  },
  "32431": {
    "name": "\u0414\u0443\u0431\u0440\u043e\u0432\u0438\u043d \u0410\u043b\u0435\u043a\u0441\u0430\u043d\u0434\u0440 \u0421\u0435\u0440\u0433\u0435\u0435\u0432\u0438\u0447",
    "rating": 1.047758461293935
  },
  "32532": {
    "name": "\u041a\u0440\u0430\u0441\u043d\u043e\u0448\u0442\u0430\u043d\u043e\u0432 \u0410\u043d\u0442\u043e\u043d \u0410\u043b\u0435\u043a\u0441\u0435\u0435\u0432\u0438\u0447",
    "rating": 2.0
  },
  "32612": {
    "name": "\u041b\u0435\u0432\u0447\u0435\u043d\u043a\u043e \u0410\u043d\u0434\u0440\u0435\u0439 \u0421\u0435\u0440\u0433\u0435\u0435\u0432\u0438\u0447",
    "rating": 2.0
  },
  "32613": {
    "name": "\u041d\u043e\u0432\u043e\u0436\u0438\u043b\u043e\u0432 \u0412\u043b\u0430\u0434\u0438\u043c\u0438\u0440 \u0410\u043b\u0435\u043a\u0441\u0430\u043d\u0434\u0440\u043e\u0432\u0438\u0447",
    "rating": 1.8730652900078193
  },
  "32614": {
    "name": "\u0427\u0435\u043a\u043e\u0442\u043e\u0432\u0430 \u041d\u0438\u043d\u0430 \u0410\u043b\u0435\u043a\u0441\u0435\u0435\u0432\u043d\u0430",
    "rating": 3.0
  },
  "32615": {
    "name": "\u0411\u0443\u0445\u0430\u043d\u043e\u0432 \u0412\u043b\u0430\u0434\u0438\u0441\u043b\u0430\u0432 \u0412\u0430\u043b\u0435\u0440\u044c\u0435\u0432\u0438\u0447",
    "rating": 0.4325402276956985
  }
}