{
  "775": {
    "name": "\u041c\u0430\u043a\u0441\u0438\u043c\u043e\u0432 \u041c\u0438\u0445\u0430\u0438\u043b \u0418\u0433\u043e\u0440\u0435\u0432\u0438\u0447",
    "rating": 0.6758578882180719
  },
  "3202": {
    "name": "\u041b\u0443\u043a\u044c\u044f\u043d\u0447\u0438\u043a\u043e\u0432 \u0410\u043b\u0435\u043a\u0441\u0430\u043d\u0434\u0440 \u0412\u0430\u0441\u0438\u043b\u044c\u0435\u0432\u0438\u0447",
    "rating": 0.6005349456224255
  },
  "3206": {
    "name": "\u0427\u0435\u0440\u043d\u044b\u0448\u043e\u0432 \u0410\u043b\u0435\u043a\u0441\u0430\u043d\u0434\u0440 \u0418\u0432\u0430\u043d\u043e\u0432\u0438\u0447",
    "rating": 4.39240495986081
  },
  "3208": {
    "name": "\u041a\u0430\u0442\u0430\u0435\u0432\u0430 \u041d\u0430\u0442\u0430\u043b\u044c\u044f \u042e\u0440\u044c\u0435\u0432\u043d\u0430",
    "rating": 0.5656343556102621
  },
  "3211": {
    "name": "\u0421\u0442\u0430\u0440\u043e\u0432\u043e\u0439\u0442\u043e\u0432 \u0410\u043b\u0435\u043a\u0441\u0435\u0439 \u0412\u044f\u0447\u0435\u0441\u043b\u0430\u0432\u043e\u0432\u0438\u0447",
    "rating": 0.5478517174038343
  },
  "3213": {
    "name": "\u0427\u0438\u043d\u0438\u043b\u0438\u043d \u041f\u0430\u0432\u0435\u043b \u042e\u0440\u044c\u0435\u0432\u0438\u0447",
    "rating": 1.4142598569521443
  },
  "3219": {
    "name": "\u0417\u0435\u043b\u044c \u0410\u043b\u0435\u043a\u0441\u0430\u043d\u0434\u0440 \u042d\u0434\u0443\u0430\u0440\u0434\u043e\u0432\u0438\u0447",
    "rating": 0.020575266755199332
  },
  "3220": {
    "name": "\u041f\u0435\u043d\u044c\u043a\u043e\u0432\u0430 \u0413\u0443\u043b\u044c\u043d\u0430\u0440\u0430 \u0412\u0430\u043b\u0435\u0440\u044c\u0435\u0432\u043d\u0430",
    "rating": 1.0464824680941822
  },
  "3221": {
    "name": "\u0428\u0438\u043d\u043a\u0430\u0440\u0443\u043a \u0415\u043b\u0435\u043d\u0430 \u0412\u044f\u0447\u0435\u0441\u043b\u0430\u0432\u043e\u0432\u043d\u0430",
    "rating": 0.4967070783593974
  },
  "3222": {
    "name": "\u0421\u0438\u043d\u0433\u0430\u0447\u0451\u0432 \u0421\u0435\u0440\u0433\u0435\u0439 \u042d\u0434\u0443\u0430\u0440\u0434\u043e\u0432\u0438\u0447",
    "rating": 1.897957303816426
  },
  "3226": {
    "name": "\u0413\u043e\u043d\u0447\u0430\u0440\u0435\u043d\u043a\u043e \u041f\u0430\u0432\u0435\u043b \u0410\u043b\u044c\u0431\u0435\u0440\u0442\u043e\u0432\u0438\u0447",
    "rating": 1.4273455593431814
  },
  "3227": {
    "name": "\u0410\u043b\u0435\u043a\u0441\u0430\u043d\u0434\u0440\u043e\u0432\u0430 \u0410\u043b\u0435\u043a\u0441\u0430\u043d\u0434\u0440\u0430 \u0411\u043e\u0440\u0438\u0441\u043e\u0432\u043d\u0430",
    "rating": 0.6315452898961224
  },
  "3232": {
    "name": "\u0411\u0440\u043e\u0432\u0438\u043d\u0430 \u041b\u0430\u0440\u0438\u0441\u0430 \u041c\u043e\u0438\u0441\u0435\u0435\u0432\u043d\u0430",
    "rating": 0.20797770114060127
  },
  "3235": {
    "name": "\u041f\u043e\u043f\u043e\u0432 \u0412\u043b\u0430\u0434\u0438\u043c\u0438\u0440 \u041f\u0435\u0442\u0440\u043e\u0432\u0438\u0447",
    "rating": 5.2588128342178795
  },
  "3236": {
    "name": "\u042e\u0440\u043e\u0432 \u042e\u0440\u0438\u0439 \u0412\u0438\u043a\u0442\u043e\u0440\u043e\u0432\u0438\u0447",
    "rating": 2.1295244235285997
  },
  "3240": {
    "name": "\u041f\u0435\u0442\u0440\u043e\u0432 \u0410\u043b\u0435\u043a\u0441\u0435\u0439 \u0412\u043b\u0430\u0434\u0438\u043c\u0438\u0440\u043e\u0432\u0438\u0447",
    "rating": 2.1212338117652587
  },
  "3255": {
    "name": "\u041b\u044f\u043d\u043d\u0430\u044f \u041d\u0435\u043b\u044f \u0410\u043d\u0430\u0442\u043e\u043b\u044c\u0435\u0432\u043d\u0430",
    "rating": 2.1940671099715825
  },
  "3259": {
    "name": "\u041f\u0440\u044f\u0434\u0438\u043b\u044c\u043d\u0438\u043a\u043e\u0432 \u041c\u0438\u0445\u0430\u0438\u043b \u0412\u043b\u0430\u0434\u0438\u043c\u0438\u0440\u043e\u0432\u0438\u0447",
    "rating": 0.5933209921822449
  },
  "3260": {
    "name": "\u0427\u0435\u0440\u043d\u0438\u043a\u043e\u0432\u0430 \u0421\u0432\u0435\u0442\u043b\u0430\u043d\u0430 \u041c\u0438\u0445\u0430\u0439\u043b\u043e\u0432\u043d\u0430",
    "rating": 1.3013531288883442
  },
  "3261": {
    "name": "\u0424\u0438\u043b\u0438\u043f\u043f\u043e\u0432\u0430 \u041d\u0430\u0434\u0435\u0436\u0434\u0430 \u041f\u0430\u0432\u043b\u043e\u0432\u043d\u0430",
    "rating": 0.4924257837181896
  },
  "3262": {
    "name": "\u0413\u0438\u043b\u044f\u0440\u043e\u0432\u0430 \u041b\u044e\u0434\u043c\u0438\u043b\u0430 \u0410\u043b\u0435\u043a\u0441\u0430\u043d\u0434\u0440\u043e\u0432\u043d\u0430",
    "rating": 0.8383697950054156
  },
  "3263": {
    "name": "\u0413\u043e\u0440\u0431\u044b\u043b\u0451\u0432 \u0410\u043b\u0435\u043a\u0441\u0430\u043d\u0434\u0440 \u0410\u043d\u0430\u0442\u043e\u043b\u044c\u0435\u0432\u0438\u0447",
    "rating": 0.35479829938613555
  },
  "3264": {
    "name": "\u041a\u043e\u0437\u043b\u043e\u0432 \u0415\u0432\u0433\u0435\u043d\u0438\u0439 \u0410\u043b\u0435\u043a\u0441\u0430\u043d\u0434\u0440\u043e\u0432\u0438\u0447",
    "rating": 3.521383012966849
  },
  "4439": {
    "name": "\u041b\u0435\u043e\u043d\u043e\u0432 \u0415\u0432\u0433\u0435\u043d\u0438\u0439 \u0412\u043b\u0430\u0434\u0438\u043c\u0438\u0440\u043e\u0432\u0438\u0447",
    "rating": 0.5420719954893662
  },
  "7372": {
    "name": "\u0417\u0435\u043b\u044c \u0410\u043b\u0435\u043a\u0441\u0430\u043d\u0434\u0440 \u042d\u0434\u0443\u0430\u0440\u0434\u043e\u0432\u0438\u0447",
    "rating": 0.6663961678181655
  },
  "7373": {
    "name": "\u041a\u0430\u043b\u0443\u0433\u0438\u043d \u041f\u0451\u0442\u0440 \u041f\u0435\u0442\u0440\u043e\u0432\u0438\u0447",
    "rating": 0.784922751369906
  },
  "7374": {
    "name": "\u041a\u043e\u0447\u0435\u0442\u043e\u0432 \u0421\u0435\u043c\u0451\u043d \u0412\u0438\u043a\u0442\u043e\u0440\u043e\u0432\u0438\u0447",
    "rating": 0.8822906781365975
  },
  "7375": {
    "name": "\u041a\u0443\u0437\u044c\u043c\u0438\u043d \u0414\u043c\u0438\u0442\u0440\u0438\u0439 \u0412\u0438\u043a\u0442\u043e\u0440\u043e\u0432\u0438\u0447",
    "rating": 1.868395375739225
  },
  "7376": {
    "name": "\u041c\u0430\u043b\u0430\u0448\u0435\u043d\u043a\u043e\u0432\u0430 \u0422\u0430\u0442\u044c\u044f\u043d\u0430 \u0410\u043b\u0435\u043a\u0441\u0430\u043d\u0434\u0440\u043e\u0432\u043d\u0430",
    "rating": 0.7084997126178543
  },
  "7377": {
    "name": "\u041d\u0438\u043a\u0443\u043b\u0438\u043d\u0430 \u0415\u043a\u0430\u0442\u0435\u0440\u0438\u043d\u0430 \u0410\u043d\u0434\u0440\u0435\u0435\u0432\u043d\u0430",
    "rating": 0.49942098690102005
  },
  "7378": {
    "name": "\u041f\u0430\u0440\u0430\u043c\u043e\u043d\u043e\u0432 \u0410\u043d\u0434\u0440\u0435\u0439 \u0420\u044e\u0440\u0438\u043a\u043e\u0432\u0438\u0447",
    "rating": 0.8984153643123185
  },
  "7379": {
    "name": "\u0421\u0438\u0433\u0430\u0447\u0451\u0432 \u0421\u0435\u0440\u0433\u0435\u0439 \u042d\u0434\u0443\u0430\u0440\u0434\u043e\u0432\u0438\u0447",
    "rating": 1.7284545876572344
  },
  "7380": {
    "name": "\u041c\u0430\u0440\u0433\u043e\u043b\u0438\u043d \u0410\u043d\u0434\u0440\u0435\u0439 \u041c\u0430\u0440\u043a\u043e\u0432\u0438\u0447",
    "rating": 0.2709288732415337
  },
  "7381": {
    "name": "\u0414\u0432\u043e\u0440\u043d\u0438\u043a\u043e\u0432\u0430 \u0415\u043a\u0430\u0442\u0435\u0440\u0438\u043d\u0430 \u0412\u0430\u043b\u0435\u0440\u044c\u0435\u0432\u043d\u0430",
    "rating": 0.5270331432160061
  },
  "7382": {
    "name": "\u041b\u0435\u0432\u043a\u0438\u043d \u0412\u043b\u0430\u0434\u0438\u043c\u0438\u0440 \u0412\u0430\u043b\u0435\u043d\u0442\u0438\u043d\u043e\u0432\u0438\u0447",
    "rating": 2.092456041760113
  },
  "8458": {
    "name": "\u0428\u0443\u043b\u0435\u043d\u0438\u043d \u0412\u044f\u0447\u0435\u0441\u043b\u0430\u0432 \u0412\u044f\u0447\u0435\u0441\u043b\u0430\u0432\u043e\u0432\u0438\u0447",
    "rating": 0.6774222024691394
  },
  "8477": {
    "name": "\u041a\u043b\u0438\u043c\u043e\u0432\u0430 \u041d\u0430\u0442\u0430\u043b\u044c\u044f \u041f\u0430\u0432\u043b\u043e\u0432\u043d\u0430",
    "rating": 1.2339982267214753
  },
  "8512": {
    "name": "\u0413\u0440\u043e\u043c\u043e\u0432\u0430 \u0415\u043b\u0435\u043d\u0430 \u0413\u0435\u043d\u043d\u0430\u0434\u044c\u0435\u0432\u043d\u0430",
    "rating": 0.712195498773725
  },
  "26379": {
    "name": "\u041f\u0438\u0449\u0435\u043b\u043a\u043e \u0410\u043b\u0435\u043a\u0441\u0430\u043d\u0434\u0440 \u0415\u0432\u0433\u0435\u043d\u044c\u0435\u0432\u0438\u0447",
    "rating": 0.5526054647880029
  },
  "26380": {
    "name": "\u0421\u043e\u043b\u0434\u0430\u0442\u043e\u0432 \u0410\u043b\u0435\u043a\u0441\u0435\u0439 \u0421\u0435\u0440\u0433\u0435\u0435\u0432\u0438\u0447",
    "rating": 3.0922536076498015
  },
  "26381": {
    "name": "\u041c\u0430\u043b\u044b\u0445\u0438\u043d \u041f\u0430\u0432\u0435\u043b \u0410\u043d\u0430\u0442\u043e\u043b\u044c\u0435\u0432\u0438\u0447",
    "rating": 0.6662743106573148
  },
  "26382": {
    "name": "\u0414\u043c\u0438\u0442\u0440\u0438\u0435\u0432\u0430 \u0412\u0430\u0440\u0432\u0430\u0440\u0430 \u041c\u0438\u0445\u0430\u0439\u043b\u043e\u0432\u043d\u0430",
    "rating": 0.4300594264744837
  },
  "26383": {
    "name": "\u0424\u0438\u0432\u0435\u0439\u0441\u043a\u0438\u0439 \u0412\u0430\u0441\u0438\u043b\u0438\u0439 \u042e\u0440\u044c\u0435\u0432\u0438\u0447",
    "rating": 0.6616436425189378
  },
  "42169": {
    "name": "\u0421\u0432\u0438\u0441\u0442\u0443\u043d\u043e\u0432 \u0412\u0438\u043a\u0442\u043e\u0440 \u0412.",
    "rating": 0.010303887980039594
  },
  "42170": {
    "name": "\u0415\u043b\u0438\u0441\u0435\u0435\u0432\u0430 \u0418\u0440\u0438\u043d\u0430 \u041d\u0438\u043a\u043e\u043b\u0430\u0435\u0432\u043d\u0430",
    "rating": 0.04174021381437161
  }
}