{
  "1407": {
    "name": "\u0411\u0435\u043b\u044b\u0445 \u041d\u0438\u043a\u0438\u0442\u0430 \u042e\u0440\u044c\u0435\u0432\u0438\u0447",
    "rating": 1.1414246561650052
  },
  "4796": {
    "name": "\u0412\u0430\u0441\u0438\u043b\u044c\u0435\u0432 \u0418\u0433\u043e\u0440\u044c \u0412\u043b\u0430\u0434\u0438\u043c\u0438\u0440\u043e\u0432\u0438\u0447",
    "rating": 4.536114174149448
  }
}