{
  "3448": {
    "name": "\u0427\u0435\u043b\u044b\u0448\u0435\u0432 \u0410\u043b\u0435\u043a\u0441\u0435\u0439 \u0412\u0430\u043b\u0435\u043d\u0442\u0438\u043d\u043e\u0432\u0438\u0447",
    "rating": 2.9366851647945507
  },
  "3452": {
    "name": "\u0421\u043c\u043e\u043b\u0435\u0435\u0432\u0441\u043a\u0438\u0439 \u0413\u0435\u043e\u0440\u0433\u0438\u0439 \u0412\u0438\u043a\u0442\u043e\u0440\u043e\u0432\u0438\u0447",
    "rating": 3.0
  },
  "7973": {
    "name": "\u041a\u043e\u043d\u0446\u0435\u0432\u0430\u044f \u041b\u044e\u0434\u043c\u0438\u043b\u0430 \u0412\u0430\u0441\u0438\u043b\u044c\u0435\u0432\u043d\u0430",
    "rating": 0.3818831873351903
  },
  "7976": {
    "name": "\u042e\u0441\u0438\u043f\u043e\u0432 \u041d\u0430\u0437\u044b\u043c \u0410\u0431\u0443\u0431\u044f\u043a\u0435\u0440\u043e\u0432\u0438\u0447",
    "rating": 0.8852644384523796
  },
  "8011": {
    "name": "\u0424\u0438\u043d\u0430\u0435\u0432\u0430 \u041b\u044e\u0431\u043e\u0432\u044c \u041d\u0438\u043a\u043e\u043b\u0430\u0435\u0432\u043d\u0430",
    "rating": 2.030525971923696
  },
  "8021": {
    "name": "\u0415\u0440\u043e\u0448\u0438\u043d \u0410\u043b\u0435\u043a\u0441\u0435\u0439 \u041d\u0438\u043a\u043e\u043b\u0430\u0435\u0432\u0438\u0447",
    "rating": 0.4306632159181273
  },
  "8022": {
    "name": "\u041b\u0430\u0447\u0438\u043d\u043e\u0432 \u041c\u0438\u0445\u0430\u0438\u043b \u041c\u0438\u0445\u0430\u0439\u043b\u043e\u0432\u0438\u0447",
    "rating": 2.234504158115154
  },
  "8023": {
    "name": "\u041b\u0435\u043e\u043d\u043e\u0432 \u0410\u043b\u0435\u043a\u0441\u0430\u043d\u0434\u0440 \u0410\u043d\u0430\u0442\u043e\u043b\u044c\u0435\u0432\u0438\u0447",
    "rating": 4.200171898601573
  },
  "8024": {
    "name": "\u041c\u0430\u0440\u0442\u044c\u044f\u043d\u043e\u0432\u0430 \u041b\u0430\u0440\u0438\u0441\u0430 \u0410\u043b\u0435\u043a\u0441\u0430\u043d\u0434\u0440\u043e\u0432\u043d\u0430",
    "rating": 1.9181046567186182
  },
  "8025": {
    "name": "\u0421\u0435\u043c\u0451\u043d\u043e\u0432 \u0412\u0438\u0442\u0430\u043b\u0438\u0439 \u0410\u043d\u0430\u0442\u043e\u043b\u044c\u0435\u0432\u0438\u0447",
    "rating": 0.5448563168668038
  },
  "8026": {
    "name": "\u0410\u0431\u0430\u0448\u0438\u043d\u0430 \u0418\u043d\u043d\u0430 \u0421\u0435\u0440\u0433\u0435\u0435\u0432\u043d\u0430",
    "rating": 1.3729906824958067
  },
  "16656": {
    "name": "\u041a\u0438\u0441\u043b\u043e\u0432\u0430 \u0415\u043b\u0435\u043d\u0430 \u0412\u043b\u0430\u0434\u0438\u043c\u0438\u0440\u043e\u0432\u043d\u0430",
    "rating": 0.3716245626765524
  },
  "16673": {
    "name": "\u041a\u0443\u043b\u0430\u043a\u043e\u0432\u0430 \u0418\u0440\u0438\u043d\u0430 \u041d\u0438\u043a\u043e\u043b\u0430\u0435\u0432\u043d\u0430",
    "rating": 2.0276338774383493
  },
  "16675": {
    "name": "\u0421\u0435\u0440\u0433\u0435\u0435\u0432\u0430 \u0418\u0440\u0438\u043d\u0430 \u0412\u044f\u0447\u0435\u0441\u043b\u0430\u0432\u043e\u0432\u043d\u0430",
    "rating": 0.39570168905149455
  },
  "25160": {
    "name": "\u0421\u0430\u043d\u0434\u0440\u044b\u043a\u0438\u043d\u0430 \u0421\u0432\u0435\u0442\u043b\u0430\u043d\u0430 \u0412\u043b\u0430\u0434\u0438\u043c\u0438\u0440\u043e\u0432\u043d\u0430",
    "rating": 0.6407883621976769
  },
  "25161": {
    "name": "\u041a\u0430\u0437\u0438\u043c\u0438\u0440\u043e\u0432 \u0420\u043e\u043c\u0430\u043d \u041d\u0438\u043a\u043e\u043b\u0430\u0435\u0432\u0438\u0447",
    "rating": 0.4386111617112583
  },
  "25162": {
    "name": "\u041c\u0430\u0440\u0447\u0443\u043a\u043e\u0432 \u041d\u0438\u043a\u043e\u043b\u0430\u0439 \u0418\u0432\u0430\u043d\u043e\u0432\u0438\u0447",
    "rating": 1.401041157393989
  },
  "25163": {
    "name": "\u0420\u0430\u0441\u0442\u043e\u0440\u0433\u0443\u0435\u0432 \u0410\u043d\u0434\u0440\u0435\u0439 \u0415\u0432\u0433\u0435\u043d\u044c\u0435\u0432\u0438\u0447",
    "rating": 0.5040357803832807
  },
  "25164": {
    "name": "\u041c\u0430\u043a\u0430\u0440\u043e\u0432\u0430 \u0418\u0440\u0438\u043d\u0430 \u0411\u043e\u0440\u0438\u0441\u043e\u0432\u043d\u0430",
    "rating": 0.049771837033803536
  },
  "25165": {
    "name": "\u042e\u0440\u0435\u043d\u043a\u043e \u0412\u0430\u0434\u0438\u043c \u0411\u043e\u0440\u0438\u0441\u043e\u0432\u0438\u0447",
    "rating": 1.4268606794323635
  },
  "25166": {
    "name": "\u0425\u0438\u0442\u0440\u043e\u0432 \u0421\u0435\u0440\u0433\u0435\u0439 \u0421\u0435\u0440\u0433\u0435\u0435\u0432\u0438\u0447",
    "rating": 0.4422523909764248
  },
  "25167": {
    "name": "\u0422\u0430\u0440\u043d\u043e\u0432\u0441\u043a\u0438\u0439 \u0418\u0433\u043e\u0440\u044c \u0410\u043b\u0435\u043a\u0441\u0430\u043d\u0434\u0440\u043e\u0432\u0438\u0447",
    "rating": 1.6657005790945414
  },
  "25168": {
    "name": "\u0421\u0432\u0435\u0442\u043b\u0438\u0447\u043d\u0430\u044f \u0415\u043b\u0435\u043d\u0430 \u0412\u043b\u0430\u0434\u0438\u043c\u0438\u0440\u043e\u0432\u043d\u0430",
    "rating": 3.5378062307101086
  },
  "25169": {
    "name": "\u041c\u0438\u0445\u0430\u043b\u0435\u0432\u0430 \u041c\u0430\u0440\u0438\u043d\u0430 \u0412\u0430\u043b\u0435\u043d\u0442\u0438\u043d\u043e\u0432\u043d\u0430",
    "rating": 1.5525943095606567
  },
  "25170": {
    "name": "\u0411\u0430\u043b\u0430\u0448\u043e\u0432 \u0412\u044f\u0447\u0435\u0441\u043b\u0430\u0432 \u0417\u0430\u0445\u0430\u0440\u043e\u0432\u0438\u0447",
    "rating": 2.017600142718494
  },
  "25171": {
    "name": "\u041f\u0440\u043e\u043d\u0438\u043d\u0430 \u0421\u0432\u0435\u0442\u043b\u0430\u043d\u0430 \u0410\u043b\u0435\u043a\u0441\u0430\u043d\u0434\u0440\u043e\u0432\u043d\u0430",
    "rating": 2.951041425802136
  },
  "25172": {
    "name": "\u0411\u043e\u0431\u0440\u044b\u0448\u0435\u0432\u0430 \u0422\u0430\u0442\u044c\u044f\u043d\u0430 \u0418\u0433\u043e\u0440\u0435\u0432\u043d\u0430",
    "rating": 1.4886628669594104
  },
  "25173": {
    "name": "\u041a\u0430\u0431\u0430\u043d\u043e\u0432\u0430 \u0418\u0440\u0438\u043d\u0430 \u0421\u0435\u0440\u0433\u0435\u0435\u0432\u043d\u0430",
    "rating": 4.332310198988533
  },
  "25174": {
    "name": "\u0420\u043e\u0436\u043a\u043e\u0432\u0430 \u041b\u044e\u0434\u043c\u0438\u043b\u0430 \u0412\u043b\u0430\u0434\u0438\u043c\u0438\u0440\u043e\u0432\u043d\u0430",
    "rating": 1.0166632150958903
  },
  "25175": {
    "name": "\u041c\u0430\u0442\u0432\u0435\u0435\u0432\u0430 \u0421\u0432\u0435\u0442\u043b\u0430\u043d\u0430 \u042e\u0440\u044c\u0435\u0432\u043d\u0430",
    "rating": 1.3742615727487757
  },
  "25176": {
    "name": "\u0410\u043b\u0435\u043a\u0441\u0435\u0435\u0432\u0430 \u0415\u043b\u0435\u043d\u0430  \u0412\u043b\u0430\u0434\u0438\u043c\u0438\u0440\u043e\u0432\u043d\u0430",
    "rating": 1.4596862109965816
  },
  "25177": {
    "name": "\u0421\u0443\u043b\u0438\u043c\u043e\u0432\u0430 \u041c\u0430\u0440\u0438\u043d\u0430 \u041f\u0430\u0432\u043b\u043e\u0432\u043d\u0430",
    "rating": 1.4555414156631985
  },
  "25178": {
    "name": "\u041f\u0435\u0432\u043d\u0435\u0432\u0430 \u041d\u0430\u0442\u0430\u043b\u044c\u044f \u042e\u0440\u044c\u0435\u0432\u043d\u0430",
    "rating": 1.607057844040317
  },
  "25179": {
    "name": "\u0413\u0430\u0434\u0436\u0438\u0435\u0432 \u0422.\u042d. ",
    "rating": 0.3673979182867788
  },
  "25180": {
    "name": "\u041a\u043d\u044f\u0437\u0435\u0432 \u041a\u043e\u043d\u0441\u0442\u0430\u043d\u0442\u0438\u043d \u0418\u0433\u043e\u0440\u0435\u0432\u0438\u0447",
    "rating": 0.04778961591392592
  },
  "25181": {
    "name": "\u0414\u043e\u043d\u0446\u043e\u0432\u0430 \u041c\u0430\u0440\u0438\u044f \u041c\u0438\u0445\u0430\u0439\u043b\u043e\u0432\u043d\u0430",
    "rating": 0.37305259923053535
  },
  "25182": {
    "name": "\u041c\u043e\u043b\u043e\u0442\u043e\u0432\u0430 \u0415.\u041d. ",
    "rating": 0.3999590919995787
  },
  "25183": {
    "name": "\u0416\u0443\u0439\u043a\u043e\u0432\u0430 \u0418.\u0414. ",
    "rating": 0.3778079757469754
  },
  "25184": {
    "name": "\u0410\u0433\u0430\u0444\u043e\u043d\u043e\u0432 \u0420\u043e\u043c\u0430\u043d \u0410\u043b\u0435\u043a\u0441\u0435\u0435\u0432\u0438\u0447",
    "rating": 0.3754492482544383
  },
  "25186": {
    "name": "\u0412\u0438\u043d\u043e\u0433\u0440\u0430\u0434\u043e\u0432\u0430 \u041e\u043b\u044c\u0433\u0430 \u041f\u0430\u0432\u043b\u043e\u0432\u043d\u0430",
    "rating": 0.007907315974614278
  },
  "25187": {
    "name": "\u0414\u0430\u043d\u044c\u0448\u0438\u043d\u0430 \u0421\u0432\u0435\u0442\u043b\u0430\u043d\u0430 \u042e\u0440\u044c\u0435\u0432\u043d\u0430",
    "rating": 0.3833543808353262
  },
  "25188": {
    "name": "\u0427\u0435\u0440\u043d\u044b\u0448\u043e\u0432\u0430 \u0410\u043d\u0430\u0441\u0442\u0430\u0441\u0438\u044f \u0413.",
    "rating": 0.38412160241488935
  },
  "25189": {
    "name": "\u041d\u0438\u0441\u0442\u0440\u0430\u0442\u043e\u0432 \u0410\u043d\u0434\u0440\u0435\u0439 \u0418\u0433\u043e\u0440\u0435\u0432\u0438\u0447",
    "rating": 0.4008912728691577
  },
  "25191": {
    "name": "\u0413\u0430\u043b\u0438\u043d\u0438\u043d \u0421.\u0412. ",
    "rating": 0.3708204830525092
  },
  "25192": {
    "name": "\u041a\u043e\u043b\u043c\u0430\u043d\u043e\u0432 \u0410.\u0410. ",
    "rating": 0.4087039431265948
  },
  "25193": {
    "name": "\u0412\u0438\u043d\u043d\u0438\u0447\u0435\u043d\u043a\u043e \u0421\u0435\u0440\u0433\u0435\u0439 \u0418\u0432\u0430\u043d\u043e\u0432\u0438\u0447",
    "rating": 2.39154386836862
  },
  "25195": {
    "name": "\u0411\u0430\u043b\u0430\u0448\u043e\u0432\u0430 \u041e.\u0412. ",
    "rating": 0.3686892378893073
  },
  "25198": {
    "name": "\u0410\u0440\u0434\u0430\u043d\u043e\u0432\u0430 \u0415.\u0410. ",
    "rating": 0.5140384446076316
  },
  "25199": {
    "name": "\u0411\u0430\u0440\u0430\u043d\u043e\u0432 \u042f\u0440\u043e\u0441\u043b\u0430\u0432 \u041d\u0438\u043a\u043e\u043b\u0430\u0435\u0432\u0438\u0447",
    "rating": 0.4299813369506929
  },
  "25200": {
    "name": "\u0421\u0443\u0441\u043b\u043e\u0432\u0430 \u041e.\u0410. ",
    "rating": 0.011778522238414595
  },
  "25201": {
    "name": "\u041e\u043b\u0438\u0441\u043e\u0432\u0430 \u0422\u0430\u0442\u044c\u044f\u043d\u0430 \u0412\u043b\u0430\u0434\u0438\u043c\u0438\u0440\u043e\u0432\u043d\u0430",
    "rating": 1.7238596565688875
  },
  "25202": {
    "name": "\u0421\u0443\u0448\u043a\u043e\u0432\u0430 \u0421\u0432\u0435\u0442\u043b\u0430\u043d\u0430 \u0410\u043b\u0435\u043a\u0441\u0435\u0435\u0432\u043d\u0430",
    "rating": 1.5302638288669803
  },
  "25203": {
    "name": "\u041a\u043e\u0437\u043b\u043e\u0432\u0430 \u0421\u0432\u0435\u0442\u043b\u0430\u043d\u0430 \u0411\u043e\u0440\u0438\u0441\u043e\u0432\u043d\u0430",
    "rating": 1.3631975362003783
  },
  "25204": {
    "name": "\u0412\u043e\u043b\u044b\u043d\u0435\u0446 \u041d\u0430\u0442\u0430\u043b\u044c\u044f \u0410\u043b\u0435\u043a\u0441\u0430\u043d\u0434\u0440\u043e\u0432\u043d\u0430",
    "rating": 1.5935653237270233
  },
  "25205": {
    "name": "\u0413\u0435\u0440\u0443\u0441\u0435\u043d\u043a\u043e \u0421\u0432\u0435\u0442\u043b\u0430\u043d\u0430 \u0421\u0435\u0440\u0433\u0435\u0435\u0432\u043d\u0430",
    "rating": 0.3771712712085805
  },
  "25207": {
    "name": "\u0425\u0430\u043c\u0438\u0434\u0443\u043b\u043b\u0438\u043d \u0420\u0430\u0438\u043b\u044c \u0410\u0431\u0434\u0440\u0430\u0445\u043c\u0430\u043d\u043e\u0432\u0438\u0447",
    "rating": 0.4030476285727274
  },
  "25208": {
    "name": "\u041f\u043e\u043b\u0435\u0432\u0430 \u041d\u0430\u0442\u0430\u043b\u044c\u044f \u041c\u0438\u0445\u0430\u0439\u043b\u043e\u0432\u043d\u0430",
    "rating": 0.4553238575628353
  },
  "25210": {
    "name": "\u0410\u0440\u0441\u0435\u043d\u0442\u044c\u0435\u0432\u0430 \u041e\u043b\u044c\u0433\u0430 \u0413\u0435\u043d\u043d\u0430\u0434\u0438\u0435\u0432\u043d\u0430",
    "rating": 0.38003683250460973
  },
  "25211": {
    "name": "\u041f\u0430\u043d\u043a\u0438\u043d\u0430 \u0415.\u0412. ",
    "rating": 0.4097905529581858
  },
  "25212": {
    "name": "\u0421\u043e\u043b\u043e\u0434\u0430\u0445\u0438\u043d\u0430 \u041d\u0430\u0442\u0430\u043b\u044c\u044f \u042e\u0440\u044c\u0435\u0432\u043d\u0430",
    "rating": 1.028075755116408
  },
  "25214": {
    "name": "\u0416\u0430\u0440\u043e\u0432\u0430 \u042e\u043b\u0438\u044f \u041d\u0438\u043a\u043e\u043b\u0430\u0435\u0432\u043d\u0430",
    "rating": 1.9730008923435471
  },
  "25215": {
    "name": "\u0427\u0435\u0440\u043d\u044b\u0448\u0435\u0432 \u0412\u043b\u0430\u0434\u0438\u043c\u0438\u0440 \u0421\u0435\u0440\u0433\u0435\u0435\u0432\u0438\u0447",
    "rating": 2.3275305960151034
  },
  "25217": {
    "name": "\u041f\u043e\u043d\u043e\u043c\u0430\u0440\u0435\u043d\u043a\u043e \u041b\u044e\u0431\u043e\u0432\u044c \u041f\u0435\u0442\u0440\u043e\u0432\u043d\u0430",
    "rating": 0.38281307075737503
  },
  "25218": {
    "name": "\u0410\u043b\u044b\u043c\u043e\u0432 \u0410\u043b\u0435\u043a\u0441\u0430\u043d\u0434\u0440 \u0413\u0435\u043e\u0440\u0433\u0438\u0435\u0432\u0438\u0447",
    "rating": 0.3753005934109256
  },
  "25220": {
    "name": "\u0420\u044f\u0441\u043a\u043e\u0432 \u0410\u043b\u0435\u043a\u0441\u0430\u043d\u0434\u0440 \u0410\u043d\u0430\u0442\u043e\u043b\u044c\u0435\u0432\u0438\u0447",
    "rating": 0.3894632395592799
  },
  "25221": {
    "name": "\u041a\u0440\u0430\u0441\u0430\u0432\u0438\u043d\u0430 \u042e\u043b\u0438\u044f \u0410\u043d\u0430\u0442\u043e\u043b\u044c\u0435\u0432\u043d\u0430",
    "rating": 0.3760161198804657
  },
  "25222": {
    "name": "\u0421\u043f\u0438\u0440\u0438\u0434\u043e\u043d\u043e\u0432 \u0414\u043c\u0438\u0442\u0440\u0438\u0439 \u0412\u0438\u043a\u0442\u043e\u0440\u043e\u0432\u0438\u0447",
    "rating": 1.965090283453448
  },
  "25223": {
    "name": "\u0413\u0430\u043d\u0438\u0435\u0432 \u0414.\u0411. ",
    "rating": 0.3810875002855784
  },
  "25225": {
    "name": "\u0414\u043e\u0431\u0440\u044f\u043a\u043e\u0432\u0430 \u041d\u0430\u0442\u0430\u043b\u044c\u044f \u0413\u043b\u0435\u0431\u043e\u0432\u043d\u0430",
    "rating": 0.034346275955274265
  },
  "25226": {
    "name": "\u0414\u0436\u0433\u0430\u0440\u043a\u0430\u0432\u0430 \u0412.\u042d. ",
    "rating": 0.3685411462192941
  },
  "25228": {
    "name": "\u0412\u0430\u0441\u0438\u043b\u044c\u0435\u0432\u0430 \u0421. \u0412.",
    "rating": 0.3701047314905543
  },
  "25229": {
    "name": "\u041c\u0438\u043d\u0435\u043d\u043a\u043e \u0410\u043b\u0435\u043a\u0441\u0435\u0439 \u041b\u0435\u043e\u043d\u0438\u0434\u043e\u0432\u0438\u0447",
    "rating": 0.4170648641028685
  },
  "25231": {
    "name": "\u0422\u0438\u043c\u043e\u0444\u0435\u0435\u0432 \u0410. \u0412.",
    "rating": 2.0
  },
  "27468": {
    "name": "\u0420\u044f\u0441\u043a\u043e\u0432\u0430 \u0410.\u042e. ",
    "rating": 2.03489630231413
  },
  "28032": {
    "name": "\u0424\u0430\u0434\u0435\u0435\u0432\u0430 \u0418\u043d\u043d\u0430 \u0413\u0435\u043d\u043d\u0430\u0434\u044c\u0435\u0432\u043d\u0430",
    "rating": 1.009910472709797
  },
  "38887": {
    "name": "\u041a\u0438\u0440\u044e\u0448\u043a\u0438\u043d \u0421.\u0410. ",
    "rating": 0.096238470522128
  },
  "38891": {
    "name": "\u041c\u0430\u0440\u0438\u044f\u043d \u0418.\u0410. ",
    "rating": 1.9831840554887592
  },
  "38893": {
    "name": "\u0422\u0435\u0440\u0435\u0445\u043e\u0432\u0430 \u0410.\u0411. ",
    "rating": 0.06128829471701469
  },
  "38894": {
    "name": "\u0421\u043e\u043b\u043e\u0434\u0430\u0445\u0438\u043d\u0430 \u041e.\u042e. ",
    "rating": 0.008016053863168601
  },
  "38895": {
    "name": "\u0422\u0443\u043b\u0443\u043f\u043e\u0432\u0430 \u0410.\u041c. ",
    "rating": 0.0028524103094113755
  },
  "38902": {
    "name": "\u041d\u0430\u0431\u0430\u0442\u043e\u0432\u0430 \u0415.\u0412. ",
    "rating": 0.0040361112364916095
  },
  "38903": {
    "name": "\u0412\u0430\u0441\u0438\u043b\u044c\u0435\u0432 \u0410.\u0410. ",
    "rating": 0.0038799532447550853
  },
  "38905": {
    "name": "\u0411\u0435\u043b\u044f\u0435\u0432\u0430 \u0422.\u0410. ",
    "rating": 1.0757564412043643
  },
  "38906": {
    "name": "\u0424\u0435\u0434\u043e\u0442\u043e\u0432\u0430 \u042e.\u041d. ",
    "rating": 0.05111862995122755
  },
  "38908": {
    "name": "\u0411\u0430\u0440\u0431\u0430\u043a\u0430\u0434\u0437\u0435 \u041a\u043e\u043d\u0441\u0442\u0430\u043d\u0442\u0438\u043d \u041c\u0430\u0440\u043a\u043e\u0432\u0438\u0447",
    "rating": 2.2983945727428745
  },
  "38909": {
    "name": "\u0410\u043b\u0435\u0445\u0438\u043d\u0430 \u0412\u0430\u043b\u0435\u043d\u0442\u0438\u043d\u0430 \u0410\u043b\u0435\u043a\u0441\u0430\u043d\u0434\u0440\u043e\u0432\u043d\u0430",
    "rating": 6.0
  },
  "38910": {
    "name": "\u0410\u0431\u0435\u0440\u0442\u0430\u0441\u043e\u0432 \u0410\u043d\u0434\u0440\u0435\u0439 \u0410\u043b\u0435\u043a\u0441\u0435\u0435\u0432\u0438\u0447",
    "rating": 3.7211952045749404
  },
  "38911": {
    "name": "\u0410\u043b\u044b\u0440\u0449\u0438\u043a\u043e\u0432 \u0414\u043c\u0438\u0442\u0440\u0438\u0439 \u0410\u043b\u0435\u043a\u0441\u0430\u043d\u0434\u0440\u043e\u0432\u0438\u0447",
    "rating": 1.0710307873708542
  },
  "38912": {
    "name": "\u0411\u0430\u0440\u0441\u0443\u043a\u043e\u0432 \u0413\u0440\u0438\u0433\u043e\u0440\u0438\u0439 \u0421\u0435\u0440\u0433\u0435\u0435\u0432\u0438\u0447",
    "rating": 1.081310634611843
  },
  "38913": {
    "name": "\u0411\u0430\u0434\u0430\u0435\u0432 \u0412\u0438\u043b\u044c\u0434\u0430\u043d \u0420\u0430\u0432\u0438\u043b\u044c\u0435\u0432\u0438\u0447",
    "rating": 0.047141678077624906
  },
  "38914": {
    "name": "\u0421\u0443\u0440\u0438\u043d \u0410\u043d\u0442\u043e\u043d \u0421\u0435\u0440\u0433\u0435\u0435\u0432\u0438\u0447",
    "rating": 0.0
  },
  "38915": {
    "name": "\u0412\u043b\u0430\u0441\u0435\u043d\u043a\u043e \u0410\u043d\u0442\u043e\u043d \u042e\u0440\u044c\u0435\u0432\u0438\u0447",
    "rating": 2.0253577519680834
  },
  "38916": {
    "name": "\u041c\u0435\u0440\u043a\u0443\u043b\u043e\u0432 \u0421\u0435\u0440\u0433\u0435\u0439 \u042e\u0440\u044c\u0435\u0432\u0438\u0447",
    "rating": 2.0
  },
  "38917": {
    "name": "\u0413\u0430\u0432\u0440\u0438\u043b\u043e\u0432\u0430 \u0421\u0432\u0435\u0442\u043b\u0430\u043d\u0430 \u0410\u043b\u0435\u043a\u0441\u0430\u043d\u0434\u0440\u043e\u0432\u043d\u0430",
    "rating": 1.071268586019403
  },
  "38918": {
    "name": "\u0413\u043b\u0443\u0449\u0435\u043d\u043a\u043e \u0410\u043d\u0434\u0440\u0435\u0439 \u0412\u043b\u0430\u0434\u0438\u043c\u0438\u0440\u043e\u0432\u0438\u0447",
    "rating": 2.3850276342208194
  },
  "38919": {
    "name": "\u0415\u0432\u0433\u043b\u0435\u0432\u0441\u043a\u0430\u044f \u041d\u0430\u0442\u0430\u043b\u044c\u044f \u0412\u0438\u043a\u0442\u043e\u0440\u043e\u0432\u043d\u0430",
    "rating": 0.00278987311559429
  },
  "38920": {
    "name": "\u0417\u0432\u043e\u043d\u0430\u0440\u0435\u0432\u0430 \u0421\u0432\u0435\u0442\u043b\u0430\u043d\u0430 \u0410\u043d\u0430\u0442\u043e\u043b\u044c\u0435\u0432\u043d\u0430",
    "rating": 2.188161129726569
  },
  "38921": {
    "name": "\u041a\u0430\u0440\u0435\u0442\u0438\u043d \u0418\u043b\u044c\u044f \u0415\u0432\u0433\u0435\u043d\u044c\u0435\u0432\u0438\u0447",
    "rating": 1.2758354025247995
  },
  "38922": {
    "name": "\u041a\u0430\u0448\u043b\u0435\u0432 \u0421\u0435\u0440\u0433\u0435\u0439 \u041d\u0438\u043a\u043e\u043b\u0430\u0435\u0432\u0438\u0447",
    "rating": 1.34186032120425
  },
  "38923": {
    "name": "\u041a\u043b\u0438\u043c\u043e\u0432\u0430 \u041b\u044e\u0434\u043c\u0438\u043b\u0430 \u0412\u0430\u043b\u0435\u043d\u0442\u0438\u043d\u043e\u0432\u043d\u0430",
    "rating": 1.2925158279379598
  },
  "38924": {
    "name": "\u0411\u043e\u0440\u043e\u0434\u0430\u0442\u043e\u0432\u0430 \u0418\u0440\u0438\u043d\u0430 \u0412\u0430\u043b\u0435\u0440\u044c\u0435\u0432\u043d\u0430",
    "rating": 3.0
  },
  "38925": {
    "name": "\u041a\u0430\u0448\u0435\u043a\u043e\u0432 \u041f\u0430\u0432\u0435\u043b \u0412\u0438\u043a\u0442\u043e\u0440\u043e\u0432\u0438\u0447",
    "rating": 0.02733313789474537
  },
  "38926": {
    "name": "\u041a\u0440\u0430\u0441\u043d\u043e\u0432 \u0414\u043c\u0438\u0442\u0440\u0438\u0439 \u0413\u0430\u0440\u0440\u0438\u0435\u0432\u0438\u0447",
    "rating": 1.0
  },
  "38927": {
    "name": "\u041a\u0435\u043b\u044c\u043c\u0435\u043d\u0447\u0443\u043a \u041c\u0430\u0440\u0433\u0430\u0440\u0438\u0442\u0430 \u0410\u043b\u0435\u043a\u0441\u0430\u043d\u0434\u0440\u043e\u0432\u043d\u0430",
    "rating": 0.03672394195488481
  },
  "38928": {
    "name": "\u041a\u0443\u0432\u0430\u043a\u0438\u043d\u0430 \u0412\u0435\u0440\u0430 \u0418\u0432\u0430\u043d\u043e\u0432\u043d\u0430",
    "rating": 1.0154578836510793
  },
  "38929": {
    "name": "\u041a\u043b\u0438\u043d\u043a\u043e\u0432 \u0421\u0435\u0440\u0433\u0435\u0439 \u041d\u0438\u043a\u043e\u043b\u0430\u0435\u0432\u0438\u0447",
    "rating": 1.2367162106122451
  },
  "38930": {
    "name": "\u041a\u043b\u0435\u0432\u0446\u043e\u0432 \u0412\u043b\u0430\u0434\u0438\u043c\u0438\u0440 \u0424\u0435\u0434\u043e\u0440\u043e\u0432\u0438\u0447",
    "rating": 5.0
  },
  "38931": {
    "name": "\u0411\u0430\u0443\u044d\u0440 \u0418\u0440\u0438\u043d\u0430 \u0410\u043b\u0435\u043a\u0441\u0430\u043d\u0434\u0440\u043e\u0432\u043d\u0430",
    "rating": 1.012522558930421
  },
  "38932": {
    "name": "\u041a\u0443\u0437\u044c\u043c\u0438\u0447 \u041b\u044e\u0431\u043e\u0432\u044c \u0415\u0432\u0433\u0435\u043d\u044c\u0435\u0432\u043d\u0430",
    "rating": 1.2609878397662249
  },
  "38933": {
    "name": "\u041a\u0443\u043b\u0438\u043a\u043e\u0432 \u0412\u043b\u0430\u0434\u0438\u043c\u0438\u0440 \u041d\u0438\u043a\u043e\u043b\u0430\u0435\u0432\u0438\u0447",
    "rating": 3.2578127796428213
  },
  "38934": {
    "name": "\u041b\u043e\u0442\u043e\u0432 \u0421\u0442\u0430\u043d\u0438\u0441\u043b\u0430\u0432 \u0410\u043b\u0435\u043a\u0441\u0430\u043d\u0434\u0440\u043e\u0432\u0438\u0447",
    "rating": 2.0
  },
  "38935": {
    "name": "\u0421\u0435\u0440\u0433\u0435\u0435\u0432\u0430 \u0415\u043a\u0430\u0442\u0435\u0440\u0438\u043d\u0430 \u0412\u043b\u0430\u0434\u0438\u043c\u0438\u0440\u043e\u0432\u043d\u0430",
    "rating": 2.0217433985501208
  },
  "38936": {
    "name": "\u041c\u0430\u0445\u0430\u043d\u044c\u043a\u043e\u0432 \u041c\u0438\u0445\u0430\u0438\u043b \u0413\u0435\u043e\u0440\u0433\u0438\u0435\u0432\u0438\u0447",
    "rating": 0.08433322713351313
  },
  "38937": {
    "name": "\u041c\u0438\u0445\u0430\u0439\u043b\u044e\u043a \u041d\u0430\u0442\u0430\u043b\u044c\u044f \u041f\u0435\u0442\u0440\u043e\u0432\u043d\u0430",
    "rating": 3.0
  },
  "38938": {
    "name": "\u041c\u043e\u0434\u044f\u0435\u0432\u0430 \u041b\u044e\u0434\u043c\u0438\u043b\u0430 \u0410\u043b\u0435\u043a\u0441\u0435\u0435\u0432\u043d\u0430",
    "rating": 2.46207448246068
  },
  "38939": {
    "name": "\u041d\u0430\u0441\u0438\u0431\u0443\u043b\u043b\u0438\u043d \u0420\u0443\u0441\u043b\u0430\u043d \u041c\u0430\u043d\u0441\u0443\u0440\u043e\u0432\u0438\u0447",
    "rating": 4.0
  },
  "38940": {
    "name": "\u041d\u0438\u043a\u043e\u043b\u044c\u0441\u043a\u0438\u0439 \u0418\u043b\u044c\u044f \u0412\u043b\u0430\u0434\u0438\u0441\u043b\u0430\u0432\u043e\u0432\u0438\u0447",
    "rating": 1.4991709946975862
  },
  "38941": {
    "name": "\u041e\u0440\u043b\u043e\u0432\u0430 \u0417\u0443\u043b\u044c\u0444\u0438\u044f \u041d\u043e\u043a\u0438\u043f\u043e\u0432\u043d\u0430",
    "rating": 1.7674971702840965
  },
  "38942": {
    "name": "\u0412\u043e\u0434\u044f\u043a\u043e\u0432 \u0412\u044f\u0447\u0435\u0441\u043b\u0430\u0432 \u0424\u0435\u0434\u043e\u0440\u043e\u0432\u0438\u0447",
    "rating": 1.0299101272937339
  },
  "38943": {
    "name": "\u0420\u0435\u043f\u043a\u0438\u043d\u0430 \u0415\u043b\u0435\u043d\u0430 \u0412\u043b\u0430\u0434\u0438\u043c\u0438\u0440\u043e\u0432\u043d\u0430",
    "rating": 1.0
  },
  "38944": {
    "name": "\u0420\u0443\u0445\u043c\u0430\u043a\u043e\u0432\u0430 \u0412\u0430\u043b\u0435\u043d\u0442\u0438\u043d\u0430 \u0412\u0438\u043a\u0442\u043e\u0440\u043e\u0432\u043d\u0430",
    "rating": 1.2542332811823744
  },
  "38945": {
    "name": "\u0420\u044b\u0442\u043e\u0432 \u0421\u0435\u0440\u0433\u0435\u0439 \u0412\u043b\u0430\u0434\u0438\u043c\u0438\u0440\u043e\u0432\u0438\u0447",
    "rating": 3.4573980129329662
  },
  "38946": {
    "name": "\u0420\u044f\u0431\u043a\u043e\u0432 \u0415\u0432\u0433\u0435\u043d\u0438\u0439 \u0410\u043b\u0435\u043a\u0441\u0430\u043d\u0434\u0440\u043e\u0432\u0438\u0447",
    "rating": 1.0357020904504814
  },
  "38947": {
    "name": "\u0421\u0430\u0445\u0430\u0440\u043e\u0432 \u0410\u043b\u0435\u043a\u0441\u0435\u0439 \u041d\u0438\u043a\u043e\u043b\u0430\u0435\u0432\u0438\u0447",
    "rating": 4.7663925590287635
  },
  "38948": {
    "name": "\u0421\u0435\u043c\u0435\u043d\u043e\u0432 \u0421\u0435\u0440\u0433\u0435\u0439 \u041c\u0438\u0445\u0430\u0439\u043b\u043e\u0432\u0438\u0447",
    "rating": 4.227882620120432
  },
  "38949": {
    "name": "\u0421\u0435\u0440\u0434\u044e\u043a\u043e\u0432 \u0421\u0435\u0440\u0433\u0435\u0439 \u0424\u0435\u043b\u0438\u043a\u0441\u043e\u0432\u0438\u0447",
    "rating": 4.0
  },
  "38950": {
    "name": "\u0421\u0438\u0434\u043e\u0440\u043e\u0432\u0430 \u041b\u044e\u0434\u043c\u0438\u043b\u0430 \u0410\u043d\u0430\u0442\u043e\u043b\u044c\u0435\u0432\u043d\u0430",
    "rating": 3.0114973445238205
  },
  "38951": {
    "name": "\u0424\u0430\u0442\u0430\u0445\u043e\u0432 \u041d\u0438\u044f\u0437 \u041c\u0438\u0440\u0437\u0430\u043a\u0440\u0435\u043c\u043e\u0432\u0438\u0447",
    "rating": 0.10499831935054156
  },
  "38952": {
    "name": "\u0425\u0430\u0441\u043c\u0430\u043d \u0420\u0443\u0441\u043b\u0430\u043d \u0410\u043b\u0435\u043a\u0441\u0435\u0435\u0432\u0438\u0447",
    "rating": 0.009431603544778936
  },
  "38953": {
    "name": "\u0426\u0430\u0440\u0435\u0432 \u0421\u0435\u0440\u0433\u0435\u0439 \u042e\u0440\u044c\u0435\u0432\u0438\u0447",
    "rating": 3.0
  },
  "38954": {
    "name": "\u042f\u043a\u0443\u0448\u0438\u043d \u041a\u043e\u043d\u0441\u0442\u0430\u043d\u0442\u0438\u043d \u0410\u043b\u0435\u043a\u0441\u0430\u043d\u0434\u0440\u043e\u0432\u0438\u0447",
    "rating": 0.12142944631177245
  },
  "38955": {
    "name": "\u042f\u0440\u044b\u0433\u0438\u043d\u0430 \u0420\u0430\u0438\u0441\u0430 \u0421\u0435\u0440\u0433\u0435\u0435\u0432\u043d\u0430",
    "rating": 1.3692163465864151
  }
}