{
  "1500": {
    "personal_income": {
      "2011": 3090140.0,
      "2012": 3276312.0
    },
    "relatives_income": {
      "2011": 53100.0,
      "2012": 123600.0
    },
    "savings": {
      "2011": 0.0,
      "2012": 0.0
    },
    "real_estate_amount": {
      "2011": 5,
      "2012": 7
    },
    "real_estate_square_meters": {
      "2011": 2548.6,
      "2012": 2642.6
    },
    "year_start": 2011,
    "year_end": 2012,
    "last_position": "\u0427\u043b\u0435\u043d \u043a\u043e\u043c\u0438\u0442\u0435\u0442\u043e\u0432 \u0417\u0430\u043a\u043e\u043d\u043e\u0434\u0430\u0442\u0435\u043b\u044c\u043d\u043e\u0433\u043e \u0421\u043e\u0431\u0440\u0430\u043d\u0438\u044f \u0412\u043b\u0430\u0434\u0438\u043c\u0438\u0440\u0441\u043a\u043e\u0439 \u043e\u0431\u043b\u0430\u0441\u0442\u0438",
    "journey_through_offices": {
      "\u0427\u043b\u0435\u043d \u043a\u043e\u043c\u0438\u0442\u0435\u0442\u043e\u0432 \u0417\u0430\u043a\u043e\u043d\u043e\u0434\u0430\u0442\u0435\u043b\u044c\u043d\u043e\u0433\u043e \u0421\u043e\u0431\u0440\u0430\u043d\u0438\u044f \u0412\u043b\u0430\u0434\u0438\u043c\u0438\u0440\u0441\u043a\u043e\u0439 \u043e\u0431\u043b\u0430\u0441\u0442\u0438": [
        2011,
        2012
      ]
    },
    "political_parties": [
      "\u0415\u0434\u0438\u043d\u0430\u044f \u0420\u043e\u0441\u0441\u0438\u044f"
    ],
    "person_name": "\u043a\u043e\u0440\u043e\u0442\u0430\u0435\u0432 \u0432\u0438\u043a\u0442\u043e\u0440 \u0432\u0430\u0441\u0438\u043b\u044c\u0435\u0432\u0438\u0447",
    "rating": 1.291307703820979,
    "risk_factors": [
      "\u0411\u043e\u043b\u044c\u0448\u043e\u0439 \u0440\u0430\u0437\u0440\u044b\u0432 \u0434\u043e\u0445\u043e\u0434\u043e\u0432 \u0441 \u0434\u043e\u0445\u043e\u0434\u0430\u043c\u0438 \u043f\u043e \u0440\u0435\u0433\u0438\u043e\u043d\u0443. \u0421\u0442\u043e\u0438\u043c\u043e\u0441\u0442\u044c \u043d\u0435\u0434\u0432\u0438\u0436\u0438\u043c\u043e\u0441\u0442\u0438 \u0432\u043e \u0432\u043b\u0430\u0434\u0435\u043d\u0438\u0438 \u0441\u043e\u0441\u0442\u0430\u0432\u043b\u044f\u0435\u0442 93633607 \u0440\u0443\u0431. \u0421\u0440\u0435\u0434\u043d\u0435\u043c\u0443 \u0436\u0438\u0442\u0435\u043b\u044e \u0440\u0435\u0433\u0438\u043e\u043d\u0430 (\u0432\u043b\u0430\u0434\u0438\u043c\u0438\u0440\u0441\u043a\u0430\u044f \u043e\u0431\u043b\u0430\u0441\u0442\u044c) \u0442\u0440\u0435\u0431\u0443\u0435\u0442\u0441\u044f 300 \u043b\u0435\u0442 (\u043d\u0430 271 \u043b\u0435\u0442 \u0434\u043e\u043b\u044c\u0448\u0435), \u0447\u0442\u043e\u0431\u044b \u0441\u0442\u043e\u043b\u044c\u043a\u043e \u0437\u0430\u0440\u0430\u0431\u043e\u0442\u0430\u0442\u044c."
    ],
    "affiliates": [
      1543,
      1544,
      1444,
      1474,
      1475,
      1477,
      1478,
      1480,
      1488,
      1489,
      1490,
      1491,
      1492,
      1493,
      1494,
      1495,
      1496,
      1497,
      1626,
      1498,
      1499
    ]
  },
  "1520": {
    "personal_income": {
      "2014": 6008093.0,
      "2015": 3938344.0
    },
    "relatives_income": {
      "2014": 327721.0,
      "2015": 1923324.0
    },
    "savings": {
      "2014": 0.0,
      "2015": 0.0
    },
    "real_estate_amount": {
      "2014": 13,
      "2015": 18
    },
    "real_estate_square_meters": {
      "2014": 11271.7,
      "2015": 23074.300000000007
    },
    "year_start": 2014,
    "year_end": 2015,
    "last_position": "\u0414\u0435\u043f\u0443\u0442\u0430\u0442 \u0433\u043e\u0441\u0443\u0434\u0430\u0440\u0441\u0442\u0432\u0435\u043d\u043d\u043e\u0433\u043e \u0441\u043e\u0431\u0440\u0430\u043d\u0438\u044f \u2013 \u041a\u0443\u0440\u0443\u043b\u0442\u0430\u044f \u0420\u0435\u0441\u043f\u0443\u0431\u043b\u0438\u043a\u0438 \u0411\u0430\u0448\u043a\u043e\u0440\u0442\u043e\u0441\u0442\u0430\u043d \u043f\u044f\u0442\u043e\u0433\u043e \u0441\u043e\u0437\u044b\u0432\u0430",
    "journey_through_offices": {
      "\u0414\u0435\u043f\u0443\u0442\u0430\u0442 \u0433\u043e\u0441\u0443\u0434\u0430\u0440\u0441\u0442\u0432\u0435\u043d\u043d\u043e\u0433\u043e \u0441\u043e\u0431\u0440\u0430\u043d\u0438\u044f \u2013 \u041a\u0443\u0440\u0443\u043b\u0442\u0430\u044f \u0420\u0435\u0441\u043f\u0443\u0431\u043b\u0438\u043a\u0438 \u0411\u0430\u0448\u043a\u043e\u0440\u0442\u043e\u0441\u0442\u0430\u043d \u043f\u044f\u0442\u043e\u0433\u043e \u0441\u043e\u0437\u044b\u0432\u0430": [
        2014,
        2015
      ]
    },
    "political_parties": [
      "\u041a\u041f\u0420\u0424"
    ],
    "person_name": "\u0433\u0430\u043b\u0438\u043d \u0438\u043b\u044c\u0433\u0430\u043c \u0438\u043b\u044e\u0441\u043e\u0432\u0438\u0447",
    "rating": 3.946267489268414,
    "risk_factors": [
      "\u041e\u0442\u043d\u043e\u0448\u0435\u043d\u0438\u0435 \u0441\u0442\u043e\u0438\u043c\u043e\u0441\u0442\u0438 \u043d\u0435\u0434\u0432\u0438\u0436\u0438\u043c\u043e\u0441\u0442\u0438 \u043a \u0433\u043e\u0434\u043e\u0432\u043e\u043c\u0443 \u0434\u043e\u0445\u043e\u0434\u0443 \u043f\u0440\u0435\u0432\u044b\u0448\u0430\u0435\u0442 75 \u043f\u0435\u0440\u0446\u0435\u043d\u0442\u0438\u043b\u044c.\u0421\u0442\u043e\u0438\u043c\u043e\u0441\u0442\u044c \u043d\u0435\u0434\u0432\u0438\u0436\u0438\u043c\u043e\u0441\u0442\u0438 \u0441\u043e\u0441\u0442\u0430\u0432\u043b\u044f\u0435\u0442 \u0434\u043e\u0445\u043e\u0434 \u0437\u0430 195 \u043b\u0435\u0442.",
      "\u0411\u043e\u043b\u044c\u0448\u043e\u0439 \u0440\u0430\u0437\u0440\u044b\u0432 \u0434\u043e\u0445\u043e\u0434\u043e\u0432 \u0441 \u0434\u043e\u0445\u043e\u0434\u0430\u043c\u0438 \u043f\u043e \u0440\u0435\u0433\u0438\u043e\u043d\u0443. \u0421\u0442\u043e\u0438\u043c\u043e\u0441\u0442\u044c \u043d\u0435\u0434\u0432\u0438\u0436\u0438\u043c\u043e\u0441\u0442\u0438 \u0432\u043e \u0432\u043b\u0430\u0434\u0435\u043d\u0438\u0438 \u0441\u043e\u0441\u0442\u0430\u0432\u043b\u044f\u0435\u0442 1187718673 \u0440\u0443\u0431. \u0421\u0440\u0435\u0434\u043d\u0435\u043c\u0443 \u0436\u0438\u0442\u0435\u043b\u044e \u0440\u0435\u0433\u0438\u043e\u043d\u0430 (\u0440\u0435\u0441\u043f\u0443\u0431\u043b\u0438\u043a\u0430 \u0431\u0430\u0448\u043a\u043e\u0440\u0442\u043e\u0441\u0442\u0430\u043d) \u0442\u0440\u0435\u0431\u0443\u0435\u0442\u0441\u044f 3525 \u043b\u0435\u0442 (\u043d\u0430 3330 \u043b\u0435\u0442 \u0434\u043e\u043b\u044c\u0448\u0435), \u0447\u0442\u043e\u0431\u044b \u0441\u0442\u043e\u043b\u044c\u043a\u043e \u0437\u0430\u0440\u0430\u0431\u043e\u0442\u0430\u0442\u044c."
    ],
    "affiliates": [
      1536,
      1537,
      12288,
      12289,
      12290,
      12291,
      12292,
      12293,
      12294,
      12295,
      12296,
      12297,
      12298,
      12299,
      12300,
      12301,
      12302,
      12303,
      12304,
      12305,
      12306,
      12307,
      12309,
      12310,
      12312,
      12313,
      12314,
      12315,
      12316,
      1565,
      12317,
      12318,
      12319,
      12321,
      12322,
      12323,
      12324,
      12325,
      12326,
      12327,
      12328,
      12329,
      12330,
      12331,
      12332,
      12333,
      12334,
      12336,
      12337,
      12338,
      12339,
      12340,
      12341,
      12342,
      12343,
      12344,
      1593,
      12345,
      1595,
      12346,
      12347,
      1598,
      12348,
      1600,
      12349,
      12350,
      1605,
      1611,
      1612,
      1614,
      1615,
      1621,
      4715,
      1671,
      1672,
      1677,
      1679,
      1682,
      1685,
      1687,
      1696,
      1698,
      1701,
      821,
      12282,
      2915,
      1462,
      1463,
      1472,
      12308,
      1521,
      1523,
      1524,
      12275,
      12276,
      12279,
      12277,
      12278,
      12311,
      12283,
      12284,
      12285,
      12286,
      12287
    ]
  },
  "1521": {
    "personal_income": {
      "2014": 23078697.16,
      "2015": 10315972.67
    },
    "relatives_income": {
      "2014": 1843431.55,
      "2015": 2386168.97
    },
    "savings": {
      "2014": 0.0,
      "2015": 0.0
    },
    "real_estate_amount": {
      "2014": 4,
      "2015": 10
    },
    "real_estate_square_meters": {
      "2014": 3983.4,
      "2015": 7779.0
    },
    "year_start": 2014,
    "year_end": 2015,
    "last_position": "\u0414\u0435\u043f\u0443\u0442\u0430\u0442 \u0433\u043e\u0441\u0443\u0434\u0430\u0440\u0441\u0442\u0432\u0435\u043d\u043d\u043e\u0433\u043e \u0441\u043e\u0431\u0440\u0430\u043d\u0438\u044f \u2013 \u041a\u0443\u0440\u0443\u043b\u0442\u0430\u044f \u0420\u0435\u0441\u043f\u0443\u0431\u043b\u0438\u043a\u0438 \u0411\u0430\u0448\u043a\u043e\u0440\u0442\u043e\u0441\u0442\u0430\u043d \u043f\u044f\u0442\u043e\u0433\u043e \u0441\u043e\u0437\u044b\u0432\u0430",
    "journey_through_offices": {
      "\u0414\u0435\u043f\u0443\u0442\u0430\u0442 \u0433\u043e\u0441\u0443\u0434\u0430\u0440\u0441\u0442\u0432\u0435\u043d\u043d\u043e\u0433\u043e \u0441\u043e\u0431\u0440\u0430\u043d\u0438\u044f \u2013 \u041a\u0443\u0440\u0443\u043b\u0442\u0430\u044f \u0420\u0435\u0441\u043f\u0443\u0431\u043b\u0438\u043a\u0438 \u0411\u0430\u0448\u043a\u043e\u0440\u0442\u043e\u0441\u0442\u0430\u043d \u043f\u044f\u0442\u043e\u0433\u043e \u0441\u043e\u0437\u044b\u0432\u0430": [
        2014,
        2015
      ]
    },
    "political_parties": [
      "\u041a\u041f\u0420\u0424"
    ],
    "person_name": "\u0430\u0440\u0441\u043b\u0430\u043d\u043e\u0432 \u0444\u0430\u0437\u0438\u0442 \u0430\u0431\u0434\u0443\u043b\u0431\u0430\u0440\u0438\u0435\u0432\u0438\u0447",
    "rating": 2.9510751815761065,
    "risk_factors": [
      "\u0411\u043e\u043b\u044c\u0448\u043e\u0439 \u0440\u0430\u0437\u0440\u044b\u0432 \u0434\u043e\u0445\u043e\u0434\u043e\u0432 \u0441 \u0434\u043e\u0445\u043e\u0434\u0430\u043c\u0438 \u043f\u043e \u0440\u0435\u0433\u0438\u043e\u043d\u0443. \u0421\u0442\u043e\u0438\u043c\u043e\u0441\u0442\u044c \u043d\u0435\u0434\u0432\u0438\u0436\u0438\u043c\u043e\u0441\u0442\u0438 \u0432\u043e \u0432\u043b\u0430\u0434\u0435\u043d\u0438\u0438 \u0441\u043e\u0441\u0442\u0430\u0432\u043b\u044f\u0435\u0442 400413601 \u0440\u0443\u0431. \u0421\u0440\u0435\u0434\u043d\u0435\u043c\u0443 \u0436\u0438\u0442\u0435\u043b\u044e \u0440\u0435\u0433\u0438\u043e\u043d\u0430 (\u0440\u0435\u0441\u043f\u0443\u0431\u043b\u0438\u043a\u0430 \u0431\u0430\u0448\u043a\u043e\u0440\u0442\u043e\u0441\u0442\u0430\u043d) \u0442\u0440\u0435\u0431\u0443\u0435\u0442\u0441\u044f 1188 \u043b\u0435\u0442 (\u043d\u0430 1167 \u043b\u0435\u0442 \u0434\u043e\u043b\u044c\u0448\u0435), \u0447\u0442\u043e\u0431\u044b \u0441\u0442\u043e\u043b\u044c\u043a\u043e \u0437\u0430\u0440\u0430\u0431\u043e\u0442\u0430\u0442\u044c."
    ],
    "affiliates": [
      1536,
      1537,
      12288,
      12289,
      12290,
      12291,
      12292,
      12293,
      12294,
      12295,
      12296,
      12297,
      12298,
      12299,
      12300,
      12301,
      12302,
      12303,
      12304,
      12305,
      12306,
      12307,
      12309,
      12310,
      12312,
      12313,
      12314,
      12315,
      12316,
      1565,
      12317,
      12318,
      12319,
      12321,
      12322,
      12323,
      12324,
      12325,
      12326,
      12327,
      12328,
      12329,
      12330,
      12331,
      12332,
      12333,
      12334,
      12336,
      12337,
      12338,
      12339,
      12340,
      12341,
      12342,
      12343,
      12344,
      1593,
      12345,
      1595,
      12346,
      12347,
      1598,
      12348,
      1600,
      12349,
      12350,
      1605,
      1611,
      1612,
      1614,
      1615,
      1621,
      4715,
      1671,
      1672,
      1677,
      1679,
      1682,
      1685,
      1687,
      1696,
      1698,
      1701,
      821,
      12282,
      2915,
      1462,
      1463,
      1472,
      12308,
      1520,
      1523,
      1524,
      12275,
      12276,
      12279,
      12277,
      12278,
      12311,
      12283,
      12284,
      12285,
      12286,
      12287
    ]
  },
  "1523": {
    "personal_income": {
      "2014": 1742600.2,
      "2015": 691799.5
    },
    "relatives_income": {
      "2014": 0.0,
      "2015": 0.0
    },
    "savings": {
      "2014": 0.0,
      "2015": 0.0
    },
    "real_estate_amount": {
      "2014": 4,
      "2015": 5
    },
    "real_estate_square_meters": {
      "2014": 5111.4,
      "2015": 5202.0999999999985
    },
    "year_start": 2014,
    "year_end": 2015,
    "last_position": "\u0414\u0435\u043f\u0443\u0442\u0430\u0442 \u0433\u043e\u0441\u0443\u0434\u0430\u0440\u0441\u0442\u0432\u0435\u043d\u043d\u043e\u0433\u043e \u0441\u043e\u0431\u0440\u0430\u043d\u0438\u044f \u2013 \u041a\u0443\u0440\u0443\u043b\u0442\u0430\u044f \u0420\u0435\u0441\u043f\u0443\u0431\u043b\u0438\u043a\u0438 \u0411\u0430\u0448\u043a\u043e\u0440\u0442\u043e\u0441\u0442\u0430\u043d \u043f\u044f\u0442\u043e\u0433\u043e \u0441\u043e\u0437\u044b\u0432\u0430",
    "journey_through_offices": {
      "\u0414\u0435\u043f\u0443\u0442\u0430\u0442 \u0433\u043e\u0441\u0443\u0434\u0430\u0440\u0441\u0442\u0432\u0435\u043d\u043d\u043e\u0433\u043e \u0441\u043e\u0431\u0440\u0430\u043d\u0438\u044f \u2013 \u041a\u0443\u0440\u0443\u043b\u0442\u0430\u044f \u0420\u0435\u0441\u043f\u0443\u0431\u043b\u0438\u043a\u0438 \u0411\u0430\u0448\u043a\u043e\u0440\u0442\u043e\u0441\u0442\u0430\u043d \u043f\u044f\u0442\u043e\u0433\u043e \u0441\u043e\u0437\u044b\u0432\u0430": [
        2014,
        2015
      ]
    },
    "political_parties": [
      "\u041a\u041f\u0420\u0424"
    ],
    "person_name": "\u0441\u0435\u043c\u0435\u043d\u043e\u0432 \u0438\u0433\u043e\u0440\u044c \u0430\u043b\u0435\u043a\u0441\u0430\u043d\u0434\u0440\u043e\u0432\u0438\u0447",
    "rating": 3.0996223876741995,
    "risk_factors": [
      "\u041e\u0442\u043d\u043e\u0448\u0435\u043d\u0438\u0435 \u0441\u0442\u043e\u0438\u043c\u043e\u0441\u0442\u0438 \u043d\u0435\u0434\u0432\u0438\u0436\u0438\u043c\u043e\u0441\u0442\u0438 \u043a \u0433\u043e\u0434\u043e\u0432\u043e\u043c\u0443 \u0434\u043e\u0445\u043e\u0434\u0443 \u043f\u0440\u0435\u0432\u044b\u0448\u0430\u0435\u0442 75 \u043f\u0435\u0440\u0446\u0435\u043d\u0442\u0438\u043b\u044c.\u0421\u0442\u043e\u0438\u043c\u043e\u0441\u0442\u044c \u043d\u0435\u0434\u0432\u0438\u0436\u0438\u043c\u043e\u0441\u0442\u0438 \u0441\u043e\u0441\u0442\u0430\u0432\u043b\u044f\u0435\u0442 \u0434\u043e\u0445\u043e\u0434 \u0437\u0430 220 \u043b\u0435\u0442.",
      "\u0411\u043e\u043b\u044c\u0448\u043e\u0439 \u0440\u0430\u0437\u0440\u044b\u0432 \u0434\u043e\u0445\u043e\u0434\u043e\u0432 \u0441 \u0434\u043e\u0445\u043e\u0434\u0430\u043c\u0438 \u043f\u043e \u0440\u0435\u0433\u0438\u043e\u043d\u0443. \u0421\u0442\u043e\u0438\u043c\u043e\u0441\u0442\u044c \u043d\u0435\u0434\u0432\u0438\u0436\u0438\u043c\u043e\u0441\u0442\u0438 \u0432\u043e \u0432\u043b\u0430\u0434\u0435\u043d\u0438\u0438 \u0441\u043e\u0441\u0442\u0430\u0432\u043b\u044f\u0435\u0442 267771127 \u0440\u0443\u0431. \u0421\u0440\u0435\u0434\u043d\u0435\u043c\u0443 \u0436\u0438\u0442\u0435\u043b\u044e \u0440\u0435\u0433\u0438\u043e\u043d\u0430 (\u0440\u0435\u0441\u043f\u0443\u0431\u043b\u0438\u043a\u0430 \u0431\u0430\u0448\u043a\u043e\u0440\u0442\u043e\u0441\u0442\u0430\u043d) \u0442\u0440\u0435\u0431\u0443\u0435\u0442\u0441\u044f 795 \u043b\u0435\u0442 (\u043d\u0430 575 \u043b\u0435\u0442 \u0434\u043e\u043b\u044c\u0448\u0435), \u0447\u0442\u043e\u0431\u044b \u0441\u0442\u043e\u043b\u044c\u043a\u043e \u0437\u0430\u0440\u0430\u0431\u043e\u0442\u0430\u0442\u044c."
    ],
    "affiliates": [
      1536,
      1537,
      12288,
      12289,
      12290,
      12291,
      12292,
      12293,
      12294,
      12295,
      12296,
      12297,
      12298,
      12299,
      12300,
      12301,
      12302,
      12303,
      12304,
      12305,
      12306,
      12307,
      12309,
      12310,
      12312,
      12313,
      12314,
      12315,
      12316,
      1565,
      12317,
      12318,
      12319,
      12321,
      12322,
      12323,
      12324,
      12325,
      12326,
      12327,
      12328,
      12329,
      12330,
      12331,
      12332,
      12333,
      12334,
      12336,
      12337,
      12338,
      12339,
      12340,
      12341,
      12342,
      12343,
      12344,
      1593,
      12345,
      1595,
      12346,
      12347,
      1598,
      12348,
      1600,
      12349,
      12350,
      1605,
      1611,
      1612,
      1614,
      1615,
      1621,
      4715,
      1671,
      1672,
      1677,
      1679,
      1682,
      1685,
      1687,
      1696,
      1698,
      1701,
      821,
      2915,
      1462,
      1463,
      1472,
      12308,
      1520,
      1521,
      12275,
      1524,
      12276,
      12277,
      12279,
      12278,
      12311,
      12282,
      12283,
      12284,
      12285,
      12286,
      12287
    ]
  },
  "1524": {
    "personal_income": {
      "2014": 622669.92,
      "2015": 345590.03
    },
    "relatives_income": {
      "2014": 455137.84,
      "2015": 541547.95
    },
    "savings": {
      "2014": 0.0,
      "2015": 0.0
    },
    "real_estate_amount": {
      "2014": 11,
      "2015": 5
    },
    "real_estate_square_meters": {
      "2014": 6586.5999999999985,
      "2015": 1884.4
    },
    "year_start": 2014,
    "year_end": 2015,
    "last_position": "\u0414\u0435\u043f\u0443\u0442\u0430\u0442 \u0433\u043e\u0441\u0443\u0434\u0430\u0440\u0441\u0442\u0432\u0435\u043d\u043d\u043e\u0433\u043e \u0441\u043e\u0431\u0440\u0430\u043d\u0438\u044f \u2013 \u041a\u0443\u0440\u0443\u043b\u0442\u0430\u044f \u0420\u0435\u0441\u043f\u0443\u0431\u043b\u0438\u043a\u0438 \u0411\u0430\u0448\u043a\u043e\u0440\u0442\u043e\u0441\u0442\u0430\u043d \u043f\u044f\u0442\u043e\u0433\u043e \u0441\u043e\u0437\u044b\u0432\u0430",
    "journey_through_offices": {
      "\u0414\u0435\u043f\u0443\u0442\u0430\u0442 \u0433\u043e\u0441\u0443\u0434\u0430\u0440\u0441\u0442\u0432\u0435\u043d\u043d\u043e\u0433\u043e \u0441\u043e\u0431\u0440\u0430\u043d\u0438\u044f \u2013 \u041a\u0443\u0440\u0443\u043b\u0442\u0430\u044f \u0420\u0435\u0441\u043f\u0443\u0431\u043b\u0438\u043a\u0438 \u0411\u0430\u0448\u043a\u043e\u0440\u0442\u043e\u0441\u0442\u0430\u043d \u043f\u044f\u0442\u043e\u0433\u043e \u0441\u043e\u0437\u044b\u0432\u0430": [
        2014,
        2015
      ]
    },
    "political_parties": [
      "\u041a\u041f\u0420\u0424"
    ],
    "person_name": "\u0440\u0430\u043c\u043e\u0432 \u0430\u043c\u0438\u0440 \u043c\u0443\u043d\u0438\u0440\u043e\u0432\u0438\u0447",
    "rating": 2.33229470317386,
    "risk_factors": [
      "\u041e\u0442\u043d\u043e\u0448\u0435\u043d\u0438\u0435 \u0441\u0442\u043e\u0438\u043c\u043e\u0441\u0442\u0438 \u043d\u0435\u0434\u0432\u0438\u0436\u0438\u043c\u043e\u0441\u0442\u0438 \u043a \u0433\u043e\u0434\u043e\u0432\u043e\u043c\u0443 \u0434\u043e\u0445\u043e\u0434\u0443 \u043f\u0440\u0435\u0432\u044b\u0448\u0430\u0435\u0442 75 \u043f\u0435\u0440\u0446\u0435\u043d\u0442\u0438\u043b\u044c.\u0421\u0442\u043e\u0438\u043c\u043e\u0441\u0442\u044c \u043d\u0435\u0434\u0432\u0438\u0436\u0438\u043c\u043e\u0441\u0442\u0438 \u0441\u043e\u0441\u0442\u0430\u0432\u043b\u044f\u0435\u0442 \u0434\u043e\u0445\u043e\u0434 \u0437\u0430 99 \u043b\u0435\u0442.",
      "\u0411\u043e\u043b\u044c\u0448\u043e\u0439 \u0440\u0430\u0437\u0440\u044b\u0432 \u0434\u043e\u0445\u043e\u0434\u043e\u0432 \u0441 \u0434\u043e\u0445\u043e\u0434\u0430\u043c\u0438 \u043f\u043e \u0440\u0435\u0433\u0438\u043e\u043d\u0443. \u0421\u0442\u043e\u0438\u043c\u043e\u0441\u0442\u044c \u043d\u0435\u0434\u0432\u0438\u0436\u0438\u043c\u043e\u0441\u0442\u0438 \u0432\u043e \u0432\u043b\u0430\u0434\u0435\u043d\u0438\u0438 \u0441\u043e\u0441\u0442\u0430\u0432\u043b\u044f\u0435\u0442 96996965 \u0440\u0443\u0431. \u0421\u0440\u0435\u0434\u043d\u0435\u043c\u0443 \u0436\u0438\u0442\u0435\u043b\u044e \u0440\u0435\u0433\u0438\u043e\u043d\u0430 (\u0440\u0435\u0441\u043f\u0443\u0431\u043b\u0438\u043a\u0430 \u0431\u0430\u0448\u043a\u043e\u0440\u0442\u043e\u0441\u0442\u0430\u043d) \u0442\u0440\u0435\u0431\u0443\u0435\u0442\u0441\u044f 288 \u043b\u0435\u0442 (\u043d\u0430 189 \u043b\u0435\u0442 \u0434\u043e\u043b\u044c\u0448\u0435), \u0447\u0442\u043e\u0431\u044b \u0441\u0442\u043e\u043b\u044c\u043a\u043e \u0437\u0430\u0440\u0430\u0431\u043e\u0442\u0430\u0442\u044c."
    ],
    "affiliates": [
      1536,
      1537,
      12288,
      12289,
      12290,
      12291,
      12292,
      12293,
      12294,
      12295,
      12296,
      12297,
      12298,
      12299,
      12300,
      12301,
      12302,
      12303,
      12304,
      12305,
      12306,
      12307,
      12309,
      12310,
      12312,
      12313,
      12314,
      12315,
      12316,
      1565,
      12317,
      12318,
      12319,
      12321,
      12322,
      12323,
      12324,
      12325,
      12326,
      12327,
      12328,
      12329,
      12330,
      12331,
      12332,
      12333,
      12334,
      12336,
      12337,
      12338,
      12339,
      12340,
      12341,
      12342,
      12343,
      12344,
      1593,
      12345,
      1595,
      12346,
      12347,
      1598,
      12348,
      1600,
      12349,
      12350,
      1605,
      1611,
      1612,
      1614,
      1615,
      1621,
      4715,
      1671,
      1672,
      1677,
      1679,
      1682,
      1685,
      1687,
      1696,
      1698,
      1701,
      821,
      2915,
      1462,
      1463,
      1472,
      12308,
      1520,
      1521,
      12275,
      12276,
      12277,
      12278,
      12279,
      12311,
      1523,
      12282,
      12283,
      12284,
      12285,
      12286,
      12287
    ]
  },
  "1536": {
    "personal_income": {
      "2014": 6506433.17,
      "2015": 3030505.12
    },
    "relatives_income": {
      "2014": 723271.2,
      "2015": 779091.73
    },
    "savings": {
      "2014": 0.0,
      "2015": 0.0
    },
    "real_estate_amount": {
      "2014": 5,
      "2015": 5
    },
    "real_estate_square_meters": {
      "2014": 1506.9,
      "2015": 1506.9
    },
    "year_start": 2014,
    "year_end": 2015,
    "last_position": "\u0414\u0435\u043f\u0443\u0442\u0430\u0442 \u0433\u043e\u0441\u0443\u0434\u0430\u0440\u0441\u0442\u0432\u0435\u043d\u043d\u043e\u0433\u043e \u0441\u043e\u0431\u0440\u0430\u043d\u0438\u044f \u2013 \u041a\u0443\u0440\u0443\u043b\u0442\u0430\u044f \u0420\u0435\u0441\u043f\u0443\u0431\u043b\u0438\u043a\u0438 \u0411\u0430\u0448\u043a\u043e\u0440\u0442\u043e\u0441\u0442\u0430\u043d \u043f\u044f\u0442\u043e\u0433\u043e \u0441\u043e\u0437\u044b\u0432\u0430",
    "journey_through_offices": {
      "\u0414\u0435\u043f\u0443\u0442\u0430\u0442 \u0433\u043e\u0441\u0443\u0434\u0430\u0440\u0441\u0442\u0432\u0435\u043d\u043d\u043e\u0433\u043e \u0441\u043e\u0431\u0440\u0430\u043d\u0438\u044f \u2013 \u041a\u0443\u0440\u0443\u043b\u0442\u0430\u044f \u0420\u0435\u0441\u043f\u0443\u0431\u043b\u0438\u043a\u0438 \u0411\u0430\u0448\u043a\u043e\u0440\u0442\u043e\u0441\u0442\u0430\u043d \u043f\u044f\u0442\u043e\u0433\u043e \u0441\u043e\u0437\u044b\u0432\u0430": [
        2014,
        2015
      ]
    },
    "political_parties": [
      "\u041a\u041f\u0420\u0424"
    ],
    "person_name": "\u043d\u0438\u043a\u0438\u0442\u0438\u043d \u043d\u0438\u043a\u043e\u043b\u0430\u0439 \u0438\u043b\u044c\u0438\u0447",
    "rating": 2.3860580354189853,
    "risk_factors": [
      "\u041b\u0438\u043a\u0432\u0438\u0434\u0438\u0440\u043e\u0432\u0430\u043d\u043d\u044b\u0445 \u041d\u041a\u041e: 1. \u042d\u0442\u043e \u043f\u0440\u0435\u0432\u044b\u0448\u0430\u0435\u0442 \u043c\u0435\u0434\u0438\u0430\u043d\u043d\u043e\u0435 \u0437\u043d\u0430\u0447\u0435\u043d\u0438\u0435.",
      "\u0411\u043e\u043b\u044c\u0448\u043e\u0439 \u0440\u0430\u0437\u0440\u044b\u0432 \u0434\u043e\u0445\u043e\u0434\u043e\u0432 \u0441 \u0434\u043e\u0445\u043e\u0434\u0430\u043c\u0438 \u043f\u043e \u0440\u0435\u0433\u0438\u043e\u043d\u0443. \u0421\u0442\u043e\u0438\u043c\u043e\u0441\u0442\u044c \u043d\u0435\u0434\u0432\u0438\u0436\u0438\u043c\u043e\u0441\u0442\u0438 \u0432\u043e \u0432\u043b\u0430\u0434\u0435\u043d\u0438\u0438 \u0441\u043e\u0441\u0442\u0430\u0432\u043b\u044f\u0435\u0442 77565658 \u0440\u0443\u0431. \u0421\u0440\u0435\u0434\u043d\u0435\u043c\u0443 \u0436\u0438\u0442\u0435\u043b\u044e \u0440\u0435\u0433\u0438\u043e\u043d\u0430 (\u0440\u0435\u0441\u043f\u0443\u0431\u043b\u0438\u043a\u0430 \u0431\u0430\u0448\u043a\u043e\u0440\u0442\u043e\u0441\u0442\u0430\u043d) \u0442\u0440\u0435\u0431\u0443\u0435\u0442\u0441\u044f 230 \u043b\u0435\u0442 (\u043d\u0430 216 \u043b\u0435\u0442 \u0434\u043e\u043b\u044c\u0448\u0435), \u0447\u0442\u043e\u0431\u044b \u0441\u0442\u043e\u043b\u044c\u043a\u043e \u0437\u0430\u0440\u0430\u0431\u043e\u0442\u0430\u0442\u044c."
    ],
    "affiliates": [
      12288,
      1537,
      12289,
      12290,
      12291,
      12292,
      12293,
      12294,
      12295,
      12296,
      12297,
      12298,
      12299,
      12300,
      12301,
      12302,
      12303,
      12304,
      12305,
      12306,
      12307,
      12308,
      12309,
      12310,
      12312,
      12313,
      12314,
      12315,
      12316,
      1565,
      12317,
      12318,
      12319,
      12321,
      12322,
      12323,
      12324,
      12325,
      12326,
      12327,
      12328,
      12329,
      12330,
      12331,
      12332,
      12333,
      12334,
      12336,
      12337,
      12338,
      12339,
      12340,
      12341,
      12342,
      12343,
      12344,
      1593,
      12345,
      1595,
      12346,
      12347,
      1598,
      12348,
      1600,
      12349,
      12350,
      1605,
      1611,
      1612,
      1614,
      1615,
      1621,
      4715,
      1671,
      1672,
      1677,
      1679,
      1682,
      1685,
      1687,
      1696,
      1698,
      1701,
      821,
      2915,
      1462,
      1463,
      1472,
      1524,
      1520,
      1521,
      12275,
      12276,
      12277,
      12278,
      12279,
      12311,
      1523,
      12282,
      12283,
      12284,
      12285,
      12286,
      12287
    ]
  },
  "1537": {
    "personal_income": {
      "2014": 1893872.25,
      "2015": 2635225.53
    },
    "relatives_income": {
      "2014": 93759.1,
      "2015": 87198.66
    },
    "savings": {
      "2014": 0.0,
      "2015": 0.0
    },
    "real_estate_amount": {
      "2014": 7,
      "2015": 10
    },
    "real_estate_square_meters": {
      "2014": 3506.9,
      "2015": 6147.0
    },
    "year_start": 2014,
    "year_end": 2015,
    "last_position": "\u0414\u0435\u043f\u0443\u0442\u0430\u0442 \u0433\u043e\u0441\u0443\u0434\u0430\u0440\u0441\u0442\u0432\u0435\u043d\u043d\u043e\u0433\u043e \u0441\u043e\u0431\u0440\u0430\u043d\u0438\u044f \u2013 \u041a\u0443\u0440\u0443\u043b\u0442\u0430\u044f \u0420\u0435\u0441\u043f\u0443\u0431\u043b\u0438\u043a\u0438 \u0411\u0430\u0448\u043a\u043e\u0440\u0442\u043e\u0441\u0442\u0430\u043d \u043f\u044f\u0442\u043e\u0433\u043e \u0441\u043e\u0437\u044b\u0432\u0430",
    "journey_through_offices": {
      "\u0414\u0435\u043f\u0443\u0442\u0430\u0442 \u0433\u043e\u0441\u0443\u0434\u0430\u0440\u0441\u0442\u0432\u0435\u043d\u043d\u043e\u0433\u043e \u0441\u043e\u0431\u0440\u0430\u043d\u0438\u044f \u2013 \u041a\u0443\u0440\u0443\u043b\u0442\u0430\u044f \u0420\u0435\u0441\u043f\u0443\u0431\u043b\u0438\u043a\u0438 \u0411\u0430\u0448\u043a\u043e\u0440\u0442\u043e\u0441\u0442\u0430\u043d \u043f\u044f\u0442\u043e\u0433\u043e \u0441\u043e\u0437\u044b\u0432\u0430": [
        2014,
        2015
      ]
    },
    "political_parties": [
      "\u041a\u041f\u0420\u0424"
    ],
    "person_name": "\u0431\u0435\u0433\u043b\u043e\u0432 \u0432\u043b\u0430\u0434\u0438\u0441\u043b\u0430\u0432 \u0438\u0432\u0430\u043d\u043e\u0432\u0438\u0447",
    "rating": 3.5573483902495973,
    "risk_factors": [
      "\u041e\u0442\u043d\u043e\u0448\u0435\u043d\u0438\u0435 \u0441\u0442\u043e\u0438\u043c\u043e\u0441\u0442\u0438 \u043d\u0435\u0434\u0432\u0438\u0436\u0438\u043c\u043e\u0441\u0442\u0438 \u043a \u0433\u043e\u0434\u043e\u0432\u043e\u043c\u0443 \u0434\u043e\u0445\u043e\u0434\u0443 \u043f\u0440\u0435\u0432\u044b\u0448\u0430\u0435\u0442 75 \u043f\u0435\u0440\u0446\u0435\u043d\u0442\u0438\u043b\u044c.\u0421\u0442\u043e\u0438\u043c\u043e\u0441\u0442\u044c \u043d\u0435\u0434\u0432\u0438\u0436\u0438\u043c\u043e\u0441\u0442\u0438 \u0441\u043e\u0441\u0442\u0430\u0432\u043b\u044f\u0435\u0442 \u0434\u043e\u0445\u043e\u0434 \u0437\u0430 134 \u043b\u0435\u0442.",
      "\u0411\u043e\u043b\u044c\u0448\u043e\u0439 \u0440\u0430\u0437\u0440\u044b\u0432 \u0434\u043e\u0445\u043e\u0434\u043e\u0432 \u0441 \u0434\u043e\u0445\u043e\u0434\u0430\u043c\u0438 \u043f\u043e \u0440\u0435\u0433\u0438\u043e\u043d\u0443. \u0421\u0442\u043e\u0438\u043c\u043e\u0441\u0442\u044c \u043d\u0435\u0434\u0432\u0438\u0436\u0438\u043c\u043e\u0441\u0442\u0438 \u0432\u043e \u0432\u043b\u0430\u0434\u0435\u043d\u0438\u0438 \u0441\u043e\u0441\u0442\u0430\u0432\u043b\u044f\u0435\u0442 316408588 \u0440\u0443\u0431. \u0421\u0440\u0435\u0434\u043d\u0435\u043c\u0443 \u0436\u0438\u0442\u0435\u043b\u044e \u0440\u0435\u0433\u0438\u043e\u043d\u0430 (\u0440\u0435\u0441\u043f\u0443\u0431\u043b\u0438\u043a\u0430 \u0431\u0430\u0448\u043a\u043e\u0440\u0442\u043e\u0441\u0442\u0430\u043d) \u0442\u0440\u0435\u0431\u0443\u0435\u0442\u0441\u044f 939 \u043b\u0435\u0442 (\u043d\u0430 805 \u043b\u0435\u0442 \u0434\u043e\u043b\u044c\u0448\u0435), \u0447\u0442\u043e\u0431\u044b \u0441\u0442\u043e\u043b\u044c\u043a\u043e \u0437\u0430\u0440\u0430\u0431\u043e\u0442\u0430\u0442\u044c."
    ],
    "affiliates": [
      12288,
      12289,
      12290,
      12291,
      12292,
      12293,
      12294,
      12295,
      12296,
      12297,
      12298,
      12299,
      12300,
      12301,
      12302,
      12303,
      12304,
      12305,
      12306,
      12307,
      12308,
      12309,
      12310,
      12311,
      12312,
      12313,
      12314,
      12315,
      12316,
      1565,
      12317,
      12318,
      12319,
      12321,
      12322,
      12323,
      12324,
      12325,
      12326,
      12327,
      12328,
      12329,
      12330,
      12331,
      12332,
      12333,
      12334,
      12336,
      12337,
      12338,
      12339,
      12340,
      12341,
      12342,
      12343,
      12344,
      1593,
      12345,
      1595,
      12346,
      12347,
      1598,
      12348,
      1600,
      12349,
      12350,
      1605,
      1611,
      1612,
      1614,
      1615,
      1621,
      4715,
      1671,
      1672,
      1677,
      1679,
      1682,
      1685,
      1687,
      1696,
      1698,
      1701,
      1536,
      821,
      2915,
      1462,
      1463,
      1472,
      1520,
      1521,
      12275,
      12276,
      12277,
      12278,
      12279,
      1523,
      1524,
      12282,
      12283,
      12284,
      12285,
      12286,
      12287
    ]
  },
  "1543": {
    "personal_income": {
      "2011": 1001142.44,
      "2012": 2541637.25
    },
    "relatives_income": {
      "2011": 21299.91,
      "2012": 1994068.0
    },
    "savings": {
      "2011": 0.0,
      "2012": 0.0
    },
    "real_estate_amount": {
      "2011": 2,
      "2012": 1
    },
    "real_estate_square_meters": {
      "2011": 113.9,
      "2012": 38.6
    },
    "year_start": 2011,
    "year_end": 2012,
    "last_position": "\u0427\u043b\u0435\u043d \u043a\u043e\u043c\u0438\u0442\u0435\u0442\u043e\u0432 \u0417\u0430\u043a\u043e\u043d\u043e\u0434\u0430\u0442\u0435\u043b\u044c\u043d\u043e\u0433\u043e \u0421\u043e\u0431\u0440\u0430\u043d\u0438\u044f \u0412\u043b\u0430\u0434\u0438\u043c\u0438\u0440\u0441\u043a\u043e\u0439 \u043e\u0431\u043b\u0430\u0441\u0442\u0438",
    "journey_through_offices": {
      "\u0427\u043b\u0435\u043d \u043a\u043e\u043c\u0438\u0442\u0435\u0442\u043e\u0432 \u0417\u0430\u043a\u043e\u043d\u043e\u0434\u0430\u0442\u0435\u043b\u044c\u043d\u043e\u0433\u043e \u0421\u043e\u0431\u0440\u0430\u043d\u0438\u044f \u0412\u043b\u0430\u0434\u0438\u043c\u0438\u0440\u0441\u043a\u043e\u0439 \u043e\u0431\u043b\u0430\u0441\u0442\u0438": [
        2012
      ],
      "\u0427\u043b\u0435\u043d \u043a\u043e\u043c\u0438\u0442\u0435\u0442\u043e\u0432 \u0417\u0430\u043a\u043e\u043d\u043e\u0434\u0430\u0442\u0435\u043b\u044c\u043d\u043e\u0433\u043e \u0421\u043e\u0431\u0440\u0430\u043d\u0438\u044f \u0412\u043b\u0430\u0434\u0438\u043c\u0438\u0440\u0441\u043a\u043e\u0439 \u043e\u0431\u043b\u0430\u0441\u0442\u0438  ": [
        2011
      ]
    },
    "political_parties": [
      "\u0411\u0435\u0441\u043f\u0430\u0440\u0442\u0438\u0439\u043d\u044b\u0439"
    ],
    "person_name": "\u043a\u0443\u0437\u0438\u0447\u043a\u0438\u043d \u043e\u043b\u0435\u0433 \u0440\u0443\u0434\u043e\u043b\u044c\u0444\u043e\u0432\u0438\u0447",
    "rating": 0.7693660471047115,
    "risk_factors": [
      "\u0411\u043e\u043b\u044c\u0448\u043e\u0439 \u0440\u0430\u0437\u0440\u044b\u0432 \u0434\u043e\u0445\u043e\u0434\u043e\u0432 \u0441 \u0434\u043e\u0445\u043e\u0434\u0430\u043c\u0438 \u043f\u043e \u0440\u0435\u0433\u0438\u043e\u043d\u0443. \u0421\u0442\u043e\u0438\u043c\u043e\u0441\u0442\u044c \u043d\u0435\u0434\u0432\u0438\u0436\u0438\u043c\u043e\u0441\u0442\u0438 \u0432\u043e \u0432\u043b\u0430\u0434\u0435\u043d\u0438\u0438 \u0441\u043e\u0441\u0442\u0430\u0432\u043b\u044f\u0435\u0442 1367690 \u0440\u0443\u0431. \u0421\u0440\u0435\u0434\u043d\u0435\u043c\u0443 \u0436\u0438\u0442\u0435\u043b\u044e \u0440\u0435\u0433\u0438\u043e\u043d\u0430 (\u0432\u043b\u0430\u0434\u0438\u043c\u0438\u0440\u0441\u043a\u0430\u044f \u043e\u0431\u043b\u0430\u0441\u0442\u044c) \u0442\u0440\u0435\u0431\u0443\u0435\u0442\u0441\u044f 4 \u043b\u0435\u0442 (\u043d\u0430 4 \u043b\u0435\u0442 \u0434\u043e\u043b\u044c\u0448\u0435), \u0447\u0442\u043e\u0431\u044b \u0441\u0442\u043e\u043b\u044c\u043a\u043e \u0437\u0430\u0440\u0430\u0431\u043e\u0442\u0430\u0442\u044c."
    ],
    "affiliates": [
      1544,
      1444,
      1474,
      1475,
      1477,
      1478,
      1480,
      1488,
      1489,
      1490,
      1491,
      1492,
      1493,
      1494,
      1495,
      1496,
      1497,
      1626,
      1498,
      1500,
      1499
    ]
  },
  "1544": {
    "personal_income": {
      "2011": 2455029.0,
      "2012": 4227916.14,
      "2014": 500000.0,
      "2015": 4601265.19
    },
    "relatives_income": {
      "2011": 19812055.76,
      "2012": 16507397.16,
      "2014": 41050000.0,
      "2015": 0.0
    },
    "savings": {
      "2011": 0.0,
      "2012": 0.0,
      "2014": 0.0,
      "2015": 0.0
    },
    "real_estate_amount": {
      "2011": 21,
      "2012": 21,
      "2014": 31,
      "2015": 10
    },
    "real_estate_square_meters": {
      "2011": 2150462.2,
      "2012": 2150302.7,
      "2014": 806463.0,
      "2015": 6169.3
    },
    "year_start": 2011,
    "year_end": 2015,
    "last_position": "\u0414\u0435\u043f\u0443\u0442\u0430\u0442 \u0437\u0430\u043a\u043e\u043d\u043e\u0434\u0430\u0442\u0435\u043b\u044c\u043d\u043e\u0433\u043e \u0441\u043e\u0431\u0440\u0430\u043d\u0438\u044f \u0412\u043b\u0430\u0434\u0438\u043c\u0438\u0440\u0441\u043a\u043e\u0439 \u043e\u0431\u043b\u0430\u0441\u0442\u0438 6-\u0433\u043e \u0441\u043e\u0437\u044b\u0432\u0430",
    "journey_through_offices": {
      "\u0414\u0435\u043f\u0443\u0442\u0430\u0442 \u0437\u0430\u043a\u043e\u043d\u043e\u0434\u0430\u0442\u0435\u043b\u044c\u043d\u043e\u0433\u043e \u0441\u043e\u0431\u0440\u0430\u043d\u0438\u044f \u0412\u043b\u0430\u0434\u0438\u043c\u0438\u0440\u0441\u043a\u043e\u0439 \u043e\u0431\u043b\u0430\u0441\u0442\u0438 6-\u0433\u043e \u0441\u043e\u0437\u044b\u0432\u0430": [
        2014,
        2015
      ],
      "\u0417\u0430\u043c\u0435\u0441\u0442\u0438\u0442\u0435\u043b\u044c \u043f\u0440\u0435\u0434\u0441\u0435\u0434\u0430\u0442\u0435\u043b\u044f \u043a\u043e\u043c\u0438\u0442\u0435\u0442\u0430, \u0447\u043b\u0435\u043d \u043a\u043e\u043c\u0438\u0442\u0435\u0442\u0430 \u0417\u0430\u043a\u043e\u043d\u043e\u0434\u0430\u0442\u0435\u043b\u044c\u043d\u043e\u0433\u043e \u0421\u043e\u0431\u0440\u0430\u043d\u0438\u044f \u0412\u043b\u0430\u0434\u0438\u043c\u0438\u0440\u0441\u043a\u043e\u0439 \u043e\u0431\u043b\u0430\u0441\u0442\u0438": [
        2011,
        2012
      ]
    },
    "political_parties": [
      "\u0415\u0434\u0438\u043d\u0430\u044f \u0420\u043e\u0441\u0441\u0438\u044f"
    ],
    "person_name": "\u043a\u0443\u0437\u043d\u0435\u0446\u043e\u0432 \u0430\u043b\u0435\u043a\u0441\u0435\u0439 \u043d\u0438\u043a\u043e\u043b\u0430\u0435\u0432\u0438\u0447",
    "rating": 5.121928156238588,
    "risk_factors": [
      "\u0423\u0447\u0430\u0441\u0442\u0432\u043e\u0432\u0430\u043b \u0432 \u0433\u043e\u0441\u0437\u0430\u043a\u0443\u043f\u043a\u0430\u0445: 2. \u042d\u0442\u043e \u043f\u0440\u0435\u0432\u044b\u0448\u0430\u0435\u0442 \u043c\u0435\u0434\u0438\u0430\u043d\u043d\u043e\u0435 \u0437\u043d\u0430\u0447\u0435\u043d\u0438\u0435.",
      "\u041b\u0438\u043a\u0432\u0438\u0434\u0438\u0440\u043e\u0432\u0430\u043d\u043d\u044b\u0445 \u041d\u041a\u041e: 1. \u042d\u0442\u043e \u043f\u0440\u0435\u0432\u044b\u0448\u0430\u0435\u0442 \u043c\u0435\u0434\u0438\u0430\u043d\u043d\u043e\u0435 \u0437\u043d\u0430\u0447\u0435\u043d\u0438\u0435.",
      "\u0410\u043a\u0442\u0438\u0432\u043d\u044b\u0445 \u041d\u041a\u041e: 3.",
      "\u0411\u043e\u043b\u044c\u0448\u043e\u0439 \u0440\u0430\u0437\u0440\u044b\u0432 \u0434\u043e\u0445\u043e\u0434\u043e\u0432 \u0441 \u0434\u043e\u0445\u043e\u0434\u0430\u043c\u0438 \u043f\u043e \u0440\u0435\u0433\u0438\u043e\u043d\u0443. \u0421\u0442\u043e\u0438\u043c\u043e\u0441\u0442\u044c \u043d\u0435\u0434\u0432\u0438\u0436\u0438\u043c\u043e\u0441\u0442\u0438 \u0432\u043e \u0432\u043b\u0430\u0434\u0435\u043d\u0438\u0438 \u0441\u043e\u0441\u0442\u0430\u0432\u043b\u044f\u0435\u0442 218592982 \u0440\u0443\u0431. \u0421\u0440\u0435\u0434\u043d\u0435\u043c\u0443 \u0436\u0438\u0442\u0435\u043b\u044e \u0440\u0435\u0433\u0438\u043e\u043d\u0430 (\u0432\u043b\u0430\u0434\u0438\u043c\u0438\u0440\u0441\u043a\u0430\u044f \u043e\u0431\u043b\u0430\u0441\u0442\u044c) \u0442\u0440\u0435\u0431\u0443\u0435\u0442\u0441\u044f 700 \u043b\u0435\u0442 (\u043d\u0430 690 \u043b\u0435\u0442 \u0434\u043e\u043b\u044c\u0448\u0435), \u0447\u0442\u043e\u0431\u044b \u0441\u0442\u043e\u043b\u044c\u043a\u043e \u0437\u0430\u0440\u0430\u0431\u043e\u0442\u0430\u0442\u044c."
    ],
    "affiliates": [
      1543,
      1491,
      1494,
      1492,
      1444,
      1445,
      1447,
      1493,
      1474,
      1475,
      1476,
      1477,
      1478,
      1479,
      1480,
      1489,
      1490,
      12491,
      12492,
      12493,
      12494,
      12495,
      12496,
      12497,
      12498,
      12499,
      12500,
      1488,
      12502,
      12503,
      12504,
      1624,
      12506,
      12507,
      12505,
      1626,
      1627,
      1631,
      12508,
      1633,
      12509,
      12510,
      12511,
      12512,
      12513,
      1495,
      1496,
      1497,
      1498,
      1499,
      1500
    ]
  },
  "1565": {
    "personal_income": {
      "2014": 545663.48,
      "2015": 766346.52
    },
    "relatives_income": {
      "2014": 79660.0,
      "2015": 126010.44
    },
    "savings": {
      "2014": 0.0,
      "2015": 0.0
    },
    "real_estate_amount": {
      "2014": 11,
      "2015": 9
    },
    "real_estate_square_meters": {
      "2014": 50463.0,
      "2015": 40324228.1
    },
    "year_start": 2014,
    "year_end": 2015,
    "last_position": "\u0414\u0435\u043f\u0443\u0442\u0430\u0442 \u0433\u043e\u0441\u0443\u0434\u0430\u0440\u0441\u0442\u0432\u0435\u043d\u043d\u043e\u0433\u043e \u0441\u043e\u0431\u0440\u0430\u043d\u0438\u044f \u2013 \u041a\u0443\u0440\u0443\u043b\u0442\u0430\u044f \u0420\u0435\u0441\u043f\u0443\u0431\u043b\u0438\u043a\u0438 \u0411\u0430\u0448\u043a\u043e\u0440\u0442\u043e\u0441\u0442\u0430\u043d \u043f\u044f\u0442\u043e\u0433\u043e \u0441\u043e\u0437\u044b\u0432\u0430",
    "journey_through_offices": {
      "\u0414\u0435\u043f\u0443\u0442\u0430\u0442 \u0433\u043e\u0441\u0443\u0434\u0430\u0440\u0441\u0442\u0432\u0435\u043d\u043d\u043e\u0433\u043e \u0441\u043e\u0431\u0440\u0430\u043d\u0438\u044f \u2013 \u041a\u0443\u0440\u0443\u043b\u0442\u0430\u044f \u0420\u0435\u0441\u043f\u0443\u0431\u043b\u0438\u043a\u0438 \u0411\u0430\u0448\u043a\u043e\u0440\u0442\u043e\u0441\u0442\u0430\u043d \u043f\u044f\u0442\u043e\u0433\u043e \u0441\u043e\u0437\u044b\u0432\u0430": [
        2014,
        2015
      ]
    },
    "political_parties": [
      "\u041a\u041f\u0420\u0424"
    ],
    "person_name": "\u0448\u0430\u0433\u0438\u0435\u0432 \u0445\u0430\u0440\u0438\u0441 \u0445\u0430\u0437\u0430\u0440\u043e\u0432\u0438\u0447",
    "rating": 5.936652104653028,
    "risk_factors": [
      "\u041e\u0431\u043d\u0430\u0440\u0443\u0436\u0435\u043d \u0432 \u0431\u0430\u0437\u0435 \u0434\u0430\u043d\u043d\u044b\u0445 Offshore Leaks.",
      "\u041e\u0442\u043d\u043e\u0448\u0435\u043d\u0438\u0435 \u0441\u0442\u043e\u0438\u043c\u043e\u0441\u0442\u0438 \u043d\u0435\u0434\u0432\u0438\u0436\u0438\u043c\u043e\u0441\u0442\u0438 \u043a \u0433\u043e\u0434\u043e\u0432\u043e\u043c\u0443 \u0434\u043e\u0445\u043e\u0434\u0443 \u043f\u0440\u0435\u0432\u044b\u0448\u0430\u0435\u0442 95 \u043f\u0435\u0440\u0446\u0435\u043d\u0442\u0438\u043b\u044c. \u0421\u0442\u043e\u0438\u043c\u043e\u0441\u0442\u044c \u043d\u0435\u0434\u0432\u0438\u0436\u0438\u043c\u043e\u0441\u0442\u0438 \u0441\u043e\u0441\u0442\u0430\u0432\u043b\u044f\u0435\u0442 \u0434\u043e\u0445\u043e\u0434 \u0437\u0430 2735274 \u043b\u0435\u0442.",
      "\u0411\u043e\u043b\u044c\u0448\u043e\u0439 \u0440\u0430\u0437\u0440\u044b\u0432 \u0434\u043e\u0445\u043e\u0434\u043e\u0432 \u0441 \u0434\u043e\u0445\u043e\u0434\u0430\u043c\u0438 \u043f\u043e \u0440\u0435\u0433\u0438\u043e\u043d\u0443. \u0421\u0442\u043e\u0438\u043c\u043e\u0441\u0442\u044c \u043d\u0435\u0434\u0432\u0438\u0436\u0438\u043c\u043e\u0441\u0442\u0438 \u0432\u043e \u0432\u043b\u0430\u0434\u0435\u043d\u0438\u0438 \u0441\u043e\u0441\u0442\u0430\u0432\u043b\u044f\u0435\u0442 2075635606982 \u0440\u0443\u0431. \u0421\u0440\u0435\u0434\u043d\u0435\u043c\u0443 \u0436\u0438\u0442\u0435\u043b\u044e \u0440\u0435\u0433\u0438\u043e\u043d\u0430 (\u0440\u0435\u0441\u043f\u0443\u0431\u043b\u0438\u043a\u0430 \u0431\u0430\u0448\u043a\u043e\u0440\u0442\u043e\u0441\u0442\u0430\u043d) \u0442\u0440\u0435\u0431\u0443\u0435\u0442\u0441\u044f 6159534 \u043b\u0435\u0442 (\u043d\u0430 3424261 \u043b\u0435\u0442 \u0434\u043e\u043b\u044c\u0448\u0435), \u0447\u0442\u043e\u0431\u044b \u0441\u0442\u043e\u043b\u044c\u043a\u043e \u0437\u0430\u0440\u0430\u0431\u043e\u0442\u0430\u0442\u044c."
    ],
    "affiliates": [
      12288,
      12289,
      12290,
      12291,
      12292,
      12293,
      12294,
      12295,
      12296,
      12297,
      12298,
      12299,
      12300,
      12301,
      12302,
      12303,
      12304,
      12305,
      12306,
      12307,
      12308,
      12309,
      12310,
      12311,
      12312,
      12313,
      12314,
      12315,
      12316,
      12317,
      12318,
      12319,
      12321,
      12322,
      12323,
      12324,
      12325,
      12326,
      12327,
      12328,
      12329,
      12330,
      12331,
      12332,
      12333,
      12334,
      12336,
      12337,
      12338,
      12339,
      12340,
      12341,
      12342,
      12343,
      12344,
      1593,
      12345,
      1595,
      12346,
      12347,
      1598,
      12348,
      1600,
      12349,
      12350,
      1605,
      1611,
      1612,
      1614,
      1615,
      1621,
      4715,
      1671,
      1672,
      1677,
      1679,
      1682,
      1685,
      1687,
      1696,
      1698,
      1701,
      1536,
      1537,
      821,
      2915,
      1462,
      1463,
      1472,
      1520,
      1521,
      12275,
      12276,
      12277,
      12278,
      12279,
      1523,
      1524,
      12282,
      12283,
      12284,
      12285,
      12286,
      12287
    ]
  },
  "1593": {
    "personal_income": {
      "2014": 2897759.06,
      "2015": 2938267.57
    },
    "relatives_income": {
      "2014": 659238.45,
      "2015": 635521.25
    },
    "savings": {
      "2014": 0.0,
      "2015": 0.0
    },
    "real_estate_amount": {
      "2014": 13,
      "2015": 21
    },
    "real_estate_square_meters": {
      "2014": 9566.4,
      "2015": 10196.4
    },
    "year_start": 2014,
    "year_end": 2015,
    "last_position": "\u0414\u0435\u043f\u0443\u0442\u0430\u0442 \u0433\u043e\u0441\u0443\u0434\u0430\u0440\u0441\u0442\u0432\u0435\u043d\u043d\u043e\u0433\u043e \u0441\u043e\u0431\u0440\u0430\u043d\u0438\u044f \u2013 \u041a\u0443\u0440\u0443\u043b\u0442\u0430\u044f \u0420\u0435\u0441\u043f\u0443\u0431\u043b\u0438\u043a\u0438 \u0411\u0430\u0448\u043a\u043e\u0440\u0442\u043e\u0441\u0442\u0430\u043d \u043f\u044f\u0442\u043e\u0433\u043e \u0441\u043e\u0437\u044b\u0432\u0430",
    "journey_through_offices": {
      "\u0414\u0435\u043f\u0443\u0442\u0430\u0442 \u0433\u043e\u0441\u0443\u0434\u0430\u0440\u0441\u0442\u0432\u0435\u043d\u043d\u043e\u0433\u043e \u0441\u043e\u0431\u0440\u0430\u043d\u0438\u044f \u2013 \u041a\u0443\u0440\u0443\u043b\u0442\u0430\u044f \u0420\u0435\u0441\u043f\u0443\u0431\u043b\u0438\u043a\u0438 \u0411\u0430\u0448\u043a\u043e\u0440\u0442\u043e\u0441\u0442\u0430\u043d \u043f\u044f\u0442\u043e\u0433\u043e \u0441\u043e\u0437\u044b\u0432\u0430": [
        2014,
        2015
      ]
    },
    "political_parties": [
      "\u0415\u0434\u0438\u043d\u0430\u044f \u0420\u043e\u0441\u0441\u0438\u044f"
    ],
    "person_name": "\u0430\u0438\u0442\u043a\u0443\u043b\u043e\u0432\u0430 \u044d\u043b\u044c\u0432\u0438\u0440\u0430 \u0440\u0438\u043d\u0430\u0442\u043e\u0432\u043d\u0430",
    "rating": 3.946267489268414,
    "risk_factors": [
      "\u041e\u0442\u043d\u043e\u0448\u0435\u043d\u0438\u0435 \u0441\u0442\u043e\u0438\u043c\u043e\u0441\u0442\u0438 \u043d\u0435\u0434\u0432\u0438\u0436\u0438\u043c\u043e\u0441\u0442\u0438 \u043a \u0433\u043e\u0434\u043e\u0432\u043e\u043c\u0443 \u0434\u043e\u0445\u043e\u0434\u0443 \u043f\u0440\u0435\u0432\u044b\u0448\u0430\u0435\u0442 75 \u043f\u0435\u0440\u0446\u0435\u043d\u0442\u0438\u043b\u044c.\u0421\u0442\u043e\u0438\u043c\u043e\u0441\u0442\u044c \u043d\u0435\u0434\u0432\u0438\u0436\u0438\u043c\u043e\u0441\u0442\u0438 \u0441\u043e\u0441\u0442\u0430\u0432\u043b\u044f\u0435\u0442 \u0434\u043e\u0445\u043e\u0434 \u0437\u0430 147 \u043b\u0435\u0442.",
      "\u0411\u043e\u043b\u044c\u0448\u043e\u0439 \u0440\u0430\u0437\u0440\u044b\u0432 \u0434\u043e\u0445\u043e\u0434\u043e\u0432 \u0441 \u0434\u043e\u0445\u043e\u0434\u0430\u043c\u0438 \u043f\u043e \u0440\u0435\u0433\u0438\u043e\u043d\u0443. \u0421\u0442\u043e\u0438\u043c\u043e\u0441\u0442\u044c \u043d\u0435\u0434\u0432\u0438\u0436\u0438\u043c\u043e\u0441\u0442\u0438 \u0432\u043e \u0432\u043b\u0430\u0434\u0435\u043d\u0438\u0438 \u0441\u043e\u0441\u0442\u0430\u0432\u043b\u044f\u0435\u0442 524846027 \u0440\u0443\u0431. \u0421\u0440\u0435\u0434\u043d\u0435\u043c\u0443 \u0436\u0438\u0442\u0435\u043b\u044e \u0440\u0435\u0433\u0438\u043e\u043d\u0430 (\u0440\u0435\u0441\u043f\u0443\u0431\u043b\u0438\u043a\u0430 \u0431\u0430\u0448\u043a\u043e\u0440\u0442\u043e\u0441\u0442\u0430\u043d) \u0442\u0440\u0435\u0431\u0443\u0435\u0442\u0441\u044f 1558 \u043b\u0435\u0442 (\u043d\u0430 1410 \u043b\u0435\u0442 \u0434\u043e\u043b\u044c\u0448\u0435), \u0447\u0442\u043e\u0431\u044b \u0441\u0442\u043e\u043b\u044c\u043a\u043e \u0437\u0430\u0440\u0430\u0431\u043e\u0442\u0430\u0442\u044c."
    ],
    "affiliates": [
      12288,
      12289,
      12290,
      12291,
      12292,
      12293,
      12294,
      12295,
      12296,
      12297,
      12298,
      12299,
      12300,
      12301,
      12302,
      12303,
      12304,
      12305,
      12306,
      12307,
      12308,
      12309,
      12310,
      12311,
      12312,
      12313,
      12314,
      12315,
      12316,
      12317,
      12318,
      12319,
      1565,
      12321,
      12322,
      12323,
      12324,
      12325,
      12326,
      12327,
      12328,
      12329,
      12330,
      12331,
      12332,
      12333,
      12334,
      12336,
      12337,
      12338,
      12339,
      12340,
      12341,
      12342,
      12343,
      12344,
      12345,
      12346,
      1595,
      12347,
      12348,
      1598,
      12349,
      1600,
      12350,
      1605,
      1611,
      1612,
      1614,
      1615,
      1621,
      4715,
      1671,
      1672,
      1677,
      1679,
      1682,
      1685,
      1687,
      1696,
      1698,
      1701,
      1536,
      1537,
      821,
      2915,
      1462,
      1463,
      1472,
      1520,
      1521,
      12275,
      12276,
      12277,
      12278,
      12279,
      1523,
      1524,
      12282,
      12283,
      12284,
      12285,
      12286,
      12287
    ]
  },
  "1595": {
    "personal_income": {
      "2014": 1577368.11,
      "2015": 1972690.95
    },
    "relatives_income": {
      "2014": 949926.77,
      "2015": 917859.39
    },
    "savings": {
      "2014": 0.0,
      "2015": 0.0
    },
    "real_estate_amount": {
      "2014": 9,
      "2015": 16
    },
    "real_estate_square_meters": {
      "2014": 3429.3,
      "2015": 6464.699999999999
    },
    "year_start": 2014,
    "year_end": 2015,
    "last_position": "\u0414\u0435\u043f\u0443\u0442\u0430\u0442 \u0433\u043e\u0441\u0443\u0434\u0430\u0440\u0441\u0442\u0432\u0435\u043d\u043d\u043e\u0433\u043e \u0441\u043e\u0431\u0440\u0430\u043d\u0438\u044f \u2013 \u041a\u0443\u0440\u0443\u043b\u0442\u0430\u044f \u0420\u0435\u0441\u043f\u0443\u0431\u043b\u0438\u043a\u0438 \u0411\u0430\u0448\u043a\u043e\u0440\u0442\u043e\u0441\u0442\u0430\u043d \u043f\u044f\u0442\u043e\u0433\u043e \u0441\u043e\u0437\u044b\u0432\u0430",
    "journey_through_offices": {
      "\u0414\u0435\u043f\u0443\u0442\u0430\u0442 \u0433\u043e\u0441\u0443\u0434\u0430\u0440\u0441\u0442\u0432\u0435\u043d\u043d\u043e\u0433\u043e \u0441\u043e\u0431\u0440\u0430\u043d\u0438\u044f \u2013 \u041a\u0443\u0440\u0443\u043b\u0442\u0430\u044f \u0420\u0435\u0441\u043f\u0443\u0431\u043b\u0438\u043a\u0438 \u0411\u0430\u0448\u043a\u043e\u0440\u0442\u043e\u0441\u0442\u0430\u043d \u043f\u044f\u0442\u043e\u0433\u043e \u0441\u043e\u0437\u044b\u0432\u0430": [
        2014,
        2015
      ]
    },
    "political_parties": [
      "\u0415\u0434\u0438\u043d\u0430\u044f \u0420\u043e\u0441\u0441\u0438\u044f"
    ],
    "person_name": "\u0430\u0445\u043c\u0435\u0442\u0448\u0438\u043d \u0440\u0443\u0441\u0442\u044d\u043c \u0437\u0430\u043a\u0438\u0435\u0432\u0438\u0447",
    "rating": 3.67685922027317,
    "risk_factors": [
      "\u041e\u0442\u043d\u043e\u0448\u0435\u043d\u0438\u0435 \u0441\u0442\u043e\u0438\u043c\u043e\u0441\u0442\u0438 \u043d\u0435\u0434\u0432\u0438\u0436\u0438\u043c\u043e\u0441\u0442\u0438 \u043a \u0433\u043e\u0434\u043e\u0432\u043e\u043c\u0443 \u0434\u043e\u0445\u043e\u0434\u0443 \u043f\u0440\u0435\u0432\u044b\u0448\u0430\u0435\u0442 75 \u043f\u0435\u0440\u0446\u0435\u043d\u0442\u0438\u043b\u044c.\u0421\u0442\u043e\u0438\u043c\u043e\u0441\u0442\u044c \u043d\u0435\u0434\u0432\u0438\u0436\u0438\u043c\u043e\u0441\u0442\u0438 \u0441\u043e\u0441\u0442\u0430\u0432\u043b\u044f\u0435\u0442 \u0434\u043e\u0445\u043e\u0434 \u0437\u0430 123 \u043b\u0435\u0442.",
      "\u0411\u043e\u043b\u044c\u0448\u043e\u0439 \u0440\u0430\u0437\u0440\u044b\u0432 \u0434\u043e\u0445\u043e\u0434\u043e\u0432 \u0441 \u0434\u043e\u0445\u043e\u0434\u0430\u043c\u0438 \u043f\u043e \u0440\u0435\u0433\u0438\u043e\u043d\u0443. \u0421\u0442\u043e\u0438\u043c\u043e\u0441\u0442\u044c \u043d\u0435\u0434\u0432\u0438\u0436\u0438\u043c\u043e\u0441\u0442\u0438 \u0432\u043e \u0432\u043b\u0430\u0434\u0435\u043d\u0438\u0438 \u0441\u043e\u0441\u0442\u0430\u0432\u043b\u044f\u0435\u0442 332761770 \u0440\u0443\u0431. \u0421\u0440\u0435\u0434\u043d\u0435\u043c\u0443 \u0436\u0438\u0442\u0435\u043b\u044e \u0440\u0435\u0433\u0438\u043e\u043d\u0430 (\u0440\u0435\u0441\u043f\u0443\u0431\u043b\u0438\u043a\u0430 \u0431\u0430\u0448\u043a\u043e\u0440\u0442\u043e\u0441\u0442\u0430\u043d) \u0442\u0440\u0435\u0431\u0443\u0435\u0442\u0441\u044f 987 \u043b\u0435\u0442 (\u043d\u0430 865 \u043b\u0435\u0442 \u0434\u043e\u043b\u044c\u0448\u0435), \u0447\u0442\u043e\u0431\u044b \u0441\u0442\u043e\u043b\u044c\u043a\u043e \u0437\u0430\u0440\u0430\u0431\u043e\u0442\u0430\u0442\u044c."
    ],
    "affiliates": [
      12288,
      12289,
      12290,
      12291,
      12292,
      12293,
      12294,
      12295,
      12296,
      12297,
      12298,
      12299,
      12300,
      12301,
      12302,
      12303,
      12304,
      12305,
      12306,
      12307,
      12308,
      12309,
      12310,
      12311,
      12312,
      12313,
      12314,
      12315,
      12316,
      12317,
      12318,
      12319,
      1565,
      12321,
      12322,
      12323,
      12324,
      12325,
      12326,
      12327,
      12328,
      12329,
      12330,
      12331,
      12332,
      12333,
      12334,
      12336,
      12337,
      12338,
      12339,
      12340,
      12341,
      12342,
      12343,
      12344,
      12345,
      12346,
      12347,
      12348,
      12349,
      1598,
      12350,
      1600,
      1593,
      1605,
      1611,
      1612,
      1614,
      1615,
      1621,
      4715,
      1671,
      1672,
      1677,
      1679,
      1682,
      1685,
      1687,
      1696,
      1698,
      1701,
      1536,
      1537,
      821,
      2915,
      1462,
      1463,
      1472,
      1520,
      1521,
      12275,
      12276,
      12277,
      12278,
      12279,
      1523,
      1524,
      12282,
      12283,
      12284,
      12285,
      12286,
      12287
    ]
  },
  "1598": {
    "personal_income": {
      "2014": 3232135.06,
      "2015": 2971623.84,
      "2016": 2934176.85
    },
    "relatives_income": {
      "2014": 11473.38,
      "2015": 7503.33,
      "2016": 5281.1
    },
    "savings": {
      "2014": 0.0,
      "2015": 0.0,
      "2016": 0.0
    },
    "real_estate_amount": {
      "2014": 4,
      "2015": 4,
      "2016": 5
    },
    "real_estate_square_meters": {
      "2014": 301.1,
      "2015": 316.5,
      "2016": 425.2000000000001
    },
    "year_start": 2014,
    "year_end": 2016,
    "last_position": "\u0447\u043b\u0435\u043d \u043a\u043e\u043c\u0438\u0442\u0435\u0442\u0430 \u0413\u043e\u0441\u0443\u0434\u0430\u0440\u0441\u0442\u0432\u0435\u043d\u043d\u043e\u0439 \u0414\u0443\u043c\u044b",
    "journey_through_offices": {
      "\u0414\u0435\u043f\u0443\u0442\u0430\u0442 \u0433\u043e\u0441\u0443\u0434\u0430\u0440\u0441\u0442\u0432\u0435\u043d\u043d\u043e\u0433\u043e \u0441\u043e\u0431\u0440\u0430\u043d\u0438\u044f \u2013 \u041a\u0443\u0440\u0443\u043b\u0442\u0430\u044f \u0420\u0435\u0441\u043f\u0443\u0431\u043b\u0438\u043a\u0438 \u0411\u0430\u0448\u043a\u043e\u0440\u0442\u043e\u0441\u0442\u0430\u043d \u043f\u044f\u0442\u043e\u0433\u043e \u0441\u043e\u0437\u044b\u0432\u0430": [
        2014,
        2015
      ],
      "\u0447\u043b\u0435\u043d \u043a\u043e\u043c\u0438\u0442\u0435\u0442\u0430 \u0413\u043e\u0441\u0443\u0434\u0430\u0440\u0441\u0442\u0432\u0435\u043d\u043d\u043e\u0439 \u0414\u0443\u043c\u044b": [
        2016
      ]
    },
    "political_parties": [
      "\u0415\u0434\u0438\u043d\u0430\u044f \u0420\u043e\u0441\u0441\u0438\u044f"
    ],
    "person_name": "\u0431\u0443\u0433\u0435\u0440\u0430 \u043c\u0438\u0445\u0430\u0438\u043b \u0435\u0432\u0433\u0435\u043d\u044c\u0435\u0432\u0438\u0447",
    "rating": 1.0797525246108195,
    "risk_factors": [
      "\u0411\u043e\u043b\u044c\u0448\u043e\u0439 \u0440\u0430\u0437\u0440\u044b\u0432 \u0434\u043e\u0445\u043e\u0434\u043e\u0432 \u0441 \u0434\u043e\u0445\u043e\u0434\u0430\u043c\u0438 \u043f\u043e \u0440\u0435\u0433\u0438\u043e\u043d\u0443. \u0421\u0442\u043e\u0438\u043c\u043e\u0441\u0442\u044c \u043d\u0435\u0434\u0432\u0438\u0436\u0438\u043c\u043e\u0441\u0442\u0438 \u0432\u043e \u0432\u043b\u0430\u0434\u0435\u043d\u0438\u0438 \u0441\u043e\u0441\u0442\u0430\u0432\u043b\u044f\u0435\u0442 22657615 \u0440\u0443\u0431. \u0421\u0440\u0435\u0434\u043d\u0435\u043c\u0443 \u0436\u0438\u0442\u0435\u043b\u044e \u0440\u0435\u0433\u0438\u043e\u043d\u0430 (\u0440\u0435\u0441\u043f\u0443\u0431\u043b\u0438\u043a\u0430 \u0431\u0430\u0448\u043a\u043e\u0440\u0442\u043e\u0441\u0442\u0430\u043d) \u0442\u0440\u0435\u0431\u0443\u0435\u0442\u0441\u044f 67 \u043b\u0435\u0442 (\u043d\u0430 60 \u043b\u0435\u0442 \u0434\u043e\u043b\u044c\u0448\u0435), \u0447\u0442\u043e\u0431\u044b \u0441\u0442\u043e\u043b\u044c\u043a\u043e \u0437\u0430\u0440\u0430\u0431\u043e\u0442\u0430\u0442\u044c."
    ],
    "affiliates": [
      12288,
      12289,
      12290,
      12291,
      12292,
      12293,
      12294,
      12295,
      12296,
      12297,
      12298,
      12299,
      12300,
      12301,
      12302,
      12303,
      12304,
      12305,
      12306,
      12307,
      12308,
      12309,
      12310,
      12311,
      12312,
      12313,
      12314,
      12315,
      12316,
      12317,
      12318,
      12319,
      1565,
      12321,
      12322,
      12323,
      12324,
      12325,
      12326,
      12327,
      12328,
      12329,
      12330,
      12331,
      12332,
      12333,
      12334,
      12336,
      12337,
      12338,
      12339,
      12340,
      12341,
      12342,
      12343,
      12344,
      12345,
      12346,
      12347,
      12348,
      12349,
      12350,
      1537,
      1600,
      1593,
      1595,
      1605,
      1611,
      1612,
      1614,
      1615,
      1621,
      4715,
      1671,
      1672,
      1677,
      1679,
      1682,
      1685,
      1687,
      1696,
      1698,
      1701,
      1536,
      821,
      2915,
      1462,
      1463,
      1472,
      1520,
      1521,
      12275,
      12276,
      12277,
      12278,
      12279,
      1523,
      1524,
      12282,
      12283,
      12284,
      12285,
      12286,
      12287
    ]
  }
}