{
  "79": {
    "name": "\u041f\u0440\u043e\u043a\u0443\u0440\u0430\u0442\u0443\u0440\u0430 \u0420\u0435\u0441\u043f\u0443\u0431\u043b\u0438\u043a\u0438 \u0421\u0430\u0445\u0430 (\u042f\u043a\u0443\u0442\u0438\u044f)",
    "rating": 0.6714179201138982
  },
  "128": {
    "name": "\u0413\u043b\u0430\u0432\u0430 \u0440\u0435\u0441\u043f\u0443\u0431\u043b\u0438\u043a\u0438 \u0421\u0430\u0445\u0430 (\u042f\u043a\u0443\u0442\u0438\u044f)",
    "rating": 4.2870330490167285
  },
  "159": {
    "name": "\u041f\u0440\u0430\u0432\u0438\u0442\u0435\u043b\u044c\u0441\u0442\u0432\u043e \u0440\u0435\u0441\u043f\u0443\u0431\u043b\u0438\u043a\u0438 \u0421\u0430\u0445\u0430 (\u042f\u043a\u0443\u0442\u0438\u044f)",
    "rating": 4.237368062502105
  },
  "375": {
    "name": "\u0418\u0437\u0431\u0438\u0440\u0430\u0442\u0435\u043b\u044c\u043d\u0430\u044f \u043a\u043e\u043c\u0438\u0441\u0441\u0438\u044f \u0420\u0435\u0441\u043f\u0443\u0431\u043b\u0438\u043a\u0438 \u0421\u0430\u0445\u0430 (\u042f\u043a\u0443\u0442\u0438\u044f)",
    "rating": 3.278414571297635
  },
  "535": {
    "name": "\u0413\u043e\u0441\u0443\u0434\u0430\u0440\u0441\u0442\u0432\u0435\u043d\u043d\u043e\u0435 \u0421\u043e\u0431\u0440\u0430\u043d\u0438\u0435 (\u0418\u043b \u0422\u0443\u043c\u044d\u043d) \u0420\u0435\u0441\u043f\u0443\u0431\u043b\u0438\u043a\u0438 \u0421\u0430\u0445\u0430 (\u042f\u043a\u0443\u0442\u0438\u044f)",
    "rating": 7.259698401030444
  },
  "693": {
    "name": "\u0410\u0440\u0431\u0438\u0442\u0440\u0430\u0436\u043d\u044b\u0439 \u0441\u0443\u0434 \u0420\u0435\u0441\u043f\u0443\u0431\u043b\u0438\u043a\u0438 \u0421\u0430\u0445\u0430 (\u042f\u043a\u0443\u0442\u0438\u044f)",
    "rating": 3.2047024213678776
  },
  "774": {
    "name": "\u0412\u0435\u0440\u0445\u043e\u0432\u043d\u044b\u0439 \u0421\u0443\u0434 \u0420\u0435\u0441\u043f\u0443\u0431\u043b\u0438\u043a\u0438 \u0421\u0430\u0445\u0430 (\u042f\u043a\u0443\u0442\u0438\u044f)",
    "rating": 1.3381646339846025
  },
  "3669": {
    "name": "\u042f\u043a\u0443\u0442\u0441\u043a - \u0433\u043e\u0440\u043e\u0434\u0441\u043a\u043e\u0439 \u043e\u043a\u0440\u0443\u0433",
    "rating": 5.395187275706478
  },
  "3875": {
    "name": "\u0421\u043b\u0435\u0434\u0441\u0442\u0432\u0435\u043d\u043d\u043e\u0435 \u0443\u043f\u0440\u0430\u0432\u043b\u0435\u043d\u0438\u0435 \u0421\u041a \u043f\u043e \u0420\u0435\u0441\u043f\u0443\u0431\u043b\u0438\u043a\u0435 \u0421\u0430\u0445\u0430 (\u042f\u043a\u0443\u0442\u0438\u044f)",
    "rating": 1.0970635406904716
  },
  "3956": {
    "name": "\u0423\u0424\u0421\u0418\u041d \u0420\u0435\u0441\u043f\u0443\u0431\u043b\u0438\u043a\u0430 \u0421\u0430\u0445\u0430 (\u042f\u043a\u0443\u0442\u0438\u044f)",
    "rating": 2.0948916733217096
  },
  "4395": {
    "name": "\u041c\u0412\u0414 \u0420\u0435\u0441\u043f\u0443\u0431\u043b\u0438\u043a\u0430 \u0421\u0430\u0445\u0430 (\u042f\u043a\u0443\u0442\u0438\u044f)",
    "rating": 2.5888231760822005
  },
  "5793": {
    "name": "\u0423\u043f\u0440\u0430\u0432\u043b\u0435\u043d\u0438\u0435 \u0424\u0435\u0434\u0435\u0440\u0430\u043b\u044c\u043d\u043e\u0439 \u043d\u0430\u043b\u043e\u0433\u043e\u0432\u043e\u0439 \u0441\u043b\u0443\u0436\u0431\u044b \u0420\u0435\u0441\u043f\u0443\u0431\u043b\u0438\u043a\u0430 \u0421\u0430\u0445\u0430 (\u042f\u043a\u0443\u0442\u0438\u044f)",
    "rating": 4.207421601478597
  },
  "6208": {
    "name": "\u0424\u0413\u0411\u041e\u0423 \u0412\u041e \u00ab\u0410\u0440\u043a\u0442\u0438\u0447\u0435\u0441\u043a\u0438\u0439 \u0433\u043e\u0441\u0443\u0434\u0430\u0440\u0441\u0442\u0432\u0435\u043d\u043d\u044b\u0439 \u0438\u043d\u0441\u0442\u0438\u0442\u0443\u0442 \u043a\u0443\u043b\u044c\u0442\u0443\u0440\u044b \u0438 \u0438\u0441\u043a\u0443\u0441\u0441\u0442\u0432\u00bb",
    "rating": 0.0
  },
  "6209": {
    "name": "\u0424\u0413\u0410\u041e\u0423 \u0412\u041f\u041e \"\u0421\u0435\u0432\u0435\u0440\u043e-\u0412\u043e\u0441\u0442\u043e\u0447\u043d\u044b\u0439 \u0444\u0435\u0434\u0435\u0440\u0430\u043b\u044c\u043d\u044b\u0439 \u0443\u043d\u0438\u0432\u0435\u0440\u0441\u0438\u0442\u0435\u0442 \u0438\u043c\u0435\u043d\u0438 \u041c. \u041a. \u0410\u043c\u043c\u043e\u0441\u043e\u0432\u0430\"",
    "rating": 2.271056875386165
  },
  "6446": {
    "name": "\u0424\u041a\u0423 \u0418\u041a - 3",
    "rating": 5.670872267385123
  },
  "6627": {
    "name": "\u0424\u0413\u0411\u041e\u0423 \u0412\u041e \"\u042f\u043a\u0443\u0442\u0441\u043a\u0430\u044f \u0413\u043e\u0441\u0443\u0434\u0430\u0440\u0441\u0442\u0432\u0435\u043d\u043d\u0430\u044f \u0421\u0435\u043b\u044c\u0441\u043a\u043e\u0445\u043e\u0437\u044f\u0439\u0441\u0442\u0432\u0435\u043d\u043d\u0430\u044f \u0410\u043a\u0430\u0434\u0435\u043c\u0438\u044f\"",
    "rating": 3.5611896029404617
  },
  "6663": {
    "name": "\u0424\u0413\u0411\u041d\u0423 \"\u041d\u0430\u0443\u0447\u043d\u043e-\u0438\u0441\u0441\u043b\u0435\u0434\u043e\u0432\u0430\u0442\u0435\u043b\u044c\u0441\u043a\u0438\u0439 \u0438\u043d\u0441\u0442\u0438\u0442\u0443\u0442 \u043d\u0430\u0446\u0438\u043e\u043d\u0430\u043b\u044c\u043d\u044b\u0445 \u0448\u043a\u043e\u043b \u0420\u0435\u0441\u043f\u0443\u0431\u043b\u0438\u043a\u0438 \u0421\u0430\u0445\u0430 (\u042f\u043a\u0443\u0442\u0438\u044f)\"  ",
    "rating": 10.0
  }
}