{
  "70": {
    "name": "\u041f\u0440\u043e\u043a\u0443\u0440\u0430\u0442\u0443\u0440\u0430 \u0420\u0435\u0441\u043f\u0443\u0431\u043b\u0438\u043a\u0438 \u0422\u0430\u0442\u0430\u0440\u0441\u0442\u0430\u043d",
    "rating": 7.766758086234453
  },
  "130": {
    "name": "\u0413\u043b\u0430\u0432\u0430 \u0440\u0435\u0441\u043f\u0443\u0431\u043b\u0438\u043a\u0438 \u0422\u0430\u0442\u0430\u0440\u0441\u0442\u0430\u043d",
    "rating": 7.229437368162196
  },
  "161": {
    "name": "\u041f\u0440\u0430\u0432\u0438\u0442\u0435\u043b\u044c\u0441\u0442\u0432\u043e \u0440\u0435\u0441\u043f\u0443\u0431\u043b\u0438\u043a\u0438 \u0422\u0430\u0442\u0430\u0440\u0441\u0442\u0430\u043d",
    "rating": 9.602398229441123
  },
  "377": {
    "name": "\u0418\u0437\u0431\u0438\u0440\u0430\u0442\u0435\u043b\u044c\u043d\u0430\u044f \u043a\u043e\u043c\u0438\u0441\u0441\u0438\u044f \u0420\u0435\u0441\u043f\u0443\u0431\u043b\u0438\u043a\u0438 \u0422\u0430\u0442\u0430\u0440\u0441\u0442\u0430\u043d",
    "rating": 2.8522357718236377
  },
  "537": {
    "name": "\u0413\u043e\u0441\u0443\u0434\u0430\u0440\u0441\u0442\u0432\u0435\u043d\u043d\u044b\u0439 \u0421\u043e\u0432\u0435\u0442 \u0420\u0435\u0441\u043f\u0443\u0431\u043b\u0438\u043a\u0438 \u0422\u0430\u0442\u0430\u0440\u0441\u0442\u0430\u043d",
    "rating": 10.0
  },
  "781": {
    "name": "\u0412\u0435\u0440\u0445\u043e\u0432\u043d\u044b\u0439 \u0421\u0443\u0434 \u0420\u0435\u0441\u043f\u0443\u0431\u043b\u0438\u043a\u0438 \u0422\u0430\u0442\u0430\u0440\u0441\u0442\u0430\u043d",
    "rating": 1.406800228593417
  },
  "1939": {
    "name": "\u041a\u0430\u0437\u0430\u043d\u044c - \u0433\u043e\u0440\u043e\u0434\u0441\u043a\u043e\u0439 \u043e\u043a\u0440\u0443\u0433",
    "rating": 4.433686498302329
  },
  "1940": {
    "name": "\u041d\u0430\u0431\u0435\u0440\u0435\u0436\u043d\u044b\u0435 \u0427\u0435\u043b\u043d\u044b - \u0433\u043e\u0440\u043e\u0434\u0441\u043a\u043e\u0439 \u043e\u043a\u0440\u0443\u0433",
    "rating": 1.4191124089409084
  },
  "3963": {
    "name": "\u0423\u0424\u0421\u0418\u041d \u0420\u0435\u0441\u043f\u0443\u0431\u043b\u0438\u043a\u0430 \u0422\u0430\u0442\u0430\u0440\u0441\u0442\u0430\u043d",
    "rating": 3.5567981331211285
  },
  "4309": {
    "name": "\u0423\u043f\u0440\u0430\u0432\u043b\u0435\u043d\u0438\u0435 \u0424\u0410\u0421 \u0420\u0435\u0441\u043f\u0443\u0431\u043b\u0438\u043a\u0430 \u0422\u0430\u0442\u0430\u0440\u0441\u0442\u0430\u043d",
    "rating": 0.5719296746072038
  },
  "4402": {
    "name": "\u041c\u0412\u0414 \u0420\u0435\u0441\u043f\u0443\u0431\u043b\u0438\u043a\u0430 \u0422\u0430\u0442\u0430\u0440\u0441\u0442\u0430\u043d",
    "rating": 5.176643600033606
  },
  "5800": {
    "name": "\u0423\u043f\u0440\u0430\u0432\u043b\u0435\u043d\u0438\u0435 \u0424\u0435\u0434\u0435\u0440\u0430\u043b\u044c\u043d\u043e\u0439 \u043d\u0430\u043b\u043e\u0433\u043e\u0432\u043e\u0439 \u0441\u043b\u0443\u0436\u0431\u044b \u0420\u0435\u0441\u043f\u0443\u0431\u043b\u0438\u043a\u0430 \u0422\u0430\u0442\u0430\u0440\u0441\u0442\u0430\u043d",
    "rating": 3.5498319969845227
  },
  "6124": {
    "name": "\u0424\u0413\u0411\u041e\u0423 \u0412\u041f\u041e \"\u041a\u0430\u0437\u0430\u043d\u0441\u043a\u0438\u0439 \u0433\u043e\u0441\u0443\u0434\u0430\u0440\u0441\u0442\u0432\u0435\u043d\u043d\u044b\u0439 \u044d\u043d\u0435\u0440\u0433\u0435\u0442\u0438\u0447\u0435\u0441\u043a\u0438\u0439 \u0443\u043d\u0438\u0432\u0435\u0440\u0441\u0438\u0442\u0435\u0442\"",
    "rating": 0.6166564571270732
  },
  "6328": {
    "name": "\u0424\u0413\u0410\u041e\u0423 \u0412\u041f\u041e \u00ab\u041a\u0430\u0437\u0430\u043d\u0441\u043a\u0438\u0439 (\u041f\u0440\u0438\u0432\u043e\u043b\u0436\u0441\u043a\u0438\u0439) \u0444\u0435\u0434\u0435\u0440\u0430\u043b\u044c\u043d\u044b\u0439 \u0443\u043d\u0438\u0432\u0435\u0440\u0441\u0438\u0442\u0435\u0442\u00bb",
    "rating": 6.233101121155216
  },
  "6342": {
    "name": "\u0424\u0413\u0411\u041e\u0423 \u0412\u041e \"\u041a\u0430\u0437\u0430\u043d\u0441\u043a\u0438\u0439 \u043d\u0430\u0446\u0438\u043e\u043d\u0430\u043b\u044c\u043d\u044b\u0439 \u0438\u0441\u0441\u043b\u0435\u0434\u043e\u0432\u0430\u0442\u0435\u043b\u044c\u0441\u043a\u0438\u0439 \u0442\u0435\u0445\u043d\u0438\u0447\u0435\u0441\u043a\u0438\u0439 \u0443\u043d\u0438\u0432\u0435\u0440\u0441\u0438\u0442\u0435\u0442 \u0438\u043c. \u0410.\u041d.\u0422\u0443\u043f\u043e\u043b\u0435\u0432\u0430 - \u041a\u0410\u0418\"",
    "rating": 2.1372208731457096
  },
  "6346": {
    "name": "\u0424\u0413\u0411\u041e\u0423 \u0412\u041f\u041e \u00ab\u041a\u0430\u0437\u0430\u043d\u0441\u043a\u0438\u0439 \u043d\u0430\u0446\u0438\u043e\u043d\u0430\u043b\u044c\u043d\u044b\u0439 \u0438\u0441\u0441\u043b\u0435\u0434\u043e\u0432\u0430\u0442\u0435\u043b\u044c\u0441\u043a\u0438\u0439 \u0442\u0435\u0445\u043d\u043e\u043b\u043e\u0433\u0438\u0447\u0435\u0441\u043a\u0438\u0439 \u0443\u043d\u0438\u0432\u0435\u0440\u0441\u0438\u0442\u0435\u0442\u00bb",
    "rating": 3.077122012938708
  },
  "6355": {
    "name": "\u0424\u0413\u0411\u041e\u0423 \u0412\u041e \u00ab\u041a\u0430\u0437\u0430\u043d\u0441\u043a\u0438\u0439 \u0433\u043e\u0441\u0443\u0434\u0430\u0440\u0441\u0442\u0432\u0435\u043d\u043d\u044b\u0439 \u0430\u0440\u0445\u0438\u0442\u0435\u043a\u0442\u0443\u0440\u043d\u043e-\u0441\u0442\u0440\u043e\u0438\u0442\u0435\u043b\u044c\u043d\u044b\u0439 \u0443\u043d\u0438\u0432\u0435\u0440\u0441\u0438\u0442\u0435\u0442\u00bb",
    "rating": 1.927246024105734
  },
  "6356": {
    "name": "\u0424\u0413\u0411\u041e\u0423 \u0412\u041e \u00ab\u041d\u0430\u0431\u0435\u0440\u0435\u0436\u043d\u043e\u0447\u0435\u043b\u043d\u0438\u043d\u0441\u043a\u0438\u0439 \u0433\u043e\u0441\u0443\u0434\u0430\u0440\u0441\u0442\u0432\u0435\u043d\u043d\u044b\u0439 \u043f\u0435\u0434\u0430\u0433\u043e\u0433\u0438\u0447\u0435\u0441\u043a\u0438\u0439 \u0443\u043d\u0438\u0432\u0435\u0440\u0441\u0438\u0442\u0435\u0442\u00bb",
    "rating": 5.670576278694476
  },
  "6367": {
    "name": "\u0424\u0413\u0411\u041e\u0423 \u0414\u041f\u041e \"\u041c\u0435\u0436\u0440\u0435\u0433\u0438\u043e\u043d\u0430\u043b\u044c\u043d\u044b\u0439 \u0438\u043d\u0441\u0442\u0438\u0442\u0443\u0442 \u043f\u043e\u0432\u044b\u0448\u0435\u043d\u0438\u044f \u043a\u0432\u0430\u043b\u0438\u0444\u0438\u043a\u0430\u0446\u0438\u0438 \u0441\u043f\u0435\u0446\u0438\u0430\u043b\u0438\u0441\u0442\u043e\u0432 \u043d\u0430\u0447\u0430\u043b\u044c\u043d\u043e\u0433\u043e \u043f\u0440\u043e\u0444\u0435\u0441\u0441\u0438\u043e\u043d\u0430\u043b\u044c\u043d\u043e\u0433\u043e \u043e\u0431\u0440\u0430\u0437\u043e\u0432\u0430\u043d\u0438\u044f\"",
    "rating": 0.0
  },
  "6512": {
    "name": "\u0424\u0413\u041a\u041e\u0423 \u0412\u041f\u041e \u00ab\u041a\u0430\u0437\u0430\u043d\u0441\u043a\u0438\u0439 \u044e\u0440\u0438\u0434\u0438\u0447\u0435\u0441\u043a\u0438\u0439 \u0438\u043d\u0441\u0442\u0438\u0442\u0443\u0442 \u043c\u0438\u043d\u0438\u0441\u0442\u0435\u0440\u0441\u0442\u0432\u0430 \u0432\u043d\u0443\u0442\u0440\u0435\u043d\u043d\u0438\u0445 \u0434\u0435\u043b \u0420\u043e\u0441\u0441\u0438\u0439\u0441\u043a\u043e\u0439 \u0424\u0435\u0434\u0435\u0440\u0430\u0446\u0438\u0438\u00bb",
    "rating": 6.701973636198562
  },
  "6629": {
    "name": "\u0424\u0413\u0411\u041e\u0423 \u0412\u041e \"\u041a\u0430\u0437\u0430\u043d\u0441\u043a\u0430\u044f \u0413\u043e\u0441\u0443\u0434\u0430\u0440\u0441\u0442\u0432\u0435\u043d\u043d\u0430\u044f \u0410\u043a\u0430\u0434\u0435\u043c\u0438\u044f \u0412\u0435\u0442\u0435\u0440\u0438\u043d\u0430\u0440\u043d\u043e\u0439 \u041c\u0435\u0434\u0438\u0446\u0438\u043d\u044b \u0418\u043c\u0435\u043d\u0438 \u041d.\u042d. \u0411\u0430\u0443\u043c\u0430\u043d\u0430\"",
    "rating": 6.40455237315609
  },
  "6637": {
    "name": "\u0424\u0413\u0411\u041e\u0423 \u0412\u041e \"\u041a\u0430\u0437\u0430\u043d\u0441\u043a\u0438\u0439 \u0413\u043e\u0441\u0443\u0434\u0430\u0440\u0441\u0442\u0432\u0435\u043d\u043d\u044b\u0439 \u0410\u0433\u0440\u0430\u0440\u043d\u044b\u0439 \u0423\u043d\u0438\u0432\u0435\u0440\u0441\u0438\u0442\u0435\u0442\"",
    "rating": 2.207571070524789
  }
}