{
  "74": {
    "name": "\u041f\u0440\u043e\u043a\u0443\u0440\u0430\u0442\u0443\u0440\u0430 \u0423\u0434\u043c\u0443\u0440\u0442\u0441\u043a\u043e\u0439 \u0440\u0435\u0441\u043f\u0443\u0431\u043b\u0438\u043a\u0438",
    "rating": 3.4571273852242523
  },
  "132": {
    "name": "\u0413\u043b\u0430\u0432\u0430 \u0423\u0434\u043c\u0443\u0440\u0442\u0441\u043a\u043e\u0439 \u0440\u0435\u0441\u043f\u0443\u0431\u043b\u0438\u043a\u0438",
    "rating": 10.0
  },
  "164": {
    "name": "\u041f\u0440\u0430\u0432\u0438\u0442\u0435\u043b\u044c\u0441\u0442\u0432\u043e \u0423\u0434\u043c\u0443\u0440\u0442\u0441\u043a\u043e\u0439 \u0440\u0435\u0441\u043f\u0443\u0431\u043b\u0438\u043a\u0438",
    "rating": 5.837916508491933
  },
  "379": {
    "name": "\u0418\u0437\u0431\u0438\u0440\u0430\u0442\u0435\u043b\u044c\u043d\u0430\u044f \u043a\u043e\u043c\u0438\u0441\u0441\u0438\u044f \u0423\u0434\u043c\u0443\u0440\u0442\u0441\u043a\u043e\u0439 \u0440\u0435\u0441\u043f\u0443\u0431\u043b\u0438\u043a\u0438",
    "rating": 1.6378652404575542
  },
  "539": {
    "name": "\u0413\u043e\u0441\u0443\u0434\u0430\u0440\u0441\u0442\u0432\u0435\u043d\u043d\u044b\u0439 \u0421\u043e\u0432\u0435\u0442 \u0423\u0434\u043c\u0443\u0440\u0442\u0441\u043a\u043e\u0439 \u0420\u0435\u0441\u043f\u0443\u0431\u043b\u0438\u043a\u0438",
    "rating": 6.095334288665377
  },
  "787": {
    "name": "\u0412\u0435\u0440\u0445\u043e\u0432\u043d\u044b\u0439 \u0421\u0443\u0434 \u0423\u0434\u043c\u0443\u0440\u0442\u0441\u043a\u043e\u0439 \u0420\u0435\u0441\u043f\u0443\u0431\u043b\u0438\u043a\u0438",
    "rating": 0.0
  },
  "2190": {
    "name": "\u0418\u0436\u0435\u0432\u0441\u043a - \u0433\u043e\u0440\u043e\u0434\u0441\u043a\u043e\u0439 \u043e\u043a\u0440\u0443\u0433",
    "rating": 4.30340990202338
  },
  "3969": {
    "name": "\u0423\u0424\u0421\u0418\u041d \u0423\u0434\u043c\u0443\u0440\u0442\u0441\u043a\u0430\u044f \u0440\u0435\u0441\u043f\u0443\u0431\u043b\u0438\u043a\u0430",
    "rating": 2.399704897001435
  },
  "4408": {
    "name": "\u041c\u0412\u0414 \u0423\u0434\u043c\u0443\u0440\u0442\u0441\u043a\u0430\u044f \u0440\u0435\u0441\u043f\u0443\u0431\u043b\u0438\u043a\u0430",
    "rating": 1.379286368185913
  },
  "5215": {
    "name": "\u0423\u043f\u0440\u0430\u0432\u043b\u0435\u043d\u0438\u0435 \u0433\u043e\u0441\u0443\u0434\u0430\u0440\u0441\u0442\u0432\u0435\u043d\u043d\u043e\u0433\u043e \u0430\u0432\u0442\u043e\u0434\u043e\u0440\u043e\u0436\u043d\u043e\u0433\u043e \u043d\u0430\u0434\u0437\u043e\u0440\u0430 \u0424\u0435\u0434\u0435\u0440\u0430\u043b\u044c\u043d\u043e\u0439 \u0441\u043b\u0443\u0436\u0431\u044b \u043f\u043e \u043d\u0430\u0434\u0437\u043e\u0440\u0443 \u0432 \u0441\u0444\u0435\u0440\u0435 \u0442\u0440\u0430\u043d\u0441\u043f\u043e\u0440\u0442\u0430 \u0423\u0434\u043c\u0443\u0440\u0442\u0441\u043a\u0430\u044f \u0440\u0435\u0441\u043f\u0443\u0431\u043b\u0438\u043a\u0430",
    "rating": 1.0151743287085022
  },
  "5806": {
    "name": "\u0423\u043f\u0440\u0430\u0432\u043b\u0435\u043d\u0438\u0435 \u0424\u0435\u0434\u0435\u0440\u0430\u043b\u044c\u043d\u043e\u0439 \u043d\u0430\u043b\u043e\u0433\u043e\u0432\u043e\u0439 \u0441\u043b\u0443\u0436\u0431\u044b \u0423\u0434\u043c\u0443\u0440\u0442\u0441\u043a\u0430\u044f \u0440\u0435\u0441\u043f\u0443\u0431\u043b\u0438\u043a\u0430",
    "rating": 4.014611185815854
  },
  "6170": {
    "name": "\u0424\u0413\u0411\u041e\u0423 \u0412\u041e \u00ab\u0418\u0436\u0435\u0432\u0441\u043a\u0438\u0439 \u0433\u043e\u0441\u0443\u0434\u0430\u0440\u0441\u0442\u0432\u0435\u043d\u043d\u044b\u0439 \u0442\u0435\u0445\u043d\u0438\u0447\u0435\u0441\u043a\u0438\u0439 \u0443\u043d\u0438\u0432\u0435\u0440\u0441\u0438\u0442\u0435\u0442 \u0438\u043c\u0435\u043d\u0438 \u041c.\u0422. \u041a\u0430\u043b\u0430\u0448\u043d\u0438\u043a\u043e\u0432\u0430\u00bb",
    "rating": 1.9517540537057227
  },
  "6171": {
    "name": "\u0424\u0413\u0411\u041e\u0423 \u0412\u041f\u041e \u00ab\u0413\u043b\u0430\u0437\u043e\u0432\u0441\u043a\u0438\u0439 \u0433\u043e\u0441\u0443\u0434\u0430\u0440\u0441\u0442\u0432\u0435\u043d\u043d\u044b\u0439 \u043f\u0435\u0434\u0430\u0433\u043e\u0433\u0438\u0447\u0435\u0441\u043a\u0438\u0439 \u0438\u043d\u0441\u0442\u0438\u0442\u0443\u0442 \u0438\u043c\u0435\u043d\u0438 \u0412.\u0413. \u041a\u043e\u0440\u043e\u043b\u0435\u043d\u043a\u043e\u00bb",
    "rating": 0.029843014225222734
  },
  "6172": {
    "name": "\u0424\u0413\u0411\u041e\u0423 \u0412\u041f\u041e \"\u0423\u0434\u043c\u0443\u0440\u0442\u0441\u043a\u0438\u0439 \u0433\u043e\u0441\u0443\u0434\u0430\u0440\u0441\u0442\u0432\u0435\u043d\u043d\u044b\u0439 \u0443\u043d\u0438\u0432\u0435\u0440\u0441\u0438\u0442\u0435\u0442\"",
    "rating": 1.9019211494119272
  },
  "6654": {
    "name": "\u0424\u0413\u0411\u041e\u0423 \u0412\u041e \"\u0418\u0436\u0435\u0432\u0441\u043a\u0430\u044f \u0413\u043e\u0441\u0443\u0434\u0430\u0440\u0441\u0442\u0432\u0435\u043d\u043d\u0430\u044f \u0421\u0435\u043b\u044c\u0441\u043a\u043e\u0445\u043e\u0437\u044f\u0439\u0441\u0442\u0432\u0435\u043d\u043d\u0430\u044f \u0410\u043a\u0430\u0434\u0435\u043c\u0438\u044f\"",
    "rating": 3.4833018586224265
  }
}