{
  "610": {
    "name": "\u0412\u0435\u0440\u0445\u043e\u0432\u043d\u044b\u0439 \u0421\u0443\u0434",
    "rating": 3.1727156081726373
  },
  "611": {
    "name": "\u041a\u043e\u043d\u0441\u0442\u0438\u0442\u0443\u0446\u0438\u043e\u043d\u043d\u044b\u0439 \u0421\u0443\u0434 \u0420\u0424",
    "rating": 2.9489990354713957
  },
  "613": {
    "name": "\u0412\u044b\u0441\u0448\u0438\u0439 \u0410\u0440\u0431\u0438\u0442\u0440\u0430\u0436\u043d\u044b\u0439 \u0421\u0443\u0434 (\u0441 06.08.2014 \u0432\u043a\u043b\u044e\u0447\u0435\u043d \u0432 \u0441\u043e\u0441\u0442\u0430\u0432 \u0412\u0435\u0440\u0445\u043e\u0432\u043d\u043e\u0433\u043e \u0441\u0443\u0434\u0430)",
    "rating": 2.485804649752578
  },
  "716": {
    "name": "\u0421\u0443\u0434 \u043f\u043e \u0438\u043d\u0442\u0435\u043b\u043b\u0435\u043a\u0442\u0443\u0430\u043b\u044c\u043d\u044b\u043c \u043f\u0440\u0430\u0432\u0430\u043c",
    "rating": 2.321968736719367
  },
  "799": {
    "name": "01-\u0439 \u0430\u0440\u0431\u0438\u0442\u0440\u0430\u0436\u043d\u044b\u0439 \u0430\u043f\u0435\u043b\u043b\u044f\u0446\u0438\u043e\u043d\u043d\u044b\u0439 \u0441\u0443\u0434 (\u0433. \u0412\u043b\u0430\u0434\u0438\u043c\u0438\u0440)",
    "rating": 6.298216738682618
  },
  "800": {
    "name": "\u0424\u0410\u0421 \u0412\u043e\u043b\u0433\u043e-\u0412\u044f\u0442\u0441\u043a\u043e\u0433\u043e \u043e\u043a\u0440\u0443\u0433\u0430 (\u0433. \u041d\u0438\u0436\u043d\u0438\u0439 \u041d\u043e\u0432\u0433\u043e\u0440\u043e\u0434)",
    "rating": 6.612190323460019
  },
  "802": {
    "name": "\u0424\u0410\u0421 \u0412\u043e\u0441\u0442\u043e\u0447\u043d\u043e-\u0421\u0438\u0431\u0438\u0440\u0441\u043a\u043e\u0433\u043e \u043e\u043a\u0440\u0443\u0433\u0430 (\u0433. \u0418\u0440\u043a\u0443\u0442\u0441\u043a)",
    "rating": 9.282899118415237
  },
  "803": {
    "name": "\u0424\u0410\u0421 \u0414\u0430\u043b\u044c\u043d\u0435\u0432\u043e\u0441\u0442\u043e\u0447\u043d\u043e\u0433\u043e \u043e\u043a\u0440\u0443\u0433\u0430 (\u0433. \u0425\u0430\u0431\u0430\u0440\u043e\u0432\u0441\u043a)",
    "rating": 3.0177484744925507
  },
  "804": {
    "name": "\u0424\u0410\u0421 \u0417\u0430\u043f\u0430\u0434\u043d\u043e-\u0421\u0438\u0431\u0438\u0440\u0441\u043a\u043e\u0433\u043e \u043e\u043a\u0440\u0443\u0433\u0430 (\u0433. \u0422\u044e\u043c\u0435\u043d\u044c)",
    "rating": 10.0
  },
  "805": {
    "name": "\u0424\u0410\u0421 \u041c\u043e\u0441\u043a\u043e\u0432\u0441\u043a\u043e\u0433\u043e \u043e\u043a\u0440\u0443\u0433\u0430 (\u0433. \u041c\u043e\u0441\u043a\u0432\u0430)",
    "rating": 4.372380039578413
  },
  "806": {
    "name": "\u0424\u0410\u0421 \u041f\u043e\u0432\u043e\u043b\u0436\u0441\u043a\u043e\u0433\u043e \u043e\u043a\u0440\u0443\u0433\u0430 (\u0433. \u041a\u0430\u0437\u0430\u043d\u044c)",
    "rating": 7.772700648725078
  },
  "811": {
    "name": "02-\u0439 \u0430\u0440\u0431\u0438\u0442\u0440\u0430\u0436\u043d\u044b\u0439 \u0430\u043f\u0435\u043b\u043b\u044f\u0446\u0438\u043e\u043d\u043d\u044b\u0439 \u0441\u0443\u0434 (\u0433. \u041a\u0438\u0440\u043e\u0432)",
    "rating": 2.8768086693081236
  },
  "812": {
    "name": "03-\u0439 \u0430\u0440\u0431\u0438\u0442\u0440\u0430\u0436\u043d\u044b\u0439 \u0430\u043f\u0435\u043b\u043b\u044f\u0446\u0438\u043e\u043d\u043d\u044b\u0439 \u0441\u0443\u0434 (\u0433. \u041a\u0440\u0430\u0441\u043d\u043e\u044f\u0440\u0441\u043a)",
    "rating": 4.0349351546456225
  },
  "813": {
    "name": "04-\u0439 \u0430\u0440\u0431\u0438\u0442\u0440\u0430\u0436\u043d\u044b\u0439 \u0430\u043f\u0435\u043b\u043b\u044f\u0446\u0438\u043e\u043d\u043d\u044b\u0439 \u0441\u0443\u0434 (\u0433. \u0427\u0438\u0442\u0430)",
    "rating": 0.9744653409961399
  },
  "814": {
    "name": "05-\u0439 \u0430\u0440\u0431\u0438\u0442\u0440\u0430\u0436\u043d\u044b\u0439 \u0430\u043f\u0435\u043b\u043b\u044f\u0446\u0438\u043e\u043d\u043d\u044b\u0439 \u0441\u0443\u0434 (\u0433. \u0412\u043b\u0430\u0434\u0438\u0432\u043e\u0441\u0442\u043e\u043a)",
    "rating": 3.127462459910965
  },
  "815": {
    "name": "06-\u0439 \u0430\u0440\u0431\u0438\u0442\u0440\u0430\u0436\u043d\u044b\u0439 \u0430\u043f\u0435\u043b\u043b\u044f\u0446\u0438\u043e\u043d\u043d\u044b\u0439 \u0441\u0443\u0434 (\u0433. \u0425\u0430\u0431\u0430\u0440\u043e\u0432\u0441\u043a)",
    "rating": 2.799688477906331
  },
  "816": {
    "name": "07-\u0439 \u0430\u0440\u0431\u0438\u0442\u0440\u0430\u0436\u043d\u044b\u0439 \u0430\u043f\u0435\u043b\u043b\u044f\u0446\u0438\u043e\u043d\u043d\u044b\u0439 \u0441\u0443\u0434 (\u0433. \u0422\u043e\u043c\u0441\u043a)",
    "rating": 0.30206694957351093
  },
  "817": {
    "name": "08-\u0439 \u0430\u0440\u0431\u0438\u0442\u0440\u0430\u0436\u043d\u044b\u0439 \u0430\u043f\u0435\u043b\u043b\u044f\u0446\u0438\u043e\u043d\u043d\u044b\u0439 \u0441\u0443\u0434 (\u0433. \u041e\u043c\u0441\u043a)",
    "rating": 4.973913087144682
  },
  "818": {
    "name": "09-\u0439 \u0430\u0440\u0431\u0438\u0442\u0440\u0430\u0436\u043d\u044b\u0439 \u0430\u043f\u0435\u043b\u043b\u044f\u0446\u0438\u043e\u043d\u043d\u044b\u0439 \u0441\u0443\u0434 (\u0433. \u041c\u043e\u0441\u043a\u0432\u0430)",
    "rating": 0.19071326610789555
  },
  "819": {
    "name": "10-\u0439 \u0430\u0440\u0431\u0438\u0442\u0440\u0430\u0436\u043d\u044b\u0439 \u0430\u043f\u0435\u043b\u043b\u044f\u0446\u0438\u043e\u043d\u043d\u044b\u0439 \u0441\u0443\u0434 (\u0433. \u041c\u043e\u0441\u043a\u0432\u0430)",
    "rating": 1.033856341561815
  },
  "820": {
    "name": "11-\u0439 \u0430\u0440\u0431\u0438\u0442\u0440\u0430\u0436\u043d\u044b\u0439 \u0430\u043f\u0435\u043b\u043b\u044f\u0446\u0438\u043e\u043d\u043d\u044b\u0439 \u0441\u0443\u0434 (\u0433. \u0421\u0430\u043c\u0430\u0440\u0430)",
    "rating": 4.016461061911997
  },
  "821": {
    "name": "12-\u0439 \u0430\u0440\u0431\u0438\u0442\u0440\u0430\u0436\u043d\u044b\u0439 \u0430\u043f\u0435\u043b\u043b\u044f\u0446\u0438\u043e\u043d\u043d\u044b\u0439 \u0441\u0443\u0434 (\u0433. \u0421\u0430\u0440\u0430\u0442\u043e\u0432)",
    "rating": 2.6120604703150065
  },
  "822": {
    "name": "13-\u0439 \u0430\u0440\u0431\u0438\u0442\u0440\u0430\u0436\u043d\u044b\u0439 \u0430\u043f\u0435\u043b\u043b\u044f\u0446\u0438\u043e\u043d\u043d\u044b\u0439 \u0441\u0443\u0434 (\u0433. \u0421\u0430\u043d\u043a\u0442-\u041f\u0435\u0442\u0435\u0440\u0431\u0443\u0440\u0433)",
    "rating": 3.521843567250993
  },
  "823": {
    "name": "14-\u0439 \u0430\u0440\u0431\u0438\u0442\u0440\u0430\u0436\u043d\u044b\u0439 \u0430\u043f\u0435\u043b\u043b\u044f\u0446\u0438\u043e\u043d\u043d\u044b\u0439 \u0441\u0443\u0434 (\u0433. \u0412\u043e\u043b\u043e\u0433\u0434\u0430)",
    "rating": 6.394107496134167
  },
  "824": {
    "name": "15-\u0439 \u0430\u0440\u0431\u0438\u0442\u0440\u0430\u0436\u043d\u044b\u0439 \u0430\u043f\u0435\u043b\u043b\u044f\u0446\u0438\u043e\u043d\u043d\u044b\u0439 \u0441\u0443\u0434 (\u0433. \u0420\u043e\u0441\u0442\u043e\u0432-\u043d\u0430-\u0414\u043e\u043d\u0443)",
    "rating": 2.134420939987517
  },
  "825": {
    "name": "16-\u0439 \u0430\u0440\u0431\u0438\u0442\u0440\u0430\u0436\u043d\u044b\u0439 \u0430\u043f\u0435\u043b\u043b\u044f\u0446\u0438\u043e\u043d\u043d\u044b\u0439 \u0441\u0443\u0434 (\u0433. \u0415\u0441\u0441\u0435\u043d\u0442\u0443\u043a\u0438)",
    "rating": 3.683966399511748
  },
  "826": {
    "name": "17-\u0439 \u0430\u0440\u0431\u0438\u0442\u0440\u0430\u0436\u043d\u044b\u0439 \u0430\u043f\u0435\u043b\u043b\u044f\u0446\u0438\u043e\u043d\u043d\u044b\u0439 \u0441\u0443\u0434 (\u0433. \u041f\u0435\u0440\u043c\u044c)",
    "rating": 3.2229125141851913
  },
  "827": {
    "name": "18-\u0439 \u0430\u0440\u0431\u0438\u0442\u0440\u0430\u0436\u043d\u044b\u0439 \u0430\u043f\u0435\u043b\u043b\u044f\u0446\u0438\u043e\u043d\u043d\u044b\u0439 \u0441\u0443\u0434 (\u0433. \u0427\u0435\u043b\u044f\u0431\u0438\u043d\u0441\u043a)",
    "rating": 1.1403147812874415
  },
  "828": {
    "name": "19-\u0439 \u0430\u0440\u0431\u0438\u0442\u0440\u0430\u0436\u043d\u044b\u0439 \u0430\u043f\u0435\u043b\u043b\u044f\u0446\u0438\u043e\u043d\u043d\u044b\u0439 \u0441\u0443\u0434 (\u0433. \u0412\u043e\u0440\u043e\u043d\u0435\u0436)",
    "rating": 0.4832874911704356
  },
  "829": {
    "name": "20-\u0439 \u0430\u0440\u0431\u0438\u0442\u0440\u0430\u0436\u043d\u044b\u0439 \u0430\u043f\u0435\u043b\u043b\u044f\u0446\u0438\u043e\u043d\u043d\u044b\u0439 \u0441\u0443\u0434 (\u0433. \u0422\u0443\u043b\u0430)",
    "rating": 4.4766168866850755
  },
  "4328": {
    "name": "\u0423\u043f\u0440\u0430\u0432\u043b\u0435\u043d\u0438\u0435 \u043d\u0430 \u0442\u0440\u0430\u043d\u0441\u043f\u043e\u0440\u0442\u0435 \u041c\u0412\u0414 \u0420\u043e\u0441\u0441\u0438\u0438 \u043f\u043e \u0426\u0435\u043d\u0442\u0440\u0430\u043b\u044c\u043d\u043e\u043c\u0443 \u0444\u0435\u0434\u0435\u0440\u0430\u043b\u044c\u043d\u043e\u043c\u0443 \u043e\u043a\u0440\u0443\u0433\u0443",
    "rating": 3.916600639527688
  },
  "4329": {
    "name": "\u0423\u043f\u0440\u0430\u0432\u043b\u0435\u043d\u0438\u0435 \u043d\u0430 \u0442\u0440\u0430\u043d\u0441\u043f\u043e\u0440\u0442\u0435 \u041c\u0412\u0414 \u0420\u043e\u0441\u0441\u0438\u0438 \u043f\u043e \u0421\u0435\u0432\u0435\u0440\u043e-\u0417\u0430\u043f\u0430\u0434\u043d\u043e\u043c\u0443 \u0444\u0435\u0434\u0435\u0440\u0430\u043b\u044c\u043d\u043e\u043c\u0443 \u043e\u043a\u0440\u0443\u0433\u0443",
    "rating": 6.924907519626151
  },
  "4330": {
    "name": "\u0423\u043f\u0440\u0430\u0432\u043b\u0435\u043d\u0438\u0435 \u043d\u0430 \u0442\u0440\u0430\u043d\u0441\u043f\u043e\u0440\u0442\u0435 \u041c\u0412\u0414 \u0420\u043e\u0441\u0441\u0438\u0438 \u043f\u043e \u042e\u0436\u043d\u043e\u043c\u0443 \u0444\u0435\u0434\u0435\u0440\u0430\u043b\u044c\u043d\u043e\u043c\u0443 \u043e\u043a\u0440\u0443\u0433\u0443",
    "rating": 5.420580650124725
  },
  "4331": {
    "name": "\u0423\u043f\u0440\u0430\u0432\u043b\u0435\u043d\u0438\u0435 \u043d\u0430 \u0442\u0440\u0430\u043d\u0441\u043f\u043e\u0440\u0442\u0435 \u041c\u0412\u0414 \u0420\u043e\u0441\u0441\u0438\u0438 \u043f\u043e \u0421\u0435\u0432\u0435\u0440\u043e-\u041a\u0430\u0432\u043a\u0430\u0437\u0441\u043a\u043e\u043c\u0443 \u0444\u0435\u0434\u0435\u0440\u0430\u043b\u044c\u043d\u043e\u043c\u0443 \u043e\u043a\u0440\u0443\u0433\u0443",
    "rating": 3.849342828783403
  },
  "4332": {
    "name": "\u0423\u043f\u0440\u0430\u0432\u043b\u0435\u043d\u0438\u0435 \u043d\u0430 \u0442\u0440\u0430\u043d\u0441\u043f\u043e\u0440\u0442\u0435 \u041c\u0412\u0414 \u0420\u043e\u0441\u0441\u0438\u0438 \u043f\u043e \u041f\u0440\u0438\u0432\u043e\u043b\u0436\u0441\u043a\u043e\u043c\u0443 \u0444\u0435\u0434\u0435\u0440\u0430\u043b\u044c\u043d\u043e\u043c\u0443 \u043e\u043a\u0440\u0443\u0433\u0443",
    "rating": 3.3583389574022626
  },
  "4333": {
    "name": "\u0423\u043f\u0440\u0430\u0432\u043b\u0435\u043d\u0438\u0435 \u043d\u0430 \u0442\u0440\u0430\u043d\u0441\u043f\u043e\u0440\u0442\u0435 \u041c\u0412\u0414 \u0420\u043e\u0441\u0441\u0438\u0438 \u043f\u043e \u0423\u0440\u0430\u043b\u044c\u0441\u043a\u043e\u043c\u0443 \u0444\u0435\u0434\u0435\u0440\u0430\u043b\u044c\u043d\u043e\u043c\u0443 \u043e\u043a\u0440\u0443\u0433\u0443",
    "rating": 6.770958330156736
  },
  "4334": {
    "name": "\u0423\u043f\u0440\u0430\u0432\u043b\u0435\u043d\u0438\u0435 \u043d\u0430 \u0442\u0440\u0430\u043d\u0441\u043f\u043e\u0440\u0442\u0435 \u041c\u0412\u0414 \u0420\u043e\u0441\u0441\u0438\u0438 \u043f\u043e \u0421\u0438\u0431\u0438\u0440\u0441\u043a\u043e\u043c\u0443 \u0444\u0435\u0434\u0435\u0440\u0430\u043b\u044c\u043d\u043e\u043c\u0443 \u043e\u043a\u0440\u0443\u0433\u0443",
    "rating": 4.746623206991094
  },
  "4335": {
    "name": "\u0423\u043f\u0440\u0430\u0432\u043b\u0435\u043d\u0438\u0435 \u043d\u0430 \u0442\u0440\u0430\u043d\u0441\u043f\u043e\u0440\u0442\u0435 \u041c\u0412\u0414 \u0420\u043e\u0441\u0441\u0438\u0438 \u043f\u043e \u0414\u0430\u043b\u044c\u043d\u0435\u0432\u043e\u0441\u0442\u043e\u0447\u043d\u043e\u043c\u0443 \u0444\u0435\u0434\u0435\u0440\u0430\u043b\u044c\u043d\u043e\u043c\u0443 \u043e\u043a\u0440\u0443\u0433\u0443",
    "rating": 3.9809675299389804
  },
  "4336": {
    "name": "\u0412\u043e\u0441\u0442\u043e\u0447\u043d\u043e-\u0421\u0438\u0431\u0438\u0440\u0441\u043a\u043e\u0435 \u043b\u0438\u043d\u0435\u0439\u043d\u043e\u0435 \u0443\u043f\u0440\u0430\u0432\u043b\u0435\u043d\u0438\u0435 \u0432\u043d\u0443\u0442\u0440\u0435\u043d\u043d\u0438\u0445 \u0434\u0435\u043b \u041c\u0412\u0414 \u0420\u043e\u0441\u0441\u0438\u0438 \u043d\u0430 \u0442\u0440\u0430\u043d\u0441\u043f\u043e\u0440\u0442\u0435",
    "rating": 1.8755304690856214
  },
  "4337": {
    "name": "\u0417\u0430\u0431\u0430\u0439\u043a\u0430\u043b\u044c\u0441\u043a\u043e\u0435 \u043b\u0438\u043d\u0435\u0439\u043d\u043e\u0435 \u0443\u043f\u0440\u0430\u0432\u043b\u0435\u043d\u0438\u0435 \u0432\u043d\u0443\u0442\u0440\u0435\u043d\u043d\u0438\u0445 \u0434\u0435\u043b \u041c\u0412\u0414 \u0420\u043e\u0441\u0441\u0438\u0438 \u043d\u0430 \u0442\u0440\u0430\u043d\u0441\u043f\u043e\u0440\u0442\u0435",
    "rating": 2.123298116885208
  },
  "5299": {
    "name": "\u041c\u0435\u0436\u0440\u0435\u0433\u0438\u043e\u043d\u0430\u043b\u044c\u043d\u043e\u0435 \u0443\u043f\u0440\u0430\u0432\u043b\u0435\u043d\u0438\u0435 \u2116 001 \u0424\u041c\u0411\u0410 (\u041c\u043e\u0441\u043a\u0432\u0430)",
    "rating": 0.24244064626482922
  },
  "5300": {
    "name": "\u041c\u0435\u0436\u0440\u0435\u0433\u0438\u043e\u043d\u0430\u043b\u044c\u043d\u043e\u0435 \u0443\u043f\u0440\u0430\u0432\u043b\u0435\u043d\u0438\u0435 \u2116 005 \u0424\u041c\u0411\u0410 (\u0420\u043e\u0441\u0442\u043e\u0432\u0441\u043a\u0430\u044f \u043e\u0431\u043b\u0430\u0441\u0442\u044c, \u0433. \u0412\u043e\u043b\u0433\u043e\u0434\u043e\u043d\u0441\u043a)",
    "rating": 0.21131169957874782
  },
  "5301": {
    "name": "\u041c\u0435\u0436\u0440\u0435\u0433\u0438\u043e\u043d\u0430\u043b\u044c\u043d\u043e\u0435 \u0443\u043f\u0440\u0430\u0432\u043b\u0435\u043d\u0438\u0435 \u2116 008 \u0424\u041c\u0411\u0410 (\u041a\u0430\u043b\u0443\u0436\u0441\u043a\u0430\u044f \u043e\u0431\u043b\u0430\u0441\u0442\u044c, \u0433. \u041e\u0431\u043d\u0438\u043d\u0441\u043a)",
    "rating": 3.7211529771921787
  },
  "5302": {
    "name": "\u041c\u0435\u0436\u0440\u0435\u0433\u0438\u043e\u043d\u0430\u043b\u044c\u043d\u043e\u0435 \u0443\u043f\u0440\u0430\u0432\u043b\u0435\u043d\u0438\u0435 \u2116 015 \u0424\u041c\u0411\u0410 (\u0427\u0435\u043b\u044f\u0431\u0438\u043d\u0441\u043a\u0430\u044f \u043e\u0431\u043b\u0430\u0441\u0442\u044c, \u0433. \u0421\u043d\u0435\u0436\u0438\u043d\u0441\u043a)",
    "rating": 7.123823120149827
  },
  "5303": {
    "name": "\u041c\u0435\u0436\u0440\u0435\u0433\u0438\u043e\u043d\u0430\u043b\u044c\u043d\u043e\u0435 \u0443\u043f\u0440\u0430\u0432\u043b\u0435\u043d\u0438\u0435 \u2116 020 \u0424\u041c\u0411\u0410 (\u0420\u0435\u0441\u043f\u0443\u0431\u043b\u0438\u043a\u0430 \u0411\u0430\u0448\u043a\u043e\u0440\u0442\u043e\u0441\u0442\u0430\u043d, \u0433. \u0421\u0430\u043b\u0430\u0432\u0430\u0442)",
    "rating": 0.5005858517822636
  },
  "5304": {
    "name": "\u041c\u0435\u0436\u0440\u0435\u0433\u0438\u043e\u043d\u0430\u043b\u044c\u043d\u043e\u0435 \u0443\u043f\u0440\u0430\u0432\u043b\u0435\u043d\u0438\u0435 \u2116 021 \u0424\u041c\u0411\u0410 (\u041c\u043e\u0441\u043a\u043e\u0432\u0441\u043a\u0430\u044f \u043e\u0431\u043b\u0430\u0441\u0442\u044c, \u0433. \u042d\u043b\u0435\u043a\u0442\u0440\u043e\u0441\u0442\u0430\u043b\u044c)",
    "rating": 3.284009628709799
  },
  "5305": {
    "name": "\u041c\u0435\u0436\u0440\u0435\u0433\u0438\u043e\u043d\u0430\u043b\u044c\u043d\u043e\u0435 \u0443\u043f\u0440\u0430\u0432\u043b\u0435\u043d\u0438\u0435 \u2116 025 \u0424\u041c\u0411\u0410 (\u041d\u043e\u0432\u043e\u0441\u0438\u0431\u0438\u0440\u0441\u043a)",
    "rating": 1.7631846171547942
  },
  "5306": {
    "name": "\u041c\u0435\u0436\u0440\u0435\u0433\u0438\u043e\u043d\u0430\u043b\u044c\u043d\u043e\u0435 \u0443\u043f\u0440\u0430\u0432\u043b\u0435\u043d\u0438\u0435 \u2116 029 \u0424\u041c\u0411\u0410 (\u0427\u0443\u0432\u0430\u0448\u0441\u043a\u0430\u044f \u0420\u0435\u0441\u043f\u0443\u0431\u043b\u0438\u043a\u0430, \u0433. \u041d\u043e\u0432\u043e\u0447\u0435\u0431\u043e\u043a\u0441\u0430\u0440\u0441\u043a)",
    "rating": 3.622805249429328
  },
  "5307": {
    "name": "\u041c\u0435\u0436\u0440\u0435\u0433\u0438\u043e\u043d\u0430\u043b\u044c\u043d\u043e\u0435 \u0443\u043f\u0440\u0430\u0432\u043b\u0435\u043d\u0438\u0435 \u2116 031 \u0424\u041c\u0411\u0410 (\u0421\u0432\u0435\u0440\u0434\u043b\u043e\u0432\u0441\u043a\u0430\u044f \u043e\u0431\u043b\u0430\u0441\u0442\u044c, \u0433. \u041d\u043e\u0432\u043e\u0443\u0440\u0430\u043b\u044c\u0441\u043a)",
    "rating": 3.9234362937837783
  },
  "5308": {
    "name": "\u041c\u0435\u0436\u0440\u0435\u0433\u0438\u043e\u043d\u0430\u043b\u044c\u043d\u043e\u0435 \u0443\u043f\u0440\u0430\u0432\u043b\u0435\u043d\u0438\u0435 \u2116 032 \u0424\u041c\u0411\u0410 (\u0421\u0432\u0435\u0440\u0434\u043b\u043e\u0432\u0441\u043a\u0430\u044f \u043e\u0431\u043b\u0430\u0441\u0442\u044c, \u0433. \u0417\u0430\u0440\u0435\u0447\u043d\u044b\u0439)",
    "rating": 4.337493831818123
  },
  "5309": {
    "name": "\u041c\u0435\u0436\u0440\u0435\u0433\u0438\u043e\u043d\u0430\u043b\u044c\u043d\u043e\u0435 \u0443\u043f\u0440\u0430\u0432\u043b\u0435\u043d\u0438\u0435 \u2116 033 \u0424\u041c\u0411\u0410 (\u0412\u043e\u0440\u043e\u043d\u0435\u0436\u0441\u043a\u0430\u044f \u043e\u0431\u043b\u0430\u0441\u0442\u044c, \u0433. \u041d\u043e\u0432\u043e\u0432\u043e\u0440\u043e\u043d\u0435\u0436)",
    "rating": 3.586364525397136
  },
  "5310": {
    "name": "\u041c\u0435\u0436\u0440\u0435\u0433\u0438\u043e\u043d\u0430\u043b\u044c\u043d\u043e\u0435 \u0443\u043f\u0440\u0430\u0432\u043b\u0435\u043d\u0438\u0435 \u2116 041 \u0424\u041c\u0411\u0410 (\u0423\u0434\u043c\u0443\u0440\u0442\u0441\u043a\u0430\u044f \u0440\u0435\u0441\u043f\u0443\u0431\u043b\u0438\u043a\u0430, \u0433. \u0413\u043b\u0430\u0437\u043e\u0432)",
    "rating": 4.095875923107387
  },
  "5311": {
    "name": "\u041c\u0435\u0436\u0440\u0435\u0433\u0438\u043e\u043d\u0430\u043b\u044c\u043d\u043e\u0435 \u0443\u043f\u0440\u0430\u0432\u043b\u0435\u043d\u0438\u0435 \u2116 042 \u0424\u041c\u0411\u0410 (\u041a\u0440\u0430\u0441\u043d\u043e\u044f\u0440\u0441\u043a\u0438\u0439 \u043a\u0440\u0430\u0439, \u0433. \u0417\u0435\u043b\u0435\u043d\u043e\u0433\u043e\u0440\u0441\u043a)",
    "rating": 0.26255810688604864
  },
  "5312": {
    "name": "\u041c\u0435\u0436\u0440\u0435\u0433\u0438\u043e\u043d\u0430\u043b\u044c\u043d\u043e\u0435 \u0443\u043f\u0440\u0430\u0432\u043b\u0435\u043d\u0438\u0435 \u2116 050 \u0424\u041c\u0411\u0410 (\u041d\u0438\u0436\u0435\u0433\u043e\u0440\u043e\u0434\u0441\u043a\u0430\u044f \u043e\u0431\u043b\u0430\u0441\u0442\u044c, \u0433. \u0421\u0430\u0440\u043e\u0432)",
    "rating": 0.13460137616316664
  },
  "5313": {
    "name": "\u041c\u0435\u0436\u0440\u0435\u0433\u0438\u043e\u043d\u0430\u043b\u044c\u043d\u043e\u0435 \u0443\u043f\u0440\u0430\u0432\u043b\u0435\u043d\u0438\u0435 \u2116 051 \u0424\u041c\u0411\u0410 (\u041a\u0440\u0430\u0441\u043d\u043e\u044f\u0440\u0441\u043a\u0438\u0439 \u043a\u0440\u0430\u0439, \u0433. \u0416\u0435\u043b\u0435\u0437\u043d\u043e\u0433\u043e\u0440\u0441\u043a)",
    "rating": 5.999905186424522
  },
  "5314": {
    "name": "\u041c\u0435\u0436\u0440\u0435\u0433\u0438\u043e\u043d\u0430\u043b\u044c\u043d\u043e\u0435 \u0443\u043f\u0440\u0430\u0432\u043b\u0435\u043d\u0438\u0435 \u2116 052 \u0424\u041c\u0411\u0410 (\u041a\u0438\u0440\u043e\u0432\u0441\u043a\u0430\u044f \u043e\u0431\u043b\u0430\u0441\u0442\u044c, \u0433. \u041a\u0438\u0440\u043e\u0432\u043e-\u0427\u0435\u043f\u0435\u0446\u043a)",
    "rating": 3.8036275496547645
  },
  "5315": {
    "name": "\u041c\u0435\u0436\u0440\u0435\u0433\u0438\u043e\u043d\u0430\u043b\u044c\u043d\u043e\u0435 \u0443\u043f\u0440\u0430\u0432\u043b\u0435\u043d\u0438\u0435 \u2116 058 \u0424\u041c\u0411\u0410 (\u0410\u0440\u0445\u0430\u043d\u0433\u0435\u043b\u044c\u0441\u043a\u0430\u044f \u043e\u0431\u043b\u0430\u0441\u0442\u044c, \u0433. \u0421\u0435\u0432\u0435\u0440\u043e\u0434\u0432\u0438\u043d\u0441\u043a)",
    "rating": 7.111854250129519
  },
  "5316": {
    "name": "\u041c\u0435\u0436\u0440\u0435\u0433\u0438\u043e\u043d\u0430\u043b\u044c\u043d\u043e\u0435 \u0443\u043f\u0440\u0430\u0432\u043b\u0435\u043d\u0438\u0435 \u2116 059 \u0424\u041c\u0411\u0410 (\u041f\u0435\u043d\u0437\u0435\u043d\u0441\u043a\u0430\u044f \u043e\u0431\u043b\u0430\u0441\u0442\u044c, \u0433. \u0417\u0430\u0440\u0435\u0447\u043d\u044b\u0439)",
    "rating": 4.277702310258133
  },
  "5317": {
    "name": "\u041c\u0435\u0436\u0440\u0435\u0433\u0438\u043e\u043d\u0430\u043b\u044c\u043d\u043e\u0435 \u0443\u043f\u0440\u0430\u0432\u043b\u0435\u043d\u0438\u0435 \u2116 071 \u0424\u041c\u0411\u0410 (\u0427\u0435\u043b\u044f\u0431\u0438\u043d\u0441\u043a\u0430\u044f \u043e\u0431\u043b\u0430\u0441\u0442\u044c, \u0433. \u041e\u0437\u0435\u0440\u0441\u043a)",
    "rating": 2.212645773655613
  },
  "5318": {
    "name": "\u041c\u0435\u0436\u0440\u0435\u0433\u0438\u043e\u043d\u0430\u043b\u044c\u043d\u043e\u0435 \u0443\u043f\u0440\u0430\u0432\u043b\u0435\u043d\u0438\u0435 \u2116 072 \u0424\u041c\u0411\u0410 (\u0427\u0435\u043b\u044f\u0431\u0438\u043d\u0441\u043a\u0430\u044f \u043e\u0431\u043b\u0430\u0441\u0442\u044c, \u0433. \u0422\u0440\u0435\u0445\u0433\u043e\u0440\u043d\u044b\u0439)",
    "rating": 0.8789212555271124
  },
  "5319": {
    "name": "\u041c\u0435\u0436\u0440\u0435\u0433\u0438\u043e\u043d\u0430\u043b\u044c\u043d\u043e\u0435 \u0443\u043f\u0440\u0430\u0432\u043b\u0435\u043d\u0438\u0435 \u2116 081 \u0424\u041c\u0411\u0410 (\u0422\u043e\u043c\u0441\u043a\u0430\u044f \u043e\u0431\u043b\u0430\u0441\u0442\u044c, \u0417\u0410\u0422\u041e \u0421\u0435\u0432\u0435\u0440\u0441\u043a)",
    "rating": 0.1468866367456819
  },
  "5320": {
    "name": "\u041c\u0435\u0436\u0440\u0435\u0433\u0438\u043e\u043d\u0430\u043b\u044c\u043d\u043e\u0435 \u0443\u043f\u0440\u0430\u0432\u043b\u0435\u043d\u0438\u0435 \u2116 091 \u0424\u041c\u0411\u0410 (\u0421\u0432\u0435\u0440\u0434\u043b\u043e\u0432\u0441\u043a\u0430\u044f \u043e\u0431\u043b\u0430\u0441\u0442\u044c, \u0433. \u041b\u0435\u0441\u043d\u043e\u0439)",
    "rating": 0.4723467075097614
  },
  "5321": {
    "name": "\u041c\u0435\u0436\u0440\u0435\u0433\u0438\u043e\u043d\u0430\u043b\u044c\u043d\u043e\u0435 \u0443\u043f\u0440\u0430\u0432\u043b\u0435\u043d\u0438\u0435 \u2116 092 \u0424\u041c\u0411\u0410 (\u0427\u0435\u043b\u044f\u0431\u0438\u043d\u0441\u043a\u0430\u044f \u043e\u0431\u043b\u0430\u0441\u0442\u044c, \u0433. \u041c\u0438\u0430\u0441\u0441)",
    "rating": 4.159713763234842
  },
  "5322": {
    "name": "\u041c\u0435\u0436\u0440\u0435\u0433\u0438\u043e\u043d\u0430\u043b\u044c\u043d\u043e\u0435 \u0443\u043f\u0440\u0430\u0432\u043b\u0435\u043d\u0438\u0435 \u2116 099 \u0424\u041c\u0411\u0410 (\u0425\u0430\u0431\u0430\u0440\u043e\u0432\u0441\u043a\u0438\u0439 \u043a\u0440\u0430\u0439, \u0433. \u041a\u043e\u043c\u0441\u043e\u043c\u043e\u043b\u044c\u0441\u043a-\u043d\u0430-\u0410\u043c\u0443\u0440\u0435)",
    "rating": 0.028716905313434186
  },
  "5323": {
    "name": "\u041c\u0435\u0436\u0440\u0435\u0433\u0438\u043e\u043d\u0430\u043b\u044c\u043d\u043e\u0435 \u0443\u043f\u0440\u0430\u0432\u043b\u0435\u043d\u0438\u0435 \u2116 101 \u0424\u041c\u0411\u0410 (\u0421\u0442\u0430\u0432\u0440\u043e\u043f\u043e\u043b\u044c\u0441\u043a\u0438\u0439 \u043a\u0440\u0430\u0439, \u0433. \u041b\u0435\u0440\u043c\u043e\u043d\u0442\u043e\u0432)",
    "rating": 3.932217292864796
  },
  "5324": {
    "name": "\u041c\u0435\u0436\u0440\u0435\u0433\u0438\u043e\u043d\u0430\u043b\u044c\u043d\u043e\u0435 \u0443\u043f\u0440\u0430\u0432\u043b\u0435\u043d\u0438\u0435 \u2116 107 \u0424\u041c\u0411\u0410 (\u0417\u0430\u0431\u0430\u0439\u043a\u0430\u043b\u044c\u0441\u043a\u0438\u0439 \u043a\u0440\u0430\u0439, \u0433. \u041a\u0440\u0430\u0441\u043d\u043e\u043a\u0430\u043c\u0435\u043d\u0441\u043a)",
    "rating": 1.7687033970297616
  },
  "5325": {
    "name": "\u041c\u0435\u0436\u0440\u0435\u0433\u0438\u043e\u043d\u0430\u043b\u044c\u043d\u043e\u0435 \u0443\u043f\u0440\u0430\u0432\u043b\u0435\u043d\u0438\u0435 \u2116 118 \u0424\u041c\u0411\u0410 (\u041c\u0443\u0440\u043c\u0430\u043d\u0441\u043a\u0430\u044f \u043e\u0431\u043b\u0430\u0441\u0442\u044c, \u0433. \u041f\u043e\u043b\u044f\u0440\u043d\u044b\u0435 \u0417\u043e\u0440\u0438)",
    "rating": 0.29429123283521147
  },
  "5326": {
    "name": "\u041c\u0435\u0436\u0440\u0435\u0433\u0438\u043e\u043d\u0430\u043b\u044c\u043d\u043e\u0435 \u0443\u043f\u0440\u0430\u0432\u043b\u0435\u043d\u0438\u0435 \u2116 120 \u0424\u041c\u0411\u0410 (\u041c\u0443\u0440\u043c\u0430\u043d\u0441\u043a\u0430\u044f \u043e\u0431\u043b\u0430\u0441\u0442\u044c, \u0417\u0410\u0422\u041e \u0421\u043d\u0435\u0436\u043d\u043e\u0433\u043e\u0440\u0441\u043a)",
    "rating": 0.07457182220389919
  },
  "5327": {
    "name": "\u041c\u0435\u0436\u0440\u0435\u0433\u0438\u043e\u043d\u0430\u043b\u044c\u043d\u043e\u0435 \u0443\u043f\u0440\u0430\u0432\u043b\u0435\u043d\u0438\u0435 \u2116 122 \u0424\u041c\u0411\u0410 (\u0421\u0430\u043d\u043a\u0442-\u041f\u0435\u0442\u0435\u0440\u0431\u0443\u0440\u0433)",
    "rating": 4.905512328914373
  },
  "5328": {
    "name": "\u041c\u0435\u0436\u0440\u0435\u0433\u0438\u043e\u043d\u0430\u043b\u044c\u043d\u043e\u0435 \u0443\u043f\u0440\u0430\u0432\u043b\u0435\u043d\u0438\u0435 \u2116 125 \u0424\u041c\u0411\u0410 (\u041a\u0443\u0440\u0441\u043a\u0430\u044f \u043e\u0431\u043b\u0430\u0441\u0442\u044c, \u0433. \u041a\u0443\u0440\u0447\u0430\u0442\u043e\u0432)",
    "rating": 8.898124735615657
  },
  "5329": {
    "name": "\u041c\u0435\u0436\u0440\u0435\u0433\u0438\u043e\u043d\u0430\u043b\u044c\u043d\u043e\u0435 \u0443\u043f\u0440\u0430\u0432\u043b\u0435\u043d\u0438\u0435 \u2116 135 \u0424\u041c\u0411\u0410 (\u0421\u043c\u043e\u043b\u0435\u043d\u0441\u043a\u0430\u044f \u043e\u0431\u043b\u0430\u0441\u0442\u044c, \u0433. \u0414\u0435\u0441\u043d\u043e\u0433\u043e\u0440\u0441\u043a)",
    "rating": 1.8201502026882552
  },
  "5330": {
    "name": "\u041c\u0435\u0436\u0440\u0435\u0433\u0438\u043e\u043d\u0430\u043b\u044c\u043d\u043e\u0435 \u0443\u043f\u0440\u0430\u0432\u043b\u0435\u043d\u0438\u0435 \u2116 141 \u0424\u041c\u0411\u0410 (\u0422\u0432\u0435\u0440\u0441\u043a\u0430\u044f \u043e\u0431\u043b\u0430\u0441\u0442\u044c, \u0433. \u0423\u0434\u043e\u043c\u043b\u044f)",
    "rating": 2.5877610084350633
  },
  "5331": {
    "name": "\u041c\u0435\u0436\u0440\u0435\u0433\u0438\u043e\u043d\u0430\u043b\u044c\u043d\u043e\u0435 \u0443\u043f\u0440\u0430\u0432\u043b\u0435\u043d\u0438\u0435 \u2116 153 \u0424\u041c\u0411\u0410 (\u041d\u0438\u0436\u043d\u0438\u0439 \u041d\u043e\u0432\u0433\u043e\u0440\u043e\u0434)",
    "rating": 6.759550453912291
  },
  "5332": {
    "name": "\u041c\u0435\u0436\u0440\u0435\u0433\u0438\u043e\u043d\u0430\u043b\u044c\u043d\u043e\u0435 \u0443\u043f\u0440\u0430\u0432\u043b\u0435\u043d\u0438\u0435 \u2116 156 \u0424\u041c\u0411\u0410 (\u0421\u0430\u0440\u0430\u0442\u043e\u0432\u0441\u043a\u0430\u044f \u043e\u0431\u043b\u0430\u0441\u0442\u044c, \u0433. \u0411\u0430\u043b\u0430\u043a\u043e\u0432\u043e)",
    "rating": 3.8475121928455893
  },
  "5333": {
    "name": "\u041c\u0435\u0436\u0440\u0435\u0433\u0438\u043e\u043d\u0430\u043b\u044c\u043d\u043e\u0435 \u0443\u043f\u0440\u0430\u0432\u043b\u0435\u043d\u0438\u0435 \u2116 170 \u0424\u041c\u0411\u0410 (\u041c\u043e\u0441\u043a\u043e\u0432\u0441\u043a\u0430\u044f \u043e\u0431\u043b\u0430\u0441\u0442\u044c, \u0433. \u041a\u043e\u0440\u043e\u043b\u0435\u0432)",
    "rating": 0.16858530619941572
  },
  "5334": {
    "name": "\u041c\u0435\u0436\u0440\u0435\u0433\u0438\u043e\u043d\u0430\u043b\u044c\u043d\u043e\u0435 \u0443\u043f\u0440\u0430\u0432\u043b\u0435\u043d\u0438\u0435 \u2116 172 \u0424\u041c\u0411\u0410 (\u0423\u043b\u044c\u044f\u043d\u043e\u0432\u0441\u043a\u0430\u044f \u043e\u0431\u043b\u0430\u0441\u0442\u044c, \u0433. \u0414\u0438\u043c\u0438\u0442\u0440\u043e\u0432\u043e\u0433\u0440\u0430\u0434)",
    "rating": 2.0528479169175284
  },
  "5335": {
    "name": "\u041c\u0435\u0436\u0440\u0435\u0433\u0438\u043e\u043d\u0430\u043b\u044c\u043d\u043e\u0435 \u0443\u043f\u0440\u0430\u0432\u043b\u0435\u043d\u0438\u0435 \u2116 174 \u0424\u041c\u0411\u0410 (\u041c\u043e\u0441\u043a\u043e\u0432\u0441\u043a\u0430\u044f \u043e\u0431\u043b\u0430\u0441\u0442\u044c, \u0433. \u041f\u0440\u043e\u0442\u0432\u0438\u043d\u043e)",
    "rating": 1.5786180741011666
  },
  "5336": {
    "name": "\u0420\u0435\u0433\u0438\u043e\u043d\u0430\u043b\u044c\u043d\u043e\u0435 \u0443\u043f\u0440\u0430\u0432\u043b\u0435\u043d\u0438\u0435 \u043a\u043e\u043c\u043f\u043b\u0435\u043a\u0441\u0430 \"\u0411\u0430\u0439\u043a\u043e\u043d\u0443\u0440\" \u0424\u041c\u0411\u0410 (\u0420\u0435\u0441\u043f\u0443\u0431\u043b\u0438\u043a\u0430 \u041a\u0430\u0437\u0430\u0445\u0441\u0442\u0430\u043d, \u041a\u0437\u044b\u043b-\u041e\u0440\u0434\u0438\u043d\u0441\u043a\u0430\u044f \u043e\u0431\u043b\u0430\u0441\u0442\u044c, \u0433\u043e\u0440\u043e\u0434 \u0411\u0430\u0439\u043a\u043e\u043d\u0443\u0440)",
    "rating": 1.7819457561533163
  },
  "5605": {
    "name": "\u0421\u0435\u0432\u0435\u0440\u043e-\u0417\u0430\u043f\u0430\u0434\u043d\u043e\u0435 \u043c\u0435\u0436\u0440\u0435\u0433\u0438\u043e\u043d\u0430\u043b\u044c\u043d\u043e\u0435 \u0442\u0435\u0440\u0440\u0438\u0442\u043e\u0440\u0438\u0430\u043b\u044c\u043d\u043e\u0435 \u0443\u043f\u0440\u0430\u0432\u043b\u0435\u043d\u0438\u0435 \u0432\u043e\u0437\u0434\u0443\u0448\u043d\u043e\u0433\u043e \u0442\u0440\u0430\u043d\u0441\u043f\u043e\u0440\u0442\u0430 \u0424\u0435\u0434\u0435\u0440\u0430\u043b\u044c\u043d\u043e\u0433\u043e \u0430\u0433\u0435\u043d\u0442\u0441\u0442\u0432\u0430 \u0432\u043e\u0437\u0434\u0443\u0448\u043d\u043e\u0433\u043e \u0442\u0440\u0430\u043d\u0441\u043f\u043e\u0440\u0442\u0430",
    "rating": 0.0
  }
}