{
  "67": {
    "name": "\u041f\u0440\u043e\u043a\u0443\u0440\u0430\u0442\u0443\u0440\u0430 \u0421\u0432\u0435\u0440\u0434\u043b\u043e\u0432\u0441\u043a\u043e\u0439 \u043e\u0431\u043b\u0430\u0441\u0442\u0438",
    "rating": 1.5946970108886547
  },
  "97": {
    "name": "\u0413\u0443\u0431\u0435\u0440\u043d\u0430\u0442\u043e\u0440 \u0421\u0432\u0435\u0440\u0434\u043b\u043e\u0432\u0441\u043a\u043e\u0439 \u043e\u0431\u043b\u0430\u0441\u0442\u0438",
    "rating": 2.0594820551476176
  },
  "192": {
    "name": "\u041f\u0440\u0430\u0432\u0438\u0442\u0435\u043b\u044c\u0441\u0442\u0432\u043e \u0421\u0432\u0435\u0440\u0434\u043b\u043e\u0432\u0441\u043a\u043e\u0439 \u043e\u0431\u043b\u0430\u0441\u0442\u0438",
    "rating": 2.975800586011891
  },
  "428": {
    "name": "\u0418\u0437\u0431\u0438\u0440\u0430\u0442\u0435\u043b\u044c\u043d\u0430\u044f \u043a\u043e\u043c\u0438\u0441\u0441\u0438\u044f \u0421\u0432\u0435\u0440\u0434\u043b\u043e\u0432\u0441\u043a\u043e\u0439 \u043e\u0431\u043b\u0430\u0441\u0442\u0438",
    "rating": 1.451370032172006
  },
  "695": {
    "name": "\u0410\u0440\u0431\u0438\u0442\u0440\u0430\u0436\u043d\u044b\u0439 \u0441\u0443\u0434 \u0421\u0432\u0435\u0440\u0434\u043b\u043e\u0432\u0441\u043a\u043e\u0439 \u043e\u0431\u043b\u0430\u0441\u0442\u0438",
    "rating": 1.603659953377838
  },
  "776": {
    "name": "\u0421\u0432\u0435\u0440\u0434\u043b\u043e\u0432\u0441\u043a\u0438\u0439 \u043e\u0431\u043b\u0430\u0441\u0442\u043d\u043e\u0439 \u0441\u0443\u0434",
    "rating": 1.6518743676929513
  },
  "949": {
    "name": "\u0417\u0430\u043a\u043e\u043d\u043e\u0434\u0430\u0442\u0435\u043b\u044c\u043d\u043e\u0435 \u0421\u043e\u0431\u0440\u0430\u043d\u0438\u0435 \u0421\u0432\u0435\u0440\u0434\u043b\u043e\u0432\u0441\u043a\u043e\u0439 \u043e\u0431\u043b\u0430\u0441\u0442\u0438",
    "rating": 4.32441876275837
  },
  "1784": {
    "name": "\u0415\u043a\u0430\u0442\u0435\u0440\u0438\u043d\u0431\u0443\u0440\u0433 - \u0433\u043e\u0440\u043e\u0434\u0441\u043a\u043e\u0439 \u043e\u043a\u0440\u0443\u0433",
    "rating": 3.137804840445408
  },
  "1813": {
    "name": "\u0410\u043b\u0430\u043f\u0430\u0435\u0432\u0441\u043a - \u0433\u043e\u0440\u043e\u0434\u0441\u043a\u043e\u0439 \u043e\u043a\u0440\u0443\u0433",
    "rating": 5.415101057170901
  },
  "1814": {
    "name": "\u0410\u043b\u0430\u043f\u0430\u0435\u0432\u0441\u043a\u043e\u0435 - \u043c\u0443\u043d\u0438\u0446\u0438\u043f\u0430\u043b\u044c\u043d\u043e\u0435 \u043e\u0431\u0440\u0430\u0437\u043e\u0432\u0430\u043d\u0438\u0435",
    "rating": 2.922075871287524
  },
  "1815": {
    "name": "\u0410\u0440\u0430\u043c\u0438\u043b\u044c\u0441\u043a\u0438\u0439 - \u0433\u043e\u0440\u043e\u0434\u0441\u043a\u043e\u0439 \u043e\u043a\u0440\u0443\u0433",
    "rating": 4.480423548920355
  },
  "1816": {
    "name": "\u0410\u0440\u0442\u0451\u043c\u043e\u0432\u0441\u043a\u0438\u0439 - \u0433\u043e\u0440\u043e\u0434\u0441\u043a\u043e\u0439 \u043e\u043a\u0440\u0443\u0433",
    "rating": 3.562423441823798
  },
  "1817": {
    "name": "\u0410\u0440\u0442\u0438\u043d\u0441\u043a\u0438\u0439 - \u0433\u043e\u0440\u043e\u0434\u0441\u043a\u043e\u0439 \u043e\u043a\u0440\u0443\u0433",
    "rating": 4.317643783822102
  },
  "1818": {
    "name": "\u0410\u0441\u0431\u0435\u0441\u0442\u043e\u0432\u0441\u043a\u0438\u0439 - \u0433\u043e\u0440\u043e\u0434\u0441\u043a\u043e\u0439 \u043e\u043a\u0440\u0443\u0433",
    "rating": 2.3411777247041363
  },
  "1819": {
    "name": "\u0410\u0447\u0438\u0442\u0441\u043a\u0438\u0439 - \u0433\u043e\u0440\u043e\u0434\u0441\u043a\u043e\u0439 \u043e\u043a\u0440\u0443\u0433",
    "rating": 0.356353557502563
  },
  "1820": {
    "name": "\u0411\u0430\u0439\u043a\u0430\u043b\u043e\u0432\u0441\u043a\u0438\u0439 \u043c\u0443\u043d\u0438\u0446\u0438\u043f\u0430\u043b\u044c\u043d\u044b\u0439 \u0440\u0430\u0439\u043e\u043d",
    "rating": 6.105038653659736
  },
  "1821": {
    "name": "\u0411\u0435\u043b\u043e\u044f\u0440\u0441\u043a\u0438\u0439 - \u0433\u043e\u0440\u043e\u0434\u0441\u043a\u043e\u0439 \u043e\u043a\u0440\u0443\u0433",
    "rating": 6.383282432335462
  },
  "1822": {
    "name": "\u0411\u0435\u0440\u0451\u0437\u043e\u0432\u0441\u043a\u0438\u0439 - \u0433\u043e\u0440\u043e\u0434\u0441\u043a\u043e\u0439 \u043e\u043a\u0440\u0443\u0433",
    "rating": 5.980836658878631
  },
  "1823": {
    "name": "\u0411\u0438\u0441\u0435\u0440\u0442\u0441\u043a\u0438\u0439 - \u0433\u043e\u0440\u043e\u0434\u0441\u043a\u043e\u0439 \u043e\u043a\u0440\u0443\u0433",
    "rating": 2.9627288999568986
  },
  "1824": {
    "name": "\u0411\u043e\u0433\u0434\u0430\u043d\u043e\u0432\u0438\u0447 - \u0433\u043e\u0440\u043e\u0434\u0441\u043a\u043e\u0439 \u043e\u043a\u0440\u0443\u0433",
    "rating": 4.0359852444306075
  },
  "1825": {
    "name": "\u0412\u0435\u0440\u0445\u043d\u0435\u0435 \u0414\u0443\u0431\u0440\u043e\u0432\u043e - \u0433\u043e\u0440\u043e\u0434\u0441\u043a\u043e\u0439 \u043e\u043a\u0440\u0443\u0433",
    "rating": 0.02380808029502857
  },
  "1826": {
    "name": "\u0412\u0435\u0440\u0445-\u041d\u0435\u0439\u0432\u0438\u043d\u0441\u043a\u0438\u0439 - \u0433\u043e\u0440\u043e\u0434\u0441\u043a\u043e\u0439 \u043e\u043a\u0440\u0443\u0433",
    "rating": 0.28227286137704
  },
  "1827": {
    "name": "\u0412\u0435\u0440\u0445\u043d\u0435\u0441\u0430\u043b\u0434\u0438\u043d\u0441\u043a\u0438\u0439 - \u0433\u043e\u0440\u043e\u0434\u0441\u043a\u043e\u0439 \u043e\u043a\u0440\u0443\u0433",
    "rating": 5.679697756130323
  },
  "1828": {
    "name": "\u0412\u0435\u0440\u0445\u043d\u0438\u0439 \u0422\u0430\u0433\u0438\u043b - \u0433\u043e\u0440\u043e\u0434\u0441\u043a\u043e\u0439 \u043e\u043a\u0440\u0443\u0433",
    "rating": 1.0628723512623577
  },
  "1829": {
    "name": "\u0412\u0435\u0440\u0445\u043d\u044f\u044f \u041f\u044b\u0448\u043c\u0430 - \u0433\u043e\u0440\u043e\u0434\u0441\u043a\u043e\u0439 \u043e\u043a\u0440\u0443\u0433",
    "rating": 4.426750653886398
  },
  "1830": {
    "name": "\u0412\u0435\u0440\u0445\u043d\u044f\u044f \u0422\u0443\u0440\u0430 - \u0433\u043e\u0440\u043e\u0434\u0441\u043a\u043e\u0439 \u043e\u043a\u0440\u0443\u0433",
    "rating": 0.0
  },
  "1831": {
    "name": "\u0412\u0435\u0440\u0445\u043e\u0442\u0443\u0440\u0441\u043a\u0438\u0439 - \u0433\u043e\u0440\u043e\u0434\u0441\u043a\u043e\u0439 \u043e\u043a\u0440\u0443\u0433",
    "rating": 10.0
  },
  "1832": {
    "name": "\u0412\u043e\u043b\u0447\u0430\u043d\u0441\u043a\u0438\u0439 - \u0433\u043e\u0440\u043e\u0434\u0441\u043a\u043e\u0439 \u043e\u043a\u0440\u0443\u0433",
    "rating": 5.197586264830367
  },
  "1833": {
    "name": "\u0413\u0430\u0440\u0438\u043d\u0441\u043a\u0438\u0439 - \u0433\u043e\u0440\u043e\u0434\u0441\u043a\u043e\u0439 \u043e\u043a\u0440\u0443\u0433",
    "rating": 5.5511658624776175
  },
  "1834": {
    "name": "\u0413\u043e\u0440\u043d\u043e\u0443\u0440\u0430\u043b\u044c\u0441\u043a\u0438\u0439 - \u0433\u043e\u0440\u043e\u0434\u0441\u043a\u043e\u0439 \u043e\u043a\u0440\u0443\u0433",
    "rating": 6.558706167890617
  },
  "1835": {
    "name": "\u0414\u0435\u0433\u0442\u044f\u0440\u0441\u043a - \u0433\u043e\u0440\u043e\u0434\u0441\u043a\u043e\u0439 \u043e\u043a\u0440\u0443\u0433",
    "rating": 1.9914380599347485
  },
  "1836": {
    "name": "\u0417\u0430\u0440\u0435\u0447\u043d\u044b\u0439 - \u0433\u043e\u0440\u043e\u0434\u0441\u043a\u043e\u0439 \u043e\u043a\u0440\u0443\u0433",
    "rating": 1.2735618693564579
  },
  "1837": {
    "name": "\u0418\u0432\u0434\u0435\u043b\u044c\u0441\u043a\u0438\u0439 - \u0433\u043e\u0440\u043e\u0434\u0441\u043a\u043e\u0439 \u043e\u043a\u0440\u0443\u0433",
    "rating": 2.9421780629207013
  },
  "1838": {
    "name": "\u0418\u0440\u0431\u0438\u0442 - \u0433\u043e\u0440\u043e\u0434\u0441\u043a\u043e\u0439 \u043e\u043a\u0440\u0443\u0433",
    "rating": 0.8151504934845765
  },
  "1839": {
    "name": "\u0418\u0440\u0431\u0438\u0442\u0441\u043a\u043e\u0435 - \u043c\u0443\u043d\u0438\u0446\u0438\u043f\u0430\u043b\u044c\u043d\u043e\u0435 \u043e\u0431\u0440\u0430\u0437\u043e\u0432\u0430\u043d\u0438\u0435",
    "rating": 2.6693770546547895
  },
  "1840": {
    "name": "\u041a\u0430\u043c\u0435\u043d\u0441\u043a\u0438\u0439 - \u0433\u043e\u0440\u043e\u0434\u0441\u043a\u043e\u0439 \u043e\u043a\u0440\u0443\u0433",
    "rating": 7.559777135319933
  },
  "1841": {
    "name": "\u041a\u0430\u043c\u0435\u043d\u0441\u043a-\u0423\u0440\u0430\u043b\u044c\u0441\u043a\u0438\u0439 - \u0433\u043e\u0440\u043e\u0434\u0441\u043a\u043e\u0439 \u043e\u043a\u0440\u0443\u0433",
    "rating": 0.08632316078689864
  },
  "1842": {
    "name": "\u041a\u0430\u043c\u044b\u0448\u043b\u043e\u0432\u0441\u043a\u0438\u0439 - \u0433\u043e\u0440\u043e\u0434\u0441\u043a\u043e\u0439 \u043e\u043a\u0440\u0443\u0433",
    "rating": 5.131186105376485
  },
  "1843": {
    "name": "\u041a\u0430\u043c\u044b\u0448\u043b\u043e\u0432\u0441\u043a\u0438\u0439 \u043c\u0443\u043d\u0438\u0446\u0438\u043f\u0430\u043b\u044c\u043d\u044b\u0439 \u0440\u0430\u0439\u043e\u043d",
    "rating": 2.901843849857532
  },
  "1844": {
    "name": "\u041a\u0430\u0440\u043f\u0438\u043d\u0441\u043a - \u0433\u043e\u0440\u043e\u0434\u0441\u043a\u043e\u0439 \u043e\u043a\u0440\u0443\u0433",
    "rating": 0.36491579691804904
  },
  "1845": {
    "name": "\u041a\u0430\u0447\u043a\u0430\u043d\u0430\u0440\u0441\u043a\u0438\u0439 - \u0433\u043e\u0440\u043e\u0434\u0441\u043a\u043e\u0439 \u043e\u043a\u0440\u0443\u0433",
    "rating": 0.08047838071213806
  },
  "1846": {
    "name": "\u041a\u0438\u0440\u043e\u0432\u0433\u0440\u0430\u0434\u0441\u043a\u0438\u0439 - \u0433\u043e\u0440\u043e\u0434\u0441\u043a\u043e\u0439 \u043e\u043a\u0440\u0443\u0433",
    "rating": 7.059540495499772
  },
  "1847": {
    "name": "\u041a\u0440\u0430\u0441\u043d\u043e\u0442\u0443\u0440\u044c\u0438\u043d\u0441\u043a - \u0433\u043e\u0440\u043e\u0434\u0441\u043a\u043e\u0439 \u043e\u043a\u0440\u0443\u0433",
    "rating": 0.10419558120491237
  },
  "1848": {
    "name": "\u041a\u0440\u0430\u0441\u043d\u043e\u0443\u0440\u0430\u043b\u044c\u0441\u043a - \u0433\u043e\u0440\u043e\u0434\u0441\u043a\u043e\u0439 \u043e\u043a\u0440\u0443\u0433",
    "rating": 0.02020481223915053
  },
  "1849": {
    "name": "\u041a\u0440\u0430\u0441\u043d\u043e\u0443\u0444\u0438\u043c\u0441\u043a - \u0433\u043e\u0440\u043e\u0434\u0441\u043a\u043e\u0439 \u043e\u043a\u0440\u0443\u0433",
    "rating": 0.639007360956197
  },
  "1850": {
    "name": "\u041a\u0440\u0430\u0441\u043d\u043e\u0443\u0444\u0438\u043c\u0441\u043a\u0438\u0439 \u043e\u043a\u0440\u0443\u0433 - \u043c\u0443\u043d\u0438\u0446\u0438\u043f\u0430\u043b\u044c\u043d\u043e\u0435 \u043e\u0431\u0440\u0430\u0437\u043e\u0432\u0430\u043d\u0438\u0435",
    "rating": 2.1012755546486903
  },
  "1851": {
    "name": "\u041a\u0443\u0448\u0432\u0438\u043d\u0441\u043a\u0438\u0439 - \u0433\u043e\u0440\u043e\u0434\u0441\u043a\u043e\u0439 \u043e\u043a\u0440\u0443\u0433",
    "rating": 4.785619042099619
  },
  "1852": {
    "name": "\u041b\u0435\u0441\u043d\u043e\u0439 - \u0433\u043e\u0440\u043e\u0434\u0441\u043a\u043e\u0439 \u043e\u043a\u0440\u0443\u0433 (\u0417\u0410\u0422\u041e)",
    "rating": 1.7624439192029566
  },
  "1853": {
    "name": "\u041c\u0430\u043b\u044b\u0448\u0435\u0432\u0441\u043a\u0438\u0439 - \u0433\u043e\u0440\u043e\u0434\u0441\u043a\u043e\u0439 \u043e\u043a\u0440\u0443\u0433",
    "rating": 3.558378422265343
  },
  "1854": {
    "name": "\u041c\u0430\u0445\u043d\u0451\u0432\u0441\u043a\u043e\u0435 - \u043c\u0443\u043d\u0438\u0446\u0438\u043f\u0430\u043b\u044c\u043d\u043e\u0435 \u043e\u0431\u0440\u0430\u0437\u043e\u0432\u0430\u043d\u0438\u0435",
    "rating": 2.0516136501606943
  },
  "1855": {
    "name": "\u041d\u0435\u0432\u044c\u044f\u043d\u0441\u043a\u0438\u0439 - \u0433\u043e\u0440\u043e\u0434\u0441\u043a\u043e\u0439 \u043e\u043a\u0440\u0443\u0433",
    "rating": 1.8097576213804931
  },
  "1856": {
    "name": "\u041d\u0438\u0436\u043d\u0435\u0441\u0435\u0440\u0433\u0438\u043d\u0441\u043a\u0438\u0439 \u043c\u0443\u043d\u0438\u0446\u0438\u043f\u0430\u043b\u044c\u043d\u044b\u0439 \u0440\u0430\u0439\u043e\u043d",
    "rating": 3.550349258071755
  },
  "1857": {
    "name": "\u041d\u0438\u0436\u043d\u0435\u0442\u0443\u0440\u0438\u043d\u0441\u043a\u0438\u0439 - \u0433\u043e\u0440\u043e\u0434\u0441\u043a\u043e\u0439 \u043e\u043a\u0440\u0443\u0433",
    "rating": 0.28611190478328646
  },
  "1858": {
    "name": "\u041d\u0438\u0436\u043d\u0438\u0439 \u0422\u0430\u0433\u0438\u043b - \u0433\u043e\u0440\u043e\u0434\u0441\u043a\u043e\u0439 \u043e\u043a\u0440\u0443\u0433",
    "rating": 4.15628662548294
  },
  "1859": {
    "name": "\u041d\u0438\u0436\u043d\u044f\u044f \u0421\u0430\u043b\u0434\u0430 - \u0433\u043e\u0440\u043e\u0434\u0441\u043a\u043e\u0439 \u043e\u043a\u0440\u0443\u0433",
    "rating": 9.218774699306659
  },
  "1860": {
    "name": "\u041d\u043e\u0432\u043e\u043b\u044f\u043b\u0438\u043d\u0441\u043a\u0438\u0439 - \u0433\u043e\u0440\u043e\u0434\u0441\u043a\u043e\u0439 \u043e\u043a\u0440\u0443\u0433",
    "rating": 2.443852901130352
  },
  "1861": {
    "name": "\u041d\u043e\u0432\u043e\u0443\u0440\u0430\u043b\u044c\u0441\u043a - \u0433\u043e\u0440\u043e\u0434\u0441\u043a\u043e\u0439 \u043e\u043a\u0440\u0443\u0433 (\u0417\u0410\u0422\u041e)",
    "rating": 0.5033090480716421
  },
  "1862": {
    "name": "\u041f\u0435\u043b\u044b\u043c - \u0433\u043e\u0440\u043e\u0434\u0441\u043a\u043e\u0439 \u043e\u043a\u0440\u0443\u0433",
    "rating": 3.6295318643654415
  },
  "1863": {
    "name": "\u041f\u0435\u0440\u0432\u043e\u0443\u0440\u0430\u043b\u044c\u0441\u043a - \u0433\u043e\u0440\u043e\u0434\u0441\u043a\u043e\u0439 \u043e\u043a\u0440\u0443\u0433",
    "rating": 4.093399953745168
  },
  "1864": {
    "name": "\u041f\u043e\u043b\u0435\u0432\u0441\u043a\u043e\u0439 - \u0433\u043e\u0440\u043e\u0434\u0441\u043a\u043e\u0439 \u043e\u043a\u0440\u0443\u0433",
    "rating": 6.092425492536771
  },
  "1865": {
    "name": "\u041f\u044b\u0448\u043c\u0438\u043d\u0441\u043a\u0438\u0439 - \u0433\u043e\u0440\u043e\u0434\u0441\u043a\u043e\u0439 \u043e\u043a\u0440\u0443\u0433",
    "rating": 0.6812866643389481
  },
  "1866": {
    "name": "\u0420\u0435\u0432\u0434\u0430 - \u0433\u043e\u0440\u043e\u0434\u0441\u043a\u043e\u0439 \u043e\u043a\u0440\u0443\u0433",
    "rating": 4.160146422432678
  },
  "1867": {
    "name": "\u0420\u0435\u0436\u0435\u0432\u0441\u043a\u043e\u0439 - \u0433\u043e\u0440\u043e\u0434\u0441\u043a\u043e\u0439 \u043e\u043a\u0440\u0443\u0433",
    "rating": 7.990418329439316
  },
  "1868": {
    "name": "\u0420\u0435\u0444\u0442\u0438\u043d\u0441\u043a\u0438\u0439 - \u0433\u043e\u0440\u043e\u0434\u0441\u043a\u043e\u0439 \u043e\u043a\u0440\u0443\u0433",
    "rating": 2.040193833914866
  },
  "1869": {
    "name": "\u0421\u0432\u043e\u0431\u043e\u0434\u043d\u044b\u0439 - \u0433\u043e\u0440\u043e\u0434\u0441\u043a\u043e\u0439 \u043e\u043a\u0440\u0443\u0433 (\u0417\u0410\u0422\u041e)",
    "rating": 4.131059086120649
  },
  "1870": {
    "name": "\u0421\u0435\u0432\u0435\u0440\u043e\u0443\u0440\u0430\u043b\u044c\u0441\u043a\u0438\u0439 - \u0433\u043e\u0440\u043e\u0434\u0441\u043a\u043e\u0439 \u043e\u043a\u0440\u0443\u0433",
    "rating": 0.3849538412936076
  },
  "1871": {
    "name": "\u0421\u0435\u0440\u043e\u0432\u0441\u043a\u0438\u0439 - \u0433\u043e\u0440\u043e\u0434\u0441\u043a\u043e\u0439 \u043e\u043a\u0440\u0443\u0433",
    "rating": 0.006021001329902139
  },
  "1872": {
    "name": "\u0421\u043b\u043e\u0431\u043e\u0434\u043e-\u0422\u0443\u0440\u0438\u043d\u0441\u043a\u0438\u0439 \u043c\u0443\u043d\u0438\u0446\u0438\u043f\u0430\u043b\u044c\u043d\u044b\u0439 \u0440\u0430\u0439\u043e\u043d",
    "rating": 5.508393712751898
  },
  "1873": {
    "name": "\u0421\u043e\u0441\u044c\u0432\u0438\u043d\u0441\u043a\u0438\u0439 - \u0433\u043e\u0440\u043e\u0434\u0441\u043a\u043e\u0439 \u043e\u043a\u0440\u0443\u0433",
    "rating": 2.0716402981479662
  },
  "1874": {
    "name": "\u0421\u0440\u0435\u0434\u043d\u0435\u0443\u0440\u0430\u043b\u044c\u0441\u043a - \u0433\u043e\u0440\u043e\u0434\u0441\u043a\u043e\u0439 \u043e\u043a\u0440\u0443\u0433",
    "rating": 3.874941547598967
  },
  "1875": {
    "name": "\u0421\u0442\u0430\u0440\u043e\u0443\u0442\u043a\u0438\u043d\u0441\u043a - \u0433\u043e\u0440\u043e\u0434\u0441\u043a\u043e\u0439 \u043e\u043a\u0440\u0443\u0433",
    "rating": 3.0425349759077007
  },
  "1876": {
    "name": "\u0421\u0443\u0445\u043e\u0439 \u041b\u043e\u0433 - \u0433\u043e\u0440\u043e\u0434\u0441\u043a\u043e\u0439 \u043e\u043a\u0440\u0443\u0433",
    "rating": 2.1473643026666185
  },
  "1877": {
    "name": "\u0421\u044b\u0441\u0435\u0440\u0442\u0441\u043a\u0438\u0439 - \u0433\u043e\u0440\u043e\u0434\u0441\u043a\u043e\u0439 \u043e\u043a\u0440\u0443\u0433",
    "rating": 3.9712549883179458
  },
  "1878": {
    "name": "\u0422\u0430\u0431\u043e\u0440\u0438\u043d\u0441\u043a\u0438\u0439 \u043c\u0443\u043d\u0438\u0446\u0438\u043f\u0430\u043b\u044c\u043d\u044b\u0439 \u0440\u0430\u0439\u043e\u043d",
    "rating": 4.147719229924269
  },
  "1879": {
    "name": "\u0422\u0430\u0432\u0434\u0438\u043d\u0441\u043a\u0438\u0439 - \u0433\u043e\u0440\u043e\u0434\u0441\u043a\u043e\u0439 \u043e\u043a\u0440\u0443\u0433",
    "rating": 6.950249646363975
  },
  "1880": {
    "name": "\u0422\u0430\u043b\u0438\u0446\u043a\u0438\u0439 - \u0433\u043e\u0440\u043e\u0434\u0441\u043a\u043e\u0439 \u043e\u043a\u0440\u0443\u0433",
    "rating": 7.990418329439316
  },
  "1881": {
    "name": "\u0422\u0443\u0433\u0443\u043b\u044b\u043c\u0441\u043a\u0438\u0439 - \u0433\u043e\u0440\u043e\u0434\u0441\u043a\u043e\u0439 \u043e\u043a\u0440\u0443\u0433",
    "rating": 5.006902285417262
  },
  "1882": {
    "name": "\u0422\u0443\u0440\u0438\u043d\u0441\u043a\u0438\u0439 - \u0433\u043e\u0440\u043e\u0434\u0441\u043a\u043e\u0439 \u043e\u043a\u0440\u0443\u0433",
    "rating": 6.551048713774619
  },
  "1883": {
    "name": "\u0423\u0440\u0430\u043b\u044c\u0441\u043a\u0438\u0439 \u043f\u043e\u0441\u0451\u043b\u043e\u043a  - \u043c\u0443\u043d\u0438\u0446\u0438\u043f\u0430\u043b\u044c\u043d\u043e\u0435 \u043e\u0431\u0440\u0430\u0437\u043e\u0432\u0430\u043d\u0438\u0435 (\u0417\u0410\u0422\u041e)",
    "rating": 2.26044927890086
  },
  "1884": {
    "name": "\u0428\u0430\u043b\u0438\u043d\u0441\u043a\u0438\u0439 - \u0433\u043e\u0440\u043e\u0434\u0441\u043a\u043e\u0439 \u043e\u043a\u0440\u0443\u0433",
    "rating": 6.619715994749954
  },
  "3877": {
    "name": "\u0421\u0423 \u0421\u041a \u0420\u0424 \u0421\u0432\u0435\u0440\u0434\u043b\u043e\u0432\u0441\u043a\u0430\u044f \u043e\u0431\u043b\u0430\u0441\u0442\u044c",
    "rating": 1.1591744374776234
  },
  "3958": {
    "name": "\u0413\u0423\u0424\u0421\u0418\u041d \u0421\u0432\u0435\u0440\u0434\u043b\u043e\u0432\u0441\u043a\u0430\u044f \u043e\u0431\u043b\u0430\u0441\u0442\u044c",
    "rating": 1.5965296244825555
  },
  "4397": {
    "name": "\u0413\u043b\u0430\u0432\u043d\u043e\u0435 \u0443\u043f\u0440\u0430\u0432\u043b\u0435\u043d\u0438\u0435 \u041c\u0412\u0414 \u0420\u043e\u0441\u0441\u0438\u0438 \u0421\u0432\u0435\u0440\u0434\u043b\u043e\u0432\u0441\u043a\u0430\u044f \u043e\u0431\u043b\u0430\u0441\u0442\u044c",
    "rating": 3.645897082346161
  },
  "5278": {
    "name": "\u0423\u043f\u0440\u0430\u0432\u043b\u0435\u043d\u0438\u0435 \u0424\u0435\u0434\u0435\u0440\u0430\u043b\u044c\u043d\u043e\u0439 \u0441\u043b\u0443\u0436\u0431\u044b \u0433\u043e\u0441\u0443\u0434\u0430\u0440\u0441\u0442\u0432\u0435\u043d\u043d\u043e\u0439 \u0440\u0435\u0433\u0438\u0441\u0442\u0440\u0430\u0446\u0438\u0438, \u043a\u0430\u0434\u0430\u0441\u0442\u0440\u0430 \u0438 \u043a\u0430\u0440\u0442\u043e\u0433\u0440\u0430\u0444\u0438\u0438 \u0421\u0432\u0435\u0440\u0434\u043b\u043e\u0432\u0441\u043a\u0430\u044f \u043e\u0431\u043b\u0430\u0441\u0442\u044c",
    "rating": 0.21226690378697857
  },
  "5795": {
    "name": "\u0423\u043f\u0440\u0430\u0432\u043b\u0435\u043d\u0438\u0435 \u0424\u0435\u0434\u0435\u0440\u0430\u043b\u044c\u043d\u043e\u0439 \u043d\u0430\u043b\u043e\u0433\u043e\u0432\u043e\u0439 \u0441\u043b\u0443\u0436\u0431\u044b \u0421\u0432\u0435\u0440\u0434\u043b\u043e\u0432\u0441\u043a\u0430\u044f \u043e\u0431\u043b\u0430\u0441\u0442\u044c",
    "rating": 2.0249012309645624
  },
  "6187": {
    "name": "\u0424\u0413\u0411\u041e\u0423 \u0412\u041e \u00ab\u0423\u0440\u0430\u043b\u044c\u0441\u043a\u0438\u0439 \u0433\u043e\u0441\u0443\u0434\u0430\u0440\u0441\u0442\u0432\u0435\u043d\u043d\u044b\u0439 \u044e\u0440\u0438\u0434\u0438\u0447\u0435\u0441\u043a\u0438\u0439 \u0443\u043d\u0438\u0432\u0435\u0440\u0441\u0438\u0442\u0435\u0442\u00bb",
    "rating": 2.4545230023927846
  },
  "6188": {
    "name": "\u0424\u0413\u0410\u041e\u0423 \u0412\u041e \"\u0420\u043e\u0441\u0441\u0438\u0439\u0441\u043a\u0438\u0439 \u0433\u043e\u0441\u0443\u0434\u0430\u0440\u0441\u0442\u0432\u0435\u043d\u043d\u044b\u0439 \u043f\u0440\u043e\u0444\u0435\u0441\u0441\u0438\u043e\u043d\u0430\u043b\u044c\u043d\u043e-\u043f\u0435\u0434\u0430\u0433\u043e\u0433\u0438\u0447\u0435\u0441\u043a\u0438\u0439 \u0443\u043d\u0438\u0432\u0435\u0440\u0441\u0438\u0442\u0435\u0442\"",
    "rating": 3.3610148447648074
  },
  "6189": {
    "name": "\u0424\u0413\u0411\u041e\u0423 \u0412\u041e \"\u0423\u0440\u0430\u043b\u044c\u0441\u043a\u0438\u0439 \u0433\u043e\u0441\u0443\u0434\u0430\u0440\u0441\u0442\u0432\u0435\u043d\u043d\u044b\u0439 \u0433\u043e\u0440\u043d\u044b\u0439 \u0443\u043d\u0438\u0432\u0435\u0440\u0441\u0438\u0442\u0435\u0442\"",
    "rating": 4.505395654346534
  },
  "6190": {
    "name": "\u0424\u0413\u0411\u0423 \u0412\u041f\u041e \"\u0423\u0440\u0430\u043b\u044c\u0441\u043a\u0438\u0439 \u0433\u043e\u0441\u0443\u0434\u0430\u0440\u0441\u0442\u0432\u0435\u043d\u043d\u044b\u0439 \u043b\u0435\u0441\u043e\u0442\u0435\u0445\u043d\u0438\u0447\u0435\u0441\u043a\u0438\u0439 \u0443\u043d\u0438\u0432\u0435\u0440\u0441\u0438\u0442\u0435\u0442\"",
    "rating": 6.180911857848233
  },
  "6191": {
    "name": "\u0424\u0413\u0411\u041e\u0423 \u0412\u041e \u00ab\u0423\u0440\u0430\u043b\u044c\u0441\u043a\u0438\u0439 \u0433\u043e\u0441\u0443\u0434\u0430\u0440\u0441\u0442\u0432\u0435\u043d\u043d\u044b\u0439 \u0430\u0440\u0445\u0438\u0442\u0435\u043a\u0442\u0443\u0440\u043d\u043e-\u0445\u0443\u0434\u043e\u0436\u0435\u0441\u0442\u0432\u0435\u043d\u043d\u044b\u0439 \u0443\u043d\u0438\u0432\u0435\u0440\u0441\u0438\u0442\u0435\u0442\u00bb",
    "rating": 1.2472616808499237
  },
  "6192": {
    "name": "\u0424\u0413\u0411\u041e\u0423 \u0412\u041f\u041e \"\u0423\u0440\u0430\u043b\u044c\u0441\u043a\u0438\u0439 \u0433\u043e\u0441\u0443\u0434\u0430\u0440\u0441\u0442\u0432\u0435\u043d\u043d\u044b\u0439 \u043f\u0435\u0434\u0430\u0433\u043e\u0433\u0438\u0447\u0435\u0441\u043a\u0438\u0439 \u0443\u043d\u0438\u0432\u0435\u0440\u0441\u0438\u0442\u0435\u0442\"",
    "rating": 1.817412864090162
  },
  "6194": {
    "name": "\u0424\u0413\u0411\u041e\u0423 \u0412\u041e \"\u0423\u0440\u0430\u043b\u044c\u0441\u043a\u0438\u0439 \u0433\u043e\u0441\u0443\u0434\u0430\u0440\u0441\u0442\u0432\u0435\u043d\u043d\u044b\u0439  \u044d\u043a\u043e\u043d\u043e\u043c\u0438\u0447\u0435\u0441\u043a\u0438\u0439 \u0443\u043d\u0438\u0432\u0435\u0440\u0441\u0438\u0442\u0435\u0442\"",
    "rating": 1.0662007268003173
  },
  "6325": {
    "name": "\u0424\u0413\u0410\u041e\u0423 \u0412\u041f\u041e \u00ab\u0423\u0440\u0430\u043b\u044c\u0441\u043a\u0438\u0439 \u0444\u0435\u0434\u0435\u0440\u0430\u043b\u044c\u043d\u044b\u0439 \u0443\u043d\u0438\u0432\u0435\u0440\u0441\u0438\u0442\u0435\u0442 \u0438\u043c\u0435\u043d\u0438 \u043f\u0435\u0440\u0432\u043e\u0433\u043e \u041f\u0440\u0435\u0437\u0438\u0434\u0435\u043d\u0442\u0430 \u0420\u043e\u0441\u0441\u0438\u0438 \u0411.\u041d.\u0415\u043b\u044c\u0446\u0438\u043d\u0430\u00bb",
    "rating": 2.1547193371062683
  },
  "6457": {
    "name": "\u0410\u0434\u043c\u0438\u043d\u0438\u0441\u0442\u0440\u0430\u0446\u0438\u044f \u0412\u043e\u0441\u0442\u043e\u0447\u043d\u043e\u0433\u043e \u0443\u043f\u0440\u0430\u0432\u043b\u0435\u043d\u0447\u0435\u0441\u043a\u043e\u0433\u043e \u043e\u043a\u0440\u0443\u0433\u0430",
    "rating": 5.980836658878631
  },
  "6458": {
    "name": "\u0410\u0434\u043c\u0438\u043d\u0438\u0441\u0442\u0440\u0430\u0446\u0438\u044f \u0413\u043e\u0440\u043d\u043e\u0437\u0430\u0432\u043e\u0434\u0441\u043a\u043e\u0433\u043e \u0443\u043f\u0440\u0430\u0432\u043b\u0435\u043d\u0447\u0435\u0441\u043a\u043e\u0433\u043e \u043e\u043a\u0440\u0443\u0433\u0430",
    "rating": 4.557453317608016
  },
  "6459": {
    "name": "\u0410\u0434\u043c\u0438\u043d\u0438\u0441\u0442\u0440\u0430\u0446\u0438\u044f \u0417\u0430\u043f\u0430\u0434\u043d\u043e\u0433\u043e \u0443\u043f\u0440\u0430\u0432\u043b\u0435\u043d\u0447\u0435\u0441\u043a\u043e\u0433\u043e \u043e\u043a\u0440\u0443\u0433\u0430",
    "rating": 3.4995164762050095
  },
  "6460": {
    "name": "\u0410\u0434\u043c\u0438\u043d\u0438\u0441\u0442\u0440\u0430\u0446\u0438\u044f \u0421\u0435\u0432\u0435\u0440\u043d\u043e\u0433\u043e \u0443\u043f\u0440\u0430\u0432\u043b\u0435\u043d\u0447\u0435\u0441\u043a\u043e\u0433\u043e \u043e\u043a\u0440\u0443\u0433\u0430 ",
    "rating": 4.520271206076293
  },
  "6461": {
    "name": "\u0410\u0434\u043c\u0438\u043d\u0438\u0441\u0442\u0440\u0430\u0446\u0438\u044f \u042e\u0436\u043d\u043e\u0433\u043e \u0443\u043f\u0440\u0430\u0432\u043b\u0435\u043d\u0447\u0435\u0441\u043a\u043e\u0433\u043e \u043e\u043a\u0440\u0443\u0433\u0430",
    "rating": 2.603060901559016
  },
  "6516": {
    "name": " \u0424\u0413\u041a\u041e\u0423 \u0412\u041f\u041e \"\u0423\u0440\u0430\u043b\u044c\u0441\u043a\u0438\u0439 \u044e\u0440\u0438\u0434\u0438\u0447\u0435\u0441\u043a\u0438\u0439 \u0438\u043d\u0441\u0442\u0438\u0442\u0443\u0442 \u043c\u0438\u043d\u0438\u0441\u0442\u0435\u0440\u0441\u0442\u0432\u0430 \u0432\u043d\u0443\u0442\u0440\u0435\u043d\u043d\u0438\u0445 \u0434\u0435\u043b \u0420\u043e\u0441\u0441\u0438\u0439\u0441\u043a\u043e\u0439 \u0424\u0435\u0434\u0435\u0440\u0430\u0446\u0438\u0438\"",
    "rating": 0.9413038998854486
  },
  "6660": {
    "name": "\u0424\u0413\u0411\u041e\u0423 \u0412\u041e \"\u0423\u0440\u0430\u043b\u044c\u0441\u043a\u0438\u0439 \u0413\u043e\u0441\u0443\u0434\u0430\u0440\u0441\u0442\u0432\u0435\u043d\u043d\u044b\u0439 \u0410\u0433\u0440\u0430\u0440\u043d\u044b\u0439 \u0423\u043d\u0438\u0432\u0435\u0440\u0441\u0438\u0442\u0435\u0442\"",
    "rating": 4.078408908604612
  }
}