{
  "75": {
    "name": "\u041f\u0440\u043e\u043a\u0443\u0440\u0430\u0442\u0443\u0440\u0430 \u0423\u043b\u044c\u044f\u043d\u043e\u0432\u0441\u043a\u043e\u0439 \u043e\u0431\u043b\u0430\u0441\u0442\u0438",
    "rating": 1.4557732170243738
  },
  "252": {
    "name": "\u0413\u0443\u0431\u0435\u0440\u043d\u0430\u0442\u043e\u0440 \u0423\u043b\u044c\u044f\u043d\u043e\u0432\u0441\u043a\u043e\u0439 \u043e\u0431\u043b\u0430\u0441\u0442\u0438",
    "rating": 10.0
  },
  "253": {
    "name": "\u041f\u0440\u0430\u0432\u0438\u0442\u0435\u043b\u044c\u0441\u0442\u0432\u043e \u0423\u043b\u044c\u044f\u043d\u043e\u0432\u0441\u043a\u043e\u0439 \u043e\u0431\u043b\u0430\u0441\u0442\u0438",
    "rating": 7.347425532017474
  },
  "435": {
    "name": "\u0418\u0437\u0431\u0438\u0440\u0430\u0442\u0435\u043b\u044c\u043d\u0430\u044f \u043a\u043e\u043c\u0438\u0441\u0441\u0438\u044f \u0423\u043b\u044c\u044f\u043d\u043e\u0432\u0441\u043a\u043e\u0439 \u043e\u0431\u043b\u0430\u0441\u0442\u0438",
    "rating": 0.0
  },
  "562": {
    "name": "\u0417\u0430\u043a\u043e\u043d\u043e\u0434\u0430\u0442\u0435\u043b\u044c\u043d\u043e\u0435 \u0421\u043e\u0431\u0440\u0430\u043d\u0438\u0435 \u0423\u043b\u044c\u044f\u043d\u043e\u0432\u0441\u043a\u043e\u0439 \u043e\u0431\u043b\u0430\u0441\u0442\u0438",
    "rating": 7.789008991088126
  },
  "788": {
    "name": "\u0423\u043b\u044c\u044f\u043d\u043e\u0432\u0441\u043a\u0438\u0439 \u043e\u0431\u043b\u0430\u0441\u0442\u043d\u043e\u0439 \u0441\u0443\u0434",
    "rating": 3.067640168148535
  },
  "2285": {
    "name": "\u0423\u043b\u044c\u044f\u043d\u043e\u0432\u0441\u043a - \u0433\u043e\u0440\u043e\u0434\u0441\u043a\u043e\u0439 \u043e\u043a\u0440\u0443\u0433",
    "rating": 2.7024290464447405
  },
  "3970": {
    "name": "\u0423\u0424\u0421\u0418\u041d \u0423\u043b\u044c\u044f\u043d\u043e\u0432\u0441\u043a\u0430\u044f \u043e\u0431\u043b\u0430\u0441\u0442\u044c",
    "rating": 1.7567090282866025
  },
  "4409": {
    "name": "\u0423\u043f\u0440\u0430\u0432\u043b\u0435\u043d\u0438\u0435 \u041c\u0412\u0414 \u0420\u043e\u0441\u0441\u0438\u0438 \u0423\u043b\u044c\u044f\u043d\u043e\u0432\u0441\u043a\u0430\u044f \u043e\u0431\u043b\u0430\u0441\u0442\u044c",
    "rating": 3.175701394039134
  },
  "5807": {
    "name": "\u0423\u043f\u0440\u0430\u0432\u043b\u0435\u043d\u0438\u0435 \u0424\u0435\u0434\u0435\u0440\u0430\u043b\u044c\u043d\u043e\u0439 \u043d\u0430\u043b\u043e\u0433\u043e\u0432\u043e\u0439 \u0441\u043b\u0443\u0436\u0431\u044b \u0423\u043b\u044c\u044f\u043d\u043e\u0432\u0441\u043a\u0430\u044f \u043e\u0431\u043b\u0430\u0441\u0442\u044c",
    "rating": 2.9095259226693666
  },
  "6279": {
    "name": "\u0424\u0413\u0411\u041e\u0423 \u0412\u041f\u041e \"\u0423\u043b\u044c\u044f\u043d\u043e\u0432\u0441\u043a\u0438\u0439 \u0433\u043e\u0441\u0443\u0434\u0430\u0440\u0441\u0442\u0432\u0435\u043d\u043d\u044b\u0439 \u0442\u0435\u0445\u043d\u0438\u0447\u0435\u0441\u043a\u0438\u0439 \u0443\u043d\u0438\u0432\u0435\u0440\u0441\u0438\u0442\u0435\u0442\"",
    "rating": 1.5500509877781687
  },
  "6335": {
    "name": "\u0424\u0413\u0411\u041e\u0423 \u0412\u041f\u041e \u00ab\u0423\u043b\u044c\u044f\u043d\u043e\u0432\u0441\u043a\u0438\u0439 \u0433\u043e\u0441\u0443\u0434\u0430\u0440\u0441\u0442\u0432\u0435\u043d\u043d\u044b\u0439 \u043f\u0435\u0434\u0430\u0433\u043e\u0433\u0438\u0447\u0435\u0441\u043a\u0438\u0439 \u0443\u043d\u0438\u0432\u0435\u0440\u0441\u0438\u0442\u0435\u0442 \u0438\u043c\u0435\u043d\u0438 \u0418.\u041d. \u0423\u043b\u044c\u044f\u043d\u043e\u0432\u0430\u00bb",
    "rating": 6.268161888005727
  },
  "6354": {
    "name": "\u0424\u0413\u0411\u041e\u0423 \u0412\u041f\u041e \"\u0423\u043b\u044c\u044f\u043d\u043e\u0432\u0441\u043a\u0438\u0439 \u0433\u043e\u0441\u0443\u0434\u0430\u0440\u0441\u0442\u0432\u0435\u043d\u043d\u044b\u0439 \u0443\u043d\u0438\u0432\u0435\u0440\u0441\u0438\u0442\u0435\u0442\"",
    "rating": 1.665996126519018
  },
  "6626": {
    "name": "\u0424\u0413\u0411\u041e\u0423 \u0412\u041e \"\u0423\u043b\u044c\u044f\u043d\u043e\u0432\u0441\u043a\u0438\u0439 \u0413\u043e\u0441\u0443\u0434\u0430\u0440\u0441\u0442\u0432\u0435\u043d\u043d\u044b\u0439 \u0410\u0433\u0440\u0430\u0440\u043d\u044b\u0439 \u0423\u043d\u0438\u0432\u0435\u0440\u0441\u0438\u0442\u0435\u0442 \u0418\u043c\u0435\u043d\u0438 \u041f.\u0410. \u0421\u0442\u043e\u043b\u044b\u043f\u0438\u043d\u0430\"",
    "rating": 1.2491552039212062
  }
}