{
  "256": {
    "name": "\u0413\u0443\u0431\u0435\u0440\u043d\u0430\u0442\u043e\u0440 \u042f\u0440\u043e\u0441\u043b\u0430\u0432\u0441\u043a\u043e\u0439 \u043e\u0431\u043b\u0430\u0441\u0442\u0438",
    "rating": 9.123331496634092
  },
  "257": {
    "name": "\u041f\u0440\u0430\u0432\u0438\u0442\u0435\u043b\u044c\u0441\u0442\u0432\u043e \u042f\u0440\u043e\u0441\u043b\u0430\u0432\u0441\u043a\u043e\u0439 \u043e\u0431\u043b\u0430\u0441\u0442\u0438",
    "rating": 4.458723808250918
  },
  "278": {
    "name": "\u041f\u0440\u043e\u043a\u0443\u0440\u0430\u0442\u0443\u0440\u0430 \u042f\u0440\u043e\u0441\u043b\u0430\u0432\u0441\u043a\u043e\u0439 \u043e\u0431\u043b\u0430\u0441\u0442\u0438",
    "rating": 9.374310782238421
  },
  "437": {
    "name": "\u0418\u0437\u0431\u0438\u0440\u0430\u0442\u0435\u043b\u044c\u043d\u0430\u044f \u043a\u043e\u043c\u0438\u0441\u0441\u0438\u044f \u042f\u0440\u043e\u0441\u043b\u0430\u0432\u0441\u043a\u043e\u0439 \u043e\u0431\u043b\u0430\u0441\u0442\u0438",
    "rating": 5.42473769732205
  },
  "563": {
    "name": "\u042f\u0440\u043e\u0441\u043b\u0430\u0432\u0441\u043a\u0430\u044f \u041e\u0431\u043b\u0430\u0441\u0442\u043d\u0430\u044f \u0414\u0443\u043c\u0430",
    "rating": 9.711257225794803
  },
  "715": {
    "name": "\u0410\u0440\u0431\u0438\u0442\u0440\u0430\u0436\u043d\u044b\u0439 \u0441\u0443\u0434 \u042f\u0440\u043e\u0441\u043b\u0430\u0432\u0441\u043a\u043e\u0439 \u043e\u0431\u043b\u0430\u0441\u0442\u0438",
    "rating": 7.533688086381199
  },
  "2386": {
    "name": "\u042f\u0440\u043e\u0441\u043b\u0430\u0432\u043b\u044c - \u0433\u043e\u0440\u043e\u0434\u0441\u043a\u043e\u0439 \u043e\u043a\u0440\u0443\u0433",
    "rating": 5.46456834854608
  },
  "2454": {
    "name": "\u0420\u044b\u0431\u0438\u043d\u0441\u043a - \u0433\u043e\u0440\u043e\u0434\u0441\u043a\u043e\u0439 \u043e\u043a\u0440\u0443\u0433",
    "rating": 7.117613988189371
  },
  "3897": {
    "name": "\u0421\u0423 \u0421\u041a \u0420\u0424 \u042f\u0440\u043e\u0441\u043b\u0430\u0432\u0441\u043a\u0430\u044f \u043e\u0431\u043b\u0430\u0441\u0442\u044c",
    "rating": 6.5075754285807275
  },
  "3977": {
    "name": "\u0423\u0424\u0421\u0418\u041d \u042f\u0440\u043e\u0441\u043b\u0430\u0432\u0441\u043a\u0430\u044f \u043e\u0431\u043b\u0430\u0441\u0442\u044c",
    "rating": 1.9138848667773434
  },
  "4195": {
    "name": "\u0413\u0423 \u041c\u0427\u0421 \u042f\u0440\u043e\u0441\u043b\u0430\u0432\u0441\u043a\u0430\u044f \u043e\u0431\u043b\u0430\u0441\u0442\u044c",
    "rating": 5.422725705415939
  },
  "4418": {
    "name": "\u0423\u043f\u0440\u0430\u0432\u043b\u0435\u043d\u0438\u0435 \u041c\u0412\u0414 \u0420\u043e\u0441\u0441\u0438\u0438 \u042f\u0440\u043e\u0441\u043b\u0430\u0432\u0441\u043a\u0430\u044f \u043e\u0431\u043b\u0430\u0441\u0442\u044c",
    "rating": 5.270529161919393
  },
  "4495": {
    "name": "\u0423\u043f\u0440\u0430\u0432\u043b\u0435\u043d\u0438\u0435 \u0420\u043e\u0441\u043f\u043e\u0442\u0440\u0435\u0431\u043d\u0430\u0434\u0437\u043e\u0440\u0430 \u042f\u0440\u043e\u0441\u043b\u0430\u0432\u0441\u043a\u0430\u044f \u043e\u0431\u043b\u0430\u0441\u0442\u044c",
    "rating": 1.8821604785779569
  },
  "4644": {
    "name": "\u0422\u0435\u0440\u0440\u0438\u0442\u043e\u0440\u0438\u0430\u043b\u044c\u043d\u043e\u0435 \u0443\u043f\u0440\u0430\u0432\u043b\u0435\u043d\u0438\u0435 \u0420\u043e\u0441\u0438\u043c\u0443\u0449\u0435\u0441\u0442\u0432\u0430 \u042f\u0440\u043e\u0441\u043b\u0430\u0432\u0441\u043a\u0430\u044f \u043e\u0431\u043b\u0430\u0441\u0442\u044c (\u043f\u0440\u0438\u0441\u043e\u0435\u0434\u0438\u043d\u0435\u043d\u043e \u043a \u041c\u0422\u0423 \u0420\u043e\u0441\u0438\u043c\u0443\u0449\u0435\u0441\u0442\u0432\u0430 \u0432\u043e \u0412\u043b\u0430\u0434\u0438\u043c\u0438\u0440\u0441\u043a\u043e\u0439, \u0418\u0432\u0430\u043d\u043e\u0432\u0441\u043a\u043e\u0439, \u041a\u043e\u0441\u0442\u0440\u043e\u043c\u0441\u043a\u043e\u0439, \u042f\u0440\u043e\u0441\u043b\u0430\u0432\u0441\u043a\u043e\u0439 \u043e\u0431\u043b\u0430\u0441\u0442\u044f\u0445)",
    "rating": 10.0
  },
  "4878": {
    "name": "\u0413\u043e\u0441\u0443\u0434\u0430\u0440\u0441\u0442\u0432\u0435\u043d\u043d\u0430\u044f \u0438\u043d\u0441\u043f\u0435\u043a\u0446\u0438\u044f \u0442\u0440\u0443\u0434\u0430 \u042f\u0440\u043e\u0441\u043b\u0430\u0432\u0441\u043a\u0430\u044f \u043e\u0431\u043b\u0430\u0441\u0442\u044c",
    "rating": 0.0
  },
  "4956": {
    "name": "\u0423\u043f\u0440\u0430\u0432\u043b\u0435\u043d\u0438\u0435 \u0424\u0435\u0434\u0435\u0440\u0430\u043b\u044c\u043d\u043e\u0439 \u0441\u043b\u0443\u0436\u0431\u044b \u0441\u0443\u0434\u0435\u0431\u043d\u044b\u0445 \u043f\u0440\u0438\u0441\u0442\u0430\u0432\u043e\u0432 \u042f\u0440\u043e\u0441\u043b\u0430\u0432\u0441\u043a\u0430\u044f \u043e\u0431\u043b\u0430\u0441\u0442\u044c",
    "rating": 0.9473103606764942
  },
  "5464": {
    "name": "\u0423\u043f\u0440\u0430\u0432\u043b\u0435\u043d\u0438\u0435 \u0420\u043e\u0441\u0441\u0435\u043b\u044c\u0445\u043e\u0437\u043d\u0430\u0434\u0437\u043e\u0440\u0430 \u042f\u0440\u043e\u0441\u043b\u0430\u0432\u0441\u043a\u0430\u044f \u043e\u0431\u043b\u0430\u0441\u0442\u044c",
    "rating": 5.729239445217203
  },
  "5723": {
    "name": "\u0423\u043f\u0440\u0430\u0432\u043b\u0435\u043d\u0438\u0435 \u0424\u0435\u0434\u0435\u0440\u0430\u043b\u044c\u043d\u043e\u0439 \u0441\u043b\u0443\u0436\u0431\u044b \u043f\u043e \u043d\u0430\u0434\u0437\u043e\u0440\u0443 \u0432 \u0441\u0444\u0435\u0440\u0435 \u043f\u0440\u0438\u0440\u043e\u0434\u043e\u043f\u043e\u043b\u044c\u0437\u043e\u0432\u0430\u043d\u0438\u044f \u042f\u0440\u043e\u0441\u043b\u0430\u0432\u0441\u043a\u0430\u044f \u043e\u0431\u043b\u0430\u0441\u0442\u044c",
    "rating": 6.734754935350338
  },
  "5816": {
    "name": "\u0423\u043f\u0440\u0430\u0432\u043b\u0435\u043d\u0438\u0435 \u0424\u0435\u0434\u0435\u0440\u0430\u043b\u044c\u043d\u043e\u0439 \u043d\u0430\u043b\u043e\u0433\u043e\u0432\u043e\u0439 \u0441\u043b\u0443\u0436\u0431\u044b \u042f\u0440\u043e\u0441\u043b\u0430\u0432\u0441\u043a\u0430\u044f \u043e\u0431\u043b\u0430\u0441\u0442\u044c",
    "rating": 2.3463809350548437
  },
  "6235": {
    "name": "\u0424\u0413\u0411\u041e\u0423 \u0412\u041f\u041e  \"\u0420\u044b\u0431\u0438\u043d\u0441\u043a\u0438\u0439 \u0433\u043e\u0441\u0443\u0434\u0430\u0440\u0441\u0442\u0432\u0435\u043d\u043d\u044b\u0439 \u0430\u0432\u0438\u0430\u0446\u0438\u043e\u043d\u043d\u044b\u0439 \u0442\u0435\u0445\u043d\u0438\u0447\u0435\u0441\u043a\u0438\u0439 \u0443\u043d\u0438\u0432\u0435\u0440\u0441\u0438\u0442\u0435\u0442 \u0438\u043c\u0435\u043d\u0438 \u041f.\u0410. \u0421\u043e\u043b\u043e\u0432\u044c\u0435\u0432\u0430\"",
    "rating": 1.3762229376351085
  },
  "6236": {
    "name": "\u0424\u0413\u0411\u041e\u0423 \u0412\u041f\u041e \"\u042f\u0440\u043e\u0441\u043b\u0430\u0432\u0441\u043a\u0438\u0439 \u0433\u043e\u0441\u0443\u0434\u0430\u0440\u0441\u0442\u0432\u0435\u043d\u043d\u044b\u0439 \u0443\u043d\u0438\u0432\u0435\u0440\u0441\u0438\u0442\u0435\u0442 \u0438\u043c. \u041f.\u0413. \u0414\u0435\u043c\u0438\u0434\u043e\u0432\u0430\"",
    "rating": 9.173755305353165
  },
  "6237": {
    "name": "\u0424\u0413\u0411\u041e\u0423 \u0412\u041e \u00ab\u042f\u0440\u043e\u0441\u043b\u0430\u0432\u0441\u043a\u0438\u0439 \u0433\u043e\u0441\u0443\u0434\u0430\u0440\u0441\u0442\u0432\u0435\u043d\u043d\u044b\u0439 \u0442\u0435\u0445\u043d\u0438\u0447\u0435\u0441\u043a\u0438\u0439 \u0443\u043d\u0438\u0432\u0435\u0440\u0441\u0438\u0442\u0435\u0442\u00bb",
    "rating": 2.1548399010339847
  },
  "6238": {
    "name": "\u0424\u0413\u0411\u041e\u0423 \u0414\u041f\u041e \u00ab\u0413\u043e\u0441\u0443\u0434\u0430\u0440\u0441\u0442\u0432\u0435\u043d\u043d\u0430\u044f \u0430\u043a\u0430\u0434\u0435\u043c\u0438\u044f \u043f\u0440\u043e\u043c\u044b\u0448\u043b\u0435\u043d\u043d\u043e\u0433\u043e \u043c\u0435\u043d\u0435\u0434\u0436\u043c\u0435\u043d\u0442\u0430 \u0438\u043c\u0435\u043d\u0438 \u041d.\u041f. \u041f\u0430\u0441\u0442\u0443\u0445\u043e\u0432\u0430\u00bb",
    "rating": 5.040435262402852
  },
  "6239": {
    "name": "\u0424\u0413\u0411\u041e\u0423 \u0412\u041e \u00ab\u042f\u0440\u043e\u0441\u043b\u0430\u0432\u0441\u043a\u0438\u0439 \u0433\u043e\u0441\u0443\u0434\u0430\u0440\u0441\u0442\u0432\u0435\u043d\u043d\u044b\u0439 \u043f\u0435\u0434\u0430\u0433\u043e\u0433\u0438\u0447\u0435\u0441\u043a\u0438\u0439 \u0443\u043d\u0438\u0432\u0435\u0440\u0441\u0438\u0442\u0435\u0442 \u0438\u043c. \u041a.\u0414. \u0423\u0448\u0438\u043d\u0441\u043a\u043e\u0433\u043e\u00bb",
    "rating": 2.310162390254824
  },
  "6524": {
    "name": "\u0424\u0413\u0411\u041e\u0423 \u0412\u041e \"\u042f\u0440\u043e\u0441\u043b\u0430\u0432\u0441\u043a\u0430\u044f \u0433\u043e\u0441\u0443\u0434\u0430\u0440\u0441\u0442\u0432\u0435\u043d\u043d\u0430\u044f \u0441\u0435\u043b\u044c\u0441\u043a\u043e\u0445\u043e\u0437\u044f\u0439\u0441\u0442\u0432\u0435\u043d\u043d\u0430\u044f \u0430\u043a\u0430\u0434\u0435\u043c\u0438\u044f\"",
    "rating": 4.873844120318454
  }
}