{
  "262": {
    "name": "\u0413\u0443\u0431\u0435\u0440\u043d\u0430\u0442\u043e\u0440 \u0425\u0430\u043d\u0442\u044b-\u041c\u0430\u043d\u0441\u0438\u0439\u0441\u043a\u043e\u0433\u043e \u0430\u0432\u0442\u043e\u043d\u043e\u043c\u043d\u043e\u0433\u043e \u043e\u043a\u0440\u0443\u0433\u0430 - \u042e\u0433\u0440\u044b",
    "rating": 2.000702114523081
  },
  "263": {
    "name": "\u041f\u0440\u0430\u0432\u0438\u0442\u0435\u043b\u044c\u0441\u0442\u0432\u043e \u0425\u0430\u043d\u0442\u044b-\u043c\u0430\u043d\u0441\u0438\u0439\u0441\u043a\u043e\u0433\u043e \u0430\u0432\u0442\u043e\u043d\u043e\u043c\u043d\u043e\u0433\u043e \u043e\u043a\u0440\u0443\u0433\u0430 - \u042e\u0433\u0440\u044b",
    "rating": 1.5492863753199269
  },
  "280": {
    "name": "\u041f\u0440\u043e\u043a\u0443\u0440\u0430\u0442\u0443\u0440\u0430 \u0425\u0430\u043d\u0442\u044b-\u041c\u0430\u043d\u0441\u0438\u0439\u0441\u043a\u043e\u0433\u043e \u0430\u0432\u0442\u043e\u043d\u043e\u043c\u043d\u043e\u0433\u043e \u043e\u043a\u0440\u0443\u0433\u0430 - \u042e\u0433\u0440\u044b",
    "rating": 3.063848039186851
  },
  "441": {
    "name": "\u0418\u0437\u0431\u0438\u0440\u0430\u0442\u0435\u043b\u044c\u043d\u0430\u044f \u043a\u043e\u043c\u0438\u0441\u0441\u0438\u044f \u0425\u0430\u043d\u0442\u044b-\u041c\u0430\u043d\u0441\u0438\u0439\u0441\u043a\u043e\u0433\u043e \u0430\u0432\u0442\u043e\u043d\u043e\u043c\u043d\u043e\u0433\u043e \u043e\u043a\u0440\u0443\u0433\u0430 - \u042e\u0433\u0440\u044b",
    "rating": 2.791290571462983
  },
  "709": {
    "name": "\u0410\u0440\u0431\u0438\u0442\u0440\u0430\u0436\u043d\u044b\u0439 \u0441\u0443\u0434 \u0425\u0430\u043d\u0442\u044b-\u041c\u0430\u043d\u0441\u0438\u0439\u0441\u043a\u043e\u0433\u043e \u0430\u0432\u0442\u043e\u043d\u043e\u043c\u043d\u043e\u0433\u043e \u043e\u043a\u0440\u0443\u0433\u0430 - \u042e\u0433\u0440\u044b",
    "rating": 1.595177022582156
  },
  "791": {
    "name": "\u0421\u0443\u0434 \u0425\u0430\u043d\u0442\u044b-\u041c\u0430\u043d\u0441\u0438\u0439\u0441\u043a\u043e\u0433\u043e \u0430\u0432\u0442\u043e\u043d\u043e\u043c\u043d\u043e\u0433\u043e \u043e\u043a\u0440\u0443\u0433\u0430 - \u042e\u0433\u0440\u044b",
    "rating": 1.0946318786127094
  },
  "951": {
    "name": "\u0414\u0443\u043c\u0430 \u0425\u0430\u043d\u0442\u044b-\u041c\u0430\u043d\u0441\u0438\u0439\u0441\u043a\u043e\u0433\u043e \u0430\u0432\u0442\u043e\u043d\u043e\u043c\u043d\u043e\u0433\u043e \u043e\u043a\u0440\u0443\u0433\u0430\u00a0- \u042e\u0433\u0440\u044b",
    "rating": 10.0
  },
  "3473": {
    "name": "\u0425\u0430\u043d\u0442\u044b-\u041c\u0430\u043d\u0441\u0438\u0439\u0441\u043a - \u0433\u043e\u0440\u043e\u0434\u0441\u043a\u043e\u0439 \u043e\u043a\u0440\u0443\u0433",
    "rating": 3.2427049802641847
  },
  "3476": {
    "name": "\u041d\u0435\u0444\u0442\u0435\u044e\u0433\u0430\u043d\u0441\u043a - \u0433\u043e\u0440\u043e\u0434\u0441\u043a\u043e\u0439 \u043e\u043a\u0440\u0443\u0433",
    "rating": 4.442435063249986
  },
  "3973": {
    "name": "\u0423\u0424\u0421\u0418\u041d \u0425\u0430\u043d\u0442\u044b-\u041c\u0430\u043d\u0441\u0438\u0439\u0441\u043a\u0438\u0439 \u0430\u0432\u0442\u043e\u043d\u043e\u043c\u043d\u044b\u0439 \u043e\u043a\u0440\u0443\u0433 \u2014 \u042e\u0433\u0440\u0430",
    "rating": 3.8225385633414164
  },
  "4412": {
    "name": "\u0423\u043f\u0440\u0430\u0432\u043b\u0435\u043d\u0438\u0435 \u041c\u0412\u0414 \u0420\u043e\u0441\u0441\u0438\u0438 \u0425\u0430\u043d\u0442\u044b-\u041c\u0430\u043d\u0441\u0438\u0439\u0441\u043a\u0438\u0439 \u0430\u0432\u0442\u043e\u043d\u043e\u043c\u043d\u044b\u0439 \u043e\u043a\u0440\u0443\u0433 \u2014 \u042e\u0433\u0440\u0430",
    "rating": 4.687384827450592
  },
  "5810": {
    "name": "\u0423\u043f\u0440\u0430\u0432\u043b\u0435\u043d\u0438\u0435 \u0424\u0435\u0434\u0435\u0440\u0430\u043b\u044c\u043d\u043e\u0439 \u043d\u0430\u043b\u043e\u0433\u043e\u0432\u043e\u0439 \u0441\u043b\u0443\u0436\u0431\u044b \u0425\u0430\u043d\u0442\u044b-\u041c\u0430\u043d\u0441\u0438\u0439\u0441\u043a\u0438\u0439 \u0430\u0432\u0442\u043e\u043d\u043e\u043c\u043d\u044b\u0439 \u043e\u043a\u0440\u0443\u0433 \u2014 \u042e\u0433\u0440\u0430",
    "rating": 0.6745657797447284
  },
  "6349": {
    "name": "\u0424\u0413\u0411\u041e\u0423 \u0412\u041f\u041e \u00ab\u041d\u0438\u0436\u043d\u0435\u0432\u0430\u0440\u0442\u043e\u0432\u0441\u043a\u0438\u0439 \u0433\u043e\u0441\u0443\u0434\u0430\u0440\u0441\u0442\u0432\u0435\u043d\u043d\u044b\u0439 \u0443\u043d\u0438\u0432\u0435\u0440\u0441\u0438\u0442\u0435\u0442\u00bb",
    "rating": 0.0
  },
  "6363": {
    "name": "\u0424\u0413\u0411\u041e\u0423 \u0412\u041e \u00ab\u042e\u0433\u043e\u0440\u0441\u043a\u0438\u0439 \u0433\u043e\u0441\u0443\u0434\u0430\u0440\u0441\u0442\u0432\u0435\u043d\u043d\u044b\u0439 \u0443\u043d\u0438\u0432\u0435\u0440\u0441\u0438\u0442\u0435\u0442\u00bb",
    "rating": 3.324898855193019
  }
}